﻿chromosome;start;end;log2;baf;ci_hi;ci_lo;cn;cn1;cn2;depth;probes;weight
chr1;69090;125245398;-0.0876588;0.338998;-0.0824409;-0.0900706;2;1;1;252.734;11854;9339.59
chr1;143278222;248918363;-0.157245;0.304348;-0.15146;-0.162812;2;1;1;245.893;10472;8318.59
chr2;41607;91443850;-0.00582545;0.391304;-0.0005448;-0.0104965;2;1;1;248.413;6165;4914.49
chr2;94871579;241894339;-0.129599;0.408493;-0.125466;-0.134063;2;1;1;222.647;11374;9180.59
chr3;150500;90389052;-0.0264045;0.347826;-0.02023;-0.0297367;2;1;1;283.857;6972;5365.74
chr3;93419218;198169852;-0.210982;0.173913;-0.204006;-0.217271;2;2;0;19.879;7016;5582.09
chr4;60057;49794026;-0.203781;0.41523;-0.19218;-0.207595;2;1;1;210.256;2844;2286.96
chr4;51848204;190027204;-0.182607;0.357143;-0.175734;-0.193391;2;1;1;18.535;6793;5431.45
chr5;140307;46151642;0.0225918;0.375;0.0303876;0.0142715;2;1;1;235.922;2175;1704.64
chr5;49640356;181368225;0.0224743;0.365385;0.0277069;0.0168268;2;1;1;261.916;8672;6780.44
chr6;150500;58552931;0.0324635;0.361111;0.0407253;0.0265017;2;1;1;289.497;4585;3417.45
chr6;60214424;170583747;-0.106435;0.315789;-0.098113;-0.113557;2;1;1;19.902;6016;4815.46
chr7;195553;57921302;-0.186322;0.327869;-0.178968;-0.198047;2;1;1;216.426;3457;2733.81
chr7;60926988;159144459;-0.180977;0.333333;-0.171306;-0.188726;2;1;1;228.343;7126;5653.02
chr8;150500;43805187;-0.355523;0.404762;-0.338761;-0.36442;1;1;0;18.088;2543;1911.88
chr8;46491942;125916536;-0.207228;0.30303;-0.194166;-0.223337;2;1;1;171.828;3512;2696.73
chr8;126076391;139618537;0.112468;0.217949;0.123803;0.0990665;2;2;0;264.412;499;384.158
chr8;139618537;145054157;0.440769;0.205128;0.449437;0.432164;3;2;1;50.52;923;680.294
chr9;14806;43392111;-0.293079;0.405405;-0.276072;-0.309267;1;1;0;211.977;1878;1411.74
chr9;60518863;138121999;0.0720213;0.338037;0.0778455;0.0651476;2;1;1;299.219;6834;5485.94
chr10;47056;39312478;-0.224201;0.404762;-0.21071;-0.230152;2;1;1;198.591;2302;1804.59
chr10;41846740;133626742;0.0880133;0.353554;0.0924947;0.0835875;2;1;1;284.662;7149;5505.82
chr11;193711;50728092;-0.117826;0.4;-0.109852;-0.124929;2;1;1;257.667;4374;3467.23
chr11;54453549;134387847;0.0382524;0.32;0.0433177;0.0346336;2;1;1;314.246;8270;6161.47
chr12;99145;34323206;-0.216155;0.24;-0.202311;-0.224631;2;2;0;217.791;3156;2520.42
chr12;37281122;88111351;-0.0936466;0.333333;-0.0862483;-0.0992847;2;1;1;242.291;4902;3923.6
chr12;88114418;107756965;0.217837;0.628571;0.228049;0.211046;3;2;1;261.322;1422;1081.33
chr12;107760504;124911970;0.318255;0.4;0.324348;0.312455;3;2;1;369.767;2378;1815.98
chr12;124911970;133234356;-0.0227153;0.166667;-0.010883;-0.0399808;2;2;0;280.395;602;480.745
chr13;18574216;62897020;-0.173641;0.222222;-0.163859;-0.182376;2;2;0;186.625;2593;2083.16
chr13;63193292;114326281;-0.0977489;0.395212;-0.089699;-0.105509;2;1;1;191.864;1883;1515.04
chr14;16050599;24365718;0.0492679;0.314815;0.0579009;0.0407665;2;1;1;345.132;1158;897.688
chr14;24366938;45110817;-0.0631518;0.347826;-0.0513065;-0.0740863;2;1;1;208.884;854;649.992
chr14;45114182;56805456;0.139725;0.285714;0.146992;0.12323;2;1;1;262.081;760;518.328
chr14;57208608;92837449;0.0423483;0.246212;0.0478728;0.0349987;2;2;0;265.354;2823;2218.68
chr14;92839365;94290643;-0.34403;;-0.313047;-0.376071;1;;;183.428;169;120.697
chr14;94304417;105529554;0.0820069;0.26748;0.089503;0.0700733;2;1;1;317.497;1132;866.333
chr15;19784373;84241109;-0.191804;0.342857;-0.18483;-0.196405;2;1;1;220.874;6369;5065.56
chr15;84603927;101923059;-0.189844;0.228916;-0.167458;-0.201334;2;2;0;240.526;1215;977.127
chr16;47429;3090646;0.0596462;0.380952;0.0685289;0.0474892;2;1;1;384.555;1134;908.402
chr16;3091539;24977319;-0.154362;0.208333;-0.148546;-0.164717;2;2;0;242.243;2086;1615.76
chr16;24978965;36216899;-0.00551443;0.256494;0.00183204;-0.0165744;2;1;1;329.793;1261;1006.11
chr16;46280812;53657632;-0.14747;0.542051;-0.135114;-0.165401;2;1;1;210.894;532;423.608
chr16;53658413;87330787;0.129841;0.195652;0.13571;0.124222;2;2;0;331.629;3204;2487.64
chr16;87331287;90075910;0.293181;0.690476;0.308124;0.28107;3;2;1;453.129;550;412.333
chr17;156219;1399545;0.0263716;;0.0547342;-0.0129083;2;;;271.121;113;84.788
chr17;1400610;1553149;0.500394;;0.527564;0.457879;3;;;460.962;54;42.625
chr17;1558528;1783476;-0.202261;;-0.169643;-0.23226;2;;;281.317;106;802.022
chr17;1783487;8267665;0.197967;0.409586;0.205931;0.189507;2;1;1;393.583;1864;1456.16
chr17;8268532;22760780;0.0620063;0.349206;0.0712135;0.0530708;2;1;1;315.023;1533;1144.24
chr17;26689479;83094575;0.0880831;0.238095;0.0930154;0.0840911;2;2;0;338.757;8075;6183.54
chr18;163307;15447897;-0.284807;0.428571;-0.274205;-0.298849;1;1;0;177.751;980;785.669
chr18;20953577;80247348;-0.333174;0.4;-0.3243;-0.344631;1;1;0;171.339;2806;2222.66
chr19;281387;6262310;0.0905934;0.425;0.101276;0.0834747;2;1;1;36.052;1527;1229.24
chr19;6270578;10772628;0.391697;0.354839;0.398803;0.384586;3;2;1;438.821;1439;1156.91
chr19;10775702;18850868;0.207793;0.35;0.214752;0.200232;3;2;1;409.403;2163;1637.55
chr19;18852134;19732455;-0.182489;0.44;-0.166588;-0.203868;2;1;1;332.123;282;219.854
chr19;19732955;24127981;0.139349;0.4;0.164574;0.11321;2;1;1;274.153;241;138.505
chr19;27563981;54011450;0.16763;0.314286;0.171567;0.162481;2;1;1;393.543;5350;4038.82
chr19;54012689;55085973;-0.311624;;-0.249809;-0.343275;1;;;205.091;89;555.717
chr19;55086060;58572632;0.216225;0.333333;0.229755;0.205185;3;2;1;402.068;904;662.231
chr20;87709;25686466;-0.158534;0.333333;-0.148119;-0.169028;2;1;1;238.695;1788;1389.6
chr20;29250456;64273600;0.169921;0.227273;0.175273;0.165147;2;2;0;361.127;3513;2423.02
chr21;5432754;22887373;-0.210781;0.3;-0.165551;-0.255137;2;1;1;125.536;242;193.805
chr21;23187132;46664374;-0.0896504;0.414634;-0.0821793;-0.0970821;2;1;1;247.458;1967;1566.18
chr22;10451702;21031812;-0.0636664;0.284444;-0.0490276;-0.0769581;2;1;1;295.853;676;528.026
chr22;21385771;50782310;-0.101365;0.297348;-0.0959254;-0.10817;2;1;1;276.208;3711;2931.04
chrX;340732;58061993;-0.931886;0.105263;-0.918092;-0.948855;0;0;0;144.015;3398;2544.36
chrX;62896348;155774739;-0.982626;0.129032;-0.974647;-0.994514;0;0;0;138.166;4788;3616.52
chrY;5098491;56959845;-0.192529;;-0.0117972;-0.295546;1;;;396.307;11;725.799
