﻿chromosome;start;end;log2;baf;ci_hi;ci_lo;cn;cn1;cn2;depth;probes;weight
chr1;69090;125245398;-0.0725398;0.352941;-0.0687784;-0.0746712;2;1;1;279.683;11854;9397.96
chr1;143278222;248918363;-0.194604;0.347826;-0.191142;-0.198423;2;1;1;267.818;10472;8368.99
chr2;41607;91443850;-0.0416397;0.391304;-0.0371284;-0.0459089;2;1;1;277.976;6165;4944.44
chr2;94871579;241894339;-0.103765;0.404255;-0.099156;-0.106802;2;1;1;261.172;11374;9236.18
chr3;150500;90389052;-0.0521336;0.354839;-0.0468899;-0.0557042;2;1;1;305.491;6972;5399.7
chr3;93419218;198169852;-0.203785;0.161726;-0.198259;-0.208477;2;2;0;234.665;7016;5615.63
chr4;60057;49794026;-0.165253;0.405828;-0.159148;-0.172002;2;1;1;238.355;2844;2300.31
chr4;51848204;190027204;-0.123311;0.373107;-0.116543;-0.128898;2;1;1;232.983;6793;5462.6
chr5;140307;46151642;0.0114809;0.357143;0.0204754;0.00203459;2;1;1;276.138;2175;1714.37
chr5;49640356;181368225;0.0145763;0.37037;0.0184752;0.0107431;2;1;1;294.414;8672;6821.2
chr6;150500;58552931;0.0124264;0.363636;0.0181669;0.00674872;2;1;1;319.309;4585;3439.34
chr6;60214424;170583747;-0.0355729;0.268293;-0.0299848;-0.0432913;2;1;1;248.242;6016;4843.22
chr7;195553;57921302;-0.145431;0.296703;-0.138104;-0.153841;2;1;1;244.896;3457;2750.46
chr7;60926988;159144459;-0.135961;0.365385;-0.130421;-0.142055;2;1;1;261.183;7126;5687.5
chr8;150500;43805187;-0.394773;0.444444;-0.381673;-0.40923;1;1;0;197.611;2543;1924.15
chr8;46491942;145054157;-0.061316;0.217891;-0.0504521;-0.0725549;2;2;0;265.175;4934;3784.03
chr9;14806;43392111;-0.274078;0.382353;-0.260062;-0.290714;1;1;0;235.814;1878;1420.4
chr9;60518863;138121999;0.0979168;0.32;0.103516;0.0924215;2;1;1;326.999;6834;5519.47
chr10;47056;39312478;-0.20385;0.413793;-0.194771;-0.210793;2;1;1;235.557;2302;1815.62
chr10;41846740;133626742;0.0788177;0.359487;0.0848561;0.0752512;2;1;1;319.437;7149;5540.54
chr11;193711;50728092;-0.126287;0.4;-0.12141;-0.132938;2;1;1;27.683;4374;3488.21
chr11;54453549;134387847;-0.00809407;0.32;-0.00204563;-0.0126813;2;1;1;331.635;8270;6201.94
chr12;99145;34323206;-0.221612;0.318182;-0.211219;-0.228108;2;1;1;247.642;3156;2535.9
chr12;37281122;75495662;-0.131802;0.3;-0.124281;-0.136079;2;1;1;267.278;4376;3551.73
chr12;75498693;123819250;0.262887;0.387097;0.267518;0.257849;3;2;1;365.301;4199;3216.64
chr12;123820579;133234356;-0.063125;0.398677;-0.0546728;-0.075933;2;1;1;284.943;729;579.875
chr13;18574216;62897020;-0.111421;0.353571;-0.102387;-0.123116;2;1;1;237.921;2593;2095.2
chr13;63193292;114326281;-0.00997533;0.465517;-0.000890042;-0.0160639;2;1;1;237.371;1883;1523.48
chr14;16050599;47144274;0.0495699;0.333333;0.0562828;0.0427236;2;1;1;328.641;2092;1618.61
chr14;47218695;56805456;0.221581;0.277108;0.236139;0.209841;3;2;1;343.958;680;460.955
chr14;57208608;105529554;0.0207286;0.231144;0.0256683;0.0140337;2;2;0;304.907;4124;3225.6
chr15;19784373;84241109;-0.187351;0.325581;-0.180953;-0.190992;2;1;1;248.621;6369;5097.19
chr15;84603927;101923059;-0.15849;0.180312;-0.14697;-0.175305;2;2;0;262.699;1215;982.777
chr16;47429;3090646;-0.0454832;0.357143;-0.0394343;-0.0548461;2;1;1;34.571;1134;914.298
chr16;3091539;27464836;-0.163249;0.178593;-0.15761;-0.170548;2;2;0;262.917;2189;1711.62
chr16;27465259;36216899;-0.0763038;0.220135;-0.0709694;-0.08498;2;2;0;320.561;1158;926.759
chr16;46280812;90075910;0.0546858;0.241951;0.058909;0.0491015;2;2;0;339.734;4286;3344.57
chr17;156219;1548387;0.109617;;0.13239;0.0962979;2;;;337.707;166;127.27
chr17;1553003;1783476;-0.295964;;-0.267151;-0.328607;1;;;263.856;107;816.784
chr17;1783487;9981303;0.133141;0.384165;0.139744;0.129687;2;1;1;388.489;2120;1666.23
chr17;9981803;22760780;0.00814876;0.35;0.0161321;-0.00198003;2;1;1;331.132;1277;951.16
chr17;26689479;83094575;0.0653908;0.24;0.0702627;0.0622379;2;2;0;35.542;8075;6223.94
chr18;163307;15447897;-0.341473;0.376689;-0.33169;-0.352769;1;1;0;203.894;980;790.356
chr18;20953577;80247348;-0.389063;0.380952;-0.381221;-0.396956;1;1;0;191.647;2806;2235.16
chr19;281387;6262310;-0.0261121;0.40625;-0.0144445;-0.0367948;2;1;1;326.661;1527;1237.3
chr19;6270578;10771978;0.349538;0.333333;0.356706;0.342253;3;2;1;440.512;1438;1163.46
chr19;10772478;11553810;-0.00742468;0.595455;0.0161529;-0.0257406;2;1;1;33.477;292;234.034
chr19;11554010;18663760;0.166733;0.666667;0.17261;0.159823;2;1;1;413.252;1832;1383.5
chr19;18664260;18852296;0.0584436;0.791667;0.107668;0.00244659;2;2;0;373.611;41;334.696
chr19;18852986;19714151;-0.272449;0.403704;-0.245539;-0.288819;1;1;0;315.751;279;218.485
chr19;19714360;24127981;0.0353288;0.409091;0.0626025;0.0143722;2;1;1;333.299;243;141.503
chr19;27563981;54102888;0.0887373;0.325;0.0931012;0.0849095;2;1;1;386.458;5353;4068.68
chr19;54103113;55048763;-0.390026;;-0.337873;-0.443557;1;;;198.271;85;528.852
chr19;55085840;58572632;0.143222;0.340426;0.154174;0.138444;2;1;1;407.184;905;667.51
chr20;87709;25686466;-0.169554;0.318182;-0.163524;-0.179898;2;1;1;259.315;1788;1398.3
chr20;29250456;64273600;0.137343;0.222222;0.142717;0.132657;2;2;0;373.951;3513;2440.5
chr21;5432754;22887373;-0.208165;0.3;-0.188658;-0.235852;2;1;1;15.222;242;194.686
chr21;23187132;46664374;-0.167;0.428571;-0.155791;-0.175309;2;1;1;254.997;1967;1575.61
chr22;10451702;21031812;-0.0988606;0.227273;-0.0818931;-0.109237;2;2;0;294.327;676;531.418
chr22;21385771;22489126;-0.129176;;-0.088374;-0.163885;2;;;27.84;107;81.763
chr22;22489898;22888260;-107.933;0.167832;-0.971968;-118.152;1;1;0;122.808;15;972.138
chr22;22893696;50782310;-0.123792;0.284526;-0.118807;-0.128272;2;1;1;281.142;3589;2858.04
chrX;340732;58061993;-0.880568;0.161458;-0.876485;-0.89602;0;0;0;16.543;3398;2560.32
chrX;62896348;155774739;-0.949686;0.12;-0.937383;-0.960798;0;0;0;157.667;4788;3638.53
chrY;5098491;56959845;-0.253459;;-0.142052;-0.33373;0;0;0;326.649;11;727.457
