﻿chromosome;start;end;log2;baf;ci_hi;ci_lo;cn;cn1;cn2;depth;probes;weight
chr1;69090;125245398;-0.0807054;0.346154;-0.0764104;-0.0831997;2;1;1;272.807;11854;9386.28
chr1;143278222;248918363;-0.166256;0.309524;-0.163073;-0.170731;2;1;1;265.287;10472;8358.92
chr2;41607;91443850;0.00836442;0.391304;0.0130345;0.00331568;2;1;1;277.979;6165;4938.63
chr2;94871579;241894339;-0.106599;0.411765;-0.101161;-0.110215;2;1;1;252.413;11374;9225.07
chr3;150500;90389052;-0.0386314;0.346154;-0.0331452;-0.0426419;2;1;1;301.173;6972;5393.03
chr3;93419218;198169852;-0.192853;0.150758;-0.188167;-0.20052;2;2;0;224.997;7016;5609.23
chr4;60057;49794026;-0.211211;0.395349;-0.203197;-0.215683;2;1;1;224.824;2844;2297.8
chr4;51848204;190027204;-0.129738;0.363636;-0.121939;-0.135855;2;1;1;220.763;6793;5456.97
chr5;140307;46151642;0.0078416;0.380952;0.0189145;0.000218576;2;1;1;263.359;2175;1712.63
chr5;49640356;181368225;-0.0103587;0.375;-0.00596422;-0.0127692;2;1;1;280.493;8672;6813.43
chr6;150500;15501157;-0.274065;0.177778;-0.26288;-0.285319;1;1;0;214.935;797;639.58
chr6;15501157;29306189;0.0320776;0.405405;0.0477154;0.0183193;2;1;1;301.225;861;668.772
chr6;29306930;33577606;-0.511565;;-0.47998;-0.544402;1;;;200.226;294;162.287
chr6;33621602;34871925;0.0728556;0.355556;0.100436;0.047864;2;1;1;342.479;180;144.815
chr6;34872312;43246160;0.294296;0.395833;0.302923;0.287124;3;2;1;428.185;1124;773.29
chr6;43246660;45491440;0.080772;0.42893;0.091421;0.0623646;2;1;1;362.446;371;291.555
chr6;45512245;58552931;-0.0571243;0.354167;-0.0409412;-0.0685857;2;1;1;265.547;958;754.702
chr6;60214424;170583747;-0.103747;0.299222;-0.0968743;-0.108535;2;1;1;226.484;6016;4838.14
chr7;195553;57921302;-0.192268;0.292857;-0.183289;-0.200494;2;1;1;232.272;3457;2747.43
chr7;60926988;159144459;-0.184264;0.344262;-0.177071;-0.188873;2;1;1;245.489;7126;5680.76
chr8;150500;43805187;-0.368281;0.40625;-0.353867;-0.382152;1;1;0;195.977;2543;1921.8
chr8;46491942;80079814;-0.423886;0.1;-0.399261;-0.436502;1;1;0;159.442;1283;944.729
chr8;80080314;145054157;0.078911;0.217391;0.0853158;0.0719804;2;2;0;293.619;3651;2835.19
chr9;14806;43392111;-0.264055;0.39603;-0.245499;-0.276079;1;1;0;230.153;1878;1418.73
chr9;60518863;138121999;0.0464553;0.363636;0.0510776;0.0418992;2;1;1;30.931;6834;5512.81
chr10;47056;39312478;-0.236639;0.413793;-0.226492;-0.24506;2;1;1;222.525;2302;1813.64
chr10;41846740;133626742;0.0536215;0.359375;0.0581881;0.0500364;2;1;1;305.644;7149;5533.82
chr11;193711;50728092;-0.140501;0.4;-0.135608;-0.146952;2;1;1;269.527;4374;3483.98
chr11;54453549;134387847;0.020149;0.326531;0.023841;0.0158677;2;1;1;329.491;8270;6193.73
chr12;99145;34323206;-0.195614;0.24;-0.188452;-0.203718;2;2;0;242.794;3156;2532.85
chr12;37281122;75490518;-0.120518;0.25;-0.116103;-0.125812;2;2;0;260.839;4375;3546.72
chr12;75495576;124911213;0.240884;0.387097;0.246312;0.233111;3;2;1;347.466;4326;3308.08
chr12;124911713;133234356;-0.0729784;0.166667;-0.0619127;-0.0909559;2;2;0;28.278;603;483.92
chr13;18574216;62897020;-0.157075;0.233806;-0.145936;-0.167663;2;2;0;219.078;2593;2092.99
chr13;63193292;114326281;-0.080758;0.272727;-0.0684088;-0.0900786;2;1;1;22.036;1883;1521.97
chr14;16050599;50485642;0.00313579;0.327524;0.00799777;-0.00434998;2;1;1;307.673;2294;1754.77
chr14;50486694;56805456;0.167068;0.25;0.180906;0.150316;2;2;0;319.014;478;321.994
chr14;57208608;105529554;-0.0278847;0.761905;-0.0213524;-0.0335761;2;2;0;28.788;4124;3221.73
chr15;19784373;84241109;-0.200623;0.347826;-0.194587;-0.206118;2;1;1;240.585;6369;5090.78
chr15;84603927;101923059;-0.234841;0.208624;-0.216784;-0.248382;2;2;0;251.698;1215;981.668
chr16;47429;36216899;-0.129764;0.3;-0.124316;-0.134419;2;1;1;295.338;4481;3547.84
chr16;46280812;52073287;-0.205737;0.518875;-0.183844;-0.223355;2;1;1;225.183;417;333.392
chr16;52073787;90075910;0.0857266;0.208333;0.0901908;0.0811059;2;2;0;34.415;3869;3006.87
chr17;156219;1754535;-0.0361334;;-0.0215837;-0.0574141;2;;;30.887;263;199.847
chr17;1755035;8289072;0.135315;0.341009;0.141132;0.128644;2;1;1;391.335;1879;1475.55
chr17;8289257;22760780;0.0204512;0.371429;0.0306782;0.00983235;2;1;1;328.207;1528;1147.07
chr17;26689479;83094575;0.0654348;0.245;0.0698398;0.0617186;2;2;0;350.255;8075;6215.43
chr18;163307;15447897;-0.312824;0.4;-0.303734;-0.324042;1;1;0;201.352;980;789.444
chr18;20953577;80247348;-0.348387;0.391304;-0.337511;-0.353638;1;1;0;188.979;2806;2233.01
chr19;281387;6262310;0.0139774;0.413793;0.0236319;0.0048899;2;1;1;337.755;1527;1235.57
chr19;6270578;10771978;0.350107;0.364251;0.355638;0.342495;3;2;1;438.622;1438;1161.8
chr19;10772478;18847833;0.131423;0.652174;0.136752;0.125034;2;1;1;397.109;2162;1646.25
chr19;18850074;19680300;-0.270063;0.401923;-0.248563;-0.288943;1;1;0;319.157;273;212.848
chr19;19680800;24127981;0.112322;0.407895;0.133704;0.0883436;2;1;1;32.719;252;148.833
chr19;27563981;54011450;0.137924;0.333333;0.141671;0.133785;2;1;1;39.64;5350;4060.46
chr19;54012689;55048763;-0.339961;;-0.291198;-0.37;1;;;199.736;88;54.985
chr19;55085840;58572632;0.201591;0.319588;0.213131;0.193775;3;2;1;418.624;905;666.588
chr20;87709;25686466;-0.205023;0.34375;-0.195044;-0.215285;2;1;1;249.837;1788;1396.68
chr20;29250456;45367128;0.100074;0.222222;0.105715;0.0922387;2;2;0;359.336;1728;1229.3
chr20;45373906;64273600;0.187695;0.225403;0.192561;0.179412;2;2;0;383.759;1785;1207.75
chr21;5432754;22887373;-0.165914;0.287302;-0.144518;-0.19587;2;1;1;148.473;242;194.569
chr21;23187132;46664374;-0.128185;0.42366;-0.119943;-0.133254;2;1;1;256.942;1967;1573.74
chr22;10451702;21031812;-0.109646;0.254902;-0.0985053;-0.124187;2;1;1;291.243;676;530.723
chr22;21385771;50782310;-0.137295;0.269231;-0.132257;-0.145535;2;1;1;278.328;3711;2945.77
chrX;340732;58061993;-0.936472;0.180195;-0.922168;-0.946049;0;0;0;156.371;3398;2557.32
chrX;62896348;155774739;-0.985716;0.272856;-0.978396;-0.994629;0;0;0;150.119;4788;3634.31
chrY;5098491;56959845;-0.456357;;-0.243602;-0.58146;0;0;0;319.041;11;72.775
