mutation_id	sample_id	cluster_id	cellular_prevalence	cellular_prevalence_std	cluster_assignment_prob
b'CHR19:52881597:A'	b'M49CtrlR1'	0	0.6316	0.0605	0.9759
b'CHR19:52881597:A'	b'M49CtrlR2'	0	0.3850	0.0564	0.9759
b'CHR19:52881597:A'	b'M49CtrlR3'	0	0.5433	0.0605	0.9759
b'CHR19:52881597:A'	b'M49CtrlR4'	0	0.5997	0.0606	0.9759
b'CHR1:15939409:A'	b'M49CtrlR1'	0	0.6316	0.0605	0.8320
b'CHR1:15939409:A'	b'M49CtrlR2'	0	0.3850	0.0564	0.8320
b'CHR1:15939409:A'	b'M49CtrlR3'	0	0.5433	0.0605	0.8320
b'CHR1:15939409:A'	b'M49CtrlR4'	0	0.5997	0.0606	0.8320
b'CHR1:247423969:T'	b'M49CtrlR1'	0	0.6316	0.0605	0.9715
b'CHR1:247423969:T'	b'M49CtrlR2'	0	0.3850	0.0564	0.9715
b'CHR1:247423969:T'	b'M49CtrlR3'	0	0.5433	0.0605	0.9715
b'CHR1:247423969:T'	b'M49CtrlR4'	0	0.5997	0.0606	0.9715
b'CHR3:48447042:C'	b'M49CtrlR1'	0	0.6316	0.0605	0.7999
b'CHR3:48447042:C'	b'M49CtrlR2'	0	0.3850	0.0564	0.7999
b'CHR3:48447042:C'	b'M49CtrlR3'	0	0.5433	0.0605	0.7999
b'CHR3:48447042:C'	b'M49CtrlR4'	0	0.5997	0.0606	0.7999
b'CHR6:9775825:A'	b'M49CtrlR1'	0	0.6316	0.0605	0.3194
b'CHR6:9775825:A'	b'M49CtrlR2'	0	0.3850	0.0564	0.3194
b'CHR6:9775825:A'	b'M49CtrlR3'	0	0.5433	0.0605	0.3194
b'CHR6:9775825:A'	b'M49CtrlR4'	0	0.5997	0.0606	0.3194
b'CHR9:26928213:T'	b'M49CtrlR1'	0	0.6316	0.0605	0.9717
b'CHR9:26928213:T'	b'M49CtrlR2'	0	0.3850	0.0564	0.9717
b'CHR9:26928213:T'	b'M49CtrlR3'	0	0.5433	0.0605	0.9717
b'CHR9:26928213:T'	b'M49CtrlR4'	0	0.5997	0.0606	0.9717
b'CHR10:128101279:T'	b'M49CtrlR1'	1	0.7646	0.0443	0.9487
b'CHR10:128101279:T'	b'M49CtrlR2'	1	0.7292	0.0481	0.9487
b'CHR10:128101279:T'	b'M49CtrlR3'	1	0.8584	0.0454	0.9487
b'CHR10:128101279:T'	b'M49CtrlR4'	1	0.9601	0.0331	0.9487
b'CHR14:31178233:C'	b'M49CtrlR1'	1	0.7646	0.0443	0.6548
b'CHR14:31178233:C'	b'M49CtrlR2'	1	0.7292	0.0481	0.6548
b'CHR14:31178233:C'	b'M49CtrlR3'	1	0.8584	0.0454	0.6548
b'CHR14:31178233:C'	b'M49CtrlR4'	1	0.9601	0.0331	0.6548
b'CHR16:1241453:A'	b'M49CtrlR1'	1	0.7646	0.0443	0.3871
b'CHR16:1241453:A'	b'M49CtrlR2'	1	0.7292	0.0481	0.3871
b'CHR16:1241453:A'	b'M49CtrlR3'	1	0.8584	0.0454	0.3871
b'CHR16:1241453:A'	b'M49CtrlR4'	1	0.9601	0.0331	0.3871
b'CHR17:81937211:G'	b'M49CtrlR1'	1	0.7646	0.0443	0.4100
b'CHR17:81937211:G'	b'M49CtrlR2'	1	0.7292	0.0481	0.4100
b'CHR17:81937211:G'	b'M49CtrlR3'	1	0.8584	0.0454	0.4100
b'CHR17:81937211:G'	b'M49CtrlR4'	1	0.9601	0.0331	0.4100
b'CHR1:11779915:A'	b'M49CtrlR1'	1	0.7646	0.0443	0.6809
b'CHR1:11779915:A'	b'M49CtrlR2'	1	0.7292	0.0481	0.6809
b'CHR1:11779915:A'	b'M49CtrlR3'	1	0.8584	0.0454	0.6809
b'CHR1:11779915:A'	b'M49CtrlR4'	1	0.9601	0.0331	0.6809
b'CHR1:13421192:T'	b'M49CtrlR1'	1	0.7646	0.0443	0.8821
b'CHR1:13421192:T'	b'M49CtrlR2'	1	0.7292	0.0481	0.8821
b'CHR1:13421192:T'	b'M49CtrlR3'	1	0.8584	0.0454	0.8821
b'CHR1:13421192:T'	b'M49CtrlR4'	1	0.9601	0.0331	0.8821
b'CHR1:13773141:T'	b'M49CtrlR1'	1	0.7646	0.0443	0.4625
b'CHR1:13773141:T'	b'M49CtrlR2'	1	0.7292	0.0481	0.4625
b'CHR1:13773141:T'	b'M49CtrlR3'	1	0.8584	0.0454	0.4625
b'CHR1:13773141:T'	b'M49CtrlR4'	1	0.9601	0.0331	0.4625
b'CHR1:13782619:G'	b'M49CtrlR1'	1	0.7646	0.0443	0.9710
b'CHR1:13782619:G'	b'M49CtrlR2'	1	0.7292	0.0481	0.9710
b'CHR1:13782619:G'	b'M49CtrlR3'	1	0.8584	0.0454	0.9710
b'CHR1:13782619:G'	b'M49CtrlR4'	1	0.9601	0.0331	0.9710
b'CHR1:155054385:T'	b'M49CtrlR1'	1	0.7646	0.0443	0.7853
b'CHR1:155054385:T'	b'M49CtrlR2'	1	0.7292	0.0481	0.7853
b'CHR1:155054385:T'	b'M49CtrlR3'	1	0.8584	0.0454	0.7853
b'CHR1:155054385:T'	b'M49CtrlR4'	1	0.9601	0.0331	0.7853
b'CHR1:17070097:A'	b'M49CtrlR1'	1	0.7646	0.0443	0.7905
b'CHR1:17070097:A'	b'M49CtrlR2'	1	0.7292	0.0481	0.7905
b'CHR1:17070097:A'	b'M49CtrlR3'	1	0.8584	0.0454	0.7905
b'CHR1:17070097:A'	b'M49CtrlR4'	1	0.9601	0.0331	0.7905
b'CHR1:17079314:A'	b'M49CtrlR1'	1	0.7646	0.0443	0.9727
b'CHR1:17079314:A'	b'M49CtrlR2'	1	0.7292	0.0481	0.9727
b'CHR1:17079314:A'	b'M49CtrlR3'	1	0.8584	0.0454	0.9727
b'CHR1:17079314:A'	b'M49CtrlR4'	1	0.9601	0.0331	0.9727
b'CHR1:18481971:A'	b'M49CtrlR1'	1	0.7646	0.0443	0.6916
b'CHR1:18481971:A'	b'M49CtrlR2'	1	0.7292	0.0481	0.6916
b'CHR1:18481971:A'	b'M49CtrlR3'	1	0.8584	0.0454	0.6916
b'CHR1:18481971:A'	b'M49CtrlR4'	1	0.9601	0.0331	0.6916
b'CHR1:19282760:C'	b'M49CtrlR1'	1	0.7646	0.0443	0.9717
b'CHR1:19282760:C'	b'M49CtrlR2'	1	0.7292	0.0481	0.9717
b'CHR1:19282760:C'	b'M49CtrlR3'	1	0.8584	0.0454	0.9717
b'CHR1:19282760:C'	b'M49CtrlR4'	1	0.9601	0.0331	0.9717
b'CHR1:19623568:C'	b'M49CtrlR1'	1	0.7646	0.0443	0.9011
b'CHR1:19623568:C'	b'M49CtrlR2'	1	0.7292	0.0481	0.9011
b'CHR1:19623568:C'	b'M49CtrlR3'	1	0.8584	0.0454	0.9011
b'CHR1:19623568:C'	b'M49CtrlR4'	1	0.9601	0.0331	0.9011
b'CHR1:20084839:T'	b'M49CtrlR1'	1	0.7646	0.0443	0.6190
b'CHR1:20084839:T'	b'M49CtrlR2'	1	0.7292	0.0481	0.6190
b'CHR1:20084839:T'	b'M49CtrlR3'	1	0.8584	0.0454	0.6190
b'CHR1:20084839:T'	b'M49CtrlR4'	1	0.9601	0.0331	0.6190
b'CHR1:25243590:C'	b'M49CtrlR1'	1	0.7646	0.0443	0.6894
b'CHR1:25243590:C'	b'M49CtrlR2'	1	0.7292	0.0481	0.6894
b'CHR1:25243590:C'	b'M49CtrlR3'	1	0.8584	0.0454	0.6894
b'CHR1:25243590:C'	b'M49CtrlR4'	1	0.9601	0.0331	0.6894
b'CHR1:26952030:A'	b'M49CtrlR1'	1	0.7646	0.0443	0.6981
b'CHR1:26952030:A'	b'M49CtrlR2'	1	0.7292	0.0481	0.6981
b'CHR1:26952030:A'	b'M49CtrlR3'	1	0.8584	0.0454	0.6981
b'CHR1:26952030:A'	b'M49CtrlR4'	1	0.9601	0.0331	0.6981
b'CHR1:27360975:T'	b'M49CtrlR1'	1	0.7646	0.0443	0.8986
b'CHR1:27360975:T'	b'M49CtrlR2'	1	0.7292	0.0481	0.8986
b'CHR1:27360975:T'	b'M49CtrlR3'	1	0.8584	0.0454	0.8986
b'CHR1:27360975:T'	b'M49CtrlR4'	1	0.9601	0.0331	0.8986
b'CHR1:32770050:G'	b'M49CtrlR1'	1	0.7646	0.0443	0.6826
b'CHR1:32770050:G'	b'M49CtrlR2'	1	0.7292	0.0481	0.6826
b'CHR1:32770050:G'	b'M49CtrlR3'	1	0.8584	0.0454	0.6826
b'CHR1:32770050:G'	b'M49CtrlR4'	1	0.9601	0.0331	0.6826
b'CHR1:3763211:T'	b'M49CtrlR1'	1	0.7646	0.0443	0.9996
b'CHR1:3763211:T'	b'M49CtrlR2'	1	0.7292	0.0481	0.9996
b'CHR1:3763211:T'	b'M49CtrlR3'	1	0.8584	0.0454	0.9996
b'CHR1:3763211:T'	b'M49CtrlR4'	1	0.9601	0.0331	0.9996
b'CHR1:51840355:A'	b'M49CtrlR1'	1	0.7646	0.0443	0.7022
b'CHR1:51840355:A'	b'M49CtrlR2'	1	0.7292	0.0481	0.7022
b'CHR1:51840355:A'	b'M49CtrlR3'	1	0.8584	0.0454	0.7022
b'CHR1:51840355:A'	b'M49CtrlR4'	1	0.9601	0.0331	0.7022
b'CHR1:53078767:A'	b'M49CtrlR1'	1	0.7646	0.0443	0.4408
b'CHR1:53078767:A'	b'M49CtrlR2'	1	0.7292	0.0481	0.4408
b'CHR1:53078767:A'	b'M49CtrlR3'	1	0.8584	0.0454	0.4408
b'CHR1:53078767:A'	b'M49CtrlR4'	1	0.9601	0.0331	0.4408
b'CHR1:63323280:A'	b'M49CtrlR1'	1	0.7646	0.0443	0.8477
b'CHR1:63323280:A'	b'M49CtrlR2'	1	0.7292	0.0481	0.8477
b'CHR1:63323280:A'	b'M49CtrlR3'	1	0.8584	0.0454	0.8477
b'CHR1:63323280:A'	b'M49CtrlR4'	1	0.9601	0.0331	0.8477
b'CHR1:63415881:T'	b'M49CtrlR1'	1	0.7646	0.0443	0.9881
b'CHR1:63415881:T'	b'M49CtrlR2'	1	0.7292	0.0481	0.9881
b'CHR1:63415881:T'	b'M49CtrlR3'	1	0.8584	0.0454	0.9881
b'CHR1:63415881:T'	b'M49CtrlR4'	1	0.9601	0.0331	0.9881
b'CHR1:64844806:C'	b'M49CtrlR1'	1	0.7646	0.0443	0.8585
b'CHR1:64844806:C'	b'M49CtrlR2'	1	0.7292	0.0481	0.8585
b'CHR1:64844806:C'	b'M49CtrlR3'	1	0.8584	0.0454	0.8585
b'CHR1:64844806:C'	b'M49CtrlR4'	1	0.9601	0.0331	0.8585
b'CHR1:942934:C'	b'M49CtrlR1'	1	0.7646	0.0443	0.4462
b'CHR1:942934:C'	b'M49CtrlR2'	1	0.7292	0.0481	0.4462
b'CHR1:942934:C'	b'M49CtrlR3'	1	0.8584	0.0454	0.4462
b'CHR1:942934:C'	b'M49CtrlR4'	1	0.9601	0.0331	0.4462
b'CHR3:41800280:T'	b'M49CtrlR1'	1	0.7646	0.0443	0.9297
b'CHR3:41800280:T'	b'M49CtrlR2'	1	0.7292	0.0481	0.9297
b'CHR3:41800280:T'	b'M49CtrlR3'	1	0.8584	0.0454	0.9297
b'CHR3:41800280:T'	b'M49CtrlR4'	1	0.9601	0.0331	0.9297
b'CHR5:150540177:C'	b'M49CtrlR1'	1	0.7646	0.0443	0.8700
b'CHR5:150540177:C'	b'M49CtrlR2'	1	0.7292	0.0481	0.8700
b'CHR5:150540177:C'	b'M49CtrlR3'	1	0.8584	0.0454	0.8700
b'CHR5:150540177:C'	b'M49CtrlR4'	1	0.9601	0.0331	0.8700
b'CHR6:13711047:G'	b'M49CtrlR1'	1	0.7646	0.0443	0.4151
b'CHR6:13711047:G'	b'M49CtrlR2'	1	0.7292	0.0481	0.4151
b'CHR6:13711047:G'	b'M49CtrlR3'	1	0.8584	0.0454	0.4151
b'CHR6:13711047:G'	b'M49CtrlR4'	1	0.9601	0.0331	0.4151
b'CHR7:151066568:A'	b'M49CtrlR1'	1	0.7646	0.0443	0.5265
b'CHR7:151066568:A'	b'M49CtrlR2'	1	0.7292	0.0481	0.5265
b'CHR7:151066568:A'	b'M49CtrlR3'	1	0.8584	0.0454	0.5265
b'CHR7:151066568:A'	b'M49CtrlR4'	1	0.9601	0.0331	0.5265
b'CHR10:102593720:G'	b'M49CtrlR1'	2	0.2371	0.0196	0.9497
b'CHR10:102593720:G'	b'M49CtrlR2'	2	0.2182	0.0190	0.9497
b'CHR10:102593720:G'	b'M49CtrlR3'	2	0.2315	0.0195	0.9497
b'CHR10:102593720:G'	b'M49CtrlR4'	2	0.2311	0.0187	0.9497
b'CHR10:119579974:C'	b'M49CtrlR1'	2	0.2371	0.0196	0.3871
b'CHR10:119579974:C'	b'M49CtrlR2'	2	0.2182	0.0190	0.3871
b'CHR10:119579974:C'	b'M49CtrlR3'	2	0.2315	0.0195	0.3871
b'CHR10:119579974:C'	b'M49CtrlR4'	2	0.2311	0.0187	0.3871
b'CHR10:73751113:G'	b'M49CtrlR1'	2	0.2371	0.0196	1.0000
b'CHR10:73751113:G'	b'M49CtrlR2'	2	0.2182	0.0190	1.0000
b'CHR10:73751113:G'	b'M49CtrlR3'	2	0.2315	0.0195	1.0000
b'CHR10:73751113:G'	b'M49CtrlR4'	2	0.2311	0.0187	1.0000
b'CHR11:120128675:T'	b'M49CtrlR1'	2	0.2371	0.0196	0.9514
b'CHR11:120128675:T'	b'M49CtrlR2'	2	0.2182	0.0190	0.9514
b'CHR11:120128675:T'	b'M49CtrlR3'	2	0.2315	0.0195	0.9514
b'CHR11:120128675:T'	b'M49CtrlR4'	2	0.2311	0.0187	0.9514
b'CHR11:57646395:A'	b'M49CtrlR1'	2	0.2371	0.0196	0.8076
b'CHR11:57646395:A'	b'M49CtrlR2'	2	0.2182	0.0190	0.8076
b'CHR11:57646395:A'	b'M49CtrlR3'	2	0.2315	0.0195	0.8076
b'CHR11:57646395:A'	b'M49CtrlR4'	2	0.2311	0.0187	0.8076
b'CHR11:77190101:A'	b'M49CtrlR1'	2	0.2371	0.0196	0.7590
b'CHR11:77190101:A'	b'M49CtrlR2'	2	0.2182	0.0190	0.7590
b'CHR11:77190101:A'	b'M49CtrlR3'	2	0.2315	0.0195	0.7590
b'CHR11:77190101:A'	b'M49CtrlR4'	2	0.2311	0.0187	0.7590
b'CHR11:77190102:A'	b'M49CtrlR1'	2	0.2371	0.0196	0.7590
b'CHR11:77190102:A'	b'M49CtrlR2'	2	0.2182	0.0190	0.7590
b'CHR11:77190102:A'	b'M49CtrlR3'	2	0.2315	0.0195	0.7590
b'CHR11:77190102:A'	b'M49CtrlR4'	2	0.2311	0.0187	0.7590
b'CHR11:94998292:G'	b'M49CtrlR1'	2	0.2371	0.0196	0.9676
b'CHR11:94998292:G'	b'M49CtrlR2'	2	0.2182	0.0190	0.9676
b'CHR11:94998292:G'	b'M49CtrlR3'	2	0.2315	0.0195	0.9676
b'CHR11:94998292:G'	b'M49CtrlR4'	2	0.2311	0.0187	0.9676
b'CHR12:122988845:T'	b'M49CtrlR1'	2	0.2371	0.0196	0.9287
b'CHR12:122988845:T'	b'M49CtrlR2'	2	0.2182	0.0190	0.9287
b'CHR12:122988845:T'	b'M49CtrlR3'	2	0.2315	0.0195	0.9287
b'CHR12:122988845:T'	b'M49CtrlR4'	2	0.2311	0.0187	0.9287
b'CHR12:48329951:T'	b'M49CtrlR1'	2	0.2371	0.0196	0.6755
b'CHR12:48329951:T'	b'M49CtrlR2'	2	0.2182	0.0190	0.6755
b'CHR12:48329951:T'	b'M49CtrlR3'	2	0.2315	0.0195	0.6755
b'CHR12:48329951:T'	b'M49CtrlR4'	2	0.2311	0.0187	0.6755
b'CHR12:55027042:G'	b'M49CtrlR1'	2	0.2371	0.0196	0.9744
b'CHR12:55027042:G'	b'M49CtrlR2'	2	0.2182	0.0190	0.9744
b'CHR12:55027042:G'	b'M49CtrlR3'	2	0.2315	0.0195	0.9744
b'CHR12:55027042:G'	b'M49CtrlR4'	2	0.2311	0.0187	0.9744
b'CHR12:85046079:A'	b'M49CtrlR1'	2	0.2371	0.0196	0.9393
b'CHR12:85046079:A'	b'M49CtrlR2'	2	0.2182	0.0190	0.9393
b'CHR12:85046079:A'	b'M49CtrlR3'	2	0.2315	0.0195	0.9393
b'CHR12:85046079:A'	b'M49CtrlR4'	2	0.2311	0.0187	0.9393
b'CHR12:9152922:A'	b'M49CtrlR1'	2	0.2371	0.0196	0.9652
b'CHR12:9152922:A'	b'M49CtrlR2'	2	0.2182	0.0190	0.9652
b'CHR12:9152922:A'	b'M49CtrlR3'	2	0.2315	0.0195	0.9652
b'CHR12:9152922:A'	b'M49CtrlR4'	2	0.2311	0.0187	0.9652
b'CHR13:113633258:T'	b'M49CtrlR1'	2	0.2371	0.0196	0.9783
b'CHR13:113633258:T'	b'M49CtrlR2'	2	0.2182	0.0190	0.9783
b'CHR13:113633258:T'	b'M49CtrlR3'	2	0.2315	0.0195	0.9783
b'CHR13:113633258:T'	b'M49CtrlR4'	2	0.2311	0.0187	0.9783
b'CHR13:71559855:A'	b'M49CtrlR1'	2	0.2371	0.0196	0.7883
b'CHR13:71559855:A'	b'M49CtrlR2'	2	0.2182	0.0190	0.7883
b'CHR13:71559855:A'	b'M49CtrlR3'	2	0.2315	0.0195	0.7883
b'CHR13:71559855:A'	b'M49CtrlR4'	2	0.2311	0.0187	0.7883
b'CHR13:94479083:A'	b'M49CtrlR1'	2	0.2371	0.0196	0.7601
b'CHR13:94479083:A'	b'M49CtrlR2'	2	0.2182	0.0190	0.7601
b'CHR13:94479083:A'	b'M49CtrlR3'	2	0.2315	0.0195	0.7601
b'CHR13:94479083:A'	b'M49CtrlR4'	2	0.2311	0.0187	0.7601
b'CHR14:102929246:A'	b'M49CtrlR1'	2	0.2371	0.0196	0.7572
b'CHR14:102929246:A'	b'M49CtrlR2'	2	0.2182	0.0190	0.7572
b'CHR14:102929246:A'	b'M49CtrlR3'	2	0.2315	0.0195	0.7572
b'CHR14:102929246:A'	b'M49CtrlR4'	2	0.2311	0.0187	0.7572
b'CHR14:70978536:T'	b'M49CtrlR1'	2	0.2371	0.0196	0.9205
b'CHR14:70978536:T'	b'M49CtrlR2'	2	0.2182	0.0190	0.9205
b'CHR14:70978536:T'	b'M49CtrlR3'	2	0.2315	0.0195	0.9205
b'CHR14:70978536:T'	b'M49CtrlR4'	2	0.2311	0.0187	0.9205
b'CHR15:23566598:A'	b'M49CtrlR1'	2	0.2371	0.0196	0.9966
b'CHR15:23566598:A'	b'M49CtrlR2'	2	0.2182	0.0190	0.9966
b'CHR15:23566598:A'	b'M49CtrlR3'	2	0.2315	0.0195	0.9966
b'CHR15:23566598:A'	b'M49CtrlR4'	2	0.2311	0.0187	0.9966
b'CHR16:3141065:G'	b'M49CtrlR1'	2	0.2371	0.0196	0.8463
b'CHR16:3141065:G'	b'M49CtrlR2'	2	0.2182	0.0190	0.8463
b'CHR16:3141065:G'	b'M49CtrlR3'	2	0.2315	0.0195	0.8463
b'CHR16:3141065:G'	b'M49CtrlR4'	2	0.2311	0.0187	0.8463
b'CHR17:10539354:G'	b'M49CtrlR1'	2	0.2371	0.0196	0.9823
b'CHR17:10539354:G'	b'M49CtrlR2'	2	0.2182	0.0190	0.9823
b'CHR17:10539354:G'	b'M49CtrlR3'	2	0.2315	0.0195	0.9823
b'CHR17:10539354:G'	b'M49CtrlR4'	2	0.2311	0.0187	0.9823
b'CHR17:15716798:G'	b'M49CtrlR1'	2	0.2371	0.0196	0.8220
b'CHR17:15716798:G'	b'M49CtrlR2'	2	0.2182	0.0190	0.8220
b'CHR17:15716798:G'	b'M49CtrlR3'	2	0.2315	0.0195	0.8220
b'CHR17:15716798:G'	b'M49CtrlR4'	2	0.2311	0.0187	0.8220
b'CHR17:7817620:C'	b'M49CtrlR1'	2	0.2371	0.0196	0.9233
b'CHR17:7817620:C'	b'M49CtrlR2'	2	0.2182	0.0190	0.9233
b'CHR17:7817620:C'	b'M49CtrlR3'	2	0.2315	0.0195	0.9233
b'CHR17:7817620:C'	b'M49CtrlR4'	2	0.2311	0.0187	0.9233
b'CHR17:8819116:C'	b'M49CtrlR1'	2	0.2371	0.0196	0.8787
b'CHR17:8819116:C'	b'M49CtrlR2'	2	0.2182	0.0190	0.8787
b'CHR17:8819116:C'	b'M49CtrlR3'	2	0.2315	0.0195	0.8787
b'CHR17:8819116:C'	b'M49CtrlR4'	2	0.2311	0.0187	0.8787
b'CHR18:2934431:C'	b'M49CtrlR1'	2	0.2371	0.0196	0.9271
b'CHR18:2934431:C'	b'M49CtrlR2'	2	0.2182	0.0190	0.9271
b'CHR18:2934431:C'	b'M49CtrlR3'	2	0.2315	0.0195	0.9271
b'CHR18:2934431:C'	b'M49CtrlR4'	2	0.2311	0.0187	0.9271
b'CHR19:13209361:T'	b'M49CtrlR1'	2	0.2371	0.0196	0.9038
b'CHR19:13209361:T'	b'M49CtrlR2'	2	0.2182	0.0190	0.9038
b'CHR19:13209361:T'	b'M49CtrlR3'	2	0.2315	0.0195	0.9038
b'CHR19:13209361:T'	b'M49CtrlR4'	2	0.2311	0.0187	0.9038
b'CHR19:1495334:T'	b'M49CtrlR1'	2	0.2371	0.0196	0.9982
b'CHR19:1495334:T'	b'M49CtrlR2'	2	0.2182	0.0190	0.9982
b'CHR19:1495334:T'	b'M49CtrlR3'	2	0.2315	0.0195	0.9982
b'CHR19:1495334:T'	b'M49CtrlR4'	2	0.2311	0.0187	0.9982
b'CHR19:17226319:A'	b'M49CtrlR1'	2	0.2371	0.0196	0.9316
b'CHR19:17226319:A'	b'M49CtrlR2'	2	0.2182	0.0190	0.9316
b'CHR19:17226319:A'	b'M49CtrlR3'	2	0.2315	0.0195	0.9316
b'CHR19:17226319:A'	b'M49CtrlR4'	2	0.2311	0.0187	0.9316
b'CHR19:20545051:T'	b'M49CtrlR1'	2	0.2371	0.0196	0.9998
b'CHR19:20545051:T'	b'M49CtrlR2'	2	0.2182	0.0190	0.9998
b'CHR19:20545051:T'	b'M49CtrlR3'	2	0.2315	0.0195	0.9998
b'CHR19:20545051:T'	b'M49CtrlR4'	2	0.2311	0.0187	0.9998
b'CHR19:36915827:T'	b'M49CtrlR1'	2	0.2371	0.0196	1.0000
b'CHR19:36915827:T'	b'M49CtrlR2'	2	0.2182	0.0190	1.0000
b'CHR19:36915827:T'	b'M49CtrlR3'	2	0.2315	0.0195	1.0000
b'CHR19:36915827:T'	b'M49CtrlR4'	2	0.2311	0.0187	1.0000
b'CHR19:37243400:A'	b'M49CtrlR1'	2	0.2371	0.0196	0.6846
b'CHR19:37243400:A'	b'M49CtrlR2'	2	0.2182	0.0190	0.6846
b'CHR19:37243400:A'	b'M49CtrlR3'	2	0.2315	0.0195	0.6846
b'CHR19:37243400:A'	b'M49CtrlR4'	2	0.2311	0.0187	0.6846
b'CHR19:37888408:A'	b'M49CtrlR1'	2	0.2371	0.0196	0.9525
b'CHR19:37888408:A'	b'M49CtrlR2'	2	0.2182	0.0190	0.9525
b'CHR19:37888408:A'	b'M49CtrlR3'	2	0.2315	0.0195	0.9525
b'CHR19:37888408:A'	b'M49CtrlR4'	2	0.2311	0.0187	0.9525
b'CHR19:45591702:A'	b'M49CtrlR1'	2	0.2371	0.0196	0.8544
b'CHR19:45591702:A'	b'M49CtrlR2'	2	0.2182	0.0190	0.8544
b'CHR19:45591702:A'	b'M49CtrlR3'	2	0.2315	0.0195	0.8544
b'CHR19:45591702:A'	b'M49CtrlR4'	2	0.2311	0.0187	0.8544
b'CHR19:51627961:A'	b'M49CtrlR1'	2	0.2371	0.0196	0.9276
b'CHR19:51627961:A'	b'M49CtrlR2'	2	0.2182	0.0190	0.9276
b'CHR19:51627961:A'	b'M49CtrlR3'	2	0.2315	0.0195	0.9276
b'CHR19:51627961:A'	b'M49CtrlR4'	2	0.2311	0.0187	0.9276
b'CHR19:52705931:T'	b'M49CtrlR1'	2	0.2371	0.0196	0.9998
b'CHR19:52705931:T'	b'M49CtrlR2'	2	0.2182	0.0190	0.9998
b'CHR19:52705931:T'	b'M49CtrlR3'	2	0.2315	0.0195	0.9998
b'CHR19:52705931:T'	b'M49CtrlR4'	2	0.2311	0.0187	0.9998
b'CHR19:56027551:C'	b'M49CtrlR1'	2	0.2371	0.0196	0.9993
b'CHR19:56027551:C'	b'M49CtrlR2'	2	0.2182	0.0190	0.9993
b'CHR19:56027551:C'	b'M49CtrlR3'	2	0.2315	0.0195	0.9993
b'CHR19:56027551:C'	b'M49CtrlR4'	2	0.2311	0.0187	0.9993
b'CHR19:56554274:G'	b'M49CtrlR1'	2	0.2371	0.0196	0.9055
b'CHR19:56554274:G'	b'M49CtrlR2'	2	0.2182	0.0190	0.9055
b'CHR19:56554274:G'	b'M49CtrlR3'	2	0.2315	0.0195	0.9055
b'CHR19:56554274:G'	b'M49CtrlR4'	2	0.2311	0.0187	0.9055
b'CHR1:1046687:A'	b'M49CtrlR1'	2	0.2371	0.0196	1.0000
b'CHR1:1046687:A'	b'M49CtrlR2'	2	0.2182	0.0190	1.0000
b'CHR1:1046687:A'	b'M49CtrlR3'	2	0.2315	0.0195	1.0000
b'CHR1:1046687:A'	b'M49CtrlR4'	2	0.2311	0.0187	1.0000
b'CHR1:111242317:G'	b'M49CtrlR1'	2	0.2371	0.0196	0.8774
b'CHR1:111242317:G'	b'M49CtrlR2'	2	0.2182	0.0190	0.8774
b'CHR1:111242317:G'	b'M49CtrlR3'	2	0.2315	0.0195	0.8774
b'CHR1:111242317:G'	b'M49CtrlR4'	2	0.2311	0.0187	0.8774
b'CHR1:113981341:T'	b'M49CtrlR1'	2	0.2371	0.0196	0.9594
b'CHR1:113981341:T'	b'M49CtrlR2'	2	0.2182	0.0190	0.9594
b'CHR1:113981341:T'	b'M49CtrlR3'	2	0.2315	0.0195	0.9594
b'CHR1:113981341:T'	b'M49CtrlR4'	2	0.2311	0.0187	0.9594
b'CHR1:1495915:C'	b'M49CtrlR1'	2	0.2371	0.0196	0.9514
b'CHR1:1495915:C'	b'M49CtrlR2'	2	0.2182	0.0190	0.9514
b'CHR1:1495915:C'	b'M49CtrlR3'	2	0.2315	0.0195	0.9514
b'CHR1:1495915:C'	b'M49CtrlR4'	2	0.2311	0.0187	0.9514
b'CHR1:152812643:C'	b'M49CtrlR1'	2	0.2371	0.0196	0.4361
b'CHR1:152812643:C'	b'M49CtrlR2'	2	0.2182	0.0190	0.4361
b'CHR1:152812643:C'	b'M49CtrlR3'	2	0.2315	0.0195	0.4361
b'CHR1:152812643:C'	b'M49CtrlR4'	2	0.2311	0.0187	0.4361
b'CHR1:157586429:T'	b'M49CtrlR1'	2	0.2371	0.0196	0.9999
b'CHR1:157586429:T'	b'M49CtrlR2'	2	0.2182	0.0190	0.9999
b'CHR1:157586429:T'	b'M49CtrlR3'	2	0.2315	0.0195	0.9999
b'CHR1:157586429:T'	b'M49CtrlR4'	2	0.2311	0.0187	0.9999
b'CHR1:158699883:T'	b'M49CtrlR1'	2	0.2371	0.0196	0.9695
b'CHR1:158699883:T'	b'M49CtrlR2'	2	0.2182	0.0190	0.9695
b'CHR1:158699883:T'	b'M49CtrlR3'	2	0.2315	0.0195	0.9695
b'CHR1:158699883:T'	b'M49CtrlR4'	2	0.2311	0.0187	0.9695
b'CHR1:16050982:T'	b'M49CtrlR1'	2	0.2371	0.0196	0.9874
b'CHR1:16050982:T'	b'M49CtrlR2'	2	0.2182	0.0190	0.9874
b'CHR1:16050982:T'	b'M49CtrlR3'	2	0.2315	0.0195	0.9874
b'CHR1:16050982:T'	b'M49CtrlR4'	2	0.2311	0.0187	0.9874
b'CHR1:161526114:T'	b'M49CtrlR1'	2	0.2371	0.0196	0.6509
b'CHR1:161526114:T'	b'M49CtrlR2'	2	0.2182	0.0190	0.6509
b'CHR1:161526114:T'	b'M49CtrlR3'	2	0.2315	0.0195	0.6509
b'CHR1:161526114:T'	b'M49CtrlR4'	2	0.2311	0.0187	0.6509
b'CHR1:16759300:T'	b'M49CtrlR1'	2	0.2371	0.0196	0.9984
b'CHR1:16759300:T'	b'M49CtrlR2'	2	0.2182	0.0190	0.9984
b'CHR1:16759300:T'	b'M49CtrlR3'	2	0.2315	0.0195	0.9984
b'CHR1:16759300:T'	b'M49CtrlR4'	2	0.2311	0.0187	0.9984
b'CHR1:168308838:T'	b'M49CtrlR1'	2	0.2371	0.0196	0.3092
b'CHR1:168308838:T'	b'M49CtrlR2'	2	0.2182	0.0190	0.3092
b'CHR1:168308838:T'	b'M49CtrlR3'	2	0.2315	0.0195	0.3092
b'CHR1:168308838:T'	b'M49CtrlR4'	2	0.2311	0.0187	0.3092
b'CHR1:21483257:C'	b'M49CtrlR1'	2	0.2371	0.0196	0.9774
b'CHR1:21483257:C'	b'M49CtrlR2'	2	0.2182	0.0190	0.9774
b'CHR1:21483257:C'	b'M49CtrlR3'	2	0.2315	0.0195	0.9774
b'CHR1:21483257:C'	b'M49CtrlR4'	2	0.2311	0.0187	0.9774
b'CHR1:229547554:G'	b'M49CtrlR1'	2	0.2371	0.0196	0.7615
b'CHR1:229547554:G'	b'M49CtrlR2'	2	0.2182	0.0190	0.7615
b'CHR1:229547554:G'	b'M49CtrlR3'	2	0.2315	0.0195	0.7615
b'CHR1:229547554:G'	b'M49CtrlR4'	2	0.2311	0.0187	0.7615
b'CHR1:248273507:A'	b'M49CtrlR1'	2	0.2371	0.0196	0.7345
b'CHR1:248273507:A'	b'M49CtrlR2'	2	0.2182	0.0190	0.7345
b'CHR1:248273507:A'	b'M49CtrlR3'	2	0.2315	0.0195	0.7345
b'CHR1:248273507:A'	b'M49CtrlR4'	2	0.2311	0.0187	0.7345
b'CHR1:248273509:C'	b'M49CtrlR1'	2	0.2371	0.0196	0.6268
b'CHR1:248273509:C'	b'M49CtrlR2'	2	0.2182	0.0190	0.6268
b'CHR1:248273509:C'	b'M49CtrlR3'	2	0.2315	0.0195	0.6268
b'CHR1:248273509:C'	b'M49CtrlR4'	2	0.2311	0.0187	0.6268
b'CHR1:70039224:A'	b'M49CtrlR1'	2	0.2371	0.0196	0.9998
b'CHR1:70039224:A'	b'M49CtrlR2'	2	0.2182	0.0190	0.9998
b'CHR1:70039224:A'	b'M49CtrlR3'	2	0.2315	0.0195	0.9998
b'CHR1:70039224:A'	b'M49CtrlR4'	2	0.2311	0.0187	0.9998
b'CHR1:8957259:A'	b'M49CtrlR1'	2	0.2371	0.0196	0.9549
b'CHR1:8957259:A'	b'M49CtrlR2'	2	0.2182	0.0190	0.9549
b'CHR1:8957259:A'	b'M49CtrlR3'	2	0.2315	0.0195	0.9549
b'CHR1:8957259:A'	b'M49CtrlR4'	2	0.2311	0.0187	0.9549
b'CHR20:19992282:A'	b'M49CtrlR1'	2	0.2371	0.0196	0.8722
b'CHR20:19992282:A'	b'M49CtrlR2'	2	0.2182	0.0190	0.8722
b'CHR20:19992282:A'	b'M49CtrlR3'	2	0.2315	0.0195	0.8722
b'CHR20:19992282:A'	b'M49CtrlR4'	2	0.2311	0.0187	0.8722
b'CHR22:41511947:C'	b'M49CtrlR1'	2	0.2371	0.0196	0.5805
b'CHR22:41511947:C'	b'M49CtrlR2'	2	0.2182	0.0190	0.5805
b'CHR22:41511947:C'	b'M49CtrlR3'	2	0.2315	0.0195	0.5805
b'CHR22:41511947:C'	b'M49CtrlR4'	2	0.2311	0.0187	0.5805
b'CHR2:127289755:A'	b'M49CtrlR1'	2	0.2371	0.0196	0.9316
b'CHR2:127289755:A'	b'M49CtrlR2'	2	0.2182	0.0190	0.9316
b'CHR2:127289755:A'	b'M49CtrlR3'	2	0.2315	0.0195	0.9316
b'CHR2:127289755:A'	b'M49CtrlR4'	2	0.2311	0.0187	0.9316
b'CHR2:131125753:T'	b'M49CtrlR1'	2	0.2371	0.0196	0.4133
b'CHR2:131125753:T'	b'M49CtrlR2'	2	0.2182	0.0190	0.4133
b'CHR2:131125753:T'	b'M49CtrlR3'	2	0.2315	0.0195	0.4133
b'CHR2:131125753:T'	b'M49CtrlR4'	2	0.2311	0.0187	0.4133
b'CHR2:135115329:A'	b'M49CtrlR1'	2	0.2371	0.0196	0.9444
b'CHR2:135115329:A'	b'M49CtrlR2'	2	0.2182	0.0190	0.9444
b'CHR2:135115329:A'	b'M49CtrlR3'	2	0.2315	0.0195	0.9444
b'CHR2:135115329:A'	b'M49CtrlR4'	2	0.2311	0.0187	0.9444
b'CHR2:156549720:T'	b'M49CtrlR1'	2	0.2371	0.0196	0.9157
b'CHR2:156549720:T'	b'M49CtrlR2'	2	0.2182	0.0190	0.9157
b'CHR2:156549720:T'	b'M49CtrlR3'	2	0.2315	0.0195	0.9157
b'CHR2:156549720:T'	b'M49CtrlR4'	2	0.2311	0.0187	0.9157
b'CHR2:170847706:T'	b'M49CtrlR1'	2	0.2371	0.0196	0.9776
b'CHR2:170847706:T'	b'M49CtrlR2'	2	0.2182	0.0190	0.9776
b'CHR2:170847706:T'	b'M49CtrlR3'	2	0.2315	0.0195	0.9776
b'CHR2:170847706:T'	b'M49CtrlR4'	2	0.2311	0.0187	0.9776
b'CHR2:208333381:G'	b'M49CtrlR1'	2	0.2371	0.0196	0.8385
b'CHR2:208333381:G'	b'M49CtrlR2'	2	0.2182	0.0190	0.8385
b'CHR2:208333381:G'	b'M49CtrlR3'	2	0.2315	0.0195	0.8385
b'CHR2:208333381:G'	b'M49CtrlR4'	2	0.2311	0.0187	0.8385
b'CHR2:232381776:G'	b'M49CtrlR1'	2	0.2371	0.0196	0.9496
b'CHR2:232381776:G'	b'M49CtrlR2'	2	0.2182	0.0190	0.9496
b'CHR2:232381776:G'	b'M49CtrlR3'	2	0.2315	0.0195	0.9496
b'CHR2:232381776:G'	b'M49CtrlR4'	2	0.2311	0.0187	0.9496
b'CHR2:79869920:C'	b'M49CtrlR1'	2	0.2371	0.0196	0.9999
b'CHR2:79869920:C'	b'M49CtrlR2'	2	0.2182	0.0190	0.9999
b'CHR2:79869920:C'	b'M49CtrlR3'	2	0.2315	0.0195	0.9999
b'CHR2:79869920:C'	b'M49CtrlR4'	2	0.2311	0.0187	0.9999
b'CHR2:97167731:A'	b'M49CtrlR1'	2	0.2371	0.0196	0.9415
b'CHR2:97167731:A'	b'M49CtrlR2'	2	0.2182	0.0190	0.9415
b'CHR2:97167731:A'	b'M49CtrlR3'	2	0.2315	0.0195	0.9415
b'CHR2:97167731:A'	b'M49CtrlR4'	2	0.2311	0.0187	0.9415
b'CHR3:14668125:G'	b'M49CtrlR1'	2	0.2371	0.0196	0.8203
b'CHR3:14668125:G'	b'M49CtrlR2'	2	0.2182	0.0190	0.8203
b'CHR3:14668125:G'	b'M49CtrlR3'	2	0.2315	0.0195	0.8203
b'CHR3:14668125:G'	b'M49CtrlR4'	2	0.2311	0.0187	0.8203
b'CHR3:50320148:G'	b'M49CtrlR1'	2	0.2371	0.0196	1.0000
b'CHR3:50320148:G'	b'M49CtrlR2'	2	0.2182	0.0190	1.0000
b'CHR3:50320148:G'	b'M49CtrlR3'	2	0.2315	0.0195	1.0000
b'CHR3:50320148:G'	b'M49CtrlR4'	2	0.2311	0.0187	1.0000
b'CHR3:55073793:A'	b'M49CtrlR1'	2	0.2371	0.0196	0.9783
b'CHR3:55073793:A'	b'M49CtrlR2'	2	0.2182	0.0190	0.9783
b'CHR3:55073793:A'	b'M49CtrlR3'	2	0.2315	0.0195	0.9783
b'CHR3:55073793:A'	b'M49CtrlR4'	2	0.2311	0.0187	0.9783
b'CHR3:63834186:C'	b'M49CtrlR1'	2	0.2371	0.0196	0.9508
b'CHR3:63834186:C'	b'M49CtrlR2'	2	0.2182	0.0190	0.9508
b'CHR3:63834186:C'	b'M49CtrlR3'	2	0.2315	0.0195	0.9508
b'CHR3:63834186:C'	b'M49CtrlR4'	2	0.2311	0.0187	0.9508
b'CHR3:78600261:T'	b'M49CtrlR1'	2	0.2371	0.0196	0.9594
b'CHR3:78600261:T'	b'M49CtrlR2'	2	0.2182	0.0190	0.9594
b'CHR3:78600261:T'	b'M49CtrlR3'	2	0.2315	0.0195	0.9594
b'CHR3:78600261:T'	b'M49CtrlR4'	2	0.2311	0.0187	0.9594
b'CHR3:9950005:A'	b'M49CtrlR1'	2	0.2371	0.0196	1.0000
b'CHR3:9950005:A'	b'M49CtrlR2'	2	0.2182	0.0190	1.0000
b'CHR3:9950005:A'	b'M49CtrlR3'	2	0.2315	0.0195	1.0000
b'CHR3:9950005:A'	b'M49CtrlR4'	2	0.2311	0.0187	1.0000
b'CHR4:125317234:A'	b'M49CtrlR1'	2	0.2371	0.0196	0.9997
b'CHR4:125317234:A'	b'M49CtrlR2'	2	0.2182	0.0190	0.9997
b'CHR4:125317234:A'	b'M49CtrlR3'	2	0.2315	0.0195	0.9997
b'CHR4:125317234:A'	b'M49CtrlR4'	2	0.2311	0.0187	0.9997
b'CHR4:185463040:A'	b'M49CtrlR1'	2	0.2371	0.0196	0.7192
b'CHR4:185463040:A'	b'M49CtrlR2'	2	0.2182	0.0190	0.7192
b'CHR4:185463040:A'	b'M49CtrlR3'	2	0.2315	0.0195	0.7192
b'CHR4:185463040:A'	b'M49CtrlR4'	2	0.2311	0.0187	0.7192
b'CHR4:185656724:G'	b'M49CtrlR1'	2	0.2371	0.0196	0.4719
b'CHR4:185656724:G'	b'M49CtrlR2'	2	0.2182	0.0190	0.4719
b'CHR4:185656724:G'	b'M49CtrlR3'	2	0.2315	0.0195	0.4719
b'CHR4:185656724:G'	b'M49CtrlR4'	2	0.2311	0.0187	0.4719
b'CHR4:2824643:T'	b'M49CtrlR1'	2	0.2371	0.0196	0.9250
b'CHR4:2824643:T'	b'M49CtrlR2'	2	0.2182	0.0190	0.9250
b'CHR4:2824643:T'	b'M49CtrlR3'	2	0.2315	0.0195	0.9250
b'CHR4:2824643:T'	b'M49CtrlR4'	2	0.2311	0.0187	0.9250
b'CHR4:5825510:T'	b'M49CtrlR1'	2	0.2371	0.0196	0.9427
b'CHR4:5825510:T'	b'M49CtrlR2'	2	0.2182	0.0190	0.9427
b'CHR4:5825510:T'	b'M49CtrlR3'	2	0.2315	0.0195	0.9427
b'CHR4:5825510:T'	b'M49CtrlR4'	2	0.2311	0.0187	0.9427
b'CHR4:85942222:C'	b'M49CtrlR1'	2	0.2371	0.0196	0.9260
b'CHR4:85942222:C'	b'M49CtrlR2'	2	0.2182	0.0190	0.9260
b'CHR4:85942222:C'	b'M49CtrlR3'	2	0.2315	0.0195	0.9260
b'CHR4:85942222:C'	b'M49CtrlR4'	2	0.2311	0.0187	0.9260
b'CHR5:141051875:G'	b'M49CtrlR1'	2	0.2371	0.0196	0.9987
b'CHR5:141051875:G'	b'M49CtrlR2'	2	0.2182	0.0190	0.9987
b'CHR5:141051875:G'	b'M49CtrlR3'	2	0.2315	0.0195	0.9987
b'CHR5:141051875:G'	b'M49CtrlR4'	2	0.2311	0.0187	0.9987
b'CHR5:141431886:T'	b'M49CtrlR1'	2	0.2371	0.0196	0.9698
b'CHR5:141431886:T'	b'M49CtrlR2'	2	0.2182	0.0190	0.9698
b'CHR5:141431886:T'	b'M49CtrlR3'	2	0.2315	0.0195	0.9698
b'CHR5:141431886:T'	b'M49CtrlR4'	2	0.2311	0.0187	0.9698
b'CHR5:173609254:G'	b'M49CtrlR1'	2	0.2371	0.0196	0.6338
b'CHR5:173609254:G'	b'M49CtrlR2'	2	0.2182	0.0190	0.6338
b'CHR5:173609254:G'	b'M49CtrlR3'	2	0.2315	0.0195	0.6338
b'CHR5:173609254:G'	b'M49CtrlR4'	2	0.2311	0.0187	0.6338
b'CHR5:51389819:T'	b'M49CtrlR1'	2	0.2371	0.0196	0.9911
b'CHR5:51389819:T'	b'M49CtrlR2'	2	0.2182	0.0190	0.9911
b'CHR5:51389819:T'	b'M49CtrlR3'	2	0.2315	0.0195	0.9911
b'CHR5:51389819:T'	b'M49CtrlR4'	2	0.2311	0.0187	0.9911
b'CHR6:10687513:T'	b'M49CtrlR1'	2	0.2371	0.0196	0.9991
b'CHR6:10687513:T'	b'M49CtrlR2'	2	0.2182	0.0190	0.9991
b'CHR6:10687513:T'	b'M49CtrlR3'	2	0.2315	0.0195	0.9991
b'CHR6:10687513:T'	b'M49CtrlR4'	2	0.2311	0.0187	0.9991
b'CHR6:11193627:A'	b'M49CtrlR1'	2	0.2371	0.0196	0.9996
b'CHR6:11193627:A'	b'M49CtrlR2'	2	0.2182	0.0190	0.9996
b'CHR6:11193627:A'	b'M49CtrlR3'	2	0.2315	0.0195	0.9996
b'CHR6:11193627:A'	b'M49CtrlR4'	2	0.2311	0.0187	0.9996
b'CHR6:12120212:G'	b'M49CtrlR1'	2	0.2371	0.0196	0.9998
b'CHR6:12120212:G'	b'M49CtrlR2'	2	0.2182	0.0190	0.9998
b'CHR6:12120212:G'	b'M49CtrlR3'	2	0.2315	0.0195	0.9998
b'CHR6:12120212:G'	b'M49CtrlR4'	2	0.2311	0.0187	0.9998
b'CHR6:2749147:T'	b'M49CtrlR1'	2	0.2371	0.0196	0.5255
b'CHR6:2749147:T'	b'M49CtrlR2'	2	0.2182	0.0190	0.5255
b'CHR6:2749147:T'	b'M49CtrlR3'	2	0.2315	0.0195	0.5255
b'CHR6:2749147:T'	b'M49CtrlR4'	2	0.2311	0.0187	0.5255
b'CHR6:3154637:C'	b'M49CtrlR1'	2	0.2371	0.0196	0.4557
b'CHR6:3154637:C'	b'M49CtrlR2'	2	0.2182	0.0190	0.4557
b'CHR6:3154637:C'	b'M49CtrlR3'	2	0.2315	0.0195	0.4557
b'CHR6:3154637:C'	b'M49CtrlR4'	2	0.2311	0.0187	0.4557
b'CHR6:42862523:G'	b'M49CtrlR1'	2	0.2371	0.0196	0.9723
b'CHR6:42862523:G'	b'M49CtrlR2'	2	0.2182	0.0190	0.9723
b'CHR6:42862523:G'	b'M49CtrlR3'	2	0.2315	0.0195	0.9723
b'CHR6:42862523:G'	b'M49CtrlR4'	2	0.2311	0.0187	0.9723
b'CHR6:43369355:A'	b'M49CtrlR1'	2	0.2371	0.0196	0.4612
b'CHR6:43369355:A'	b'M49CtrlR2'	2	0.2182	0.0190	0.4612
b'CHR6:43369355:A'	b'M49CtrlR3'	2	0.2315	0.0195	0.4612
b'CHR6:43369355:A'	b'M49CtrlR4'	2	0.2311	0.0187	0.4612
b'CHR6:7393219:T'	b'M49CtrlR1'	2	0.2371	0.0196	0.9997
b'CHR6:7393219:T'	b'M49CtrlR2'	2	0.2182	0.0190	0.9997
b'CHR6:7393219:T'	b'M49CtrlR3'	2	0.2315	0.0195	0.9997
b'CHR6:7393219:T'	b'M49CtrlR4'	2	0.2311	0.0187	0.9997
b'CHR6:7577027:T'	b'M49CtrlR1'	2	0.2371	0.0196	0.9939
b'CHR6:7577027:T'	b'M49CtrlR2'	2	0.2182	0.0190	0.9939
b'CHR6:7577027:T'	b'M49CtrlR3'	2	0.2315	0.0195	0.9939
b'CHR6:7577027:T'	b'M49CtrlR4'	2	0.2311	0.0187	0.9939
b'CHR6:7581403:A'	b'M49CtrlR1'	2	0.2371	0.0196	0.9980
b'CHR6:7581403:A'	b'M49CtrlR2'	2	0.2182	0.0190	0.9980
b'CHR6:7581403:A'	b'M49CtrlR3'	2	0.2315	0.0195	0.9980
b'CHR6:7581403:A'	b'M49CtrlR4'	2	0.2311	0.0187	0.9980
b'CHR6:7601487:T'	b'M49CtrlR1'	2	0.2371	0.0196	0.5805
b'CHR6:7601487:T'	b'M49CtrlR2'	2	0.2182	0.0190	0.5805
b'CHR6:7601487:T'	b'M49CtrlR3'	2	0.2315	0.0195	0.5805
b'CHR6:7601487:T'	b'M49CtrlR4'	2	0.2311	0.0187	0.5805
b'CHR8:144040433:T'	b'M49CtrlR1'	2	0.2371	0.0196	0.8270
b'CHR8:144040433:T'	b'M49CtrlR2'	2	0.2182	0.0190	0.8270
b'CHR8:144040433:T'	b'M49CtrlR3'	2	0.2315	0.0195	0.8270
b'CHR8:144040433:T'	b'M49CtrlR4'	2	0.2311	0.0187	0.8270
b'CHR8:40674861:C'	b'M49CtrlR1'	2	0.2371	0.0196	0.9647
b'CHR8:40674861:C'	b'M49CtrlR2'	2	0.2182	0.0190	0.9647
b'CHR8:40674861:C'	b'M49CtrlR3'	2	0.2315	0.0195	0.9647
b'CHR8:40674861:C'	b'M49CtrlR4'	2	0.2311	0.0187	0.9647
b'CHR9:125337434:T'	b'M49CtrlR1'	2	0.2371	0.0196	0.8755
b'CHR9:125337434:T'	b'M49CtrlR2'	2	0.2182	0.0190	0.8755
b'CHR9:125337434:T'	b'M49CtrlR3'	2	0.2315	0.0195	0.8755
b'CHR9:125337434:T'	b'M49CtrlR4'	2	0.2311	0.0187	0.8755
b'CHR9:129068201:C'	b'M49CtrlR1'	2	0.2371	0.0196	0.9763
b'CHR9:129068201:C'	b'M49CtrlR2'	2	0.2182	0.0190	0.9763
b'CHR9:129068201:C'	b'M49CtrlR3'	2	0.2315	0.0195	0.9763
b'CHR9:129068201:C'	b'M49CtrlR4'	2	0.2311	0.0187	0.9763
b'CHR9:89348205:A'	b'M49CtrlR1'	2	0.2371	0.0196	0.9210
b'CHR9:89348205:A'	b'M49CtrlR2'	2	0.2182	0.0190	0.9210
b'CHR9:89348205:A'	b'M49CtrlR3'	2	0.2315	0.0195	0.9210
b'CHR9:89348205:A'	b'M49CtrlR4'	2	0.2311	0.0187	0.9210
b'CHR9:93952939:A'	b'M49CtrlR1'	2	0.2371	0.0196	0.9299
b'CHR9:93952939:A'	b'M49CtrlR2'	2	0.2182	0.0190	0.9299
b'CHR9:93952939:A'	b'M49CtrlR3'	2	0.2315	0.0195	0.9299
b'CHR9:93952939:A'	b'M49CtrlR4'	2	0.2311	0.0187	0.9299
b'CHR9:95881156:A'	b'M49CtrlR1'	2	0.2371	0.0196	0.9985
b'CHR9:95881156:A'	b'M49CtrlR2'	2	0.2182	0.0190	0.9985
b'CHR9:95881156:A'	b'M49CtrlR3'	2	0.2315	0.0195	0.9985
b'CHR9:95881156:A'	b'M49CtrlR4'	2	0.2311	0.0187	0.9985
b'CHR9:98782570:A'	b'M49CtrlR1'	2	0.2371	0.0196	0.8457
b'CHR9:98782570:A'	b'M49CtrlR2'	2	0.2182	0.0190	0.8457
b'CHR9:98782570:A'	b'M49CtrlR3'	2	0.2315	0.0195	0.8457
b'CHR9:98782570:A'	b'M49CtrlR4'	2	0.2311	0.0187	0.8457
b'CHR12:40481156:A'	b'M49CtrlR1'	3	0.5085	0.2655	0.9653
b'CHR12:40481156:A'	b'M49CtrlR2'	3	0.0826	0.0301	0.9653
b'CHR12:40481156:A'	b'M49CtrlR3'	3	0.0667	0.0237	0.9653
b'CHR12:40481156:A'	b'M49CtrlR4'	3	0.0738	0.0311	0.9653
b'CHR12:40481157:G'	b'M49CtrlR1'	3	0.5085	0.2655	0.9637
b'CHR12:40481157:G'	b'M49CtrlR2'	3	0.0826	0.0301	0.9637
b'CHR12:40481157:G'	b'M49CtrlR3'	3	0.0667	0.0237	0.9637
b'CHR12:40481157:G'	b'M49CtrlR4'	3	0.0738	0.0311	0.9637
b'CHR19:14765687:T'	b'M49CtrlR1'	3	0.5085	0.2655	0.9999
b'CHR19:14765687:T'	b'M49CtrlR2'	3	0.0826	0.0301	0.9999
b'CHR19:14765687:T'	b'M49CtrlR3'	3	0.0667	0.0237	0.9999
b'CHR19:14765687:T'	b'M49CtrlR4'	3	0.0738	0.0311	0.9999
b'CHR10:92240093:G'	b'M49CtrlR1'	4	0.9171	0.0447	0.3680
b'CHR10:92240093:G'	b'M49CtrlR2'	4	0.7517	0.0526	0.3680
b'CHR10:92240093:G'	b'M49CtrlR3'	4	0.5643	0.0436	0.3680
b'CHR10:92240093:G'	b'M49CtrlR4'	4	0.7296	0.0490	0.3680
b'CHR19:1049270:A'	b'M49CtrlR1'	4	0.9171	0.0447	0.5136
b'CHR19:1049270:A'	b'M49CtrlR2'	4	0.7517	0.0526	0.5136
b'CHR19:1049270:A'	b'M49CtrlR3'	4	0.5643	0.0436	0.5136
b'CHR19:1049270:A'	b'M49CtrlR4'	4	0.7296	0.0490	0.5136
b'CHR1:11706367:T'	b'M49CtrlR1'	4	0.9171	0.0447	0.6811
b'CHR1:11706367:T'	b'M49CtrlR2'	4	0.7517	0.0526	0.6811
b'CHR1:11706367:T'	b'M49CtrlR3'	4	0.5643	0.0436	0.6811
b'CHR1:11706367:T'	b'M49CtrlR4'	4	0.7296	0.0490	0.6811
b'CHR1:13343011:A'	b'M49CtrlR1'	4	0.9171	0.0447	0.9713
b'CHR1:13343011:A'	b'M49CtrlR2'	4	0.7517	0.0526	0.9713
b'CHR1:13343011:A'	b'M49CtrlR3'	4	0.5643	0.0436	0.9713
b'CHR1:13343011:A'	b'M49CtrlR4'	4	0.7296	0.0490	0.9713
b'CHR1:160155085:A'	b'M49CtrlR1'	4	0.9171	0.0447	0.4670
b'CHR1:160155085:A'	b'M49CtrlR2'	4	0.7517	0.0526	0.4670
b'CHR1:160155085:A'	b'M49CtrlR3'	4	0.5643	0.0436	0.4670
b'CHR1:160155085:A'	b'M49CtrlR4'	4	0.7296	0.0490	0.4670
b'CHR1:16409637:C'	b'M49CtrlR1'	4	0.9171	0.0447	0.7709
b'CHR1:16409637:C'	b'M49CtrlR2'	4	0.7517	0.0526	0.7709
b'CHR1:16409637:C'	b'M49CtrlR3'	4	0.5643	0.0436	0.7709
b'CHR1:16409637:C'	b'M49CtrlR4'	4	0.7296	0.0490	0.7709
b'CHR1:17084646:G'	b'M49CtrlR1'	4	0.9171	0.0447	0.6409
b'CHR1:17084646:G'	b'M49CtrlR2'	4	0.7517	0.0526	0.6409
b'CHR1:17084646:G'	b'M49CtrlR3'	4	0.5643	0.0436	0.6409
b'CHR1:17084646:G'	b'M49CtrlR4'	4	0.7296	0.0490	0.6409
b'CHR1:18877503:G'	b'M49CtrlR1'	4	0.9171	0.0447	0.7351
b'CHR1:18877503:G'	b'M49CtrlR2'	4	0.7517	0.0526	0.7351
b'CHR1:18877503:G'	b'M49CtrlR3'	4	0.5643	0.0436	0.7351
b'CHR1:18877503:G'	b'M49CtrlR4'	4	0.7296	0.0490	0.7351
b'CHR1:202160698:C'	b'M49CtrlR1'	4	0.9171	0.0447	0.8873
b'CHR1:202160698:C'	b'M49CtrlR2'	4	0.7517	0.0526	0.8873
b'CHR1:202160698:C'	b'M49CtrlR3'	4	0.5643	0.0436	0.8873
b'CHR1:202160698:C'	b'M49CtrlR4'	4	0.7296	0.0490	0.8873
b'CHR1:215567710:G'	b'M49CtrlR1'	4	0.9171	0.0447	0.9898
b'CHR1:215567710:G'	b'M49CtrlR2'	4	0.7517	0.0526	0.9898
b'CHR1:215567710:G'	b'M49CtrlR3'	4	0.5643	0.0436	0.9898
b'CHR1:215567710:G'	b'M49CtrlR4'	4	0.7296	0.0490	0.9898
b'CHR1:21874505:T'	b'M49CtrlR1'	4	0.9171	0.0447	0.7053
b'CHR1:21874505:T'	b'M49CtrlR2'	4	0.7517	0.0526	0.7053
b'CHR1:21874505:T'	b'M49CtrlR3'	4	0.5643	0.0436	0.7053
b'CHR1:21874505:T'	b'M49CtrlR4'	4	0.7296	0.0490	0.7053
b'CHR1:22526222:C'	b'M49CtrlR1'	4	0.9171	0.0447	0.5421
b'CHR1:22526222:C'	b'M49CtrlR2'	4	0.7517	0.0526	0.5421
b'CHR1:22526222:C'	b'M49CtrlR3'	4	0.5643	0.0436	0.5421
b'CHR1:22526222:C'	b'M49CtrlR4'	4	0.7296	0.0490	0.5421
b'CHR1:230921501:T'	b'M49CtrlR1'	4	0.9171	0.0447	0.5078
b'CHR1:230921501:T'	b'M49CtrlR2'	4	0.7517	0.0526	0.5078
b'CHR1:230921501:T'	b'M49CtrlR3'	4	0.5643	0.0436	0.5078
b'CHR1:230921501:T'	b'M49CtrlR4'	4	0.7296	0.0490	0.5078
b'CHR1:26344118:T'	b'M49CtrlR1'	4	0.9171	0.0447	0.7561
b'CHR1:26344118:T'	b'M49CtrlR2'	4	0.7517	0.0526	0.7561
b'CHR1:26344118:T'	b'M49CtrlR3'	4	0.5643	0.0436	0.7561
b'CHR1:26344118:T'	b'M49CtrlR4'	4	0.7296	0.0490	0.7561
b'CHR1:31630664:G'	b'M49CtrlR1'	4	0.9171	0.0447	0.6756
b'CHR1:31630664:G'	b'M49CtrlR2'	4	0.7517	0.0526	0.6756
b'CHR1:31630664:G'	b'M49CtrlR3'	4	0.5643	0.0436	0.6756
b'CHR1:31630664:G'	b'M49CtrlR4'	4	0.7296	0.0490	0.6756
b'CHR1:31698605:G'	b'M49CtrlR1'	4	0.9171	0.0447	0.7579
b'CHR1:31698605:G'	b'M49CtrlR2'	4	0.7517	0.0526	0.7579
b'CHR1:31698605:G'	b'M49CtrlR3'	4	0.5643	0.0436	0.7579
b'CHR1:31698605:G'	b'M49CtrlR4'	4	0.7296	0.0490	0.7579
b'CHR1:33494462:G'	b'M49CtrlR1'	4	0.9171	0.0447	0.5306
b'CHR1:33494462:G'	b'M49CtrlR2'	4	0.7517	0.0526	0.5306
b'CHR1:33494462:G'	b'M49CtrlR3'	4	0.5643	0.0436	0.5306
b'CHR1:33494462:G'	b'M49CtrlR4'	4	0.7296	0.0490	0.5306
b'CHR1:3478610:A'	b'M49CtrlR1'	4	0.9171	0.0447	0.5912
b'CHR1:3478610:A'	b'M49CtrlR2'	4	0.7517	0.0526	0.5912
b'CHR1:3478610:A'	b'M49CtrlR3'	4	0.5643	0.0436	0.5912
b'CHR1:3478610:A'	b'M49CtrlR4'	4	0.7296	0.0490	0.5912
b'CHR1:53247055:T'	b'M49CtrlR1'	4	0.9171	0.0447	0.9121
b'CHR1:53247055:T'	b'M49CtrlR2'	4	0.7517	0.0526	0.9121
b'CHR1:53247055:T'	b'M49CtrlR3'	4	0.5643	0.0436	0.9121
b'CHR1:53247055:T'	b'M49CtrlR4'	4	0.7296	0.0490	0.9121
b'CHR1:53250744:A'	b'M49CtrlR1'	4	0.9171	0.0447	0.9228
b'CHR1:53250744:A'	b'M49CtrlR2'	4	0.7517	0.0526	0.9228
b'CHR1:53250744:A'	b'M49CtrlR3'	4	0.5643	0.0436	0.9228
b'CHR1:53250744:A'	b'M49CtrlR4'	4	0.7296	0.0490	0.9228
b'CHR1:53594343:C'	b'M49CtrlR1'	4	0.9171	0.0447	0.9753
b'CHR1:53594343:C'	b'M49CtrlR2'	4	0.7517	0.0526	0.9753
b'CHR1:53594343:C'	b'M49CtrlR3'	4	0.5643	0.0436	0.9753
b'CHR1:53594343:C'	b'M49CtrlR4'	4	0.7296	0.0490	0.9753
b'CHR1:7827188:A'	b'M49CtrlR1'	4	0.9171	0.0447	0.7132
b'CHR1:7827188:A'	b'M49CtrlR2'	4	0.7517	0.0526	0.7132
b'CHR1:7827188:A'	b'M49CtrlR3'	4	0.5643	0.0436	0.7132
b'CHR1:7827188:A'	b'M49CtrlR4'	4	0.7296	0.0490	0.7132
b'CHR2:219451248:A'	b'M49CtrlR1'	4	0.9171	0.0447	0.7561
b'CHR2:219451248:A'	b'M49CtrlR2'	4	0.7517	0.0526	0.7561
b'CHR2:219451248:A'	b'M49CtrlR3'	4	0.5643	0.0436	0.7561
b'CHR2:219451248:A'	b'M49CtrlR4'	4	0.7296	0.0490	0.7561
b'CHR2:73291715:T'	b'M49CtrlR1'	4	0.9171	0.0447	0.5707
b'CHR2:73291715:T'	b'M49CtrlR2'	4	0.7517	0.0526	0.5707
b'CHR2:73291715:T'	b'M49CtrlR3'	4	0.5643	0.0436	0.5707
b'CHR2:73291715:T'	b'M49CtrlR4'	4	0.7296	0.0490	0.5707
