mutation_id	sample_id	cluster_id	cellular_prevalence	cellular_prevalence_std	cluster_assignment_prob
b'CHR10:102381157:T'	b'M55CtrlR1'	0	0.1717	0.0172	0.7979
b'CHR10:102381157:T'	b'M55CtrlR2'	0	0.1906	0.0182	0.7979
b'CHR10:102381157:T'	b'M55CtrlR3'	0	0.1675	0.0155	0.7979
b'CHR10:102381157:T'	b'M55CtrlR4'	0	0.1544	0.0178	0.7979
b'CHR10:133084811:T'	b'M55CtrlR1'	0	0.1717	0.0172	0.3973
b'CHR10:133084811:T'	b'M55CtrlR2'	0	0.1906	0.0182	0.3973
b'CHR10:133084811:T'	b'M55CtrlR3'	0	0.1675	0.0155	0.3973
b'CHR10:133084811:T'	b'M55CtrlR4'	0	0.1544	0.0178	0.3973
b'CHR10:37153617:T'	b'M55CtrlR1'	0	0.1717	0.0172	0.7993
b'CHR10:37153617:T'	b'M55CtrlR2'	0	0.1906	0.0182	0.7993
b'CHR10:37153617:T'	b'M55CtrlR3'	0	0.1675	0.0155	0.7993
b'CHR10:37153617:T'	b'M55CtrlR4'	0	0.1544	0.0178	0.7993
b'CHR10:73751113:G'	b'M55CtrlR1'	0	0.1717	0.0172	0.8849
b'CHR10:73751113:G'	b'M55CtrlR2'	0	0.1906	0.0182	0.8849
b'CHR10:73751113:G'	b'M55CtrlR3'	0	0.1675	0.0155	0.8849
b'CHR10:73751113:G'	b'M55CtrlR4'	0	0.1544	0.0178	0.8849
b'CHR11:103245294:A'	b'M55CtrlR1'	0	0.1717	0.0172	0.6780
b'CHR11:103245294:A'	b'M55CtrlR2'	0	0.1906	0.0182	0.6780
b'CHR11:103245294:A'	b'M55CtrlR3'	0	0.1675	0.0155	0.6780
b'CHR11:103245294:A'	b'M55CtrlR4'	0	0.1544	0.0178	0.6780
b'CHR11:123806117:C'	b'M55CtrlR1'	0	0.1717	0.0172	0.7749
b'CHR11:123806117:C'	b'M55CtrlR2'	0	0.1906	0.0182	0.7749
b'CHR11:123806117:C'	b'M55CtrlR3'	0	0.1675	0.0155	0.7749
b'CHR11:123806117:C'	b'M55CtrlR4'	0	0.1544	0.0178	0.7749
b'CHR11:56490737:A'	b'M55CtrlR1'	0	0.1717	0.0172	0.5251
b'CHR11:56490737:A'	b'M55CtrlR2'	0	0.1906	0.0182	0.5251
b'CHR11:56490737:A'	b'M55CtrlR3'	0	0.1675	0.0155	0.5251
b'CHR11:56490737:A'	b'M55CtrlR4'	0	0.1544	0.0178	0.5251
b'CHR11:6270799:T'	b'M55CtrlR1'	0	0.1717	0.0172	0.9623
b'CHR11:6270799:T'	b'M55CtrlR2'	0	0.1906	0.0182	0.9623
b'CHR11:6270799:T'	b'M55CtrlR3'	0	0.1675	0.0155	0.9623
b'CHR11:6270799:T'	b'M55CtrlR4'	0	0.1544	0.0178	0.9623
b'CHR11:72136010:A'	b'M55CtrlR1'	0	0.1717	0.0172	0.7946
b'CHR11:72136010:A'	b'M55CtrlR2'	0	0.1906	0.0182	0.7946
b'CHR11:72136010:A'	b'M55CtrlR3'	0	0.1675	0.0155	0.7946
b'CHR11:72136010:A'	b'M55CtrlR4'	0	0.1544	0.0178	0.7946
b'CHR11:73975073:A'	b'M55CtrlR1'	0	0.1717	0.0172	0.4998
b'CHR11:73975073:A'	b'M55CtrlR2'	0	0.1906	0.0182	0.4998
b'CHR11:73975073:A'	b'M55CtrlR3'	0	0.1675	0.0155	0.4998
b'CHR11:73975073:A'	b'M55CtrlR4'	0	0.1544	0.0178	0.4998
b'CHR11:77685130:T'	b'M55CtrlR1'	0	0.1717	0.0172	0.7218
b'CHR11:77685130:T'	b'M55CtrlR2'	0	0.1906	0.0182	0.7218
b'CHR11:77685130:T'	b'M55CtrlR3'	0	0.1675	0.0155	0.7218
b'CHR11:77685130:T'	b'M55CtrlR4'	0	0.1544	0.0178	0.7218
b'CHR12:108518570:T'	b'M55CtrlR1'	0	0.1717	0.0172	0.9991
b'CHR12:108518570:T'	b'M55CtrlR2'	0	0.1906	0.0182	0.9991
b'CHR12:108518570:T'	b'M55CtrlR3'	0	0.1675	0.0155	0.9991
b'CHR12:108518570:T'	b'M55CtrlR4'	0	0.1544	0.0178	0.9991
b'CHR12:112477653:T'	b'M55CtrlR1'	0	0.1717	0.0172	0.4698
b'CHR12:112477653:T'	b'M55CtrlR2'	0	0.1906	0.0182	0.4698
b'CHR12:112477653:T'	b'M55CtrlR3'	0	0.1675	0.0155	0.4698
b'CHR12:112477653:T'	b'M55CtrlR4'	0	0.1544	0.0178	0.4698
b'CHR12:129700067:A'	b'M55CtrlR1'	0	0.1717	0.0172	0.4288
b'CHR12:129700067:A'	b'M55CtrlR2'	0	0.1906	0.0182	0.4288
b'CHR12:129700067:A'	b'M55CtrlR3'	0	0.1675	0.0155	0.4288
b'CHR12:129700067:A'	b'M55CtrlR4'	0	0.1544	0.0178	0.4288
b'CHR12:40481156:A'	b'M55CtrlR1'	0	0.1717	0.0172	1.0000
b'CHR12:40481156:A'	b'M55CtrlR2'	0	0.1906	0.0182	1.0000
b'CHR12:40481156:A'	b'M55CtrlR3'	0	0.1675	0.0155	1.0000
b'CHR12:40481156:A'	b'M55CtrlR4'	0	0.1544	0.0178	1.0000
b'CHR12:40481157:G'	b'M55CtrlR1'	0	0.1717	0.0172	1.0000
b'CHR12:40481157:G'	b'M55CtrlR2'	0	0.1906	0.0182	1.0000
b'CHR12:40481157:G'	b'M55CtrlR3'	0	0.1675	0.0155	1.0000
b'CHR12:40481157:G'	b'M55CtrlR4'	0	0.1544	0.0178	1.0000
b'CHR12:55027042:G'	b'M55CtrlR1'	0	0.1717	0.0172	0.6358
b'CHR12:55027042:G'	b'M55CtrlR2'	0	0.1906	0.0182	0.6358
b'CHR12:55027042:G'	b'M55CtrlR3'	0	0.1675	0.0155	0.6358
b'CHR12:55027042:G'	b'M55CtrlR4'	0	0.1544	0.0178	0.6358
b'CHR12:56267413:A'	b'M55CtrlR1'	0	0.1717	0.0172	0.9712
b'CHR12:56267413:A'	b'M55CtrlR2'	0	0.1906	0.0182	0.9712
b'CHR12:56267413:A'	b'M55CtrlR3'	0	0.1675	0.0155	0.9712
b'CHR12:56267413:A'	b'M55CtrlR4'	0	0.1544	0.0178	0.9712
b'CHR12:57478728:T'	b'M55CtrlR1'	0	0.1717	0.0172	0.8773
b'CHR12:57478728:T'	b'M55CtrlR2'	0	0.1906	0.0182	0.8773
b'CHR12:57478728:T'	b'M55CtrlR3'	0	0.1675	0.0155	0.8773
b'CHR12:57478728:T'	b'M55CtrlR4'	0	0.1544	0.0178	0.8773
b'CHR12:57629873:G'	b'M55CtrlR1'	0	0.1717	0.0172	0.7305
b'CHR12:57629873:G'	b'M55CtrlR2'	0	0.1906	0.0182	0.7305
b'CHR12:57629873:G'	b'M55CtrlR3'	0	0.1675	0.0155	0.7305
b'CHR12:57629873:G'	b'M55CtrlR4'	0	0.1544	0.0178	0.7305
b'CHR12:74538384:T'	b'M55CtrlR1'	0	0.1717	0.0172	0.9076
b'CHR12:74538384:T'	b'M55CtrlR2'	0	0.1906	0.0182	0.9076
b'CHR12:74538384:T'	b'M55CtrlR3'	0	0.1675	0.0155	0.9076
b'CHR12:74538384:T'	b'M55CtrlR4'	0	0.1544	0.0178	0.9076
b'CHR12:7929771:C'	b'M55CtrlR1'	0	0.1717	0.0172	0.4746
b'CHR12:7929771:C'	b'M55CtrlR2'	0	0.1906	0.0182	0.4746
b'CHR12:7929771:C'	b'M55CtrlR3'	0	0.1675	0.0155	0.4746
b'CHR12:7929771:C'	b'M55CtrlR4'	0	0.1544	0.0178	0.4746
b'CHR12:85046079:A'	b'M55CtrlR1'	0	0.1717	0.0172	0.5530
b'CHR12:85046079:A'	b'M55CtrlR2'	0	0.1906	0.0182	0.5530
b'CHR12:85046079:A'	b'M55CtrlR3'	0	0.1675	0.0155	0.5530
b'CHR12:85046079:A'	b'M55CtrlR4'	0	0.1544	0.0178	0.5530
b'CHR13:95234663:A'	b'M55CtrlR1'	0	0.1717	0.0172	0.7069
b'CHR13:95234663:A'	b'M55CtrlR2'	0	0.1906	0.0182	0.7069
b'CHR13:95234663:A'	b'M55CtrlR3'	0	0.1675	0.0155	0.7069
b'CHR13:95234663:A'	b'M55CtrlR4'	0	0.1544	0.0178	0.7069
b'CHR14:20144218:A'	b'M55CtrlR1'	0	0.1717	0.0172	0.8554
b'CHR14:20144218:A'	b'M55CtrlR2'	0	0.1906	0.0182	0.8554
b'CHR14:20144218:A'	b'M55CtrlR3'	0	0.1675	0.0155	0.8554
b'CHR14:20144218:A'	b'M55CtrlR4'	0	0.1544	0.0178	0.8554
b'CHR14:20144219:A'	b'M55CtrlR1'	0	0.1717	0.0172	0.8554
b'CHR14:20144219:A'	b'M55CtrlR2'	0	0.1906	0.0182	0.8554
b'CHR14:20144219:A'	b'M55CtrlR3'	0	0.1675	0.0155	0.8554
b'CHR14:20144219:A'	b'M55CtrlR4'	0	0.1544	0.0178	0.8554
b'CHR14:52042283:A'	b'M55CtrlR1'	0	0.1717	0.0172	0.9680
b'CHR14:52042283:A'	b'M55CtrlR2'	0	0.1906	0.0182	0.9680
b'CHR14:52042283:A'	b'M55CtrlR3'	0	0.1675	0.0155	0.9680
b'CHR14:52042283:A'	b'M55CtrlR4'	0	0.1544	0.0178	0.9680
b'CHR14:74260736:T'	b'M55CtrlR1'	0	0.1717	0.0172	0.6803
b'CHR14:74260736:T'	b'M55CtrlR2'	0	0.1906	0.0182	0.6803
b'CHR14:74260736:T'	b'M55CtrlR3'	0	0.1675	0.0155	0.6803
b'CHR14:74260736:T'	b'M55CtrlR4'	0	0.1544	0.0178	0.6803
b'CHR15:33826673:A'	b'M55CtrlR1'	0	0.1717	0.0172	0.5525
b'CHR15:33826673:A'	b'M55CtrlR2'	0	0.1906	0.0182	0.5525
b'CHR15:33826673:A'	b'M55CtrlR3'	0	0.1675	0.0155	0.5525
b'CHR15:33826673:A'	b'M55CtrlR4'	0	0.1544	0.0178	0.5525
b'CHR15:41572531:T'	b'M55CtrlR1'	0	0.1717	0.0172	0.9181
b'CHR15:41572531:T'	b'M55CtrlR2'	0	0.1906	0.0182	0.9181
b'CHR15:41572531:T'	b'M55CtrlR3'	0	0.1675	0.0155	0.9181
b'CHR15:41572531:T'	b'M55CtrlR4'	0	0.1544	0.0178	0.9181
b'CHR15:45095849:C'	b'M55CtrlR1'	0	0.1717	0.0172	0.8799
b'CHR15:45095849:C'	b'M55CtrlR2'	0	0.1906	0.0182	0.8799
b'CHR15:45095849:C'	b'M55CtrlR3'	0	0.1675	0.0155	0.8799
b'CHR15:45095849:C'	b'M55CtrlR4'	0	0.1544	0.0178	0.8799
b'CHR16:1257049:T'	b'M55CtrlR1'	0	0.1717	0.0172	0.7091
b'CHR16:1257049:T'	b'M55CtrlR2'	0	0.1906	0.0182	0.7091
b'CHR16:1257049:T'	b'M55CtrlR3'	0	0.1675	0.0155	0.7091
b'CHR16:1257049:T'	b'M55CtrlR4'	0	0.1544	0.0178	0.7091
b'CHR16:19715001:G'	b'M55CtrlR1'	0	0.1717	0.0172	0.5897
b'CHR16:19715001:G'	b'M55CtrlR2'	0	0.1906	0.0182	0.5897
b'CHR16:19715001:G'	b'M55CtrlR3'	0	0.1675	0.0155	0.5897
b'CHR16:19715001:G'	b'M55CtrlR4'	0	0.1544	0.0178	0.5897
b'CHR16:87904819:T'	b'M55CtrlR1'	0	0.1717	0.0172	0.9816
b'CHR16:87904819:T'	b'M55CtrlR2'	0	0.1906	0.0182	0.9816
b'CHR16:87904819:T'	b'M55CtrlR3'	0	0.1675	0.0155	0.9816
b'CHR16:87904819:T'	b'M55CtrlR4'	0	0.1544	0.0178	0.9816
b'CHR17:10409139:T'	b'M55CtrlR1'	0	0.1717	0.0172	0.5734
b'CHR17:10409139:T'	b'M55CtrlR2'	0	0.1906	0.0182	0.5734
b'CHR17:10409139:T'	b'M55CtrlR3'	0	0.1675	0.0155	0.5734
b'CHR17:10409139:T'	b'M55CtrlR4'	0	0.1544	0.0178	0.5734
b'CHR17:18971139:A'	b'M55CtrlR1'	0	0.1717	0.0172	0.9960
b'CHR17:18971139:A'	b'M55CtrlR2'	0	0.1906	0.0182	0.9960
b'CHR17:18971139:A'	b'M55CtrlR3'	0	0.1675	0.0155	0.9960
b'CHR17:18971139:A'	b'M55CtrlR4'	0	0.1544	0.0178	0.9960
b'CHR17:31295269:C'	b'M55CtrlR1'	0	0.1717	0.0172	0.7554
b'CHR17:31295269:C'	b'M55CtrlR2'	0	0.1906	0.0182	0.7554
b'CHR17:31295269:C'	b'M55CtrlR3'	0	0.1675	0.0155	0.7554
b'CHR17:31295269:C'	b'M55CtrlR4'	0	0.1544	0.0178	0.7554
b'CHR17:48852548:T'	b'M55CtrlR1'	0	0.1717	0.0172	0.9783
b'CHR17:48852548:T'	b'M55CtrlR2'	0	0.1906	0.0182	0.9783
b'CHR17:48852548:T'	b'M55CtrlR3'	0	0.1675	0.0155	0.9783
b'CHR17:48852548:T'	b'M55CtrlR4'	0	0.1544	0.0178	0.9783
b'CHR17:61884998:G'	b'M55CtrlR1'	0	0.1717	0.0172	0.7491
b'CHR17:61884998:G'	b'M55CtrlR2'	0	0.1906	0.0182	0.7491
b'CHR17:61884998:G'	b'M55CtrlR3'	0	0.1675	0.0155	0.7491
b'CHR17:61884998:G'	b'M55CtrlR4'	0	0.1544	0.0178	0.7491
b'CHR17:63931346:T'	b'M55CtrlR1'	0	0.1717	0.0172	0.9914
b'CHR17:63931346:T'	b'M55CtrlR2'	0	0.1906	0.0182	0.9914
b'CHR17:63931346:T'	b'M55CtrlR3'	0	0.1675	0.0155	0.9914
b'CHR17:63931346:T'	b'M55CtrlR4'	0	0.1544	0.0178	0.9914
b'CHR17:80010681:A'	b'M55CtrlR1'	0	0.1717	0.0172	0.8248
b'CHR17:80010681:A'	b'M55CtrlR2'	0	0.1906	0.0182	0.8248
b'CHR17:80010681:A'	b'M55CtrlR3'	0	0.1675	0.0155	0.8248
b'CHR17:80010681:A'	b'M55CtrlR4'	0	0.1544	0.0178	0.8248
b'CHR17:80213874:A'	b'M55CtrlR1'	0	0.1717	0.0172	0.5753
b'CHR17:80213874:A'	b'M55CtrlR2'	0	0.1906	0.0182	0.5753
b'CHR17:80213874:A'	b'M55CtrlR3'	0	0.1675	0.0155	0.5753
b'CHR17:80213874:A'	b'M55CtrlR4'	0	0.1544	0.0178	0.5753
b'CHR19:1036180:T'	b'M55CtrlR1'	0	0.1717	0.0172	0.4056
b'CHR19:1036180:T'	b'M55CtrlR2'	0	0.1906	0.0182	0.4056
b'CHR19:1036180:T'	b'M55CtrlR3'	0	0.1675	0.0155	0.4056
b'CHR19:1036180:T'	b'M55CtrlR4'	0	0.1544	0.0178	0.4056
b'CHR19:14765687:T'	b'M55CtrlR1'	0	0.1717	0.0172	0.9974
b'CHR19:14765687:T'	b'M55CtrlR2'	0	0.1906	0.0182	0.9974
b'CHR19:14765687:T'	b'M55CtrlR3'	0	0.1675	0.0155	0.9974
b'CHR19:14765687:T'	b'M55CtrlR4'	0	0.1544	0.0178	0.9974
b'CHR19:20545051:T'	b'M55CtrlR1'	0	0.1717	0.0172	0.9960
b'CHR19:20545051:T'	b'M55CtrlR2'	0	0.1906	0.0182	0.9960
b'CHR19:20545051:T'	b'M55CtrlR3'	0	0.1675	0.0155	0.9960
b'CHR19:20545051:T'	b'M55CtrlR4'	0	0.1544	0.0178	0.9960
b'CHR19:37888408:A'	b'M55CtrlR1'	0	0.1717	0.0172	0.8553
b'CHR19:37888408:A'	b'M55CtrlR2'	0	0.1906	0.0182	0.8553
b'CHR19:37888408:A'	b'M55CtrlR3'	0	0.1675	0.0155	0.8553
b'CHR19:37888408:A'	b'M55CtrlR4'	0	0.1544	0.0178	0.8553
b'CHR19:44908594:T'	b'M55CtrlR1'	0	0.1717	0.0172	0.9619
b'CHR19:44908594:T'	b'M55CtrlR2'	0	0.1906	0.0182	0.9619
b'CHR19:44908594:T'	b'M55CtrlR3'	0	0.1675	0.0155	0.9619
b'CHR19:44908594:T'	b'M55CtrlR4'	0	0.1544	0.0178	0.9619
b'CHR19:45591702:A'	b'M55CtrlR1'	0	0.1717	0.0172	0.8958
b'CHR19:45591702:A'	b'M55CtrlR2'	0	0.1906	0.0182	0.8958
b'CHR19:45591702:A'	b'M55CtrlR3'	0	0.1675	0.0155	0.8958
b'CHR19:45591702:A'	b'M55CtrlR4'	0	0.1544	0.0178	0.8958
b'CHR19:52705931:T'	b'M55CtrlR1'	0	0.1717	0.0172	0.9646
b'CHR19:52705931:T'	b'M55CtrlR2'	0	0.1906	0.0182	0.9646
b'CHR19:52705931:T'	b'M55CtrlR3'	0	0.1675	0.0155	0.9646
b'CHR19:52705931:T'	b'M55CtrlR4'	0	0.1544	0.0178	0.9646
b'CHR19:53873532:T'	b'M55CtrlR1'	0	0.1717	0.0172	0.9457
b'CHR19:53873532:T'	b'M55CtrlR2'	0	0.1906	0.0182	0.9457
b'CHR19:53873532:T'	b'M55CtrlR3'	0	0.1675	0.0155	0.9457
b'CHR19:53873532:T'	b'M55CtrlR4'	0	0.1544	0.0178	0.9457
b'CHR1:1046687:A'	b'M55CtrlR1'	0	0.1717	0.0172	0.6336
b'CHR1:1046687:A'	b'M55CtrlR2'	0	0.1906	0.0182	0.6336
b'CHR1:1046687:A'	b'M55CtrlR3'	0	0.1675	0.0155	0.6336
b'CHR1:1046687:A'	b'M55CtrlR4'	0	0.1544	0.0178	0.6336
b'CHR1:113981341:T'	b'M55CtrlR1'	0	0.1717	0.0172	0.7920
b'CHR1:113981341:T'	b'M55CtrlR2'	0	0.1906	0.0182	0.7920
b'CHR1:113981341:T'	b'M55CtrlR3'	0	0.1675	0.0155	0.7920
b'CHR1:113981341:T'	b'M55CtrlR4'	0	0.1544	0.0178	0.7920
b'CHR1:119922269:T'	b'M55CtrlR1'	0	0.1717	0.0172	0.4632
b'CHR1:119922269:T'	b'M55CtrlR2'	0	0.1906	0.0182	0.4632
b'CHR1:119922269:T'	b'M55CtrlR3'	0	0.1675	0.0155	0.4632
b'CHR1:119922269:T'	b'M55CtrlR4'	0	0.1544	0.0178	0.4632
b'CHR1:1495915:C'	b'M55CtrlR1'	0	0.1717	0.0172	0.8366
b'CHR1:1495915:C'	b'M55CtrlR2'	0	0.1906	0.0182	0.8366
b'CHR1:1495915:C'	b'M55CtrlR3'	0	0.1675	0.0155	0.8366
b'CHR1:1495915:C'	b'M55CtrlR4'	0	0.1544	0.0178	0.8366
b'CHR1:15104181:A'	b'M55CtrlR1'	0	0.1717	0.0172	0.4056
b'CHR1:15104181:A'	b'M55CtrlR2'	0	0.1906	0.0182	0.4056
b'CHR1:15104181:A'	b'M55CtrlR3'	0	0.1675	0.0155	0.4056
b'CHR1:15104181:A'	b'M55CtrlR4'	0	0.1544	0.0178	0.4056
b'CHR1:152219804:C'	b'M55CtrlR1'	0	0.1717	0.0172	0.9985
b'CHR1:152219804:C'	b'M55CtrlR2'	0	0.1906	0.0182	0.9985
b'CHR1:152219804:C'	b'M55CtrlR3'	0	0.1675	0.0155	0.9985
b'CHR1:152219804:C'	b'M55CtrlR4'	0	0.1544	0.0178	0.9985
b'CHR1:153938962:T'	b'M55CtrlR1'	0	0.1717	0.0172	0.4525
b'CHR1:153938962:T'	b'M55CtrlR2'	0	0.1906	0.0182	0.4525
b'CHR1:153938962:T'	b'M55CtrlR3'	0	0.1675	0.0155	0.4525
b'CHR1:153938962:T'	b'M55CtrlR4'	0	0.1544	0.0178	0.4525
b'CHR1:161526114:T'	b'M55CtrlR1'	0	0.1717	0.0172	0.9978
b'CHR1:161526114:T'	b'M55CtrlR2'	0	0.1906	0.0182	0.9978
b'CHR1:161526114:T'	b'M55CtrlR3'	0	0.1675	0.0155	0.9978
b'CHR1:161526114:T'	b'M55CtrlR4'	0	0.1544	0.0178	0.9978
b'CHR1:21483257:C'	b'M55CtrlR1'	0	0.1717	0.0172	0.6027
b'CHR1:21483257:C'	b'M55CtrlR2'	0	0.1906	0.0182	0.6027
b'CHR1:21483257:C'	b'M55CtrlR3'	0	0.1675	0.0155	0.6027
b'CHR1:21483257:C'	b'M55CtrlR4'	0	0.1544	0.0178	0.6027
b'CHR1:246850629:T'	b'M55CtrlR1'	0	0.1717	0.0172	0.9689
b'CHR1:246850629:T'	b'M55CtrlR2'	0	0.1906	0.0182	0.9689
b'CHR1:246850629:T'	b'M55CtrlR3'	0	0.1675	0.0155	0.9689
b'CHR1:246850629:T'	b'M55CtrlR4'	0	0.1544	0.0178	0.9689
b'CHR1:8957259:A'	b'M55CtrlR1'	0	0.1717	0.0172	0.5288
b'CHR1:8957259:A'	b'M55CtrlR2'	0	0.1906	0.0182	0.5288
b'CHR1:8957259:A'	b'M55CtrlR3'	0	0.1675	0.0155	0.5288
b'CHR1:8957259:A'	b'M55CtrlR4'	0	0.1544	0.0178	0.5288
b'CHR20:21328621:A'	b'M55CtrlR1'	0	0.1717	0.0172	0.6238
b'CHR20:21328621:A'	b'M55CtrlR2'	0	0.1906	0.0182	0.6238
b'CHR20:21328621:A'	b'M55CtrlR3'	0	0.1675	0.0155	0.6238
b'CHR20:21328621:A'	b'M55CtrlR4'	0	0.1544	0.0178	0.6238
b'CHR20:35490750:T'	b'M55CtrlR1'	0	0.1717	0.0172	0.8364
b'CHR20:35490750:T'	b'M55CtrlR2'	0	0.1906	0.0182	0.8364
b'CHR20:35490750:T'	b'M55CtrlR3'	0	0.1675	0.0155	0.8364
b'CHR20:35490750:T'	b'M55CtrlR4'	0	0.1544	0.0178	0.8364
b'CHR20:35503815:A'	b'M55CtrlR1'	0	0.1717	0.0172	0.9029
b'CHR20:35503815:A'	b'M55CtrlR2'	0	0.1906	0.0182	0.9029
b'CHR20:35503815:A'	b'M55CtrlR3'	0	0.1675	0.0155	0.9029
b'CHR20:35503815:A'	b'M55CtrlR4'	0	0.1544	0.0178	0.9029
b'CHR20:44750813:C'	b'M55CtrlR1'	0	0.1717	0.0172	0.9164
b'CHR20:44750813:C'	b'M55CtrlR2'	0	0.1906	0.0182	0.9164
b'CHR20:44750813:C'	b'M55CtrlR3'	0	0.1675	0.0155	0.9164
b'CHR20:44750813:C'	b'M55CtrlR4'	0	0.1544	0.0178	0.9164
b'CHR20:46726177:C'	b'M55CtrlR1'	0	0.1717	0.0172	0.9994
b'CHR20:46726177:C'	b'M55CtrlR2'	0	0.1906	0.0182	0.9994
b'CHR20:46726177:C'	b'M55CtrlR3'	0	0.1675	0.0155	0.9994
b'CHR20:46726177:C'	b'M55CtrlR4'	0	0.1544	0.0178	0.9994
b'CHR20:46729354:A'	b'M55CtrlR1'	0	0.1717	0.0172	0.4673
b'CHR20:46729354:A'	b'M55CtrlR2'	0	0.1906	0.0182	0.4673
b'CHR20:46729354:A'	b'M55CtrlR3'	0	0.1675	0.0155	0.4673
b'CHR20:46729354:A'	b'M55CtrlR4'	0	0.1544	0.0178	0.4673
b'CHR2:130075025:T'	b'M55CtrlR1'	0	0.1717	0.0172	0.6675
b'CHR2:130075025:T'	b'M55CtrlR2'	0	0.1906	0.0182	0.6675
b'CHR2:130075025:T'	b'M55CtrlR3'	0	0.1675	0.0155	0.6675
b'CHR2:130075025:T'	b'M55CtrlR4'	0	0.1544	0.0178	0.6675
b'CHR2:151667906:A'	b'M55CtrlR1'	0	0.1717	0.0172	0.6771
b'CHR2:151667906:A'	b'M55CtrlR2'	0	0.1906	0.0182	0.6771
b'CHR2:151667906:A'	b'M55CtrlR3'	0	0.1675	0.0155	0.6771
b'CHR2:151667906:A'	b'M55CtrlR4'	0	0.1544	0.0178	0.6771
b'CHR2:170847706:T'	b'M55CtrlR1'	0	0.1717	0.0172	0.4613
b'CHR2:170847706:T'	b'M55CtrlR2'	0	0.1906	0.0182	0.4613
b'CHR2:170847706:T'	b'M55CtrlR3'	0	0.1675	0.0155	0.4613
b'CHR2:170847706:T'	b'M55CtrlR4'	0	0.1544	0.0178	0.4613
b'CHR2:232381776:G'	b'M55CtrlR1'	0	0.1717	0.0172	0.4746
b'CHR2:232381776:G'	b'M55CtrlR2'	0	0.1906	0.0182	0.4746
b'CHR2:232381776:G'	b'M55CtrlR3'	0	0.1675	0.0155	0.4746
b'CHR2:232381776:G'	b'M55CtrlR4'	0	0.1544	0.0178	0.4746
b'CHR3:120415924:C'	b'M55CtrlR1'	0	0.1717	0.0172	0.3866
b'CHR3:120415924:C'	b'M55CtrlR2'	0	0.1906	0.0182	0.3866
b'CHR3:120415924:C'	b'M55CtrlR3'	0	0.1675	0.0155	0.3866
b'CHR3:120415924:C'	b'M55CtrlR4'	0	0.1544	0.0178	0.3866
b'CHR3:173807772:G'	b'M55CtrlR1'	0	0.1717	0.0172	0.5975
b'CHR3:173807772:G'	b'M55CtrlR2'	0	0.1906	0.0182	0.5975
b'CHR3:173807772:G'	b'M55CtrlR3'	0	0.1675	0.0155	0.5975
b'CHR3:173807772:G'	b'M55CtrlR4'	0	0.1544	0.0178	0.5975
b'CHR3:184577409:A'	b'M55CtrlR1'	0	0.1717	0.0172	0.8673
b'CHR3:184577409:A'	b'M55CtrlR2'	0	0.1906	0.0182	0.8673
b'CHR3:184577409:A'	b'M55CtrlR3'	0	0.1675	0.0155	0.8673
b'CHR3:184577409:A'	b'M55CtrlR4'	0	0.1544	0.0178	0.8673
b'CHR3:50320148:G'	b'M55CtrlR1'	0	0.1717	0.0172	0.9681
b'CHR3:50320148:G'	b'M55CtrlR2'	0	0.1906	0.0182	0.9681
b'CHR3:50320148:G'	b'M55CtrlR3'	0	0.1675	0.0155	0.9681
b'CHR3:50320148:G'	b'M55CtrlR4'	0	0.1544	0.0178	0.9681
b'CHR3:9950005:A'	b'M55CtrlR1'	0	0.1717	0.0172	0.9682
b'CHR3:9950005:A'	b'M55CtrlR2'	0	0.1906	0.0182	0.9682
b'CHR3:9950005:A'	b'M55CtrlR3'	0	0.1675	0.0155	0.9682
b'CHR3:9950005:A'	b'M55CtrlR4'	0	0.1544	0.0178	0.9682
b'CHR4:125317234:A'	b'M55CtrlR1'	0	0.1717	0.0172	0.9295
b'CHR4:125317234:A'	b'M55CtrlR2'	0	0.1906	0.0182	0.9295
b'CHR4:125317234:A'	b'M55CtrlR3'	0	0.1675	0.0155	0.9295
b'CHR4:125317234:A'	b'M55CtrlR4'	0	0.1544	0.0178	0.9295
b'CHR4:147673062:T'	b'M55CtrlR1'	0	0.1717	0.0172	0.7005
b'CHR4:147673062:T'	b'M55CtrlR2'	0	0.1906	0.0182	0.7005
b'CHR4:147673062:T'	b'M55CtrlR3'	0	0.1675	0.0155	0.7005
b'CHR4:147673062:T'	b'M55CtrlR4'	0	0.1544	0.0178	0.7005
b'CHR4:157333318:G'	b'M55CtrlR1'	0	0.1717	0.0172	0.4773
b'CHR4:157333318:G'	b'M55CtrlR2'	0	0.1906	0.0182	0.4773
b'CHR4:157333318:G'	b'M55CtrlR3'	0	0.1675	0.0155	0.4773
b'CHR4:157333318:G'	b'M55CtrlR4'	0	0.1544	0.0178	0.4773
b'CHR4:70644514:G'	b'M55CtrlR1'	0	0.1717	0.0172	0.7441
b'CHR4:70644514:G'	b'M55CtrlR2'	0	0.1906	0.0182	0.7441
b'CHR4:70644514:G'	b'M55CtrlR3'	0	0.1675	0.0155	0.7441
b'CHR4:70644514:G'	b'M55CtrlR4'	0	0.1544	0.0178	0.7441
b'CHR5:141491438:A'	b'M55CtrlR1'	0	0.1717	0.0172	0.9960
b'CHR5:141491438:A'	b'M55CtrlR2'	0	0.1906	0.0182	0.9960
b'CHR5:141491438:A'	b'M55CtrlR3'	0	0.1675	0.0155	0.9960
b'CHR5:141491438:A'	b'M55CtrlR4'	0	0.1544	0.0178	0.9960
b'CHR5:51389819:T'	b'M55CtrlR1'	0	0.1717	0.0172	0.4808
b'CHR5:51389819:T'	b'M55CtrlR2'	0	0.1906	0.0182	0.4808
b'CHR5:51389819:T'	b'M55CtrlR3'	0	0.1675	0.0155	0.4808
b'CHR5:51389819:T'	b'M55CtrlR4'	0	0.1544	0.0178	0.4808
b'CHR6:13711047:G'	b'M55CtrlR1'	0	0.1717	0.0172	0.6066
b'CHR6:13711047:G'	b'M55CtrlR2'	0	0.1906	0.0182	0.6066
b'CHR6:13711047:G'	b'M55CtrlR3'	0	0.1675	0.0155	0.6066
b'CHR6:13711047:G'	b'M55CtrlR4'	0	0.1544	0.0178	0.6066
b'CHR6:16326648:A'	b'M55CtrlR1'	0	0.1717	0.0172	0.6823
b'CHR6:16326648:A'	b'M55CtrlR2'	0	0.1906	0.0182	0.6823
b'CHR6:16326648:A'	b'M55CtrlR3'	0	0.1675	0.0155	0.6823
b'CHR6:16326648:A'	b'M55CtrlR4'	0	0.1544	0.0178	0.6823
b'CHR6:3264292:T'	b'M55CtrlR1'	0	0.1717	0.0172	0.7751
b'CHR6:3264292:T'	b'M55CtrlR2'	0	0.1906	0.0182	0.7751
b'CHR6:3264292:T'	b'M55CtrlR3'	0	0.1675	0.0155	0.7751
b'CHR6:3264292:T'	b'M55CtrlR4'	0	0.1544	0.0178	0.7751
b'CHR6:3264293:C'	b'M55CtrlR1'	0	0.1717	0.0172	0.7751
b'CHR6:3264293:C'	b'M55CtrlR2'	0	0.1906	0.0182	0.7751
b'CHR6:3264293:C'	b'M55CtrlR3'	0	0.1675	0.0155	0.7751
b'CHR6:3264293:C'	b'M55CtrlR4'	0	0.1544	0.0178	0.7751
b'CHR6:57174231:A'	b'M55CtrlR1'	0	0.1717	0.0172	0.6644
b'CHR6:57174231:A'	b'M55CtrlR2'	0	0.1906	0.0182	0.6644
b'CHR6:57174231:A'	b'M55CtrlR3'	0	0.1675	0.0155	0.6644
b'CHR6:57174231:A'	b'M55CtrlR4'	0	0.1544	0.0178	0.6644
b'CHR6:7601487:T'	b'M55CtrlR1'	0	0.1717	0.0172	0.6396
b'CHR6:7601487:T'	b'M55CtrlR2'	0	0.1906	0.0182	0.6396
b'CHR6:7601487:T'	b'M55CtrlR3'	0	0.1675	0.0155	0.6396
b'CHR6:7601487:T'	b'M55CtrlR4'	0	0.1544	0.0178	0.6396
b'CHR7:44539245:T'	b'M55CtrlR1'	0	0.1717	0.0172	0.6051
b'CHR7:44539245:T'	b'M55CtrlR2'	0	0.1906	0.0182	0.6051
b'CHR7:44539245:T'	b'M55CtrlR3'	0	0.1675	0.0155	0.6051
b'CHR7:44539245:T'	b'M55CtrlR4'	0	0.1544	0.0178	0.6051
b'CHR8:142785653:A'	b'M55CtrlR1'	0	0.1717	0.0172	0.8988
b'CHR8:142785653:A'	b'M55CtrlR2'	0	0.1906	0.0182	0.8988
b'CHR8:142785653:A'	b'M55CtrlR3'	0	0.1675	0.0155	0.8988
b'CHR8:142785653:A'	b'M55CtrlR4'	0	0.1544	0.0178	0.8988
b'CHR8:144040433:T'	b'M55CtrlR1'	0	0.1717	0.0172	0.7857
b'CHR8:144040433:T'	b'M55CtrlR2'	0	0.1906	0.0182	0.7857
b'CHR8:144040433:T'	b'M55CtrlR3'	0	0.1675	0.0155	0.7857
b'CHR8:144040433:T'	b'M55CtrlR4'	0	0.1544	0.0178	0.7857
b'CHR9:125326478:G'	b'M55CtrlR1'	0	0.1717	0.0172	0.9872
b'CHR9:125326478:G'	b'M55CtrlR2'	0	0.1906	0.0182	0.9872
b'CHR9:125326478:G'	b'M55CtrlR3'	0	0.1675	0.0155	0.9872
b'CHR9:125326478:G'	b'M55CtrlR4'	0	0.1544	0.0178	0.9872
b'CHR9:125337434:T'	b'M55CtrlR1'	0	0.1717	0.0172	0.6975
b'CHR9:125337434:T'	b'M55CtrlR2'	0	0.1906	0.0182	0.6975
b'CHR9:125337434:T'	b'M55CtrlR3'	0	0.1675	0.0155	0.6975
b'CHR9:125337434:T'	b'M55CtrlR4'	0	0.1544	0.0178	0.6975
b'CHR9:129068201:C'	b'M55CtrlR1'	0	0.1717	0.0172	0.8934
b'CHR9:129068201:C'	b'M55CtrlR2'	0	0.1906	0.0182	0.8934
b'CHR9:129068201:C'	b'M55CtrlR3'	0	0.1675	0.0155	0.8934
b'CHR9:129068201:C'	b'M55CtrlR4'	0	0.1544	0.0178	0.8934
b'CHR9:93952939:A'	b'M55CtrlR1'	0	0.1717	0.0172	0.8902
b'CHR9:93952939:A'	b'M55CtrlR2'	0	0.1906	0.0182	0.8902
b'CHR9:93952939:A'	b'M55CtrlR3'	0	0.1675	0.0155	0.8902
b'CHR9:93952939:A'	b'M55CtrlR4'	0	0.1544	0.0178	0.8902
b'CHR9:95086149:A'	b'M55CtrlR1'	0	0.1717	0.0172	0.6332
b'CHR9:95086149:A'	b'M55CtrlR2'	0	0.1906	0.0182	0.6332
b'CHR9:95086149:A'	b'M55CtrlR3'	0	0.1675	0.0155	0.6332
b'CHR9:95086149:A'	b'M55CtrlR4'	0	0.1544	0.0178	0.6332
b'CHR11:18729503:A'	b'M55CtrlR1'	1	0.2719	0.0288	0.3429
b'CHR11:18729503:A'	b'M55CtrlR2'	1	0.3098	0.0309	0.3429
b'CHR11:18729503:A'	b'M55CtrlR3'	1	0.3971	0.0345	0.3429
b'CHR11:18729503:A'	b'M55CtrlR4'	1	0.2855	0.0360	0.3429
b'CHR13:33016802:A'	b'M55CtrlR1'	1	0.2719	0.0288	0.3911
b'CHR13:33016802:A'	b'M55CtrlR2'	1	0.3098	0.0309	0.3911
b'CHR13:33016802:A'	b'M55CtrlR3'	1	0.3971	0.0345	0.3911
b'CHR13:33016802:A'	b'M55CtrlR4'	1	0.2855	0.0360	0.3911
b'CHR15:23566598:A'	b'M55CtrlR1'	1	0.2719	0.0288	0.5075
b'CHR15:23566598:A'	b'M55CtrlR2'	1	0.3098	0.0309	0.5075
b'CHR15:23566598:A'	b'M55CtrlR3'	1	0.3971	0.0345	0.5075
b'CHR15:23566598:A'	b'M55CtrlR4'	1	0.2855	0.0360	0.5075
b'CHR17:10539354:G'	b'M55CtrlR1'	1	0.2719	0.0288	0.7431
b'CHR17:10539354:G'	b'M55CtrlR2'	1	0.3098	0.0309	0.7431
b'CHR17:10539354:G'	b'M55CtrlR3'	1	0.3971	0.0345	0.7431
b'CHR17:10539354:G'	b'M55CtrlR4'	1	0.2855	0.0360	0.7431
b'CHR1:111242317:G'	b'M55CtrlR1'	1	0.2719	0.0288	0.4747
b'CHR1:111242317:G'	b'M55CtrlR2'	1	0.3098	0.0309	0.4747
b'CHR1:111242317:G'	b'M55CtrlR3'	1	0.3971	0.0345	0.4747
b'CHR1:111242317:G'	b'M55CtrlR4'	1	0.2855	0.0360	0.4747
b'CHR1:157586429:T'	b'M55CtrlR1'	1	0.2719	0.0288	0.8899
b'CHR1:157586429:T'	b'M55CtrlR2'	1	0.3098	0.0309	0.8899
b'CHR1:157586429:T'	b'M55CtrlR3'	1	0.3971	0.0345	0.8899
b'CHR1:157586429:T'	b'M55CtrlR4'	1	0.2855	0.0360	0.8899
b'CHR1:16759300:T'	b'M55CtrlR1'	1	0.2719	0.0288	0.9972
b'CHR1:16759300:T'	b'M55CtrlR2'	1	0.3098	0.0309	0.9972
b'CHR1:16759300:T'	b'M55CtrlR3'	1	0.3971	0.0345	0.9972
b'CHR1:16759300:T'	b'M55CtrlR4'	1	0.2855	0.0360	0.9972
b'CHR1:247423969:T'	b'M55CtrlR1'	1	0.2719	0.0288	0.9933
b'CHR1:247423969:T'	b'M55CtrlR2'	1	0.3098	0.0309	0.9933
b'CHR1:247423969:T'	b'M55CtrlR3'	1	0.3971	0.0345	0.9933
b'CHR1:247423969:T'	b'M55CtrlR4'	1	0.2855	0.0360	0.9933
b'CHR1:248273507:A'	b'M55CtrlR1'	1	0.2719	0.0288	0.4952
b'CHR1:248273507:A'	b'M55CtrlR2'	1	0.3098	0.0309	0.4952
b'CHR1:248273507:A'	b'M55CtrlR3'	1	0.3971	0.0345	0.4952
b'CHR1:248273507:A'	b'M55CtrlR4'	1	0.2855	0.0360	0.4952
b'CHR1:248273509:C'	b'M55CtrlR1'	1	0.2719	0.0288	0.4952
b'CHR1:248273509:C'	b'M55CtrlR2'	1	0.3098	0.0309	0.4952
b'CHR1:248273509:C'	b'M55CtrlR3'	1	0.3971	0.0345	0.4952
b'CHR1:248273509:C'	b'M55CtrlR4'	1	0.2855	0.0360	0.4952
b'CHR1:66893260:C'	b'M55CtrlR1'	1	0.2719	0.0288	0.3676
b'CHR1:66893260:C'	b'M55CtrlR2'	1	0.3098	0.0309	0.3676
b'CHR1:66893260:C'	b'M55CtrlR3'	1	0.3971	0.0345	0.3676
b'CHR1:66893260:C'	b'M55CtrlR4'	1	0.2855	0.0360	0.3676
b'CHR1:70039224:A'	b'M55CtrlR1'	1	0.2719	0.0288	0.4995
b'CHR1:70039224:A'	b'M55CtrlR2'	1	0.3098	0.0309	0.4995
b'CHR1:70039224:A'	b'M55CtrlR3'	1	0.3971	0.0345	0.4995
b'CHR1:70039224:A'	b'M55CtrlR4'	1	0.2855	0.0360	0.4995
b'CHR21:44591443:C'	b'M55CtrlR1'	1	0.2719	0.0288	0.7027
b'CHR21:44591443:C'	b'M55CtrlR2'	1	0.3098	0.0309	0.7027
b'CHR21:44591443:C'	b'M55CtrlR3'	1	0.3971	0.0345	0.7027
b'CHR21:44591443:C'	b'M55CtrlR4'	1	0.2855	0.0360	0.7027
b'CHR22:37018347:A'	b'M55CtrlR1'	1	0.2719	0.0288	0.4275
b'CHR22:37018347:A'	b'M55CtrlR2'	1	0.3098	0.0309	0.4275
b'CHR22:37018347:A'	b'M55CtrlR3'	1	0.3971	0.0345	0.4275
b'CHR22:37018347:A'	b'M55CtrlR4'	1	0.2855	0.0360	0.4275
b'CHR2:186838999:G'	b'M55CtrlR1'	1	0.2719	0.0288	0.3816
b'CHR2:186838999:G'	b'M55CtrlR2'	1	0.3098	0.0309	0.3816
b'CHR2:186838999:G'	b'M55CtrlR3'	1	0.3971	0.0345	0.3816
b'CHR2:186838999:G'	b'M55CtrlR4'	1	0.2855	0.0360	0.3816
b'CHR3:55073793:A'	b'M55CtrlR1'	1	0.2719	0.0288	0.5265
b'CHR3:55073793:A'	b'M55CtrlR2'	1	0.3098	0.0309	0.5265
b'CHR3:55073793:A'	b'M55CtrlR3'	1	0.3971	0.0345	0.5265
b'CHR3:55073793:A'	b'M55CtrlR4'	1	0.2855	0.0360	0.5265
b'CHR4:105942405:T'	b'M55CtrlR1'	1	0.2719	0.0288	0.5196
b'CHR4:105942405:T'	b'M55CtrlR2'	1	0.3098	0.0309	0.5196
b'CHR4:105942405:T'	b'M55CtrlR3'	1	0.3971	0.0345	0.5196
b'CHR4:105942405:T'	b'M55CtrlR4'	1	0.2855	0.0360	0.5196
b'CHR5:35807207:A'	b'M55CtrlR1'	1	0.2719	0.0288	0.4591
b'CHR5:35807207:A'	b'M55CtrlR2'	1	0.3098	0.0309	0.4591
b'CHR5:35807207:A'	b'M55CtrlR3'	1	0.3971	0.0345	0.4591
b'CHR5:35807207:A'	b'M55CtrlR4'	1	0.2855	0.0360	0.4591
b'CHR6:10687513:T'	b'M55CtrlR1'	1	0.2719	0.0288	0.8869
b'CHR6:10687513:T'	b'M55CtrlR2'	1	0.3098	0.0309	0.8869
b'CHR6:10687513:T'	b'M55CtrlR3'	1	0.3971	0.0345	0.8869
b'CHR6:10687513:T'	b'M55CtrlR4'	1	0.2855	0.0360	0.8869
b'CHR6:11193627:A'	b'M55CtrlR1'	1	0.2719	0.0288	0.9973
b'CHR6:11193627:A'	b'M55CtrlR2'	1	0.3098	0.0309	0.9973
b'CHR6:11193627:A'	b'M55CtrlR3'	1	0.3971	0.0345	0.9973
b'CHR6:11193627:A'	b'M55CtrlR4'	1	0.2855	0.0360	0.9973
b'CHR6:12120212:G'	b'M55CtrlR1'	1	0.2719	0.0288	0.9326
b'CHR6:12120212:G'	b'M55CtrlR2'	1	0.3098	0.0309	0.9326
b'CHR6:12120212:G'	b'M55CtrlR3'	1	0.3971	0.0345	0.9326
b'CHR6:12120212:G'	b'M55CtrlR4'	1	0.2855	0.0360	0.9326
b'CHR6:154832130:T'	b'M55CtrlR1'	1	0.2719	0.0288	0.4607
b'CHR6:154832130:T'	b'M55CtrlR2'	1	0.3098	0.0309	0.4607
b'CHR6:154832130:T'	b'M55CtrlR3'	1	0.3971	0.0345	0.4607
b'CHR6:154832130:T'	b'M55CtrlR4'	1	0.2855	0.0360	0.4607
b'CHR6:2749147:T'	b'M55CtrlR1'	1	0.2719	0.0288	0.7515
b'CHR6:2749147:T'	b'M55CtrlR2'	1	0.3098	0.0309	0.7515
b'CHR6:2749147:T'	b'M55CtrlR3'	1	0.3971	0.0345	0.7515
b'CHR6:2749147:T'	b'M55CtrlR4'	1	0.2855	0.0360	0.7515
b'CHR6:7393219:T'	b'M55CtrlR1'	1	0.2719	0.0288	0.7031
b'CHR6:7393219:T'	b'M55CtrlR2'	1	0.3098	0.0309	0.7031
b'CHR6:7393219:T'	b'M55CtrlR3'	1	0.3971	0.0345	0.7031
b'CHR6:7393219:T'	b'M55CtrlR4'	1	0.2855	0.0360	0.7031
b'CHR6:7581403:A'	b'M55CtrlR1'	1	0.2719	0.0288	0.8508
b'CHR6:7581403:A'	b'M55CtrlR2'	1	0.3098	0.0309	0.8508
b'CHR6:7581403:A'	b'M55CtrlR3'	1	0.3971	0.0345	0.8508
b'CHR6:7581403:A'	b'M55CtrlR4'	1	0.2855	0.0360	0.8508
b'CHR6:9775825:A'	b'M55CtrlR1'	1	0.2719	0.0288	0.7849
b'CHR6:9775825:A'	b'M55CtrlR2'	1	0.3098	0.0309	0.7849
b'CHR6:9775825:A'	b'M55CtrlR3'	1	0.3971	0.0345	0.7849
b'CHR6:9775825:A'	b'M55CtrlR4'	1	0.2855	0.0360	0.7849
b'CHR7:39085988:C'	b'M55CtrlR1'	1	0.2719	0.0288	0.3202
b'CHR7:39085988:C'	b'M55CtrlR2'	1	0.3098	0.0309	0.3202
b'CHR7:39085988:C'	b'M55CtrlR3'	1	0.3971	0.0345	0.3202
b'CHR7:39085988:C'	b'M55CtrlR4'	1	0.2855	0.0360	0.3202
b'CHR7:55747834:A'	b'M55CtrlR1'	1	0.2719	0.0288	0.3676
b'CHR7:55747834:A'	b'M55CtrlR2'	1	0.3098	0.0309	0.3676
b'CHR7:55747834:A'	b'M55CtrlR3'	1	0.3971	0.0345	0.3676
b'CHR7:55747834:A'	b'M55CtrlR4'	1	0.2855	0.0360	0.3676
b'CHR9:95881156:A'	b'M55CtrlR1'	1	0.2719	0.0288	0.5301
b'CHR9:95881156:A'	b'M55CtrlR2'	1	0.3098	0.0309	0.5301
b'CHR9:95881156:A'	b'M55CtrlR3'	1	0.3971	0.0345	0.5301
b'CHR9:95881156:A'	b'M55CtrlR4'	1	0.2855	0.0360	0.5301
b'CHR10:92240093:G'	b'M55CtrlR1'	2	0.4304	0.0351	0.3223
b'CHR10:92240093:G'	b'M55CtrlR2'	2	0.7673	0.0542	0.3223
b'CHR10:92240093:G'	b'M55CtrlR3'	2	0.7710	0.0471	0.3223
b'CHR10:92240093:G'	b'M55CtrlR4'	2	0.7306	0.0534	0.3223
b'CHR11:120128675:T'	b'M55CtrlR1'	2	0.4304	0.0351	0.9863
b'CHR11:120128675:T'	b'M55CtrlR2'	2	0.7673	0.0542	0.9863
b'CHR11:120128675:T'	b'M55CtrlR3'	2	0.7710	0.0471	0.9863
b'CHR11:120128675:T'	b'M55CtrlR4'	2	0.7306	0.0534	0.9863
b'CHR13:110715518:T'	b'M55CtrlR1'	2	0.4304	0.0351	0.3131
b'CHR13:110715518:T'	b'M55CtrlR2'	2	0.7673	0.0542	0.3131
b'CHR13:110715518:T'	b'M55CtrlR3'	2	0.7710	0.0471	0.3131
b'CHR13:110715518:T'	b'M55CtrlR4'	2	0.7306	0.0534	0.3131
b'CHR14:70060875:T'	b'M55CtrlR1'	2	0.4304	0.0351	0.3313
b'CHR14:70060875:T'	b'M55CtrlR2'	2	0.7673	0.0542	0.3313
b'CHR14:70060875:T'	b'M55CtrlR3'	2	0.7710	0.0471	0.3313
b'CHR14:70060875:T'	b'M55CtrlR4'	2	0.7306	0.0534	0.3313
b'CHR17:81937211:G'	b'M55CtrlR1'	2	0.4304	0.0351	0.3894
b'CHR17:81937211:G'	b'M55CtrlR2'	2	0.7673	0.0542	0.3894
b'CHR17:81937211:G'	b'M55CtrlR3'	2	0.7710	0.0471	0.3894
b'CHR17:81937211:G'	b'M55CtrlR4'	2	0.7306	0.0534	0.3894
b'CHR19:13209361:T'	b'M55CtrlR1'	2	0.4304	0.0351	0.4839
b'CHR19:13209361:T'	b'M55CtrlR2'	2	0.7673	0.0542	0.4839
b'CHR19:13209361:T'	b'M55CtrlR3'	2	0.7710	0.0471	0.4839
b'CHR19:13209361:T'	b'M55CtrlR4'	2	0.7306	0.0534	0.4839
b'CHR19:52881597:A'	b'M55CtrlR1'	2	0.4304	0.0351	0.9996
b'CHR19:52881597:A'	b'M55CtrlR2'	2	0.7673	0.0542	0.9996
b'CHR19:52881597:A'	b'M55CtrlR3'	2	0.7710	0.0471	0.9996
b'CHR19:52881597:A'	b'M55CtrlR4'	2	0.7306	0.0534	0.9996
b'CHR1:155054385:T'	b'M55CtrlR1'	2	0.4304	0.0351	0.8721
b'CHR1:155054385:T'	b'M55CtrlR2'	2	0.7673	0.0542	0.8721
b'CHR1:155054385:T'	b'M55CtrlR3'	2	0.7710	0.0471	0.8721
b'CHR1:155054385:T'	b'M55CtrlR4'	2	0.7306	0.0534	0.8721
b'CHR1:16409637:C'	b'M55CtrlR1'	2	0.4304	0.0351	0.6573
b'CHR1:16409637:C'	b'M55CtrlR2'	2	0.7673	0.0542	0.6573
b'CHR1:16409637:C'	b'M55CtrlR3'	2	0.7710	0.0471	0.6573
b'CHR1:16409637:C'	b'M55CtrlR4'	2	0.7306	0.0534	0.6573
b'CHR1:17070097:A'	b'M55CtrlR1'	2	0.4304	0.0351	0.7606
b'CHR1:17070097:A'	b'M55CtrlR2'	2	0.7673	0.0542	0.7606
b'CHR1:17070097:A'	b'M55CtrlR3'	2	0.7710	0.0471	0.7606
b'CHR1:17070097:A'	b'M55CtrlR4'	2	0.7306	0.0534	0.7606
b'CHR1:202160698:C'	b'M55CtrlR1'	2	0.4304	0.0351	0.8322
b'CHR1:202160698:C'	b'M55CtrlR2'	2	0.7673	0.0542	0.8322
b'CHR1:202160698:C'	b'M55CtrlR3'	2	0.7710	0.0471	0.8322
b'CHR1:202160698:C'	b'M55CtrlR4'	2	0.7306	0.0534	0.8322
b'CHR1:215567710:G'	b'M55CtrlR1'	2	0.4304	0.0351	0.9542
b'CHR1:215567710:G'	b'M55CtrlR2'	2	0.7673	0.0542	0.9542
b'CHR1:215567710:G'	b'M55CtrlR3'	2	0.7710	0.0471	0.9542
b'CHR1:215567710:G'	b'M55CtrlR4'	2	0.7306	0.0534	0.9542
b'CHR1:230921501:T'	b'M55CtrlR1'	2	0.4304	0.0351	0.8019
b'CHR1:230921501:T'	b'M55CtrlR2'	2	0.7673	0.0542	0.8019
b'CHR1:230921501:T'	b'M55CtrlR3'	2	0.7710	0.0471	0.8019
b'CHR1:230921501:T'	b'M55CtrlR4'	2	0.7306	0.0534	0.8019
b'CHR1:25243590:C'	b'M55CtrlR1'	2	0.4304	0.0351	0.8631
b'CHR1:25243590:C'	b'M55CtrlR2'	2	0.7673	0.0542	0.8631
b'CHR1:25243590:C'	b'M55CtrlR3'	2	0.7710	0.0471	0.8631
b'CHR1:25243590:C'	b'M55CtrlR4'	2	0.7306	0.0534	0.8631
b'CHR1:26952030:A'	b'M55CtrlR1'	2	0.4304	0.0351	0.6659
b'CHR1:26952030:A'	b'M55CtrlR2'	2	0.7673	0.0542	0.6659
b'CHR1:26952030:A'	b'M55CtrlR3'	2	0.7710	0.0471	0.6659
b'CHR1:26952030:A'	b'M55CtrlR4'	2	0.7306	0.0534	0.6659
b'CHR1:31698605:G'	b'M55CtrlR1'	2	0.4304	0.0351	0.8149
b'CHR1:31698605:G'	b'M55CtrlR2'	2	0.7673	0.0542	0.8149
b'CHR1:31698605:G'	b'M55CtrlR3'	2	0.7710	0.0471	0.8149
b'CHR1:31698605:G'	b'M55CtrlR4'	2	0.7306	0.0534	0.8149
b'CHR1:3763211:T'	b'M55CtrlR1'	2	0.4304	0.0351	0.9613
b'CHR1:3763211:T'	b'M55CtrlR2'	2	0.7673	0.0542	0.9613
b'CHR1:3763211:T'	b'M55CtrlR3'	2	0.7710	0.0471	0.9613
b'CHR1:3763211:T'	b'M55CtrlR4'	2	0.7306	0.0534	0.9613
b'CHR1:53594343:C'	b'M55CtrlR1'	2	0.4304	0.0351	0.7047
b'CHR1:53594343:C'	b'M55CtrlR2'	2	0.7673	0.0542	0.7047
b'CHR1:53594343:C'	b'M55CtrlR3'	2	0.7710	0.0471	0.7047
b'CHR1:53594343:C'	b'M55CtrlR4'	2	0.7306	0.0534	0.7047
b'CHR2:107859472:T'	b'M55CtrlR1'	2	0.4304	0.0351	0.8321
b'CHR2:107859472:T'	b'M55CtrlR2'	2	0.7673	0.0542	0.8321
b'CHR2:107859472:T'	b'M55CtrlR3'	2	0.7710	0.0471	0.8321
b'CHR2:107859472:T'	b'M55CtrlR4'	2	0.7306	0.0534	0.8321
b'CHR2:219451248:A'	b'M55CtrlR1'	2	0.4304	0.0351	0.9094
b'CHR2:219451248:A'	b'M55CtrlR2'	2	0.7673	0.0542	0.9094
b'CHR2:219451248:A'	b'M55CtrlR3'	2	0.7710	0.0471	0.9094
b'CHR2:219451248:A'	b'M55CtrlR4'	2	0.7306	0.0534	0.9094
b'CHR3:123092379:A'	b'M55CtrlR1'	2	0.4304	0.0351	0.4678
b'CHR3:123092379:A'	b'M55CtrlR2'	2	0.7673	0.0542	0.4678
b'CHR3:123092379:A'	b'M55CtrlR3'	2	0.7710	0.0471	0.4678
b'CHR3:123092379:A'	b'M55CtrlR4'	2	0.7306	0.0534	0.4678
b'CHR3:171082335:T'	b'M55CtrlR1'	2	0.4304	0.0351	0.4019
b'CHR3:171082335:T'	b'M55CtrlR2'	2	0.7673	0.0542	0.4019
b'CHR3:171082335:T'	b'M55CtrlR3'	2	0.7710	0.0471	0.4019
b'CHR3:171082335:T'	b'M55CtrlR4'	2	0.7306	0.0534	0.4019
b'CHR3:48447042:C'	b'M55CtrlR1'	2	0.4304	0.0351	0.9516
b'CHR3:48447042:C'	b'M55CtrlR2'	2	0.7673	0.0542	0.9516
b'CHR3:48447042:C'	b'M55CtrlR3'	2	0.7710	0.0471	0.9516
b'CHR3:48447042:C'	b'M55CtrlR4'	2	0.7306	0.0534	0.9516
b'CHR5:150540177:C'	b'M55CtrlR1'	2	0.4304	0.0351	0.6062
b'CHR5:150540177:C'	b'M55CtrlR2'	2	0.7673	0.0542	0.6062
b'CHR5:150540177:C'	b'M55CtrlR3'	2	0.7710	0.0471	0.6062
b'CHR5:150540177:C'	b'M55CtrlR4'	2	0.7306	0.0534	0.6062
b'CHR6:7577027:T'	b'M55CtrlR1'	2	0.4304	0.0351	0.8032
b'CHR6:7577027:T'	b'M55CtrlR2'	2	0.7673	0.0542	0.8032
b'CHR6:7577027:T'	b'M55CtrlR3'	2	0.7710	0.0471	0.8032
b'CHR6:7577027:T'	b'M55CtrlR4'	2	0.7306	0.0534	0.8032
b'CHR7:39085990:C'	b'M55CtrlR1'	2	0.4304	0.0351	0.3030
b'CHR7:39085990:C'	b'M55CtrlR2'	2	0.7673	0.0542	0.3030
b'CHR7:39085990:C'	b'M55CtrlR3'	2	0.7710	0.0471	0.3030
b'CHR7:39085990:C'	b'M55CtrlR4'	2	0.7306	0.0534	0.3030
b'CHR10:128101279:T'	b'M55CtrlR1'	3	0.9106	0.0394	0.9969
b'CHR10:128101279:T'	b'M55CtrlR2'	3	0.8659	0.0398	0.9969
b'CHR10:128101279:T'	b'M55CtrlR3'	3	0.8488	0.0395	0.9969
b'CHR10:128101279:T'	b'M55CtrlR4'	3	0.7299	0.0399	0.9969
b'CHR14:31178233:C'	b'M55CtrlR1'	3	0.9106	0.0394	0.9984
b'CHR14:31178233:C'	b'M55CtrlR2'	3	0.8659	0.0398	0.9984
b'CHR14:31178233:C'	b'M55CtrlR3'	3	0.8488	0.0395	0.9984
b'CHR14:31178233:C'	b'M55CtrlR4'	3	0.7299	0.0399	0.9984
b'CHR16:1241453:A'	b'M55CtrlR1'	3	0.9106	0.0394	0.6693
b'CHR16:1241453:A'	b'M55CtrlR2'	3	0.8659	0.0398	0.6693
b'CHR16:1241453:A'	b'M55CtrlR3'	3	0.8488	0.0395	0.6693
b'CHR16:1241453:A'	b'M55CtrlR4'	3	0.7299	0.0399	0.6693
b'CHR16:28342968:A'	b'M55CtrlR1'	3	0.9106	0.0394	0.3793
b'CHR16:28342968:A'	b'M55CtrlR2'	3	0.8659	0.0398	0.3793
b'CHR16:28342968:A'	b'M55CtrlR3'	3	0.8488	0.0395	0.3793
b'CHR16:28342968:A'	b'M55CtrlR4'	3	0.7299	0.0399	0.3793
b'CHR19:1049270:A'	b'M55CtrlR1'	3	0.9106	0.0394	0.9684
b'CHR19:1049270:A'	b'M55CtrlR2'	3	0.8659	0.0398	0.9684
b'CHR19:1049270:A'	b'M55CtrlR3'	3	0.8488	0.0395	0.9684
b'CHR19:1049270:A'	b'M55CtrlR4'	3	0.7299	0.0399	0.9684
b'CHR1:11706367:T'	b'M55CtrlR1'	3	0.9106	0.0394	0.9501
b'CHR1:11706367:T'	b'M55CtrlR2'	3	0.8659	0.0398	0.9501
b'CHR1:11706367:T'	b'M55CtrlR3'	3	0.8488	0.0395	0.9501
b'CHR1:11706367:T'	b'M55CtrlR4'	3	0.7299	0.0399	0.9501
b'CHR1:11779915:A'	b'M55CtrlR1'	3	0.9106	0.0394	0.9301
b'CHR1:11779915:A'	b'M55CtrlR2'	3	0.8659	0.0398	0.9301
b'CHR1:11779915:A'	b'M55CtrlR3'	3	0.8488	0.0395	0.9301
b'CHR1:11779915:A'	b'M55CtrlR4'	3	0.7299	0.0399	0.9301
b'CHR1:13343011:A'	b'M55CtrlR1'	3	0.9106	0.0394	0.9754
b'CHR1:13343011:A'	b'M55CtrlR2'	3	0.8659	0.0398	0.9754
b'CHR1:13343011:A'	b'M55CtrlR3'	3	0.8488	0.0395	0.9754
b'CHR1:13343011:A'	b'M55CtrlR4'	3	0.7299	0.0399	0.9754
b'CHR1:13421192:T'	b'M55CtrlR1'	3	0.9106	0.0394	0.9650
b'CHR1:13421192:T'	b'M55CtrlR2'	3	0.8659	0.0398	0.9650
b'CHR1:13421192:T'	b'M55CtrlR3'	3	0.8488	0.0395	0.9650
b'CHR1:13421192:T'	b'M55CtrlR4'	3	0.7299	0.0399	0.9650
b'CHR1:13782619:G'	b'M55CtrlR1'	3	0.9106	0.0394	0.9869
b'CHR1:13782619:G'	b'M55CtrlR2'	3	0.8659	0.0398	0.9869
b'CHR1:13782619:G'	b'M55CtrlR3'	3	0.8488	0.0395	0.9869
b'CHR1:13782619:G'	b'M55CtrlR4'	3	0.7299	0.0399	0.9869
b'CHR1:15939409:A'	b'M55CtrlR1'	3	0.9106	0.0394	0.9996
b'CHR1:15939409:A'	b'M55CtrlR2'	3	0.8659	0.0398	0.9996
b'CHR1:15939409:A'	b'M55CtrlR3'	3	0.8488	0.0395	0.9996
b'CHR1:15939409:A'	b'M55CtrlR4'	3	0.7299	0.0399	0.9996
b'CHR1:160155085:A'	b'M55CtrlR1'	3	0.9106	0.0394	0.4888
b'CHR1:160155085:A'	b'M55CtrlR2'	3	0.8659	0.0398	0.4888
b'CHR1:160155085:A'	b'M55CtrlR3'	3	0.8488	0.0395	0.4888
b'CHR1:160155085:A'	b'M55CtrlR4'	3	0.7299	0.0399	0.4888
b'CHR1:17079314:A'	b'M55CtrlR1'	3	0.9106	0.0394	0.9734
b'CHR1:17079314:A'	b'M55CtrlR2'	3	0.8659	0.0398	0.9734
b'CHR1:17079314:A'	b'M55CtrlR3'	3	0.8488	0.0395	0.9734
b'CHR1:17079314:A'	b'M55CtrlR4'	3	0.7299	0.0399	0.9734
b'CHR1:17084646:G'	b'M55CtrlR1'	3	0.9106	0.0394	0.5403
b'CHR1:17084646:G'	b'M55CtrlR2'	3	0.8659	0.0398	0.5403
b'CHR1:17084646:G'	b'M55CtrlR3'	3	0.8488	0.0395	0.5403
b'CHR1:17084646:G'	b'M55CtrlR4'	3	0.7299	0.0399	0.5403
b'CHR1:18854521:C'	b'M55CtrlR1'	3	0.9106	0.0394	0.4232
b'CHR1:18854521:C'	b'M55CtrlR2'	3	0.8659	0.0398	0.4232
b'CHR1:18854521:C'	b'M55CtrlR3'	3	0.8488	0.0395	0.4232
b'CHR1:18854521:C'	b'M55CtrlR4'	3	0.7299	0.0399	0.4232
b'CHR1:18854588:C'	b'M55CtrlR1'	3	0.9106	0.0394	0.4017
b'CHR1:18854588:C'	b'M55CtrlR2'	3	0.8659	0.0398	0.4017
b'CHR1:18854588:C'	b'M55CtrlR3'	3	0.8488	0.0395	0.4017
b'CHR1:18854588:C'	b'M55CtrlR4'	3	0.7299	0.0399	0.4017
b'CHR1:18877503:G'	b'M55CtrlR1'	3	0.9106	0.0394	0.7094
b'CHR1:18877503:G'	b'M55CtrlR2'	3	0.8659	0.0398	0.7094
b'CHR1:18877503:G'	b'M55CtrlR3'	3	0.8488	0.0395	0.7094
b'CHR1:18877503:G'	b'M55CtrlR4'	3	0.7299	0.0399	0.7094
b'CHR1:19282760:C'	b'M55CtrlR1'	3	0.9106	0.0394	0.9952
b'CHR1:19282760:C'	b'M55CtrlR2'	3	0.8659	0.0398	0.9952
b'CHR1:19282760:C'	b'M55CtrlR3'	3	0.8488	0.0395	0.9952
b'CHR1:19282760:C'	b'M55CtrlR4'	3	0.7299	0.0399	0.9952
b'CHR1:19623568:C'	b'M55CtrlR1'	3	0.9106	0.0394	0.9354
b'CHR1:19623568:C'	b'M55CtrlR2'	3	0.8659	0.0398	0.9354
b'CHR1:19623568:C'	b'M55CtrlR3'	3	0.8488	0.0395	0.9354
b'CHR1:19623568:C'	b'M55CtrlR4'	3	0.7299	0.0399	0.9354
b'CHR1:20084839:T'	b'M55CtrlR1'	3	0.9106	0.0394	0.9670
b'CHR1:20084839:T'	b'M55CtrlR2'	3	0.8659	0.0398	0.9670
b'CHR1:20084839:T'	b'M55CtrlR3'	3	0.8488	0.0395	0.9670
b'CHR1:20084839:T'	b'M55CtrlR4'	3	0.7299	0.0399	0.9670
b'CHR1:21874505:T'	b'M55CtrlR1'	3	0.9106	0.0394	0.6011
b'CHR1:21874505:T'	b'M55CtrlR2'	3	0.8659	0.0398	0.6011
b'CHR1:21874505:T'	b'M55CtrlR3'	3	0.8488	0.0395	0.6011
b'CHR1:21874505:T'	b'M55CtrlR4'	3	0.7299	0.0399	0.6011
b'CHR1:22526222:C'	b'M55CtrlR1'	3	0.9106	0.0394	0.9570
b'CHR1:22526222:C'	b'M55CtrlR2'	3	0.8659	0.0398	0.9570
b'CHR1:22526222:C'	b'M55CtrlR3'	3	0.8488	0.0395	0.9570
b'CHR1:22526222:C'	b'M55CtrlR4'	3	0.7299	0.0399	0.9570
b'CHR1:26344118:T'	b'M55CtrlR1'	3	0.9106	0.0394	0.9417
b'CHR1:26344118:T'	b'M55CtrlR2'	3	0.8659	0.0398	0.9417
b'CHR1:26344118:T'	b'M55CtrlR3'	3	0.8488	0.0395	0.9417
b'CHR1:26344118:T'	b'M55CtrlR4'	3	0.7299	0.0399	0.9417
b'CHR1:27360975:T'	b'M55CtrlR1'	3	0.9106	0.0394	0.7201
b'CHR1:27360975:T'	b'M55CtrlR2'	3	0.8659	0.0398	0.7201
b'CHR1:27360975:T'	b'M55CtrlR3'	3	0.8488	0.0395	0.7201
b'CHR1:27360975:T'	b'M55CtrlR4'	3	0.7299	0.0399	0.7201
b'CHR1:31630664:G'	b'M55CtrlR1'	3	0.9106	0.0394	0.9954
b'CHR1:31630664:G'	b'M55CtrlR2'	3	0.8659	0.0398	0.9954
b'CHR1:31630664:G'	b'M55CtrlR3'	3	0.8488	0.0395	0.9954
b'CHR1:31630664:G'	b'M55CtrlR4'	3	0.7299	0.0399	0.9954
b'CHR1:32770050:G'	b'M55CtrlR1'	3	0.9106	0.0394	0.5087
b'CHR1:32770050:G'	b'M55CtrlR2'	3	0.8659	0.0398	0.5087
b'CHR1:32770050:G'	b'M55CtrlR3'	3	0.8488	0.0395	0.5087
b'CHR1:32770050:G'	b'M55CtrlR4'	3	0.7299	0.0399	0.5087
b'CHR1:33494462:G'	b'M55CtrlR1'	3	0.9106	0.0394	0.9515
b'CHR1:33494462:G'	b'M55CtrlR2'	3	0.8659	0.0398	0.9515
b'CHR1:33494462:G'	b'M55CtrlR3'	3	0.8488	0.0395	0.9515
b'CHR1:33494462:G'	b'M55CtrlR4'	3	0.7299	0.0399	0.9515
b'CHR1:3478610:A'	b'M55CtrlR1'	3	0.9106	0.0394	0.9247
b'CHR1:3478610:A'	b'M55CtrlR2'	3	0.8659	0.0398	0.9247
b'CHR1:3478610:A'	b'M55CtrlR3'	3	0.8488	0.0395	0.9247
b'CHR1:3478610:A'	b'M55CtrlR4'	3	0.7299	0.0399	0.9247
b'CHR1:51840355:A'	b'M55CtrlR1'	3	0.9106	0.0394	0.9546
b'CHR1:51840355:A'	b'M55CtrlR2'	3	0.8659	0.0398	0.9546
b'CHR1:51840355:A'	b'M55CtrlR3'	3	0.8488	0.0395	0.9546
b'CHR1:51840355:A'	b'M55CtrlR4'	3	0.7299	0.0399	0.9546
b'CHR1:53247055:T'	b'M55CtrlR1'	3	0.9106	0.0394	0.9470
b'CHR1:53247055:T'	b'M55CtrlR2'	3	0.8659	0.0398	0.9470
b'CHR1:53247055:T'	b'M55CtrlR3'	3	0.8488	0.0395	0.9470
b'CHR1:53247055:T'	b'M55CtrlR4'	3	0.7299	0.0399	0.9470
b'CHR1:53250744:A'	b'M55CtrlR1'	3	0.9106	0.0394	0.6036
b'CHR1:53250744:A'	b'M55CtrlR2'	3	0.8659	0.0398	0.6036
b'CHR1:53250744:A'	b'M55CtrlR3'	3	0.8488	0.0395	0.6036
b'CHR1:53250744:A'	b'M55CtrlR4'	3	0.7299	0.0399	0.6036
b'CHR1:53594575:C'	b'M55CtrlR1'	3	0.9106	0.0394	0.7286
b'CHR1:53594575:C'	b'M55CtrlR2'	3	0.8659	0.0398	0.7286
b'CHR1:53594575:C'	b'M55CtrlR3'	3	0.8488	0.0395	0.7286
b'CHR1:53594575:C'	b'M55CtrlR4'	3	0.7299	0.0399	0.7286
b'CHR1:63323280:A'	b'M55CtrlR1'	3	0.9106	0.0394	0.9794
b'CHR1:63323280:A'	b'M55CtrlR2'	3	0.8659	0.0398	0.9794
b'CHR1:63323280:A'	b'M55CtrlR3'	3	0.8488	0.0395	0.9794
b'CHR1:63323280:A'	b'M55CtrlR4'	3	0.7299	0.0399	0.9794
b'CHR1:63415881:T'	b'M55CtrlR1'	3	0.9106	0.0394	0.4552
b'CHR1:63415881:T'	b'M55CtrlR2'	3	0.8659	0.0398	0.4552
b'CHR1:63415881:T'	b'M55CtrlR3'	3	0.8488	0.0395	0.4552
b'CHR1:63415881:T'	b'M55CtrlR4'	3	0.7299	0.0399	0.4552
b'CHR1:64844806:C'	b'M55CtrlR1'	3	0.9106	0.0394	0.5602
b'CHR1:64844806:C'	b'M55CtrlR2'	3	0.8659	0.0398	0.5602
b'CHR1:64844806:C'	b'M55CtrlR3'	3	0.8488	0.0395	0.5602
b'CHR1:64844806:C'	b'M55CtrlR4'	3	0.7299	0.0399	0.5602
b'CHR1:7827188:A'	b'M55CtrlR1'	3	0.9106	0.0394	0.9734
b'CHR1:7827188:A'	b'M55CtrlR2'	3	0.8659	0.0398	0.9734
b'CHR1:7827188:A'	b'M55CtrlR3'	3	0.8488	0.0395	0.9734
b'CHR1:7827188:A'	b'M55CtrlR4'	3	0.7299	0.0399	0.9734
b'CHR1:942934:C'	b'M55CtrlR1'	3	0.9106	0.0394	0.9263
b'CHR1:942934:C'	b'M55CtrlR2'	3	0.8659	0.0398	0.9263
b'CHR1:942934:C'	b'M55CtrlR3'	3	0.8488	0.0395	0.9263
b'CHR1:942934:C'	b'M55CtrlR4'	3	0.7299	0.0399	0.9263
b'CHR2:73291715:T'	b'M55CtrlR1'	3	0.9106	0.0394	0.5726
b'CHR2:73291715:T'	b'M55CtrlR2'	3	0.8659	0.0398	0.5726
b'CHR2:73291715:T'	b'M55CtrlR3'	3	0.8488	0.0395	0.5726
b'CHR2:73291715:T'	b'M55CtrlR4'	3	0.7299	0.0399	0.5726
b'CHR7:151066568:A'	b'M55CtrlR1'	3	0.9106	0.0394	0.5334
b'CHR7:151066568:A'	b'M55CtrlR2'	3	0.8659	0.0398	0.5334
b'CHR7:151066568:A'	b'M55CtrlR3'	3	0.8488	0.0395	0.5334
b'CHR7:151066568:A'	b'M55CtrlR4'	3	0.7299	0.0399	0.5334
b'CHR3:41800280:T'	b'M55CtrlR1'	4	0.7937	0.1129	0.7034
b'CHR3:41800280:T'	b'M55CtrlR2'	4	0.3086	0.0741	0.7034
b'CHR3:41800280:T'	b'M55CtrlR3'	4	0.7769	0.1279	0.7034
b'CHR3:41800280:T'	b'M55CtrlR4'	4	0.5023	0.0980	0.7034
b'CHR9:26928213:T'	b'M55CtrlR1'	4	0.7937	0.1129	0.9991
b'CHR9:26928213:T'	b'M55CtrlR2'	4	0.3086	0.0741	0.9991
b'CHR9:26928213:T'	b'M55CtrlR3'	4	0.7769	0.1279	0.9991
b'CHR9:26928213:T'	b'M55CtrlR4'	4	0.5023	0.0980	0.9991
