mutation_id	sample_id	cluster_id	cellular_prevalence	cellular_prevalence_std	cluster_assignment_prob
b'CHR10:128101279:T'	b'M55CtrlR1'	0	0.9111	0.0394	0.9969
b'CHR10:128101279:T'	b'M55CtrlR2'	0	0.8664	0.0398	0.9969
b'CHR10:128101279:T'	b'M55CtrlR3'	0	0.8486	0.0395	0.9969
b'CHR10:128101279:T'	b'M55CtrlR4'	0	0.7301	0.0399	0.9969
b'CHR14:31178233:C'	b'M55CtrlR1'	0	0.9111	0.0394	0.9984
b'CHR14:31178233:C'	b'M55CtrlR2'	0	0.8664	0.0398	0.9984
b'CHR14:31178233:C'	b'M55CtrlR3'	0	0.8486	0.0395	0.9984
b'CHR14:31178233:C'	b'M55CtrlR4'	0	0.7301	0.0399	0.9984
b'CHR16:1241453:A'	b'M55CtrlR1'	0	0.9111	0.0394	0.6689
b'CHR16:1241453:A'	b'M55CtrlR2'	0	0.8664	0.0398	0.6689
b'CHR16:1241453:A'	b'M55CtrlR3'	0	0.8486	0.0395	0.6689
b'CHR16:1241453:A'	b'M55CtrlR4'	0	0.7301	0.0399	0.6689
b'CHR16:28342968:A'	b'M55CtrlR1'	0	0.9111	0.0394	0.3824
b'CHR16:28342968:A'	b'M55CtrlR2'	0	0.8664	0.0398	0.3824
b'CHR16:28342968:A'	b'M55CtrlR3'	0	0.8486	0.0395	0.3824
b'CHR16:28342968:A'	b'M55CtrlR4'	0	0.7301	0.0399	0.3824
b'CHR19:1049270:A'	b'M55CtrlR1'	0	0.9111	0.0394	0.9680
b'CHR19:1049270:A'	b'M55CtrlR2'	0	0.8664	0.0398	0.9680
b'CHR19:1049270:A'	b'M55CtrlR3'	0	0.8486	0.0395	0.9680
b'CHR19:1049270:A'	b'M55CtrlR4'	0	0.7301	0.0399	0.9680
b'CHR1:11706367:T'	b'M55CtrlR1'	0	0.9111	0.0394	0.9497
b'CHR1:11706367:T'	b'M55CtrlR2'	0	0.8664	0.0398	0.9497
b'CHR1:11706367:T'	b'M55CtrlR3'	0	0.8486	0.0395	0.9497
b'CHR1:11706367:T'	b'M55CtrlR4'	0	0.7301	0.0399	0.9497
b'CHR1:11779915:A'	b'M55CtrlR1'	0	0.9111	0.0394	0.9297
b'CHR1:11779915:A'	b'M55CtrlR2'	0	0.8664	0.0398	0.9297
b'CHR1:11779915:A'	b'M55CtrlR3'	0	0.8486	0.0395	0.9297
b'CHR1:11779915:A'	b'M55CtrlR4'	0	0.7301	0.0399	0.9297
b'CHR1:13343011:A'	b'M55CtrlR1'	0	0.9111	0.0394	0.9753
b'CHR1:13343011:A'	b'M55CtrlR2'	0	0.8664	0.0398	0.9753
b'CHR1:13343011:A'	b'M55CtrlR3'	0	0.8486	0.0395	0.9753
b'CHR1:13343011:A'	b'M55CtrlR4'	0	0.7301	0.0399	0.9753
b'CHR1:13421192:T'	b'M55CtrlR1'	0	0.9111	0.0394	0.9649
b'CHR1:13421192:T'	b'M55CtrlR2'	0	0.8664	0.0398	0.9649
b'CHR1:13421192:T'	b'M55CtrlR3'	0	0.8486	0.0395	0.9649
b'CHR1:13421192:T'	b'M55CtrlR4'	0	0.7301	0.0399	0.9649
b'CHR1:13782619:G'	b'M55CtrlR1'	0	0.9111	0.0394	0.9867
b'CHR1:13782619:G'	b'M55CtrlR2'	0	0.8664	0.0398	0.9867
b'CHR1:13782619:G'	b'M55CtrlR3'	0	0.8486	0.0395	0.9867
b'CHR1:13782619:G'	b'M55CtrlR4'	0	0.7301	0.0399	0.9867
b'CHR1:15939409:A'	b'M55CtrlR1'	0	0.9111	0.0394	0.9996
b'CHR1:15939409:A'	b'M55CtrlR2'	0	0.8664	0.0398	0.9996
b'CHR1:15939409:A'	b'M55CtrlR3'	0	0.8486	0.0395	0.9996
b'CHR1:15939409:A'	b'M55CtrlR4'	0	0.7301	0.0399	0.9996
b'CHR1:160155085:A'	b'M55CtrlR1'	0	0.9111	0.0394	0.4884
b'CHR1:160155085:A'	b'M55CtrlR2'	0	0.8664	0.0398	0.4884
b'CHR1:160155085:A'	b'M55CtrlR3'	0	0.8486	0.0395	0.4884
b'CHR1:160155085:A'	b'M55CtrlR4'	0	0.7301	0.0399	0.4884
b'CHR1:17079314:A'	b'M55CtrlR1'	0	0.9111	0.0394	0.9735
b'CHR1:17079314:A'	b'M55CtrlR2'	0	0.8664	0.0398	0.9735
b'CHR1:17079314:A'	b'M55CtrlR3'	0	0.8486	0.0395	0.9735
b'CHR1:17079314:A'	b'M55CtrlR4'	0	0.7301	0.0399	0.9735
b'CHR1:17084646:G'	b'M55CtrlR1'	0	0.9111	0.0394	0.5396
b'CHR1:17084646:G'	b'M55CtrlR2'	0	0.8664	0.0398	0.5396
b'CHR1:17084646:G'	b'M55CtrlR3'	0	0.8486	0.0395	0.5396
b'CHR1:17084646:G'	b'M55CtrlR4'	0	0.7301	0.0399	0.5396
b'CHR1:18854521:C'	b'M55CtrlR1'	0	0.9111	0.0394	0.4220
b'CHR1:18854521:C'	b'M55CtrlR2'	0	0.8664	0.0398	0.4220
b'CHR1:18854521:C'	b'M55CtrlR3'	0	0.8486	0.0395	0.4220
b'CHR1:18854521:C'	b'M55CtrlR4'	0	0.7301	0.0399	0.4220
b'CHR1:18854588:C'	b'M55CtrlR1'	0	0.9111	0.0394	0.4007
b'CHR1:18854588:C'	b'M55CtrlR2'	0	0.8664	0.0398	0.4007
b'CHR1:18854588:C'	b'M55CtrlR3'	0	0.8486	0.0395	0.4007
b'CHR1:18854588:C'	b'M55CtrlR4'	0	0.7301	0.0399	0.4007
b'CHR1:18877503:G'	b'M55CtrlR1'	0	0.9111	0.0394	0.7047
b'CHR1:18877503:G'	b'M55CtrlR2'	0	0.8664	0.0398	0.7047
b'CHR1:18877503:G'	b'M55CtrlR3'	0	0.8486	0.0395	0.7047
b'CHR1:18877503:G'	b'M55CtrlR4'	0	0.7301	0.0399	0.7047
b'CHR1:19282760:C'	b'M55CtrlR1'	0	0.9111	0.0394	0.9952
b'CHR1:19282760:C'	b'M55CtrlR2'	0	0.8664	0.0398	0.9952
b'CHR1:19282760:C'	b'M55CtrlR3'	0	0.8486	0.0395	0.9952
b'CHR1:19282760:C'	b'M55CtrlR4'	0	0.7301	0.0399	0.9952
b'CHR1:19623568:C'	b'M55CtrlR1'	0	0.9111	0.0394	0.9330
b'CHR1:19623568:C'	b'M55CtrlR2'	0	0.8664	0.0398	0.9330
b'CHR1:19623568:C'	b'M55CtrlR3'	0	0.8486	0.0395	0.9330
b'CHR1:19623568:C'	b'M55CtrlR4'	0	0.7301	0.0399	0.9330
b'CHR1:20084839:T'	b'M55CtrlR1'	0	0.9111	0.0394	0.9667
b'CHR1:20084839:T'	b'M55CtrlR2'	0	0.8664	0.0398	0.9667
b'CHR1:20084839:T'	b'M55CtrlR3'	0	0.8486	0.0395	0.9667
b'CHR1:20084839:T'	b'M55CtrlR4'	0	0.7301	0.0399	0.9667
b'CHR1:21874505:T'	b'M55CtrlR1'	0	0.9111	0.0394	0.6003
b'CHR1:21874505:T'	b'M55CtrlR2'	0	0.8664	0.0398	0.6003
b'CHR1:21874505:T'	b'M55CtrlR3'	0	0.8486	0.0395	0.6003
b'CHR1:21874505:T'	b'M55CtrlR4'	0	0.7301	0.0399	0.6003
b'CHR1:22526222:C'	b'M55CtrlR1'	0	0.9111	0.0394	0.9562
b'CHR1:22526222:C'	b'M55CtrlR2'	0	0.8664	0.0398	0.9562
b'CHR1:22526222:C'	b'M55CtrlR3'	0	0.8486	0.0395	0.9562
b'CHR1:22526222:C'	b'M55CtrlR4'	0	0.7301	0.0399	0.9562
b'CHR1:26344118:T'	b'M55CtrlR1'	0	0.9111	0.0394	0.9418
b'CHR1:26344118:T'	b'M55CtrlR2'	0	0.8664	0.0398	0.9418
b'CHR1:26344118:T'	b'M55CtrlR3'	0	0.8486	0.0395	0.9418
b'CHR1:26344118:T'	b'M55CtrlR4'	0	0.7301	0.0399	0.9418
b'CHR1:27360975:T'	b'M55CtrlR1'	0	0.9111	0.0394	0.7181
b'CHR1:27360975:T'	b'M55CtrlR2'	0	0.8664	0.0398	0.7181
b'CHR1:27360975:T'	b'M55CtrlR3'	0	0.8486	0.0395	0.7181
b'CHR1:27360975:T'	b'M55CtrlR4'	0	0.7301	0.0399	0.7181
b'CHR1:31630664:G'	b'M55CtrlR1'	0	0.9111	0.0394	0.9954
b'CHR1:31630664:G'	b'M55CtrlR2'	0	0.8664	0.0398	0.9954
b'CHR1:31630664:G'	b'M55CtrlR3'	0	0.8486	0.0395	0.9954
b'CHR1:31630664:G'	b'M55CtrlR4'	0	0.7301	0.0399	0.9954
b'CHR1:32770050:G'	b'M55CtrlR1'	0	0.9111	0.0394	0.5046
b'CHR1:32770050:G'	b'M55CtrlR2'	0	0.8664	0.0398	0.5046
b'CHR1:32770050:G'	b'M55CtrlR3'	0	0.8486	0.0395	0.5046
b'CHR1:32770050:G'	b'M55CtrlR4'	0	0.7301	0.0399	0.5046
b'CHR1:33494462:G'	b'M55CtrlR1'	0	0.9111	0.0394	0.9512
b'CHR1:33494462:G'	b'M55CtrlR2'	0	0.8664	0.0398	0.9512
b'CHR1:33494462:G'	b'M55CtrlR3'	0	0.8486	0.0395	0.9512
b'CHR1:33494462:G'	b'M55CtrlR4'	0	0.7301	0.0399	0.9512
b'CHR1:3478610:A'	b'M55CtrlR1'	0	0.9111	0.0394	0.9234
b'CHR1:3478610:A'	b'M55CtrlR2'	0	0.8664	0.0398	0.9234
b'CHR1:3478610:A'	b'M55CtrlR3'	0	0.8486	0.0395	0.9234
b'CHR1:3478610:A'	b'M55CtrlR4'	0	0.7301	0.0399	0.9234
b'CHR1:51840355:A'	b'M55CtrlR1'	0	0.9111	0.0394	0.9511
b'CHR1:51840355:A'	b'M55CtrlR2'	0	0.8664	0.0398	0.9511
b'CHR1:51840355:A'	b'M55CtrlR3'	0	0.8486	0.0395	0.9511
b'CHR1:51840355:A'	b'M55CtrlR4'	0	0.7301	0.0399	0.9511
b'CHR1:53247055:T'	b'M55CtrlR1'	0	0.9111	0.0394	0.9467
b'CHR1:53247055:T'	b'M55CtrlR2'	0	0.8664	0.0398	0.9467
b'CHR1:53247055:T'	b'M55CtrlR3'	0	0.8486	0.0395	0.9467
b'CHR1:53247055:T'	b'M55CtrlR4'	0	0.7301	0.0399	0.9467
b'CHR1:53250744:A'	b'M55CtrlR1'	0	0.9111	0.0394	0.5987
b'CHR1:53250744:A'	b'M55CtrlR2'	0	0.8664	0.0398	0.5987
b'CHR1:53250744:A'	b'M55CtrlR3'	0	0.8486	0.0395	0.5987
b'CHR1:53250744:A'	b'M55CtrlR4'	0	0.7301	0.0399	0.5987
b'CHR1:53594575:C'	b'M55CtrlR1'	0	0.9111	0.0394	0.7266
b'CHR1:53594575:C'	b'M55CtrlR2'	0	0.8664	0.0398	0.7266
b'CHR1:53594575:C'	b'M55CtrlR3'	0	0.8486	0.0395	0.7266
b'CHR1:53594575:C'	b'M55CtrlR4'	0	0.7301	0.0399	0.7266
b'CHR1:63323280:A'	b'M55CtrlR1'	0	0.9111	0.0394	0.9793
b'CHR1:63323280:A'	b'M55CtrlR2'	0	0.8664	0.0398	0.9793
b'CHR1:63323280:A'	b'M55CtrlR3'	0	0.8486	0.0395	0.9793
b'CHR1:63323280:A'	b'M55CtrlR4'	0	0.7301	0.0399	0.9793
b'CHR1:63415881:T'	b'M55CtrlR1'	0	0.9111	0.0394	0.4488
b'CHR1:63415881:T'	b'M55CtrlR2'	0	0.8664	0.0398	0.4488
b'CHR1:63415881:T'	b'M55CtrlR3'	0	0.8486	0.0395	0.4488
b'CHR1:63415881:T'	b'M55CtrlR4'	0	0.7301	0.0399	0.4488
b'CHR1:64844806:C'	b'M55CtrlR1'	0	0.9111	0.0394	0.5462
b'CHR1:64844806:C'	b'M55CtrlR2'	0	0.8664	0.0398	0.5462
b'CHR1:64844806:C'	b'M55CtrlR3'	0	0.8486	0.0395	0.5462
b'CHR1:64844806:C'	b'M55CtrlR4'	0	0.7301	0.0399	0.5462
b'CHR1:7827188:A'	b'M55CtrlR1'	0	0.9111	0.0394	0.9714
b'CHR1:7827188:A'	b'M55CtrlR2'	0	0.8664	0.0398	0.9714
b'CHR1:7827188:A'	b'M55CtrlR3'	0	0.8486	0.0395	0.9714
b'CHR1:7827188:A'	b'M55CtrlR4'	0	0.7301	0.0399	0.9714
b'CHR1:942934:C'	b'M55CtrlR1'	0	0.9111	0.0394	0.9239
b'CHR1:942934:C'	b'M55CtrlR2'	0	0.8664	0.0398	0.9239
b'CHR1:942934:C'	b'M55CtrlR3'	0	0.8486	0.0395	0.9239
b'CHR1:942934:C'	b'M55CtrlR4'	0	0.7301	0.0399	0.9239
b'CHR2:73291715:T'	b'M55CtrlR1'	0	0.9111	0.0394	0.5722
b'CHR2:73291715:T'	b'M55CtrlR2'	0	0.8664	0.0398	0.5722
b'CHR2:73291715:T'	b'M55CtrlR3'	0	0.8486	0.0395	0.5722
b'CHR2:73291715:T'	b'M55CtrlR4'	0	0.7301	0.0399	0.5722
b'CHR7:151066568:A'	b'M55CtrlR1'	0	0.9111	0.0394	0.5332
b'CHR7:151066568:A'	b'M55CtrlR2'	0	0.8664	0.0398	0.5332
b'CHR7:151066568:A'	b'M55CtrlR3'	0	0.8486	0.0395	0.5332
b'CHR7:151066568:A'	b'M55CtrlR4'	0	0.7301	0.0399	0.5332
b'CHR10:92240093:G'	b'M55CtrlR1'	1	0.4301	0.0351	0.3247
b'CHR10:92240093:G'	b'M55CtrlR2'	1	0.7679	0.0543	0.3247
b'CHR10:92240093:G'	b'M55CtrlR3'	1	0.7715	0.0471	0.3247
b'CHR10:92240093:G'	b'M55CtrlR4'	1	0.7316	0.0534	0.3247
b'CHR11:120128675:T'	b'M55CtrlR1'	1	0.4301	0.0351	0.9861
b'CHR11:120128675:T'	b'M55CtrlR2'	1	0.7679	0.0543	0.9861
b'CHR11:120128675:T'	b'M55CtrlR3'	1	0.7715	0.0471	0.9861
b'CHR11:120128675:T'	b'M55CtrlR4'	1	0.7316	0.0534	0.9861
b'CHR13:110715518:T'	b'M55CtrlR1'	1	0.4301	0.0351	0.3160
b'CHR13:110715518:T'	b'M55CtrlR2'	1	0.7679	0.0543	0.3160
b'CHR13:110715518:T'	b'M55CtrlR3'	1	0.7715	0.0471	0.3160
b'CHR13:110715518:T'	b'M55CtrlR4'	1	0.7316	0.0534	0.3160
b'CHR14:70060875:T'	b'M55CtrlR1'	1	0.4301	0.0351	0.3342
b'CHR14:70060875:T'	b'M55CtrlR2'	1	0.7679	0.0543	0.3342
b'CHR14:70060875:T'	b'M55CtrlR3'	1	0.7715	0.0471	0.3342
b'CHR14:70060875:T'	b'M55CtrlR4'	1	0.7316	0.0534	0.3342
b'CHR17:81937211:G'	b'M55CtrlR1'	1	0.4301	0.0351	0.3875
b'CHR17:81937211:G'	b'M55CtrlR2'	1	0.7679	0.0543	0.3875
b'CHR17:81937211:G'	b'M55CtrlR3'	1	0.7715	0.0471	0.3875
b'CHR17:81937211:G'	b'M55CtrlR4'	1	0.7316	0.0534	0.3875
b'CHR19:13209361:T'	b'M55CtrlR1'	1	0.4301	0.0351	0.4858
b'CHR19:13209361:T'	b'M55CtrlR2'	1	0.7679	0.0543	0.4858
b'CHR19:13209361:T'	b'M55CtrlR3'	1	0.7715	0.0471	0.4858
b'CHR19:13209361:T'	b'M55CtrlR4'	1	0.7316	0.0534	0.4858
b'CHR19:52881597:A'	b'M55CtrlR1'	1	0.4301	0.0351	0.9996
b'CHR19:52881597:A'	b'M55CtrlR2'	1	0.7679	0.0543	0.9996
b'CHR19:52881597:A'	b'M55CtrlR3'	1	0.7715	0.0471	0.9996
b'CHR19:52881597:A'	b'M55CtrlR4'	1	0.7316	0.0534	0.9996
b'CHR1:155054385:T'	b'M55CtrlR1'	1	0.4301	0.0351	0.8733
b'CHR1:155054385:T'	b'M55CtrlR2'	1	0.7679	0.0543	0.8733
b'CHR1:155054385:T'	b'M55CtrlR3'	1	0.7715	0.0471	0.8733
b'CHR1:155054385:T'	b'M55CtrlR4'	1	0.7316	0.0534	0.8733
b'CHR1:16409637:C'	b'M55CtrlR1'	1	0.4301	0.0351	0.6621
b'CHR1:16409637:C'	b'M55CtrlR2'	1	0.7679	0.0543	0.6621
b'CHR1:16409637:C'	b'M55CtrlR3'	1	0.7715	0.0471	0.6621
b'CHR1:16409637:C'	b'M55CtrlR4'	1	0.7316	0.0534	0.6621
b'CHR1:17070097:A'	b'M55CtrlR1'	1	0.4301	0.0351	0.7632
b'CHR1:17070097:A'	b'M55CtrlR2'	1	0.7679	0.0543	0.7632
b'CHR1:17070097:A'	b'M55CtrlR3'	1	0.7715	0.0471	0.7632
b'CHR1:17070097:A'	b'M55CtrlR4'	1	0.7316	0.0534	0.7632
b'CHR1:202160698:C'	b'M55CtrlR1'	1	0.4301	0.0351	0.8298
b'CHR1:202160698:C'	b'M55CtrlR2'	1	0.7679	0.0543	0.8298
b'CHR1:202160698:C'	b'M55CtrlR3'	1	0.7715	0.0471	0.8298
b'CHR1:202160698:C'	b'M55CtrlR4'	1	0.7316	0.0534	0.8298
b'CHR1:215567710:G'	b'M55CtrlR1'	1	0.4301	0.0351	0.9551
b'CHR1:215567710:G'	b'M55CtrlR2'	1	0.7679	0.0543	0.9551
b'CHR1:215567710:G'	b'M55CtrlR3'	1	0.7715	0.0471	0.9551
b'CHR1:215567710:G'	b'M55CtrlR4'	1	0.7316	0.0534	0.9551
b'CHR1:230921501:T'	b'M55CtrlR1'	1	0.4301	0.0351	0.8004
b'CHR1:230921501:T'	b'M55CtrlR2'	1	0.7679	0.0543	0.8004
b'CHR1:230921501:T'	b'M55CtrlR3'	1	0.7715	0.0471	0.8004
b'CHR1:230921501:T'	b'M55CtrlR4'	1	0.7316	0.0534	0.8004
b'CHR1:25243590:C'	b'M55CtrlR1'	1	0.4301	0.0351	0.8646
b'CHR1:25243590:C'	b'M55CtrlR2'	1	0.7679	0.0543	0.8646
b'CHR1:25243590:C'	b'M55CtrlR3'	1	0.7715	0.0471	0.8646
b'CHR1:25243590:C'	b'M55CtrlR4'	1	0.7316	0.0534	0.8646
b'CHR1:26952030:A'	b'M55CtrlR1'	1	0.4301	0.0351	0.6680
b'CHR1:26952030:A'	b'M55CtrlR2'	1	0.7679	0.0543	0.6680
b'CHR1:26952030:A'	b'M55CtrlR3'	1	0.7715	0.0471	0.6680
b'CHR1:26952030:A'	b'M55CtrlR4'	1	0.7316	0.0534	0.6680
b'CHR1:31698605:G'	b'M55CtrlR1'	1	0.4301	0.0351	0.8127
b'CHR1:31698605:G'	b'M55CtrlR2'	1	0.7679	0.0543	0.8127
b'CHR1:31698605:G'	b'M55CtrlR3'	1	0.7715	0.0471	0.8127
b'CHR1:31698605:G'	b'M55CtrlR4'	1	0.7316	0.0534	0.8127
b'CHR1:3763211:T'	b'M55CtrlR1'	1	0.4301	0.0351	0.9617
b'CHR1:3763211:T'	b'M55CtrlR2'	1	0.7679	0.0543	0.9617
b'CHR1:3763211:T'	b'M55CtrlR3'	1	0.7715	0.0471	0.9617
b'CHR1:3763211:T'	b'M55CtrlR4'	1	0.7316	0.0534	0.9617
b'CHR1:53594343:C'	b'M55CtrlR1'	1	0.4301	0.0351	0.7061
b'CHR1:53594343:C'	b'M55CtrlR2'	1	0.7679	0.0543	0.7061
b'CHR1:53594343:C'	b'M55CtrlR3'	1	0.7715	0.0471	0.7061
b'CHR1:53594343:C'	b'M55CtrlR4'	1	0.7316	0.0534	0.7061
b'CHR2:107859472:T'	b'M55CtrlR1'	1	0.4301	0.0351	0.8294
b'CHR2:107859472:T'	b'M55CtrlR2'	1	0.7679	0.0543	0.8294
b'CHR2:107859472:T'	b'M55CtrlR3'	1	0.7715	0.0471	0.8294
b'CHR2:107859472:T'	b'M55CtrlR4'	1	0.7316	0.0534	0.8294
b'CHR2:219451248:A'	b'M55CtrlR1'	1	0.4301	0.0351	0.9108
b'CHR2:219451248:A'	b'M55CtrlR2'	1	0.7679	0.0543	0.9108
b'CHR2:219451248:A'	b'M55CtrlR3'	1	0.7715	0.0471	0.9108
b'CHR2:219451248:A'	b'M55CtrlR4'	1	0.7316	0.0534	0.9108
b'CHR3:123092379:A'	b'M55CtrlR1'	1	0.4301	0.0351	0.4666
b'CHR3:123092379:A'	b'M55CtrlR2'	1	0.7679	0.0543	0.4666
b'CHR3:123092379:A'	b'M55CtrlR3'	1	0.7715	0.0471	0.4666
b'CHR3:123092379:A'	b'M55CtrlR4'	1	0.7316	0.0534	0.4666
b'CHR3:171082335:T'	b'M55CtrlR1'	1	0.4301	0.0351	0.4001
b'CHR3:171082335:T'	b'M55CtrlR2'	1	0.7679	0.0543	0.4001
b'CHR3:171082335:T'	b'M55CtrlR3'	1	0.7715	0.0471	0.4001
b'CHR3:171082335:T'	b'M55CtrlR4'	1	0.7316	0.0534	0.4001
b'CHR3:48447042:C'	b'M55CtrlR1'	1	0.4301	0.0351	0.9503
b'CHR3:48447042:C'	b'M55CtrlR2'	1	0.7679	0.0543	0.9503
b'CHR3:48447042:C'	b'M55CtrlR3'	1	0.7715	0.0471	0.9503
b'CHR3:48447042:C'	b'M55CtrlR4'	1	0.7316	0.0534	0.9503
b'CHR5:150540177:C'	b'M55CtrlR1'	1	0.4301	0.0351	0.6060
b'CHR5:150540177:C'	b'M55CtrlR2'	1	0.7679	0.0543	0.6060
b'CHR5:150540177:C'	b'M55CtrlR3'	1	0.7715	0.0471	0.6060
b'CHR5:150540177:C'	b'M55CtrlR4'	1	0.7316	0.0534	0.6060
b'CHR6:7577027:T'	b'M55CtrlR1'	1	0.4301	0.0351	0.8055
b'CHR6:7577027:T'	b'M55CtrlR2'	1	0.7679	0.0543	0.8055
b'CHR6:7577027:T'	b'M55CtrlR3'	1	0.7715	0.0471	0.8055
b'CHR6:7577027:T'	b'M55CtrlR4'	1	0.7316	0.0534	0.8055
b'CHR7:39085990:C'	b'M55CtrlR1'	1	0.4301	0.0351	0.3044
b'CHR7:39085990:C'	b'M55CtrlR2'	1	0.7679	0.0543	0.3044
b'CHR7:39085990:C'	b'M55CtrlR3'	1	0.7715	0.0471	0.3044
b'CHR7:39085990:C'	b'M55CtrlR4'	1	0.7316	0.0534	0.3044
b'CHR10:102381157:T'	b'M55CtrlR1'	2	0.1714	0.0172	0.7967
b'CHR10:102381157:T'	b'M55CtrlR2'	2	0.1904	0.0182	0.7967
b'CHR10:102381157:T'	b'M55CtrlR3'	2	0.1673	0.0155	0.7967
b'CHR10:102381157:T'	b'M55CtrlR4'	2	0.1541	0.0178	0.7967
b'CHR10:133084811:T'	b'M55CtrlR1'	2	0.1714	0.0172	0.3982
b'CHR10:133084811:T'	b'M55CtrlR2'	2	0.1904	0.0182	0.3982
b'CHR10:133084811:T'	b'M55CtrlR3'	2	0.1673	0.0155	0.3982
b'CHR10:133084811:T'	b'M55CtrlR4'	2	0.1541	0.0178	0.3982
b'CHR10:37153617:T'	b'M55CtrlR1'	2	0.1714	0.0172	0.7947
b'CHR10:37153617:T'	b'M55CtrlR2'	2	0.1904	0.0182	0.7947
b'CHR10:37153617:T'	b'M55CtrlR3'	2	0.1673	0.0155	0.7947
b'CHR10:37153617:T'	b'M55CtrlR4'	2	0.1541	0.0178	0.7947
b'CHR10:73751113:G'	b'M55CtrlR1'	2	0.1714	0.0172	0.8840
b'CHR10:73751113:G'	b'M55CtrlR2'	2	0.1904	0.0182	0.8840
b'CHR10:73751113:G'	b'M55CtrlR3'	2	0.1673	0.0155	0.8840
b'CHR10:73751113:G'	b'M55CtrlR4'	2	0.1541	0.0178	0.8840
b'CHR11:103245294:A'	b'M55CtrlR1'	2	0.1714	0.0172	0.6735
b'CHR11:103245294:A'	b'M55CtrlR2'	2	0.1904	0.0182	0.6735
b'CHR11:103245294:A'	b'M55CtrlR3'	2	0.1673	0.0155	0.6735
b'CHR11:103245294:A'	b'M55CtrlR4'	2	0.1541	0.0178	0.6735
b'CHR11:123806117:C'	b'M55CtrlR1'	2	0.1714	0.0172	0.7725
b'CHR11:123806117:C'	b'M55CtrlR2'	2	0.1904	0.0182	0.7725
b'CHR11:123806117:C'	b'M55CtrlR3'	2	0.1673	0.0155	0.7725
b'CHR11:123806117:C'	b'M55CtrlR4'	2	0.1541	0.0178	0.7725
b'CHR11:56490737:A'	b'M55CtrlR1'	2	0.1714	0.0172	0.5245
b'CHR11:56490737:A'	b'M55CtrlR2'	2	0.1904	0.0182	0.5245
b'CHR11:56490737:A'	b'M55CtrlR3'	2	0.1673	0.0155	0.5245
b'CHR11:56490737:A'	b'M55CtrlR4'	2	0.1541	0.0178	0.5245
b'CHR11:6270799:T'	b'M55CtrlR1'	2	0.1714	0.0172	0.9618
b'CHR11:6270799:T'	b'M55CtrlR2'	2	0.1904	0.0182	0.9618
b'CHR11:6270799:T'	b'M55CtrlR3'	2	0.1673	0.0155	0.9618
b'CHR11:6270799:T'	b'M55CtrlR4'	2	0.1541	0.0178	0.9618
b'CHR11:72136010:A'	b'M55CtrlR1'	2	0.1714	0.0172	0.7902
b'CHR11:72136010:A'	b'M55CtrlR2'	2	0.1904	0.0182	0.7902
b'CHR11:72136010:A'	b'M55CtrlR3'	2	0.1673	0.0155	0.7902
b'CHR11:72136010:A'	b'M55CtrlR4'	2	0.1541	0.0178	0.7902
b'CHR11:73975073:A'	b'M55CtrlR1'	2	0.1714	0.0172	0.4966
b'CHR11:73975073:A'	b'M55CtrlR2'	2	0.1904	0.0182	0.4966
b'CHR11:73975073:A'	b'M55CtrlR3'	2	0.1673	0.0155	0.4966
b'CHR11:73975073:A'	b'M55CtrlR4'	2	0.1541	0.0178	0.4966
b'CHR11:77685130:T'	b'M55CtrlR1'	2	0.1714	0.0172	0.7189
b'CHR11:77685130:T'	b'M55CtrlR2'	2	0.1904	0.0182	0.7189
b'CHR11:77685130:T'	b'M55CtrlR3'	2	0.1673	0.0155	0.7189
b'CHR11:77685130:T'	b'M55CtrlR4'	2	0.1541	0.0178	0.7189
b'CHR12:108518570:T'	b'M55CtrlR1'	2	0.1714	0.0172	0.9991
b'CHR12:108518570:T'	b'M55CtrlR2'	2	0.1904	0.0182	0.9991
b'CHR12:108518570:T'	b'M55CtrlR3'	2	0.1673	0.0155	0.9991
b'CHR12:108518570:T'	b'M55CtrlR4'	2	0.1541	0.0178	0.9991
b'CHR12:112477653:T'	b'M55CtrlR1'	2	0.1714	0.0172	0.4722
b'CHR12:112477653:T'	b'M55CtrlR2'	2	0.1904	0.0182	0.4722
b'CHR12:112477653:T'	b'M55CtrlR3'	2	0.1673	0.0155	0.4722
b'CHR12:112477653:T'	b'M55CtrlR4'	2	0.1541	0.0178	0.4722
b'CHR12:129700067:A'	b'M55CtrlR1'	2	0.1714	0.0172	0.4251
b'CHR12:129700067:A'	b'M55CtrlR2'	2	0.1904	0.0182	0.4251
b'CHR12:129700067:A'	b'M55CtrlR3'	2	0.1673	0.0155	0.4251
b'CHR12:129700067:A'	b'M55CtrlR4'	2	0.1541	0.0178	0.4251
b'CHR12:40481156:A'	b'M55CtrlR1'	2	0.1714	0.0172	1.0000
b'CHR12:40481156:A'	b'M55CtrlR2'	2	0.1904	0.0182	1.0000
b'CHR12:40481156:A'	b'M55CtrlR3'	2	0.1673	0.0155	1.0000
b'CHR12:40481156:A'	b'M55CtrlR4'	2	0.1541	0.0178	1.0000
b'CHR12:40481157:G'	b'M55CtrlR1'	2	0.1714	0.0172	1.0000
b'CHR12:40481157:G'	b'M55CtrlR2'	2	0.1904	0.0182	1.0000
b'CHR12:40481157:G'	b'M55CtrlR3'	2	0.1673	0.0155	1.0000
b'CHR12:40481157:G'	b'M55CtrlR4'	2	0.1541	0.0178	1.0000
b'CHR12:55027042:G'	b'M55CtrlR1'	2	0.1714	0.0172	0.6316
b'CHR12:55027042:G'	b'M55CtrlR2'	2	0.1904	0.0182	0.6316
b'CHR12:55027042:G'	b'M55CtrlR3'	2	0.1673	0.0155	0.6316
b'CHR12:55027042:G'	b'M55CtrlR4'	2	0.1541	0.0178	0.6316
b'CHR12:56267413:A'	b'M55CtrlR1'	2	0.1714	0.0172	0.9703
b'CHR12:56267413:A'	b'M55CtrlR2'	2	0.1904	0.0182	0.9703
b'CHR12:56267413:A'	b'M55CtrlR3'	2	0.1673	0.0155	0.9703
b'CHR12:56267413:A'	b'M55CtrlR4'	2	0.1541	0.0178	0.9703
b'CHR12:57478728:T'	b'M55CtrlR1'	2	0.1714	0.0172	0.8759
b'CHR12:57478728:T'	b'M55CtrlR2'	2	0.1904	0.0182	0.8759
b'CHR12:57478728:T'	b'M55CtrlR3'	2	0.1673	0.0155	0.8759
b'CHR12:57478728:T'	b'M55CtrlR4'	2	0.1541	0.0178	0.8759
b'CHR12:57629873:G'	b'M55CtrlR1'	2	0.1714	0.0172	0.7299
b'CHR12:57629873:G'	b'M55CtrlR2'	2	0.1904	0.0182	0.7299
b'CHR12:57629873:G'	b'M55CtrlR3'	2	0.1673	0.0155	0.7299
b'CHR12:57629873:G'	b'M55CtrlR4'	2	0.1541	0.0178	0.7299
b'CHR12:74538384:T'	b'M55CtrlR1'	2	0.1714	0.0172	0.9074
b'CHR12:74538384:T'	b'M55CtrlR2'	2	0.1904	0.0182	0.9074
b'CHR12:74538384:T'	b'M55CtrlR3'	2	0.1673	0.0155	0.9074
b'CHR12:74538384:T'	b'M55CtrlR4'	2	0.1541	0.0178	0.9074
b'CHR12:7929771:C'	b'M55CtrlR1'	2	0.1714	0.0172	0.4727
b'CHR12:7929771:C'	b'M55CtrlR2'	2	0.1904	0.0182	0.4727
b'CHR12:7929771:C'	b'M55CtrlR3'	2	0.1673	0.0155	0.4727
b'CHR12:7929771:C'	b'M55CtrlR4'	2	0.1541	0.0178	0.4727
b'CHR12:85046079:A'	b'M55CtrlR1'	2	0.1714	0.0172	0.5528
b'CHR12:85046079:A'	b'M55CtrlR2'	2	0.1904	0.0182	0.5528
b'CHR12:85046079:A'	b'M55CtrlR3'	2	0.1673	0.0155	0.5528
b'CHR12:85046079:A'	b'M55CtrlR4'	2	0.1541	0.0178	0.5528
b'CHR13:95234663:A'	b'M55CtrlR1'	2	0.1714	0.0172	0.7037
b'CHR13:95234663:A'	b'M55CtrlR2'	2	0.1904	0.0182	0.7037
b'CHR13:95234663:A'	b'M55CtrlR3'	2	0.1673	0.0155	0.7037
b'CHR13:95234663:A'	b'M55CtrlR4'	2	0.1541	0.0178	0.7037
b'CHR14:20144218:A'	b'M55CtrlR1'	2	0.1714	0.0172	0.8551
b'CHR14:20144218:A'	b'M55CtrlR2'	2	0.1904	0.0182	0.8551
b'CHR14:20144218:A'	b'M55CtrlR3'	2	0.1673	0.0155	0.8551
b'CHR14:20144218:A'	b'M55CtrlR4'	2	0.1541	0.0178	0.8551
b'CHR14:20144219:A'	b'M55CtrlR1'	2	0.1714	0.0172	0.8551
b'CHR14:20144219:A'	b'M55CtrlR2'	2	0.1904	0.0182	0.8551
b'CHR14:20144219:A'	b'M55CtrlR3'	2	0.1673	0.0155	0.8551
b'CHR14:20144219:A'	b'M55CtrlR4'	2	0.1541	0.0178	0.8551
b'CHR14:52042283:A'	b'M55CtrlR1'	2	0.1714	0.0172	0.9677
b'CHR14:52042283:A'	b'M55CtrlR2'	2	0.1904	0.0182	0.9677
b'CHR14:52042283:A'	b'M55CtrlR3'	2	0.1673	0.0155	0.9677
b'CHR14:52042283:A'	b'M55CtrlR4'	2	0.1541	0.0178	0.9677
b'CHR14:74260736:T'	b'M55CtrlR1'	2	0.1714	0.0172	0.6797
b'CHR14:74260736:T'	b'M55CtrlR2'	2	0.1904	0.0182	0.6797
b'CHR14:74260736:T'	b'M55CtrlR3'	2	0.1673	0.0155	0.6797
b'CHR14:74260736:T'	b'M55CtrlR4'	2	0.1541	0.0178	0.6797
b'CHR15:33826673:A'	b'M55CtrlR1'	2	0.1714	0.0172	0.5496
b'CHR15:33826673:A'	b'M55CtrlR2'	2	0.1904	0.0182	0.5496
b'CHR15:33826673:A'	b'M55CtrlR3'	2	0.1673	0.0155	0.5496
b'CHR15:33826673:A'	b'M55CtrlR4'	2	0.1541	0.0178	0.5496
b'CHR15:41572531:T'	b'M55CtrlR1'	2	0.1714	0.0172	0.9149
b'CHR15:41572531:T'	b'M55CtrlR2'	2	0.1904	0.0182	0.9149
b'CHR15:41572531:T'	b'M55CtrlR3'	2	0.1673	0.0155	0.9149
b'CHR15:41572531:T'	b'M55CtrlR4'	2	0.1541	0.0178	0.9149
b'CHR15:45095849:C'	b'M55CtrlR1'	2	0.1714	0.0172	0.8789
b'CHR15:45095849:C'	b'M55CtrlR2'	2	0.1904	0.0182	0.8789
b'CHR15:45095849:C'	b'M55CtrlR3'	2	0.1673	0.0155	0.8789
b'CHR15:45095849:C'	b'M55CtrlR4'	2	0.1541	0.0178	0.8789
b'CHR16:1257049:T'	b'M55CtrlR1'	2	0.1714	0.0172	0.7069
b'CHR16:1257049:T'	b'M55CtrlR2'	2	0.1904	0.0182	0.7069
b'CHR16:1257049:T'	b'M55CtrlR3'	2	0.1673	0.0155	0.7069
b'CHR16:1257049:T'	b'M55CtrlR4'	2	0.1541	0.0178	0.7069
b'CHR16:19715001:G'	b'M55CtrlR1'	2	0.1714	0.0172	0.5892
b'CHR16:19715001:G'	b'M55CtrlR2'	2	0.1904	0.0182	0.5892
b'CHR16:19715001:G'	b'M55CtrlR3'	2	0.1673	0.0155	0.5892
b'CHR16:19715001:G'	b'M55CtrlR4'	2	0.1541	0.0178	0.5892
b'CHR16:87904819:T'	b'M55CtrlR1'	2	0.1714	0.0172	0.9815
b'CHR16:87904819:T'	b'M55CtrlR2'	2	0.1904	0.0182	0.9815
b'CHR16:87904819:T'	b'M55CtrlR3'	2	0.1673	0.0155	0.9815
b'CHR16:87904819:T'	b'M55CtrlR4'	2	0.1541	0.0178	0.9815
b'CHR17:10409139:T'	b'M55CtrlR1'	2	0.1714	0.0172	0.5722
b'CHR17:10409139:T'	b'M55CtrlR2'	2	0.1904	0.0182	0.5722
b'CHR17:10409139:T'	b'M55CtrlR3'	2	0.1673	0.0155	0.5722
b'CHR17:10409139:T'	b'M55CtrlR4'	2	0.1541	0.0178	0.5722
b'CHR17:18971139:A'	b'M55CtrlR1'	2	0.1714	0.0172	0.9958
b'CHR17:18971139:A'	b'M55CtrlR2'	2	0.1904	0.0182	0.9958
b'CHR17:18971139:A'	b'M55CtrlR3'	2	0.1673	0.0155	0.9958
b'CHR17:18971139:A'	b'M55CtrlR4'	2	0.1541	0.0178	0.9958
b'CHR17:31295269:C'	b'M55CtrlR1'	2	0.1714	0.0172	0.7526
b'CHR17:31295269:C'	b'M55CtrlR2'	2	0.1904	0.0182	0.7526
b'CHR17:31295269:C'	b'M55CtrlR3'	2	0.1673	0.0155	0.7526
b'CHR17:31295269:C'	b'M55CtrlR4'	2	0.1541	0.0178	0.7526
b'CHR17:48852548:T'	b'M55CtrlR1'	2	0.1714	0.0172	0.9776
b'CHR17:48852548:T'	b'M55CtrlR2'	2	0.1904	0.0182	0.9776
b'CHR17:48852548:T'	b'M55CtrlR3'	2	0.1673	0.0155	0.9776
b'CHR17:48852548:T'	b'M55CtrlR4'	2	0.1541	0.0178	0.9776
b'CHR17:61884998:G'	b'M55CtrlR1'	2	0.1714	0.0172	0.7475
b'CHR17:61884998:G'	b'M55CtrlR2'	2	0.1904	0.0182	0.7475
b'CHR17:61884998:G'	b'M55CtrlR3'	2	0.1673	0.0155	0.7475
b'CHR17:61884998:G'	b'M55CtrlR4'	2	0.1541	0.0178	0.7475
b'CHR17:63931346:T'	b'M55CtrlR1'	2	0.1714	0.0172	0.9910
b'CHR17:63931346:T'	b'M55CtrlR2'	2	0.1904	0.0182	0.9910
b'CHR17:63931346:T'	b'M55CtrlR3'	2	0.1673	0.0155	0.9910
b'CHR17:63931346:T'	b'M55CtrlR4'	2	0.1541	0.0178	0.9910
b'CHR17:80010681:A'	b'M55CtrlR1'	2	0.1714	0.0172	0.8231
b'CHR17:80010681:A'	b'M55CtrlR2'	2	0.1904	0.0182	0.8231
b'CHR17:80010681:A'	b'M55CtrlR3'	2	0.1673	0.0155	0.8231
b'CHR17:80010681:A'	b'M55CtrlR4'	2	0.1541	0.0178	0.8231
b'CHR17:80213874:A'	b'M55CtrlR1'	2	0.1714	0.0172	0.5714
b'CHR17:80213874:A'	b'M55CtrlR2'	2	0.1904	0.0182	0.5714
b'CHR17:80213874:A'	b'M55CtrlR3'	2	0.1673	0.0155	0.5714
b'CHR17:80213874:A'	b'M55CtrlR4'	2	0.1541	0.0178	0.5714
b'CHR19:1036180:T'	b'M55CtrlR1'	2	0.1714	0.0172	0.4045
b'CHR19:1036180:T'	b'M55CtrlR2'	2	0.1904	0.0182	0.4045
b'CHR19:1036180:T'	b'M55CtrlR3'	2	0.1673	0.0155	0.4045
b'CHR19:1036180:T'	b'M55CtrlR4'	2	0.1541	0.0178	0.4045
b'CHR19:14765687:T'	b'M55CtrlR1'	2	0.1714	0.0172	0.9975
b'CHR19:14765687:T'	b'M55CtrlR2'	2	0.1904	0.0182	0.9975
b'CHR19:14765687:T'	b'M55CtrlR3'	2	0.1673	0.0155	0.9975
b'CHR19:14765687:T'	b'M55CtrlR4'	2	0.1541	0.0178	0.9975
b'CHR19:20545051:T'	b'M55CtrlR1'	2	0.1714	0.0172	0.9959
b'CHR19:20545051:T'	b'M55CtrlR2'	2	0.1904	0.0182	0.9959
b'CHR19:20545051:T'	b'M55CtrlR3'	2	0.1673	0.0155	0.9959
b'CHR19:20545051:T'	b'M55CtrlR4'	2	0.1541	0.0178	0.9959
b'CHR19:37888408:A'	b'M55CtrlR1'	2	0.1714	0.0172	0.8550
b'CHR19:37888408:A'	b'M55CtrlR2'	2	0.1904	0.0182	0.8550
b'CHR19:37888408:A'	b'M55CtrlR3'	2	0.1673	0.0155	0.8550
b'CHR19:37888408:A'	b'M55CtrlR4'	2	0.1541	0.0178	0.8550
b'CHR19:44908594:T'	b'M55CtrlR1'	2	0.1714	0.0172	0.9615
b'CHR19:44908594:T'	b'M55CtrlR2'	2	0.1904	0.0182	0.9615
b'CHR19:44908594:T'	b'M55CtrlR3'	2	0.1673	0.0155	0.9615
b'CHR19:44908594:T'	b'M55CtrlR4'	2	0.1541	0.0178	0.9615
b'CHR19:45591702:A'	b'M55CtrlR1'	2	0.1714	0.0172	0.8945
b'CHR19:45591702:A'	b'M55CtrlR2'	2	0.1904	0.0182	0.8945
b'CHR19:45591702:A'	b'M55CtrlR3'	2	0.1673	0.0155	0.8945
b'CHR19:45591702:A'	b'M55CtrlR4'	2	0.1541	0.0178	0.8945
b'CHR19:52705931:T'	b'M55CtrlR1'	2	0.1714	0.0172	0.9642
b'CHR19:52705931:T'	b'M55CtrlR2'	2	0.1904	0.0182	0.9642
b'CHR19:52705931:T'	b'M55CtrlR3'	2	0.1673	0.0155	0.9642
b'CHR19:52705931:T'	b'M55CtrlR4'	2	0.1541	0.0178	0.9642
b'CHR19:53873532:T'	b'M55CtrlR1'	2	0.1714	0.0172	0.9463
b'CHR19:53873532:T'	b'M55CtrlR2'	2	0.1904	0.0182	0.9463
b'CHR19:53873532:T'	b'M55CtrlR3'	2	0.1673	0.0155	0.9463
b'CHR19:53873532:T'	b'M55CtrlR4'	2	0.1541	0.0178	0.9463
b'CHR1:1046687:A'	b'M55CtrlR1'	2	0.1714	0.0172	0.6292
b'CHR1:1046687:A'	b'M55CtrlR2'	2	0.1904	0.0182	0.6292
b'CHR1:1046687:A'	b'M55CtrlR3'	2	0.1673	0.0155	0.6292
b'CHR1:1046687:A'	b'M55CtrlR4'	2	0.1541	0.0178	0.6292
b'CHR1:113981341:T'	b'M55CtrlR1'	2	0.1714	0.0172	0.7890
b'CHR1:113981341:T'	b'M55CtrlR2'	2	0.1904	0.0182	0.7890
b'CHR1:113981341:T'	b'M55CtrlR3'	2	0.1673	0.0155	0.7890
b'CHR1:113981341:T'	b'M55CtrlR4'	2	0.1541	0.0178	0.7890
b'CHR1:119922269:T'	b'M55CtrlR1'	2	0.1714	0.0172	0.4649
b'CHR1:119922269:T'	b'M55CtrlR2'	2	0.1904	0.0182	0.4649
b'CHR1:119922269:T'	b'M55CtrlR3'	2	0.1673	0.0155	0.4649
b'CHR1:119922269:T'	b'M55CtrlR4'	2	0.1541	0.0178	0.4649
b'CHR1:1495915:C'	b'M55CtrlR1'	2	0.1714	0.0172	0.8361
b'CHR1:1495915:C'	b'M55CtrlR2'	2	0.1904	0.0182	0.8361
b'CHR1:1495915:C'	b'M55CtrlR3'	2	0.1673	0.0155	0.8361
b'CHR1:1495915:C'	b'M55CtrlR4'	2	0.1541	0.0178	0.8361
b'CHR1:15104181:A'	b'M55CtrlR1'	2	0.1714	0.0172	0.4045
b'CHR1:15104181:A'	b'M55CtrlR2'	2	0.1904	0.0182	0.4045
b'CHR1:15104181:A'	b'M55CtrlR3'	2	0.1673	0.0155	0.4045
b'CHR1:15104181:A'	b'M55CtrlR4'	2	0.1541	0.0178	0.4045
b'CHR1:152219804:C'	b'M55CtrlR1'	2	0.1714	0.0172	0.9984
b'CHR1:152219804:C'	b'M55CtrlR2'	2	0.1904	0.0182	0.9984
b'CHR1:152219804:C'	b'M55CtrlR3'	2	0.1673	0.0155	0.9984
b'CHR1:152219804:C'	b'M55CtrlR4'	2	0.1541	0.0178	0.9984
b'CHR1:153938962:T'	b'M55CtrlR1'	2	0.1714	0.0172	0.4509
b'CHR1:153938962:T'	b'M55CtrlR2'	2	0.1904	0.0182	0.4509
b'CHR1:153938962:T'	b'M55CtrlR3'	2	0.1673	0.0155	0.4509
b'CHR1:153938962:T'	b'M55CtrlR4'	2	0.1541	0.0178	0.4509
b'CHR1:161526114:T'	b'M55CtrlR1'	2	0.1714	0.0172	0.9977
b'CHR1:161526114:T'	b'M55CtrlR2'	2	0.1904	0.0182	0.9977
b'CHR1:161526114:T'	b'M55CtrlR3'	2	0.1673	0.0155	0.9977
b'CHR1:161526114:T'	b'M55CtrlR4'	2	0.1541	0.0178	0.9977
b'CHR1:21483257:C'	b'M55CtrlR1'	2	0.1714	0.0172	0.5939
b'CHR1:21483257:C'	b'M55CtrlR2'	2	0.1904	0.0182	0.5939
b'CHR1:21483257:C'	b'M55CtrlR3'	2	0.1673	0.0155	0.5939
b'CHR1:21483257:C'	b'M55CtrlR4'	2	0.1541	0.0178	0.5939
b'CHR1:246850629:T'	b'M55CtrlR1'	2	0.1714	0.0172	0.9679
b'CHR1:246850629:T'	b'M55CtrlR2'	2	0.1904	0.0182	0.9679
b'CHR1:246850629:T'	b'M55CtrlR3'	2	0.1673	0.0155	0.9679
b'CHR1:246850629:T'	b'M55CtrlR4'	2	0.1541	0.0178	0.9679
b'CHR1:8957259:A'	b'M55CtrlR1'	2	0.1714	0.0172	0.5231
b'CHR1:8957259:A'	b'M55CtrlR2'	2	0.1904	0.0182	0.5231
b'CHR1:8957259:A'	b'M55CtrlR3'	2	0.1673	0.0155	0.5231
b'CHR1:8957259:A'	b'M55CtrlR4'	2	0.1541	0.0178	0.5231
b'CHR20:21328621:A'	b'M55CtrlR1'	2	0.1714	0.0172	0.6213
b'CHR20:21328621:A'	b'M55CtrlR2'	2	0.1904	0.0182	0.6213
b'CHR20:21328621:A'	b'M55CtrlR3'	2	0.1673	0.0155	0.6213
b'CHR20:21328621:A'	b'M55CtrlR4'	2	0.1541	0.0178	0.6213
b'CHR20:35490750:T'	b'M55CtrlR1'	2	0.1714	0.0172	0.8353
b'CHR20:35490750:T'	b'M55CtrlR2'	2	0.1904	0.0182	0.8353
b'CHR20:35490750:T'	b'M55CtrlR3'	2	0.1673	0.0155	0.8353
b'CHR20:35490750:T'	b'M55CtrlR4'	2	0.1541	0.0178	0.8353
b'CHR20:35503815:A'	b'M55CtrlR1'	2	0.1714	0.0172	0.9018
b'CHR20:35503815:A'	b'M55CtrlR2'	2	0.1904	0.0182	0.9018
b'CHR20:35503815:A'	b'M55CtrlR3'	2	0.1673	0.0155	0.9018
b'CHR20:35503815:A'	b'M55CtrlR4'	2	0.1541	0.0178	0.9018
b'CHR20:44750813:C'	b'M55CtrlR1'	2	0.1714	0.0172	0.9144
b'CHR20:44750813:C'	b'M55CtrlR2'	2	0.1904	0.0182	0.9144
b'CHR20:44750813:C'	b'M55CtrlR3'	2	0.1673	0.0155	0.9144
b'CHR20:44750813:C'	b'M55CtrlR4'	2	0.1541	0.0178	0.9144
b'CHR20:46726177:C'	b'M55CtrlR1'	2	0.1714	0.0172	0.9994
b'CHR20:46726177:C'	b'M55CtrlR2'	2	0.1904	0.0182	0.9994
b'CHR20:46726177:C'	b'M55CtrlR3'	2	0.1673	0.0155	0.9994
b'CHR20:46726177:C'	b'M55CtrlR4'	2	0.1541	0.0178	0.9994
b'CHR20:46729354:A'	b'M55CtrlR1'	2	0.1714	0.0172	0.4678
b'CHR20:46729354:A'	b'M55CtrlR2'	2	0.1904	0.0182	0.4678
b'CHR20:46729354:A'	b'M55CtrlR3'	2	0.1673	0.0155	0.4678
b'CHR20:46729354:A'	b'M55CtrlR4'	2	0.1541	0.0178	0.4678
b'CHR2:130075025:T'	b'M55CtrlR1'	2	0.1714	0.0172	0.6644
b'CHR2:130075025:T'	b'M55CtrlR2'	2	0.1904	0.0182	0.6644
b'CHR2:130075025:T'	b'M55CtrlR3'	2	0.1673	0.0155	0.6644
b'CHR2:130075025:T'	b'M55CtrlR4'	2	0.1541	0.0178	0.6644
b'CHR2:151667906:A'	b'M55CtrlR1'	2	0.1714	0.0172	0.6755
b'CHR2:151667906:A'	b'M55CtrlR2'	2	0.1904	0.0182	0.6755
b'CHR2:151667906:A'	b'M55CtrlR3'	2	0.1673	0.0155	0.6755
b'CHR2:151667906:A'	b'M55CtrlR4'	2	0.1541	0.0178	0.6755
b'CHR2:170847706:T'	b'M55CtrlR1'	2	0.1714	0.0172	0.4584
b'CHR2:170847706:T'	b'M55CtrlR2'	2	0.1904	0.0182	0.4584
b'CHR2:170847706:T'	b'M55CtrlR3'	2	0.1673	0.0155	0.4584
b'CHR2:170847706:T'	b'M55CtrlR4'	2	0.1541	0.0178	0.4584
b'CHR2:232381776:G'	b'M55CtrlR1'	2	0.1714	0.0172	0.4727
b'CHR2:232381776:G'	b'M55CtrlR2'	2	0.1904	0.0182	0.4727
b'CHR2:232381776:G'	b'M55CtrlR3'	2	0.1673	0.0155	0.4727
b'CHR2:232381776:G'	b'M55CtrlR4'	2	0.1541	0.0178	0.4727
b'CHR3:120415924:C'	b'M55CtrlR1'	2	0.1714	0.0172	0.3872
b'CHR3:120415924:C'	b'M55CtrlR2'	2	0.1904	0.0182	0.3872
b'CHR3:120415924:C'	b'M55CtrlR3'	2	0.1673	0.0155	0.3872
b'CHR3:120415924:C'	b'M55CtrlR4'	2	0.1541	0.0178	0.3872
b'CHR3:173807772:G'	b'M55CtrlR1'	2	0.1714	0.0172	0.5989
b'CHR3:173807772:G'	b'M55CtrlR2'	2	0.1904	0.0182	0.5989
b'CHR3:173807772:G'	b'M55CtrlR3'	2	0.1673	0.0155	0.5989
b'CHR3:173807772:G'	b'M55CtrlR4'	2	0.1541	0.0178	0.5989
b'CHR3:184577409:A'	b'M55CtrlR1'	2	0.1714	0.0172	0.8654
b'CHR3:184577409:A'	b'M55CtrlR2'	2	0.1904	0.0182	0.8654
b'CHR3:184577409:A'	b'M55CtrlR3'	2	0.1673	0.0155	0.8654
b'CHR3:184577409:A'	b'M55CtrlR4'	2	0.1541	0.0178	0.8654
b'CHR3:50320148:G'	b'M55CtrlR1'	2	0.1714	0.0172	0.9673
b'CHR3:50320148:G'	b'M55CtrlR2'	2	0.1904	0.0182	0.9673
b'CHR3:50320148:G'	b'M55CtrlR3'	2	0.1673	0.0155	0.9673
b'CHR3:50320148:G'	b'M55CtrlR4'	2	0.1541	0.0178	0.9673
b'CHR3:9950005:A'	b'M55CtrlR1'	2	0.1714	0.0172	0.9672
b'CHR3:9950005:A'	b'M55CtrlR2'	2	0.1904	0.0182	0.9672
b'CHR3:9950005:A'	b'M55CtrlR3'	2	0.1673	0.0155	0.9672
b'CHR3:9950005:A'	b'M55CtrlR4'	2	0.1541	0.0178	0.9672
b'CHR4:125317234:A'	b'M55CtrlR1'	2	0.1714	0.0172	0.9291
b'CHR4:125317234:A'	b'M55CtrlR2'	2	0.1904	0.0182	0.9291
b'CHR4:125317234:A'	b'M55CtrlR3'	2	0.1673	0.0155	0.9291
b'CHR4:125317234:A'	b'M55CtrlR4'	2	0.1541	0.0178	0.9291
b'CHR4:147673062:T'	b'M55CtrlR1'	2	0.1714	0.0172	0.6988
b'CHR4:147673062:T'	b'M55CtrlR2'	2	0.1904	0.0182	0.6988
b'CHR4:147673062:T'	b'M55CtrlR3'	2	0.1673	0.0155	0.6988
b'CHR4:147673062:T'	b'M55CtrlR4'	2	0.1541	0.0178	0.6988
b'CHR4:157333318:G'	b'M55CtrlR1'	2	0.1714	0.0172	0.4740
b'CHR4:157333318:G'	b'M55CtrlR2'	2	0.1904	0.0182	0.4740
b'CHR4:157333318:G'	b'M55CtrlR3'	2	0.1673	0.0155	0.4740
b'CHR4:157333318:G'	b'M55CtrlR4'	2	0.1541	0.0178	0.4740
b'CHR4:70644514:G'	b'M55CtrlR1'	2	0.1714	0.0172	0.7414
b'CHR4:70644514:G'	b'M55CtrlR2'	2	0.1904	0.0182	0.7414
b'CHR4:70644514:G'	b'M55CtrlR3'	2	0.1673	0.0155	0.7414
b'CHR4:70644514:G'	b'M55CtrlR4'	2	0.1541	0.0178	0.7414
b'CHR5:141491438:A'	b'M55CtrlR1'	2	0.1714	0.0172	0.9958
b'CHR5:141491438:A'	b'M55CtrlR2'	2	0.1904	0.0182	0.9958
b'CHR5:141491438:A'	b'M55CtrlR3'	2	0.1673	0.0155	0.9958
b'CHR5:141491438:A'	b'M55CtrlR4'	2	0.1541	0.0178	0.9958
b'CHR5:51389819:T'	b'M55CtrlR1'	2	0.1714	0.0172	0.4777
b'CHR5:51389819:T'	b'M55CtrlR2'	2	0.1904	0.0182	0.4777
b'CHR5:51389819:T'	b'M55CtrlR3'	2	0.1673	0.0155	0.4777
b'CHR5:51389819:T'	b'M55CtrlR4'	2	0.1541	0.0178	0.4777
b'CHR6:13711047:G'	b'M55CtrlR1'	2	0.1714	0.0172	0.6030
b'CHR6:13711047:G'	b'M55CtrlR2'	2	0.1904	0.0182	0.6030
b'CHR6:13711047:G'	b'M55CtrlR3'	2	0.1673	0.0155	0.6030
b'CHR6:13711047:G'	b'M55CtrlR4'	2	0.1541	0.0178	0.6030
b'CHR6:16326648:A'	b'M55CtrlR1'	2	0.1714	0.0172	0.6801
b'CHR6:16326648:A'	b'M55CtrlR2'	2	0.1904	0.0182	0.6801
b'CHR6:16326648:A'	b'M55CtrlR3'	2	0.1673	0.0155	0.6801
b'CHR6:16326648:A'	b'M55CtrlR4'	2	0.1541	0.0178	0.6801
b'CHR6:3264292:T'	b'M55CtrlR1'	2	0.1714	0.0172	0.7726
b'CHR6:3264292:T'	b'M55CtrlR2'	2	0.1904	0.0182	0.7726
b'CHR6:3264292:T'	b'M55CtrlR3'	2	0.1673	0.0155	0.7726
b'CHR6:3264292:T'	b'M55CtrlR4'	2	0.1541	0.0178	0.7726
b'CHR6:3264293:C'	b'M55CtrlR1'	2	0.1714	0.0172	0.7726
b'CHR6:3264293:C'	b'M55CtrlR2'	2	0.1904	0.0182	0.7726
b'CHR6:3264293:C'	b'M55CtrlR3'	2	0.1673	0.0155	0.7726
b'CHR6:3264293:C'	b'M55CtrlR4'	2	0.1541	0.0178	0.7726
b'CHR6:57174231:A'	b'M55CtrlR1'	2	0.1714	0.0172	0.6625
b'CHR6:57174231:A'	b'M55CtrlR2'	2	0.1904	0.0182	0.6625
b'CHR6:57174231:A'	b'M55CtrlR3'	2	0.1673	0.0155	0.6625
b'CHR6:57174231:A'	b'M55CtrlR4'	2	0.1541	0.0178	0.6625
b'CHR6:7601487:T'	b'M55CtrlR1'	2	0.1714	0.0172	0.6359
b'CHR6:7601487:T'	b'M55CtrlR2'	2	0.1904	0.0182	0.6359
b'CHR6:7601487:T'	b'M55CtrlR3'	2	0.1673	0.0155	0.6359
b'CHR6:7601487:T'	b'M55CtrlR4'	2	0.1541	0.0178	0.6359
b'CHR7:44539245:T'	b'M55CtrlR1'	2	0.1714	0.0172	0.6009
b'CHR7:44539245:T'	b'M55CtrlR2'	2	0.1904	0.0182	0.6009
b'CHR7:44539245:T'	b'M55CtrlR3'	2	0.1673	0.0155	0.6009
b'CHR7:44539245:T'	b'M55CtrlR4'	2	0.1541	0.0178	0.6009
b'CHR8:142785653:A'	b'M55CtrlR1'	2	0.1714	0.0172	0.8991
b'CHR8:142785653:A'	b'M55CtrlR2'	2	0.1904	0.0182	0.8991
b'CHR8:142785653:A'	b'M55CtrlR3'	2	0.1673	0.0155	0.8991
b'CHR8:142785653:A'	b'M55CtrlR4'	2	0.1541	0.0178	0.8991
b'CHR8:144040433:T'	b'M55CtrlR1'	2	0.1714	0.0172	0.7823
b'CHR8:144040433:T'	b'M55CtrlR2'	2	0.1904	0.0182	0.7823
b'CHR8:144040433:T'	b'M55CtrlR3'	2	0.1673	0.0155	0.7823
b'CHR8:144040433:T'	b'M55CtrlR4'	2	0.1541	0.0178	0.7823
b'CHR9:125326478:G'	b'M55CtrlR1'	2	0.1714	0.0172	0.9869
b'CHR9:125326478:G'	b'M55CtrlR2'	2	0.1904	0.0182	0.9869
b'CHR9:125326478:G'	b'M55CtrlR3'	2	0.1673	0.0155	0.9869
b'CHR9:125326478:G'	b'M55CtrlR4'	2	0.1541	0.0178	0.9869
b'CHR9:125337434:T'	b'M55CtrlR1'	2	0.1714	0.0172	0.6951
b'CHR9:125337434:T'	b'M55CtrlR2'	2	0.1904	0.0182	0.6951
b'CHR9:125337434:T'	b'M55CtrlR3'	2	0.1673	0.0155	0.6951
b'CHR9:125337434:T'	b'M55CtrlR4'	2	0.1541	0.0178	0.6951
b'CHR9:129068201:C'	b'M55CtrlR1'	2	0.1714	0.0172	0.8936
b'CHR9:129068201:C'	b'M55CtrlR2'	2	0.1904	0.0182	0.8936
b'CHR9:129068201:C'	b'M55CtrlR3'	2	0.1673	0.0155	0.8936
b'CHR9:129068201:C'	b'M55CtrlR4'	2	0.1541	0.0178	0.8936
b'CHR9:93952939:A'	b'M55CtrlR1'	2	0.1714	0.0172	0.8895
b'CHR9:93952939:A'	b'M55CtrlR2'	2	0.1904	0.0182	0.8895
b'CHR9:93952939:A'	b'M55CtrlR3'	2	0.1673	0.0155	0.8895
b'CHR9:93952939:A'	b'M55CtrlR4'	2	0.1541	0.0178	0.8895
b'CHR9:95086149:A'	b'M55CtrlR1'	2	0.1714	0.0172	0.6315
b'CHR9:95086149:A'	b'M55CtrlR2'	2	0.1904	0.0182	0.6315
b'CHR9:95086149:A'	b'M55CtrlR3'	2	0.1673	0.0155	0.6315
b'CHR9:95086149:A'	b'M55CtrlR4'	2	0.1541	0.0178	0.6315
b'CHR3:41800280:T'	b'M55CtrlR1'	3	0.7932	0.1120	0.7132
b'CHR3:41800280:T'	b'M55CtrlR2'	3	0.3127	0.0734	0.7132
b'CHR3:41800280:T'	b'M55CtrlR3'	3	0.7788	0.1263	0.7132
b'CHR3:41800280:T'	b'M55CtrlR4'	3	0.5021	0.0970	0.7132
b'CHR9:26928213:T'	b'M55CtrlR1'	3	0.7932	0.1120	0.9991
b'CHR9:26928213:T'	b'M55CtrlR2'	3	0.3127	0.0734	0.9991
b'CHR9:26928213:T'	b'M55CtrlR3'	3	0.7788	0.1263	0.9991
b'CHR9:26928213:T'	b'M55CtrlR4'	3	0.5021	0.0970	0.9991
b'CHR11:18729503:A'	b'M55CtrlR1'	4	0.2724	0.0287	0.3501
b'CHR11:18729503:A'	b'M55CtrlR2'	4	0.3098	0.0307	0.3501
b'CHR11:18729503:A'	b'M55CtrlR3'	4	0.3963	0.0344	0.3501
b'CHR11:18729503:A'	b'M55CtrlR4'	4	0.2855	0.0359	0.3501
b'CHR13:33016802:A'	b'M55CtrlR1'	4	0.2724	0.0287	0.3974
b'CHR13:33016802:A'	b'M55CtrlR2'	4	0.3098	0.0307	0.3974
b'CHR13:33016802:A'	b'M55CtrlR3'	4	0.3963	0.0344	0.3974
b'CHR13:33016802:A'	b'M55CtrlR4'	4	0.2855	0.0359	0.3974
b'CHR15:23566598:A'	b'M55CtrlR1'	4	0.2724	0.0287	0.5133
b'CHR15:23566598:A'	b'M55CtrlR2'	4	0.3098	0.0307	0.5133
b'CHR15:23566598:A'	b'M55CtrlR3'	4	0.3963	0.0344	0.5133
b'CHR15:23566598:A'	b'M55CtrlR4'	4	0.2855	0.0359	0.5133
b'CHR17:10539354:G'	b'M55CtrlR1'	4	0.2724	0.0287	0.7493
b'CHR17:10539354:G'	b'M55CtrlR2'	4	0.3098	0.0307	0.7493
b'CHR17:10539354:G'	b'M55CtrlR3'	4	0.3963	0.0344	0.7493
b'CHR17:10539354:G'	b'M55CtrlR4'	4	0.2855	0.0359	0.7493
b'CHR1:111242317:G'	b'M55CtrlR1'	4	0.2724	0.0287	0.4853
b'CHR1:111242317:G'	b'M55CtrlR2'	4	0.3098	0.0307	0.4853
b'CHR1:111242317:G'	b'M55CtrlR3'	4	0.3963	0.0344	0.4853
b'CHR1:111242317:G'	b'M55CtrlR4'	4	0.2855	0.0359	0.4853
b'CHR1:157586429:T'	b'M55CtrlR1'	4	0.2724	0.0287	0.8932
b'CHR1:157586429:T'	b'M55CtrlR2'	4	0.3098	0.0307	0.8932
b'CHR1:157586429:T'	b'M55CtrlR3'	4	0.3963	0.0344	0.8932
b'CHR1:157586429:T'	b'M55CtrlR4'	4	0.2855	0.0359	0.8932
b'CHR1:16759300:T'	b'M55CtrlR1'	4	0.2724	0.0287	0.9971
b'CHR1:16759300:T'	b'M55CtrlR2'	4	0.3098	0.0307	0.9971
b'CHR1:16759300:T'	b'M55CtrlR3'	4	0.3963	0.0344	0.9971
b'CHR1:16759300:T'	b'M55CtrlR4'	4	0.2855	0.0359	0.9971
b'CHR1:247423969:T'	b'M55CtrlR1'	4	0.2724	0.0287	0.9936
b'CHR1:247423969:T'	b'M55CtrlR2'	4	0.3098	0.0307	0.9936
b'CHR1:247423969:T'	b'M55CtrlR3'	4	0.3963	0.0344	0.9936
b'CHR1:247423969:T'	b'M55CtrlR4'	4	0.2855	0.0359	0.9936
b'CHR1:248273507:A'	b'M55CtrlR1'	4	0.2724	0.0287	0.5042
b'CHR1:248273507:A'	b'M55CtrlR2'	4	0.3098	0.0307	0.5042
b'CHR1:248273507:A'	b'M55CtrlR3'	4	0.3963	0.0344	0.5042
b'CHR1:248273507:A'	b'M55CtrlR4'	4	0.2855	0.0359	0.5042
b'CHR1:248273509:C'	b'M55CtrlR1'	4	0.2724	0.0287	0.5042
b'CHR1:248273509:C'	b'M55CtrlR2'	4	0.3098	0.0307	0.5042
b'CHR1:248273509:C'	b'M55CtrlR3'	4	0.3963	0.0344	0.5042
b'CHR1:248273509:C'	b'M55CtrlR4'	4	0.2855	0.0359	0.5042
b'CHR1:66893260:C'	b'M55CtrlR1'	4	0.2724	0.0287	0.3757
b'CHR1:66893260:C'	b'M55CtrlR2'	4	0.3098	0.0307	0.3757
b'CHR1:66893260:C'	b'M55CtrlR3'	4	0.3963	0.0344	0.3757
b'CHR1:66893260:C'	b'M55CtrlR4'	4	0.2855	0.0359	0.3757
b'CHR1:70039224:A'	b'M55CtrlR1'	4	0.2724	0.0287	0.5052
b'CHR1:70039224:A'	b'M55CtrlR2'	4	0.3098	0.0307	0.5052
b'CHR1:70039224:A'	b'M55CtrlR3'	4	0.3963	0.0344	0.5052
b'CHR1:70039224:A'	b'M55CtrlR4'	4	0.2855	0.0359	0.5052
b'CHR21:44591443:C'	b'M55CtrlR1'	4	0.2724	0.0287	0.7111
b'CHR21:44591443:C'	b'M55CtrlR2'	4	0.3098	0.0307	0.7111
b'CHR21:44591443:C'	b'M55CtrlR3'	4	0.3963	0.0344	0.7111
b'CHR21:44591443:C'	b'M55CtrlR4'	4	0.2855	0.0359	0.7111
b'CHR22:37018347:A'	b'M55CtrlR1'	4	0.2724	0.0287	0.4368
b'CHR22:37018347:A'	b'M55CtrlR2'	4	0.3098	0.0307	0.4368
b'CHR22:37018347:A'	b'M55CtrlR3'	4	0.3963	0.0344	0.4368
b'CHR22:37018347:A'	b'M55CtrlR4'	4	0.2855	0.0359	0.4368
b'CHR2:186838999:G'	b'M55CtrlR1'	4	0.2724	0.0287	0.3879
b'CHR2:186838999:G'	b'M55CtrlR2'	4	0.3098	0.0307	0.3879
b'CHR2:186838999:G'	b'M55CtrlR3'	4	0.3963	0.0344	0.3879
b'CHR2:186838999:G'	b'M55CtrlR4'	4	0.2855	0.0359	0.3879
b'CHR3:55073793:A'	b'M55CtrlR1'	4	0.2724	0.0287	0.5319
b'CHR3:55073793:A'	b'M55CtrlR2'	4	0.3098	0.0307	0.5319
b'CHR3:55073793:A'	b'M55CtrlR3'	4	0.3963	0.0344	0.5319
b'CHR3:55073793:A'	b'M55CtrlR4'	4	0.2855	0.0359	0.5319
b'CHR4:105942405:T'	b'M55CtrlR1'	4	0.2724	0.0287	0.5280
b'CHR4:105942405:T'	b'M55CtrlR2'	4	0.3098	0.0307	0.5280
b'CHR4:105942405:T'	b'M55CtrlR3'	4	0.3963	0.0344	0.5280
b'CHR4:105942405:T'	b'M55CtrlR4'	4	0.2855	0.0359	0.5280
b'CHR5:35807207:A'	b'M55CtrlR1'	4	0.2724	0.0287	0.4645
b'CHR5:35807207:A'	b'M55CtrlR2'	4	0.3098	0.0307	0.4645
b'CHR5:35807207:A'	b'M55CtrlR3'	4	0.3963	0.0344	0.4645
b'CHR5:35807207:A'	b'M55CtrlR4'	4	0.2855	0.0359	0.4645
b'CHR6:10687513:T'	b'M55CtrlR1'	4	0.2724	0.0287	0.8891
b'CHR6:10687513:T'	b'M55CtrlR2'	4	0.3098	0.0307	0.8891
b'CHR6:10687513:T'	b'M55CtrlR3'	4	0.3963	0.0344	0.8891
b'CHR6:10687513:T'	b'M55CtrlR4'	4	0.2855	0.0359	0.8891
b'CHR6:11193627:A'	b'M55CtrlR1'	4	0.2724	0.0287	0.9974
b'CHR6:11193627:A'	b'M55CtrlR2'	4	0.3098	0.0307	0.9974
b'CHR6:11193627:A'	b'M55CtrlR3'	4	0.3963	0.0344	0.9974
b'CHR6:11193627:A'	b'M55CtrlR4'	4	0.2855	0.0359	0.9974
b'CHR6:12120212:G'	b'M55CtrlR1'	4	0.2724	0.0287	0.9352
b'CHR6:12120212:G'	b'M55CtrlR2'	4	0.3098	0.0307	0.9352
b'CHR6:12120212:G'	b'M55CtrlR3'	4	0.3963	0.0344	0.9352
b'CHR6:12120212:G'	b'M55CtrlR4'	4	0.2855	0.0359	0.9352
b'CHR6:154832130:T'	b'M55CtrlR1'	4	0.2724	0.0287	0.4666
b'CHR6:154832130:T'	b'M55CtrlR2'	4	0.3098	0.0307	0.4666
b'CHR6:154832130:T'	b'M55CtrlR3'	4	0.3963	0.0344	0.4666
b'CHR6:154832130:T'	b'M55CtrlR4'	4	0.2855	0.0359	0.4666
b'CHR6:2749147:T'	b'M55CtrlR1'	4	0.2724	0.0287	0.7571
b'CHR6:2749147:T'	b'M55CtrlR2'	4	0.3098	0.0307	0.7571
b'CHR6:2749147:T'	b'M55CtrlR3'	4	0.3963	0.0344	0.7571
b'CHR6:2749147:T'	b'M55CtrlR4'	4	0.2855	0.0359	0.7571
b'CHR6:7393219:T'	b'M55CtrlR1'	4	0.2724	0.0287	0.7067
b'CHR6:7393219:T'	b'M55CtrlR2'	4	0.3098	0.0307	0.7067
b'CHR6:7393219:T'	b'M55CtrlR3'	4	0.3963	0.0344	0.7067
b'CHR6:7393219:T'	b'M55CtrlR4'	4	0.2855	0.0359	0.7067
b'CHR6:7581403:A'	b'M55CtrlR1'	4	0.2724	0.0287	0.8538
b'CHR6:7581403:A'	b'M55CtrlR2'	4	0.3098	0.0307	0.8538
b'CHR6:7581403:A'	b'M55CtrlR3'	4	0.3963	0.0344	0.8538
b'CHR6:7581403:A'	b'M55CtrlR4'	4	0.2855	0.0359	0.8538
b'CHR6:9775825:A'	b'M55CtrlR1'	4	0.2724	0.0287	0.7894
b'CHR6:9775825:A'	b'M55CtrlR2'	4	0.3098	0.0307	0.7894
b'CHR6:9775825:A'	b'M55CtrlR3'	4	0.3963	0.0344	0.7894
b'CHR6:9775825:A'	b'M55CtrlR4'	4	0.2855	0.0359	0.7894
b'CHR7:39085988:C'	b'M55CtrlR1'	4	0.2724	0.0287	0.3276
b'CHR7:39085988:C'	b'M55CtrlR2'	4	0.3098	0.0307	0.3276
b'CHR7:39085988:C'	b'M55CtrlR3'	4	0.3963	0.0344	0.3276
b'CHR7:39085988:C'	b'M55CtrlR4'	4	0.2855	0.0359	0.3276
b'CHR7:55747834:A'	b'M55CtrlR1'	4	0.2724	0.0287	0.3757
b'CHR7:55747834:A'	b'M55CtrlR2'	4	0.3098	0.0307	0.3757
b'CHR7:55747834:A'	b'M55CtrlR3'	4	0.3963	0.0344	0.3757
b'CHR7:55747834:A'	b'M55CtrlR4'	4	0.2855	0.0359	0.3757
b'CHR9:95881156:A'	b'M55CtrlR1'	4	0.2724	0.0287	0.5352
b'CHR9:95881156:A'	b'M55CtrlR2'	4	0.3098	0.0307	0.5352
b'CHR9:95881156:A'	b'M55CtrlR3'	4	0.3963	0.0344	0.5352
b'CHR9:95881156:A'	b'M55CtrlR4'	4	0.2855	0.0359	0.5352
