mutation_id	sample_id	cluster_id	cellular_prevalence	cellular_prevalence_std	cluster_assignment_prob
b'CHR11:18729503:A'	b'M55CtrlR1'	0	0.2718	0.0287	0.3296
b'CHR11:18729503:A'	b'M55CtrlR2'	0	0.3087	0.0307	0.3296
b'CHR11:18729503:A'	b'M55CtrlR3'	0	0.3961	0.0344	0.3296
b'CHR11:18729503:A'	b'M55CtrlR4'	0	0.2851	0.0358	0.3296
b'CHR13:33016802:A'	b'M55CtrlR1'	0	0.2718	0.0287	0.3792
b'CHR13:33016802:A'	b'M55CtrlR2'	0	0.3087	0.0307	0.3792
b'CHR13:33016802:A'	b'M55CtrlR3'	0	0.3961	0.0344	0.3792
b'CHR13:33016802:A'	b'M55CtrlR4'	0	0.2851	0.0358	0.3792
b'CHR15:23566598:A'	b'M55CtrlR1'	0	0.2718	0.0287	0.5038
b'CHR15:23566598:A'	b'M55CtrlR2'	0	0.3087	0.0307	0.5038
b'CHR15:23566598:A'	b'M55CtrlR3'	0	0.3961	0.0344	0.5038
b'CHR15:23566598:A'	b'M55CtrlR4'	0	0.2851	0.0358	0.5038
b'CHR17:10539354:G'	b'M55CtrlR1'	0	0.2718	0.0287	0.7519
b'CHR17:10539354:G'	b'M55CtrlR2'	0	0.3087	0.0307	0.7519
b'CHR17:10539354:G'	b'M55CtrlR3'	0	0.3961	0.0344	0.7519
b'CHR17:10539354:G'	b'M55CtrlR4'	0	0.2851	0.0358	0.7519
b'CHR1:111242317:G'	b'M55CtrlR1'	0	0.2718	0.0287	0.4758
b'CHR1:111242317:G'	b'M55CtrlR2'	0	0.3087	0.0307	0.4758
b'CHR1:111242317:G'	b'M55CtrlR3'	0	0.3961	0.0344	0.4758
b'CHR1:111242317:G'	b'M55CtrlR4'	0	0.2851	0.0358	0.4758
b'CHR1:157586429:T'	b'M55CtrlR1'	0	0.2718	0.0287	0.8965
b'CHR1:157586429:T'	b'M55CtrlR2'	0	0.3087	0.0307	0.8965
b'CHR1:157586429:T'	b'M55CtrlR3'	0	0.3961	0.0344	0.8965
b'CHR1:157586429:T'	b'M55CtrlR4'	0	0.2851	0.0358	0.8965
b'CHR1:16759300:T'	b'M55CtrlR1'	0	0.2718	0.0287	0.9973
b'CHR1:16759300:T'	b'M55CtrlR2'	0	0.3087	0.0307	0.9973
b'CHR1:16759300:T'	b'M55CtrlR3'	0	0.3961	0.0344	0.9973
b'CHR1:16759300:T'	b'M55CtrlR4'	0	0.2851	0.0358	0.9973
b'CHR1:247423969:T'	b'M55CtrlR1'	0	0.2718	0.0287	0.9936
b'CHR1:247423969:T'	b'M55CtrlR2'	0	0.3087	0.0307	0.9936
b'CHR1:247423969:T'	b'M55CtrlR3'	0	0.3961	0.0344	0.9936
b'CHR1:247423969:T'	b'M55CtrlR4'	0	0.2851	0.0358	0.9936
b'CHR1:248273507:A'	b'M55CtrlR1'	0	0.2718	0.0287	0.5010
b'CHR1:248273507:A'	b'M55CtrlR2'	0	0.3087	0.0307	0.5010
b'CHR1:248273507:A'	b'M55CtrlR3'	0	0.3961	0.0344	0.5010
b'CHR1:248273507:A'	b'M55CtrlR4'	0	0.2851	0.0358	0.5010
b'CHR1:248273509:C'	b'M55CtrlR1'	0	0.2718	0.0287	0.5010
b'CHR1:248273509:C'	b'M55CtrlR2'	0	0.3087	0.0307	0.5010
b'CHR1:248273509:C'	b'M55CtrlR3'	0	0.3961	0.0344	0.5010
b'CHR1:248273509:C'	b'M55CtrlR4'	0	0.2851	0.0358	0.5010
b'CHR1:66893260:C'	b'M55CtrlR1'	0	0.2718	0.0287	0.3544
b'CHR1:66893260:C'	b'M55CtrlR2'	0	0.3087	0.0307	0.3544
b'CHR1:66893260:C'	b'M55CtrlR3'	0	0.3961	0.0344	0.3544
b'CHR1:66893260:C'	b'M55CtrlR4'	0	0.2851	0.0358	0.3544
b'CHR1:70039224:A'	b'M55CtrlR1'	0	0.2718	0.0287	0.5029
b'CHR1:70039224:A'	b'M55CtrlR2'	0	0.3087	0.0307	0.5029
b'CHR1:70039224:A'	b'M55CtrlR3'	0	0.3961	0.0344	0.5029
b'CHR1:70039224:A'	b'M55CtrlR4'	0	0.2851	0.0358	0.5029
b'CHR21:44591443:C'	b'M55CtrlR1'	0	0.2718	0.0287	0.6937
b'CHR21:44591443:C'	b'M55CtrlR2'	0	0.3087	0.0307	0.6937
b'CHR21:44591443:C'	b'M55CtrlR3'	0	0.3961	0.0344	0.6937
b'CHR21:44591443:C'	b'M55CtrlR4'	0	0.2851	0.0358	0.6937
b'CHR22:37018347:A'	b'M55CtrlR1'	0	0.2718	0.0287	0.4121
b'CHR22:37018347:A'	b'M55CtrlR2'	0	0.3087	0.0307	0.4121
b'CHR22:37018347:A'	b'M55CtrlR3'	0	0.3961	0.0344	0.4121
b'CHR22:37018347:A'	b'M55CtrlR4'	0	0.2851	0.0358	0.4121
b'CHR2:186838999:G'	b'M55CtrlR1'	0	0.2718	0.0287	0.3823
b'CHR2:186838999:G'	b'M55CtrlR2'	0	0.3087	0.0307	0.3823
b'CHR2:186838999:G'	b'M55CtrlR3'	0	0.3961	0.0344	0.3823
b'CHR2:186838999:G'	b'M55CtrlR4'	0	0.2851	0.0358	0.3823
b'CHR3:55073793:A'	b'M55CtrlR1'	0	0.2718	0.0287	0.5344
b'CHR3:55073793:A'	b'M55CtrlR2'	0	0.3087	0.0307	0.5344
b'CHR3:55073793:A'	b'M55CtrlR3'	0	0.3961	0.0344	0.5344
b'CHR3:55073793:A'	b'M55CtrlR4'	0	0.2851	0.0358	0.5344
b'CHR4:105942405:T'	b'M55CtrlR1'	0	0.2718	0.0287	0.5163
b'CHR4:105942405:T'	b'M55CtrlR2'	0	0.3087	0.0307	0.5163
b'CHR4:105942405:T'	b'M55CtrlR3'	0	0.3961	0.0344	0.5163
b'CHR4:105942405:T'	b'M55CtrlR4'	0	0.2851	0.0358	0.5163
b'CHR5:35807207:A'	b'M55CtrlR1'	0	0.2718	0.0287	0.4493
b'CHR5:35807207:A'	b'M55CtrlR2'	0	0.3087	0.0307	0.4493
b'CHR5:35807207:A'	b'M55CtrlR3'	0	0.3961	0.0344	0.4493
b'CHR5:35807207:A'	b'M55CtrlR4'	0	0.2851	0.0358	0.4493
b'CHR6:10687513:T'	b'M55CtrlR1'	0	0.2718	0.0287	0.8914
b'CHR6:10687513:T'	b'M55CtrlR2'	0	0.3087	0.0307	0.8914
b'CHR6:10687513:T'	b'M55CtrlR3'	0	0.3961	0.0344	0.8914
b'CHR6:10687513:T'	b'M55CtrlR4'	0	0.2851	0.0358	0.8914
b'CHR6:11193627:A'	b'M55CtrlR1'	0	0.2718	0.0287	0.9975
b'CHR6:11193627:A'	b'M55CtrlR2'	0	0.3087	0.0307	0.9975
b'CHR6:11193627:A'	b'M55CtrlR3'	0	0.3961	0.0344	0.9975
b'CHR6:11193627:A'	b'M55CtrlR4'	0	0.2851	0.0358	0.9975
b'CHR6:12120212:G'	b'M55CtrlR1'	0	0.2718	0.0287	0.9371
b'CHR6:12120212:G'	b'M55CtrlR2'	0	0.3087	0.0307	0.9371
b'CHR6:12120212:G'	b'M55CtrlR3'	0	0.3961	0.0344	0.9371
b'CHR6:12120212:G'	b'M55CtrlR4'	0	0.2851	0.0358	0.9371
b'CHR6:154832130:T'	b'M55CtrlR1'	0	0.2718	0.0287	0.4575
b'CHR6:154832130:T'	b'M55CtrlR2'	0	0.3087	0.0307	0.4575
b'CHR6:154832130:T'	b'M55CtrlR3'	0	0.3961	0.0344	0.4575
b'CHR6:154832130:T'	b'M55CtrlR4'	0	0.2851	0.0358	0.4575
b'CHR6:2749147:T'	b'M55CtrlR1'	0	0.2718	0.0287	0.7591
b'CHR6:2749147:T'	b'M55CtrlR2'	0	0.3087	0.0307	0.7591
b'CHR6:2749147:T'	b'M55CtrlR3'	0	0.3961	0.0344	0.7591
b'CHR6:2749147:T'	b'M55CtrlR4'	0	0.2851	0.0358	0.7591
b'CHR6:7393219:T'	b'M55CtrlR1'	0	0.2718	0.0287	0.7097
b'CHR6:7393219:T'	b'M55CtrlR2'	0	0.3087	0.0307	0.7097
b'CHR6:7393219:T'	b'M55CtrlR3'	0	0.3961	0.0344	0.7097
b'CHR6:7393219:T'	b'M55CtrlR4'	0	0.2851	0.0358	0.7097
b'CHR6:7581403:A'	b'M55CtrlR1'	0	0.2718	0.0287	0.8571
b'CHR6:7581403:A'	b'M55CtrlR2'	0	0.3087	0.0307	0.8571
b'CHR6:7581403:A'	b'M55CtrlR3'	0	0.3961	0.0344	0.8571
b'CHR6:7581403:A'	b'M55CtrlR4'	0	0.2851	0.0358	0.8571
b'CHR6:9775825:A'	b'M55CtrlR1'	0	0.2718	0.0287	0.7904
b'CHR6:9775825:A'	b'M55CtrlR2'	0	0.3087	0.0307	0.7904
b'CHR6:9775825:A'	b'M55CtrlR3'	0	0.3961	0.0344	0.7904
b'CHR6:9775825:A'	b'M55CtrlR4'	0	0.2851	0.0358	0.7904
b'CHR7:39085988:C'	b'M55CtrlR1'	0	0.2718	0.0287	0.3086
b'CHR7:39085988:C'	b'M55CtrlR2'	0	0.3087	0.0307	0.3086
b'CHR7:39085988:C'	b'M55CtrlR3'	0	0.3961	0.0344	0.3086
b'CHR7:39085988:C'	b'M55CtrlR4'	0	0.2851	0.0358	0.3086
b'CHR7:55747834:A'	b'M55CtrlR1'	0	0.2718	0.0287	0.3544
b'CHR7:55747834:A'	b'M55CtrlR2'	0	0.3087	0.0307	0.3544
b'CHR7:55747834:A'	b'M55CtrlR3'	0	0.3961	0.0344	0.3544
b'CHR7:55747834:A'	b'M55CtrlR4'	0	0.2851	0.0358	0.3544
b'CHR9:95881156:A'	b'M55CtrlR1'	0	0.2718	0.0287	0.5393
b'CHR9:95881156:A'	b'M55CtrlR2'	0	0.3087	0.0307	0.5393
b'CHR9:95881156:A'	b'M55CtrlR3'	0	0.3961	0.0344	0.5393
b'CHR9:95881156:A'	b'M55CtrlR4'	0	0.2851	0.0358	0.5393
b'CHR10:128101279:T'	b'M55CtrlR1'	1	0.9085	0.0394	0.9970
b'CHR10:128101279:T'	b'M55CtrlR2'	1	0.8653	0.0396	0.9970
b'CHR10:128101279:T'	b'M55CtrlR3'	1	0.8498	0.0393	0.9970
b'CHR10:128101279:T'	b'M55CtrlR4'	1	0.7298	0.0397	0.9970
b'CHR10:92240093:G'	b'M55CtrlR1'	1	0.9085	0.0394	0.3098
b'CHR10:92240093:G'	b'M55CtrlR2'	1	0.8653	0.0396	0.3098
b'CHR10:92240093:G'	b'M55CtrlR3'	1	0.8498	0.0393	0.3098
b'CHR10:92240093:G'	b'M55CtrlR4'	1	0.7298	0.0397	0.3098
b'CHR14:31178233:C'	b'M55CtrlR1'	1	0.9085	0.0394	0.9985
b'CHR14:31178233:C'	b'M55CtrlR2'	1	0.8653	0.0396	0.9985
b'CHR14:31178233:C'	b'M55CtrlR3'	1	0.8498	0.0393	0.9985
b'CHR14:31178233:C'	b'M55CtrlR4'	1	0.7298	0.0397	0.9985
b'CHR14:70060875:T'	b'M55CtrlR1'	1	0.9085	0.0394	0.3119
b'CHR14:70060875:T'	b'M55CtrlR2'	1	0.8653	0.0396	0.3119
b'CHR14:70060875:T'	b'M55CtrlR3'	1	0.8498	0.0393	0.3119
b'CHR14:70060875:T'	b'M55CtrlR4'	1	0.7298	0.0397	0.3119
b'CHR16:1241453:A'	b'M55CtrlR1'	1	0.9085	0.0394	0.6699
b'CHR16:1241453:A'	b'M55CtrlR2'	1	0.8653	0.0396	0.6699
b'CHR16:1241453:A'	b'M55CtrlR3'	1	0.8498	0.0393	0.6699
b'CHR16:1241453:A'	b'M55CtrlR4'	1	0.7298	0.0397	0.6699
b'CHR16:28342968:A'	b'M55CtrlR1'	1	0.9085	0.0394	0.3656
b'CHR16:28342968:A'	b'M55CtrlR2'	1	0.8653	0.0396	0.3656
b'CHR16:28342968:A'	b'M55CtrlR3'	1	0.8498	0.0393	0.3656
b'CHR16:28342968:A'	b'M55CtrlR4'	1	0.7298	0.0397	0.3656
b'CHR19:1049270:A'	b'M55CtrlR1'	1	0.9085	0.0394	0.9694
b'CHR19:1049270:A'	b'M55CtrlR2'	1	0.8653	0.0396	0.9694
b'CHR19:1049270:A'	b'M55CtrlR3'	1	0.8498	0.0393	0.9694
b'CHR19:1049270:A'	b'M55CtrlR4'	1	0.7298	0.0397	0.9694
b'CHR1:11706367:T'	b'M55CtrlR1'	1	0.9085	0.0394	0.9519
b'CHR1:11706367:T'	b'M55CtrlR2'	1	0.8653	0.0396	0.9519
b'CHR1:11706367:T'	b'M55CtrlR3'	1	0.8498	0.0393	0.9519
b'CHR1:11706367:T'	b'M55CtrlR4'	1	0.7298	0.0397	0.9519
b'CHR1:11779915:A'	b'M55CtrlR1'	1	0.9085	0.0394	0.9333
b'CHR1:11779915:A'	b'M55CtrlR2'	1	0.8653	0.0396	0.9333
b'CHR1:11779915:A'	b'M55CtrlR3'	1	0.8498	0.0393	0.9333
b'CHR1:11779915:A'	b'M55CtrlR4'	1	0.7298	0.0397	0.9333
b'CHR1:13343011:A'	b'M55CtrlR1'	1	0.9085	0.0394	0.9771
b'CHR1:13343011:A'	b'M55CtrlR2'	1	0.8653	0.0396	0.9771
b'CHR1:13343011:A'	b'M55CtrlR3'	1	0.8498	0.0393	0.9771
b'CHR1:13343011:A'	b'M55CtrlR4'	1	0.7298	0.0397	0.9771
b'CHR1:13421192:T'	b'M55CtrlR1'	1	0.9085	0.0394	0.9680
b'CHR1:13421192:T'	b'M55CtrlR2'	1	0.8653	0.0396	0.9680
b'CHR1:13421192:T'	b'M55CtrlR3'	1	0.8498	0.0393	0.9680
b'CHR1:13421192:T'	b'M55CtrlR4'	1	0.7298	0.0397	0.9680
b'CHR1:13782619:G'	b'M55CtrlR1'	1	0.9085	0.0394	0.9878
b'CHR1:13782619:G'	b'M55CtrlR2'	1	0.8653	0.0396	0.9878
b'CHR1:13782619:G'	b'M55CtrlR3'	1	0.8498	0.0393	0.9878
b'CHR1:13782619:G'	b'M55CtrlR4'	1	0.7298	0.0397	0.9878
b'CHR1:15939409:A'	b'M55CtrlR1'	1	0.9085	0.0394	0.9996
b'CHR1:15939409:A'	b'M55CtrlR2'	1	0.8653	0.0396	0.9996
b'CHR1:15939409:A'	b'M55CtrlR3'	1	0.8498	0.0393	0.9996
b'CHR1:15939409:A'	b'M55CtrlR4'	1	0.7298	0.0397	0.9996
b'CHR1:160155085:A'	b'M55CtrlR1'	1	0.9085	0.0394	0.4890
b'CHR1:160155085:A'	b'M55CtrlR2'	1	0.8653	0.0396	0.4890
b'CHR1:160155085:A'	b'M55CtrlR3'	1	0.8498	0.0393	0.4890
b'CHR1:160155085:A'	b'M55CtrlR4'	1	0.7298	0.0397	0.4890
b'CHR1:17079314:A'	b'M55CtrlR1'	1	0.9085	0.0394	0.9748
b'CHR1:17079314:A'	b'M55CtrlR2'	1	0.8653	0.0396	0.9748
b'CHR1:17079314:A'	b'M55CtrlR3'	1	0.8498	0.0393	0.9748
b'CHR1:17079314:A'	b'M55CtrlR4'	1	0.7298	0.0397	0.9748
b'CHR1:17084646:G'	b'M55CtrlR1'	1	0.9085	0.0394	0.5457
b'CHR1:17084646:G'	b'M55CtrlR2'	1	0.8653	0.0396	0.5457
b'CHR1:17084646:G'	b'M55CtrlR3'	1	0.8498	0.0393	0.5457
b'CHR1:17084646:G'	b'M55CtrlR4'	1	0.7298	0.0397	0.5457
b'CHR1:18854521:C'	b'M55CtrlR1'	1	0.9085	0.0394	0.4245
b'CHR1:18854521:C'	b'M55CtrlR2'	1	0.8653	0.0396	0.4245
b'CHR1:18854521:C'	b'M55CtrlR3'	1	0.8498	0.0393	0.4245
b'CHR1:18854521:C'	b'M55CtrlR4'	1	0.7298	0.0397	0.4245
b'CHR1:18854588:C'	b'M55CtrlR1'	1	0.9085	0.0394	0.4010
b'CHR1:18854588:C'	b'M55CtrlR2'	1	0.8653	0.0396	0.4010
b'CHR1:18854588:C'	b'M55CtrlR3'	1	0.8498	0.0393	0.4010
b'CHR1:18854588:C'	b'M55CtrlR4'	1	0.7298	0.0397	0.4010
b'CHR1:18877503:G'	b'M55CtrlR1'	1	0.9085	0.0394	0.7166
b'CHR1:18877503:G'	b'M55CtrlR2'	1	0.8653	0.0396	0.7166
b'CHR1:18877503:G'	b'M55CtrlR3'	1	0.8498	0.0393	0.7166
b'CHR1:18877503:G'	b'M55CtrlR4'	1	0.7298	0.0397	0.7166
b'CHR1:19282760:C'	b'M55CtrlR1'	1	0.9085	0.0394	0.9958
b'CHR1:19282760:C'	b'M55CtrlR2'	1	0.8653	0.0396	0.9958
b'CHR1:19282760:C'	b'M55CtrlR3'	1	0.8498	0.0393	0.9958
b'CHR1:19282760:C'	b'M55CtrlR4'	1	0.7298	0.0397	0.9958
b'CHR1:19623568:C'	b'M55CtrlR1'	1	0.9085	0.0394	0.9371
b'CHR1:19623568:C'	b'M55CtrlR2'	1	0.8653	0.0396	0.9371
b'CHR1:19623568:C'	b'M55CtrlR3'	1	0.8498	0.0393	0.9371
b'CHR1:19623568:C'	b'M55CtrlR4'	1	0.7298	0.0397	0.9371
b'CHR1:20084839:T'	b'M55CtrlR1'	1	0.9085	0.0394	0.9688
b'CHR1:20084839:T'	b'M55CtrlR2'	1	0.8653	0.0396	0.9688
b'CHR1:20084839:T'	b'M55CtrlR3'	1	0.8498	0.0393	0.9688
b'CHR1:20084839:T'	b'M55CtrlR4'	1	0.7298	0.0397	0.9688
b'CHR1:21874505:T'	b'M55CtrlR1'	1	0.9085	0.0394	0.6049
b'CHR1:21874505:T'	b'M55CtrlR2'	1	0.8653	0.0396	0.6049
b'CHR1:21874505:T'	b'M55CtrlR3'	1	0.8498	0.0393	0.6049
b'CHR1:21874505:T'	b'M55CtrlR4'	1	0.7298	0.0397	0.6049
b'CHR1:22526222:C'	b'M55CtrlR1'	1	0.9085	0.0394	0.9615
b'CHR1:22526222:C'	b'M55CtrlR2'	1	0.8653	0.0396	0.9615
b'CHR1:22526222:C'	b'M55CtrlR3'	1	0.8498	0.0393	0.9615
b'CHR1:22526222:C'	b'M55CtrlR4'	1	0.7298	0.0397	0.9615
b'CHR1:26344118:T'	b'M55CtrlR1'	1	0.9085	0.0394	0.9457
b'CHR1:26344118:T'	b'M55CtrlR2'	1	0.8653	0.0396	0.9457
b'CHR1:26344118:T'	b'M55CtrlR3'	1	0.8498	0.0393	0.9457
b'CHR1:26344118:T'	b'M55CtrlR4'	1	0.7298	0.0397	0.9457
b'CHR1:27360975:T'	b'M55CtrlR1'	1	0.9085	0.0394	0.7317
b'CHR1:27360975:T'	b'M55CtrlR2'	1	0.8653	0.0396	0.7317
b'CHR1:27360975:T'	b'M55CtrlR3'	1	0.8498	0.0393	0.7317
b'CHR1:27360975:T'	b'M55CtrlR4'	1	0.7298	0.0397	0.7317
b'CHR1:31630664:G'	b'M55CtrlR1'	1	0.9085	0.0394	0.9957
b'CHR1:31630664:G'	b'M55CtrlR2'	1	0.8653	0.0396	0.9957
b'CHR1:31630664:G'	b'M55CtrlR3'	1	0.8498	0.0393	0.9957
b'CHR1:31630664:G'	b'M55CtrlR4'	1	0.7298	0.0397	0.9957
b'CHR1:32770050:G'	b'M55CtrlR1'	1	0.9085	0.0394	0.5295
b'CHR1:32770050:G'	b'M55CtrlR2'	1	0.8653	0.0396	0.5295
b'CHR1:32770050:G'	b'M55CtrlR3'	1	0.8498	0.0393	0.5295
b'CHR1:32770050:G'	b'M55CtrlR4'	1	0.7298	0.0397	0.5295
b'CHR1:33494462:G'	b'M55CtrlR1'	1	0.9085	0.0394	0.9554
b'CHR1:33494462:G'	b'M55CtrlR2'	1	0.8653	0.0396	0.9554
b'CHR1:33494462:G'	b'M55CtrlR3'	1	0.8498	0.0393	0.9554
b'CHR1:33494462:G'	b'M55CtrlR4'	1	0.7298	0.0397	0.9554
b'CHR1:3478610:A'	b'M55CtrlR1'	1	0.9085	0.0394	0.9287
b'CHR1:3478610:A'	b'M55CtrlR2'	1	0.8653	0.0396	0.9287
b'CHR1:3478610:A'	b'M55CtrlR3'	1	0.8498	0.0393	0.9287
b'CHR1:3478610:A'	b'M55CtrlR4'	1	0.7298	0.0397	0.9287
b'CHR1:51840355:A'	b'M55CtrlR1'	1	0.9085	0.0394	0.9560
b'CHR1:51840355:A'	b'M55CtrlR2'	1	0.8653	0.0396	0.9560
b'CHR1:51840355:A'	b'M55CtrlR3'	1	0.8498	0.0393	0.9560
b'CHR1:51840355:A'	b'M55CtrlR4'	1	0.7298	0.0397	0.9560
b'CHR1:53247055:T'	b'M55CtrlR1'	1	0.9085	0.0394	0.9504
b'CHR1:53247055:T'	b'M55CtrlR2'	1	0.8653	0.0396	0.9504
b'CHR1:53247055:T'	b'M55CtrlR3'	1	0.8498	0.0393	0.9504
b'CHR1:53247055:T'	b'M55CtrlR4'	1	0.7298	0.0397	0.9504
b'CHR1:53250744:A'	b'M55CtrlR1'	1	0.9085	0.0394	0.6211
b'CHR1:53250744:A'	b'M55CtrlR2'	1	0.8653	0.0396	0.6211
b'CHR1:53250744:A'	b'M55CtrlR3'	1	0.8498	0.0393	0.6211
b'CHR1:53250744:A'	b'M55CtrlR4'	1	0.7298	0.0397	0.6211
b'CHR1:53594575:C'	b'M55CtrlR1'	1	0.9085	0.0394	0.7323
b'CHR1:53594575:C'	b'M55CtrlR2'	1	0.8653	0.0396	0.7323
b'CHR1:53594575:C'	b'M55CtrlR3'	1	0.8498	0.0393	0.7323
b'CHR1:53594575:C'	b'M55CtrlR4'	1	0.7298	0.0397	0.7323
b'CHR1:63323280:A'	b'M55CtrlR1'	1	0.9085	0.0394	0.9805
b'CHR1:63323280:A'	b'M55CtrlR2'	1	0.8653	0.0396	0.9805
b'CHR1:63323280:A'	b'M55CtrlR3'	1	0.8498	0.0393	0.9805
b'CHR1:63323280:A'	b'M55CtrlR4'	1	0.7298	0.0397	0.9805
b'CHR1:63415881:T'	b'M55CtrlR1'	1	0.9085	0.0394	0.4670
b'CHR1:63415881:T'	b'M55CtrlR2'	1	0.8653	0.0396	0.4670
b'CHR1:63415881:T'	b'M55CtrlR3'	1	0.8498	0.0393	0.4670
b'CHR1:63415881:T'	b'M55CtrlR4'	1	0.7298	0.0397	0.4670
b'CHR1:64844806:C'	b'M55CtrlR1'	1	0.9085	0.0394	0.5851
b'CHR1:64844806:C'	b'M55CtrlR2'	1	0.8653	0.0396	0.5851
b'CHR1:64844806:C'	b'M55CtrlR3'	1	0.8498	0.0393	0.5851
b'CHR1:64844806:C'	b'M55CtrlR4'	1	0.7298	0.0397	0.5851
b'CHR1:7827188:A'	b'M55CtrlR1'	1	0.9085	0.0394	0.9743
b'CHR1:7827188:A'	b'M55CtrlR2'	1	0.8653	0.0396	0.9743
b'CHR1:7827188:A'	b'M55CtrlR3'	1	0.8498	0.0393	0.9743
b'CHR1:7827188:A'	b'M55CtrlR4'	1	0.7298	0.0397	0.9743
b'CHR1:942934:C'	b'M55CtrlR1'	1	0.9085	0.0394	0.9330
b'CHR1:942934:C'	b'M55CtrlR2'	1	0.8653	0.0396	0.9330
b'CHR1:942934:C'	b'M55CtrlR3'	1	0.8498	0.0393	0.9330
b'CHR1:942934:C'	b'M55CtrlR4'	1	0.7298	0.0397	0.9330
b'CHR2:73291715:T'	b'M55CtrlR1'	1	0.9085	0.0394	0.5798
b'CHR2:73291715:T'	b'M55CtrlR2'	1	0.8653	0.0396	0.5798
b'CHR2:73291715:T'	b'M55CtrlR3'	1	0.8498	0.0393	0.5798
b'CHR2:73291715:T'	b'M55CtrlR4'	1	0.7298	0.0397	0.5798
b'CHR7:151066568:A'	b'M55CtrlR1'	1	0.9085	0.0394	0.5358
b'CHR7:151066568:A'	b'M55CtrlR2'	1	0.8653	0.0396	0.5358
b'CHR7:151066568:A'	b'M55CtrlR3'	1	0.8498	0.0393	0.5358
b'CHR7:151066568:A'	b'M55CtrlR4'	1	0.7298	0.0397	0.5358
b'CHR3:41800280:T'	b'M55CtrlR1'	2	0.7935	0.1134	0.6936
b'CHR3:41800280:T'	b'M55CtrlR2'	2	0.3069	0.0745	0.6936
b'CHR3:41800280:T'	b'M55CtrlR3'	2	0.7769	0.1284	0.6936
b'CHR3:41800280:T'	b'M55CtrlR4'	2	0.5024	0.0984	0.6936
b'CHR9:26928213:T'	b'M55CtrlR1'	2	0.7935	0.1134	0.9991
b'CHR9:26928213:T'	b'M55CtrlR2'	2	0.3069	0.0745	0.9991
b'CHR9:26928213:T'	b'M55CtrlR3'	2	0.7769	0.1284	0.9991
b'CHR9:26928213:T'	b'M55CtrlR4'	2	0.5024	0.0984	0.9991
b'CHR11:120128675:T'	b'M55CtrlR1'	3	0.4284	0.0353	0.9866
b'CHR11:120128675:T'	b'M55CtrlR2'	3	0.7686	0.0548	0.9866
b'CHR11:120128675:T'	b'M55CtrlR3'	3	0.7697	0.0475	0.9866
b'CHR11:120128675:T'	b'M55CtrlR4'	3	0.7311	0.0539	0.9866
b'CHR13:110715518:T'	b'M55CtrlR1'	3	0.4284	0.0353	0.2936
b'CHR13:110715518:T'	b'M55CtrlR2'	3	0.7686	0.0548	0.2936
b'CHR13:110715518:T'	b'M55CtrlR3'	3	0.7697	0.0475	0.2936
b'CHR13:110715518:T'	b'M55CtrlR4'	3	0.7311	0.0539	0.2936
b'CHR17:81937211:G'	b'M55CtrlR1'	3	0.4284	0.0353	0.3766
b'CHR17:81937211:G'	b'M55CtrlR2'	3	0.7686	0.0548	0.3766
b'CHR17:81937211:G'	b'M55CtrlR3'	3	0.7697	0.0475	0.3766
b'CHR17:81937211:G'	b'M55CtrlR4'	3	0.7311	0.0539	0.3766
b'CHR19:13209361:T'	b'M55CtrlR1'	3	0.4284	0.0353	0.4595
b'CHR19:13209361:T'	b'M55CtrlR2'	3	0.7686	0.0548	0.4595
b'CHR19:13209361:T'	b'M55CtrlR3'	3	0.7697	0.0475	0.4595
b'CHR19:13209361:T'	b'M55CtrlR4'	3	0.7311	0.0539	0.4595
b'CHR19:52881597:A'	b'M55CtrlR1'	3	0.4284	0.0353	0.9996
b'CHR19:52881597:A'	b'M55CtrlR2'	3	0.7686	0.0548	0.9996
b'CHR19:52881597:A'	b'M55CtrlR3'	3	0.7697	0.0475	0.9996
b'CHR19:52881597:A'	b'M55CtrlR4'	3	0.7311	0.0539	0.9996
b'CHR1:155054385:T'	b'M55CtrlR1'	3	0.4284	0.0353	0.8670
b'CHR1:155054385:T'	b'M55CtrlR2'	3	0.7686	0.0548	0.8670
b'CHR1:155054385:T'	b'M55CtrlR3'	3	0.7697	0.0475	0.8670
b'CHR1:155054385:T'	b'M55CtrlR4'	3	0.7311	0.0539	0.8670
b'CHR1:16409637:C'	b'M55CtrlR1'	3	0.4284	0.0353	0.6376
b'CHR1:16409637:C'	b'M55CtrlR2'	3	0.7686	0.0548	0.6376
b'CHR1:16409637:C'	b'M55CtrlR3'	3	0.7697	0.0475	0.6376
b'CHR1:16409637:C'	b'M55CtrlR4'	3	0.7311	0.0539	0.6376
b'CHR1:17070097:A'	b'M55CtrlR1'	3	0.4284	0.0353	0.7448
b'CHR1:17070097:A'	b'M55CtrlR2'	3	0.7686	0.0548	0.7448
b'CHR1:17070097:A'	b'M55CtrlR3'	3	0.7697	0.0475	0.7448
b'CHR1:17070097:A'	b'M55CtrlR4'	3	0.7311	0.0539	0.7448
b'CHR1:202160698:C'	b'M55CtrlR1'	3	0.4284	0.0353	0.8283
b'CHR1:202160698:C'	b'M55CtrlR2'	3	0.7686	0.0548	0.8283
b'CHR1:202160698:C'	b'M55CtrlR3'	3	0.7697	0.0475	0.8283
b'CHR1:202160698:C'	b'M55CtrlR4'	3	0.7311	0.0539	0.8283
b'CHR1:215567710:G'	b'M55CtrlR1'	3	0.4284	0.0353	0.9523
b'CHR1:215567710:G'	b'M55CtrlR2'	3	0.7686	0.0548	0.9523
b'CHR1:215567710:G'	b'M55CtrlR3'	3	0.7697	0.0475	0.9523
b'CHR1:215567710:G'	b'M55CtrlR4'	3	0.7311	0.0539	0.9523
b'CHR1:230921501:T'	b'M55CtrlR1'	3	0.4284	0.0353	0.7947
b'CHR1:230921501:T'	b'M55CtrlR2'	3	0.7686	0.0548	0.7947
b'CHR1:230921501:T'	b'M55CtrlR3'	3	0.7697	0.0475	0.7947
b'CHR1:230921501:T'	b'M55CtrlR4'	3	0.7311	0.0539	0.7947
b'CHR1:25243590:C'	b'M55CtrlR1'	3	0.4284	0.0353	0.8547
b'CHR1:25243590:C'	b'M55CtrlR2'	3	0.7686	0.0548	0.8547
b'CHR1:25243590:C'	b'M55CtrlR3'	3	0.7697	0.0475	0.8547
b'CHR1:25243590:C'	b'M55CtrlR4'	3	0.7311	0.0539	0.8547
b'CHR1:26952030:A'	b'M55CtrlR1'	3	0.4284	0.0353	0.6492
b'CHR1:26952030:A'	b'M55CtrlR2'	3	0.7686	0.0548	0.6492
b'CHR1:26952030:A'	b'M55CtrlR3'	3	0.7697	0.0475	0.6492
b'CHR1:26952030:A'	b'M55CtrlR4'	3	0.7311	0.0539	0.6492
b'CHR1:31698605:G'	b'M55CtrlR1'	3	0.4284	0.0353	0.8033
b'CHR1:31698605:G'	b'M55CtrlR2'	3	0.7686	0.0548	0.8033
b'CHR1:31698605:G'	b'M55CtrlR3'	3	0.7697	0.0475	0.8033
b'CHR1:31698605:G'	b'M55CtrlR4'	3	0.7311	0.0539	0.8033
b'CHR1:3763211:T'	b'M55CtrlR1'	3	0.4284	0.0353	0.9596
b'CHR1:3763211:T'	b'M55CtrlR2'	3	0.7686	0.0548	0.9596
b'CHR1:3763211:T'	b'M55CtrlR3'	3	0.7697	0.0475	0.9596
b'CHR1:3763211:T'	b'M55CtrlR4'	3	0.7311	0.0539	0.9596
b'CHR1:53594343:C'	b'M55CtrlR1'	3	0.4284	0.0353	0.6931
b'CHR1:53594343:C'	b'M55CtrlR2'	3	0.7686	0.0548	0.6931
b'CHR1:53594343:C'	b'M55CtrlR3'	3	0.7697	0.0475	0.6931
b'CHR1:53594343:C'	b'M55CtrlR4'	3	0.7311	0.0539	0.6931
b'CHR2:107859472:T'	b'M55CtrlR1'	3	0.4284	0.0353	0.8190
b'CHR2:107859472:T'	b'M55CtrlR2'	3	0.7686	0.0548	0.8190
b'CHR2:107859472:T'	b'M55CtrlR3'	3	0.7697	0.0475	0.8190
b'CHR2:107859472:T'	b'M55CtrlR4'	3	0.7311	0.0539	0.8190
b'CHR2:219451248:A'	b'M55CtrlR1'	3	0.4284	0.0353	0.9045
b'CHR2:219451248:A'	b'M55CtrlR2'	3	0.7686	0.0548	0.9045
b'CHR2:219451248:A'	b'M55CtrlR3'	3	0.7697	0.0475	0.9045
b'CHR2:219451248:A'	b'M55CtrlR4'	3	0.7311	0.0539	0.9045
b'CHR3:123092379:A'	b'M55CtrlR1'	3	0.4284	0.0353	0.4576
b'CHR3:123092379:A'	b'M55CtrlR2'	3	0.7686	0.0548	0.4576
b'CHR3:123092379:A'	b'M55CtrlR3'	3	0.7697	0.0475	0.4576
b'CHR3:123092379:A'	b'M55CtrlR4'	3	0.7311	0.0539	0.4576
b'CHR3:171082335:T'	b'M55CtrlR1'	3	0.4284	0.0353	0.3921
b'CHR3:171082335:T'	b'M55CtrlR2'	3	0.7686	0.0548	0.3921
b'CHR3:171082335:T'	b'M55CtrlR3'	3	0.7697	0.0475	0.3921
b'CHR3:171082335:T'	b'M55CtrlR4'	3	0.7311	0.0539	0.3921
b'CHR3:48447042:C'	b'M55CtrlR1'	3	0.4284	0.0353	0.9503
b'CHR3:48447042:C'	b'M55CtrlR2'	3	0.7686	0.0548	0.9503
b'CHR3:48447042:C'	b'M55CtrlR3'	3	0.7697	0.0475	0.9503
b'CHR3:48447042:C'	b'M55CtrlR4'	3	0.7311	0.0539	0.9503
b'CHR5:150540177:C'	b'M55CtrlR1'	3	0.4284	0.0353	0.5897
b'CHR5:150540177:C'	b'M55CtrlR2'	3	0.7686	0.0548	0.5897
b'CHR5:150540177:C'	b'M55CtrlR3'	3	0.7697	0.0475	0.5897
b'CHR5:150540177:C'	b'M55CtrlR4'	3	0.7311	0.0539	0.5897
b'CHR6:7577027:T'	b'M55CtrlR1'	3	0.4284	0.0353	0.8070
b'CHR6:7577027:T'	b'M55CtrlR2'	3	0.7686	0.0548	0.8070
b'CHR6:7577027:T'	b'M55CtrlR3'	3	0.7697	0.0475	0.8070
b'CHR6:7577027:T'	b'M55CtrlR4'	3	0.7311	0.0539	0.8070
b'CHR7:39085990:C'	b'M55CtrlR1'	3	0.4284	0.0353	0.2846
b'CHR7:39085990:C'	b'M55CtrlR2'	3	0.7686	0.0548	0.2846
b'CHR7:39085990:C'	b'M55CtrlR3'	3	0.7697	0.0475	0.2846
b'CHR7:39085990:C'	b'M55CtrlR4'	3	0.7311	0.0539	0.2846
b'CHR10:102381157:T'	b'M55CtrlR1'	4	0.1708	0.0173	0.7847
b'CHR10:102381157:T'	b'M55CtrlR2'	4	0.1899	0.0183	0.7847
b'CHR10:102381157:T'	b'M55CtrlR3'	4	0.1667	0.0155	0.7847
b'CHR10:102381157:T'	b'M55CtrlR4'	4	0.1539	0.0178	0.7847
b'CHR10:133084811:T'	b'M55CtrlR1'	4	0.1708	0.0173	0.3776
b'CHR10:133084811:T'	b'M55CtrlR2'	4	0.1899	0.0183	0.3776
b'CHR10:133084811:T'	b'M55CtrlR3'	4	0.1667	0.0155	0.3776
b'CHR10:133084811:T'	b'M55CtrlR4'	4	0.1539	0.0178	0.3776
b'CHR10:37153617:T'	b'M55CtrlR1'	4	0.1708	0.0173	0.7939
b'CHR10:37153617:T'	b'M55CtrlR2'	4	0.1899	0.0183	0.7939
b'CHR10:37153617:T'	b'M55CtrlR3'	4	0.1667	0.0155	0.7939
b'CHR10:37153617:T'	b'M55CtrlR4'	4	0.1539	0.0178	0.7939
b'CHR10:73751113:G'	b'M55CtrlR1'	4	0.1708	0.0173	0.8820
b'CHR10:73751113:G'	b'M55CtrlR2'	4	0.1899	0.0183	0.8820
b'CHR10:73751113:G'	b'M55CtrlR3'	4	0.1667	0.0155	0.8820
b'CHR10:73751113:G'	b'M55CtrlR4'	4	0.1539	0.0178	0.8820
b'CHR11:103245294:A'	b'M55CtrlR1'	4	0.1708	0.0173	0.6660
b'CHR11:103245294:A'	b'M55CtrlR2'	4	0.1899	0.0183	0.6660
b'CHR11:103245294:A'	b'M55CtrlR3'	4	0.1667	0.0155	0.6660
b'CHR11:103245294:A'	b'M55CtrlR4'	4	0.1539	0.0178	0.6660
b'CHR11:123806117:C'	b'M55CtrlR1'	4	0.1708	0.0173	0.7700
b'CHR11:123806117:C'	b'M55CtrlR2'	4	0.1899	0.0183	0.7700
b'CHR11:123806117:C'	b'M55CtrlR3'	4	0.1667	0.0155	0.7700
b'CHR11:123806117:C'	b'M55CtrlR4'	4	0.1539	0.0178	0.7700
b'CHR11:56490737:A'	b'M55CtrlR1'	4	0.1708	0.0173	0.5037
b'CHR11:56490737:A'	b'M55CtrlR2'	4	0.1899	0.0183	0.5037
b'CHR11:56490737:A'	b'M55CtrlR3'	4	0.1667	0.0155	0.5037
b'CHR11:56490737:A'	b'M55CtrlR4'	4	0.1539	0.0178	0.5037
b'CHR11:6270799:T'	b'M55CtrlR1'	4	0.1708	0.0173	0.9614
b'CHR11:6270799:T'	b'M55CtrlR2'	4	0.1899	0.0183	0.9614
b'CHR11:6270799:T'	b'M55CtrlR3'	4	0.1667	0.0155	0.9614
b'CHR11:6270799:T'	b'M55CtrlR4'	4	0.1539	0.0178	0.9614
b'CHR11:72136010:A'	b'M55CtrlR1'	4	0.1708	0.0173	0.7868
b'CHR11:72136010:A'	b'M55CtrlR2'	4	0.1899	0.0183	0.7868
b'CHR11:72136010:A'	b'M55CtrlR3'	4	0.1667	0.0155	0.7868
b'CHR11:72136010:A'	b'M55CtrlR4'	4	0.1539	0.0178	0.7868
b'CHR11:73975073:A'	b'M55CtrlR1'	4	0.1708	0.0173	0.4904
b'CHR11:73975073:A'	b'M55CtrlR2'	4	0.1899	0.0183	0.4904
b'CHR11:73975073:A'	b'M55CtrlR3'	4	0.1667	0.0155	0.4904
b'CHR11:73975073:A'	b'M55CtrlR4'	4	0.1539	0.0178	0.4904
b'CHR11:77685130:T'	b'M55CtrlR1'	4	0.1708	0.0173	0.7157
b'CHR11:77685130:T'	b'M55CtrlR2'	4	0.1899	0.0183	0.7157
b'CHR11:77685130:T'	b'M55CtrlR3'	4	0.1667	0.0155	0.7157
b'CHR11:77685130:T'	b'M55CtrlR4'	4	0.1539	0.0178	0.7157
b'CHR12:108518570:T'	b'M55CtrlR1'	4	0.1708	0.0173	0.9991
b'CHR12:108518570:T'	b'M55CtrlR2'	4	0.1899	0.0183	0.9991
b'CHR12:108518570:T'	b'M55CtrlR3'	4	0.1667	0.0155	0.9991
b'CHR12:108518570:T'	b'M55CtrlR4'	4	0.1539	0.0178	0.9991
b'CHR12:112477653:T'	b'M55CtrlR1'	4	0.1708	0.0173	0.4469
b'CHR12:112477653:T'	b'M55CtrlR2'	4	0.1899	0.0183	0.4469
b'CHR12:112477653:T'	b'M55CtrlR3'	4	0.1667	0.0155	0.4469
b'CHR12:112477653:T'	b'M55CtrlR4'	4	0.1539	0.0178	0.4469
b'CHR12:129700067:A'	b'M55CtrlR1'	4	0.1708	0.0173	0.4194
b'CHR12:129700067:A'	b'M55CtrlR2'	4	0.1899	0.0183	0.4194
b'CHR12:129700067:A'	b'M55CtrlR3'	4	0.1667	0.0155	0.4194
b'CHR12:129700067:A'	b'M55CtrlR4'	4	0.1539	0.0178	0.4194
b'CHR12:40481156:A'	b'M55CtrlR1'	4	0.1708	0.0173	1.0000
b'CHR12:40481156:A'	b'M55CtrlR2'	4	0.1899	0.0183	1.0000
b'CHR12:40481156:A'	b'M55CtrlR3'	4	0.1667	0.0155	1.0000
b'CHR12:40481156:A'	b'M55CtrlR4'	4	0.1539	0.0178	1.0000
b'CHR12:40481157:G'	b'M55CtrlR1'	4	0.1708	0.0173	1.0000
b'CHR12:40481157:G'	b'M55CtrlR2'	4	0.1899	0.0183	1.0000
b'CHR12:40481157:G'	b'M55CtrlR3'	4	0.1667	0.0155	1.0000
b'CHR12:40481157:G'	b'M55CtrlR4'	4	0.1539	0.0178	1.0000
b'CHR12:55027042:G'	b'M55CtrlR1'	4	0.1708	0.0173	0.6296
b'CHR12:55027042:G'	b'M55CtrlR2'	4	0.1899	0.0183	0.6296
b'CHR12:55027042:G'	b'M55CtrlR3'	4	0.1667	0.0155	0.6296
b'CHR12:55027042:G'	b'M55CtrlR4'	4	0.1539	0.0178	0.6296
b'CHR12:56267413:A'	b'M55CtrlR1'	4	0.1708	0.0173	0.9701
b'CHR12:56267413:A'	b'M55CtrlR2'	4	0.1899	0.0183	0.9701
b'CHR12:56267413:A'	b'M55CtrlR3'	4	0.1667	0.0155	0.9701
b'CHR12:56267413:A'	b'M55CtrlR4'	4	0.1539	0.0178	0.9701
b'CHR12:57478728:T'	b'M55CtrlR1'	4	0.1708	0.0173	0.8702
b'CHR12:57478728:T'	b'M55CtrlR2'	4	0.1899	0.0183	0.8702
b'CHR12:57478728:T'	b'M55CtrlR3'	4	0.1667	0.0155	0.8702
b'CHR12:57478728:T'	b'M55CtrlR4'	4	0.1539	0.0178	0.8702
b'CHR12:57629873:G'	b'M55CtrlR1'	4	0.1708	0.0173	0.7176
b'CHR12:57629873:G'	b'M55CtrlR2'	4	0.1899	0.0183	0.7176
b'CHR12:57629873:G'	b'M55CtrlR3'	4	0.1667	0.0155	0.7176
b'CHR12:57629873:G'	b'M55CtrlR4'	4	0.1539	0.0178	0.7176
b'CHR12:74538384:T'	b'M55CtrlR1'	4	0.1708	0.0173	0.8994
b'CHR12:74538384:T'	b'M55CtrlR2'	4	0.1899	0.0183	0.8994
b'CHR12:74538384:T'	b'M55CtrlR3'	4	0.1667	0.0155	0.8994
b'CHR12:74538384:T'	b'M55CtrlR4'	4	0.1539	0.0178	0.8994
b'CHR12:7929771:C'	b'M55CtrlR1'	4	0.1708	0.0173	0.4619
b'CHR12:7929771:C'	b'M55CtrlR2'	4	0.1899	0.0183	0.4619
b'CHR12:7929771:C'	b'M55CtrlR3'	4	0.1667	0.0155	0.4619
b'CHR12:7929771:C'	b'M55CtrlR4'	4	0.1539	0.0178	0.4619
b'CHR12:85046079:A'	b'M55CtrlR1'	4	0.1708	0.0173	0.5337
b'CHR12:85046079:A'	b'M55CtrlR2'	4	0.1899	0.0183	0.5337
b'CHR12:85046079:A'	b'M55CtrlR3'	4	0.1667	0.0155	0.5337
b'CHR12:85046079:A'	b'M55CtrlR4'	4	0.1539	0.0178	0.5337
b'CHR13:95234663:A'	b'M55CtrlR1'	4	0.1708	0.0173	0.7009
b'CHR13:95234663:A'	b'M55CtrlR2'	4	0.1899	0.0183	0.7009
b'CHR13:95234663:A'	b'M55CtrlR3'	4	0.1667	0.0155	0.7009
b'CHR13:95234663:A'	b'M55CtrlR4'	4	0.1539	0.0178	0.7009
b'CHR14:20144218:A'	b'M55CtrlR1'	4	0.1708	0.0173	0.8544
b'CHR14:20144218:A'	b'M55CtrlR2'	4	0.1899	0.0183	0.8544
b'CHR14:20144218:A'	b'M55CtrlR3'	4	0.1667	0.0155	0.8544
b'CHR14:20144218:A'	b'M55CtrlR4'	4	0.1539	0.0178	0.8544
b'CHR14:20144219:A'	b'M55CtrlR1'	4	0.1708	0.0173	0.8544
b'CHR14:20144219:A'	b'M55CtrlR2'	4	0.1899	0.0183	0.8544
b'CHR14:20144219:A'	b'M55CtrlR3'	4	0.1667	0.0155	0.8544
b'CHR14:20144219:A'	b'M55CtrlR4'	4	0.1539	0.0178	0.8544
b'CHR14:52042283:A'	b'M55CtrlR1'	4	0.1708	0.0173	0.9676
b'CHR14:52042283:A'	b'M55CtrlR2'	4	0.1899	0.0183	0.9676
b'CHR14:52042283:A'	b'M55CtrlR3'	4	0.1667	0.0155	0.9676
b'CHR14:52042283:A'	b'M55CtrlR4'	4	0.1539	0.0178	0.9676
b'CHR14:74260736:T'	b'M55CtrlR1'	4	0.1708	0.0173	0.6655
b'CHR14:74260736:T'	b'M55CtrlR2'	4	0.1899	0.0183	0.6655
b'CHR14:74260736:T'	b'M55CtrlR3'	4	0.1667	0.0155	0.6655
b'CHR14:74260736:T'	b'M55CtrlR4'	4	0.1539	0.0178	0.6655
b'CHR15:33826673:A'	b'M55CtrlR1'	4	0.1708	0.0173	0.5401
b'CHR15:33826673:A'	b'M55CtrlR2'	4	0.1899	0.0183	0.5401
b'CHR15:33826673:A'	b'M55CtrlR3'	4	0.1667	0.0155	0.5401
b'CHR15:33826673:A'	b'M55CtrlR4'	4	0.1539	0.0178	0.5401
b'CHR15:41572531:T'	b'M55CtrlR1'	4	0.1708	0.0173	0.9141
b'CHR15:41572531:T'	b'M55CtrlR2'	4	0.1899	0.0183	0.9141
b'CHR15:41572531:T'	b'M55CtrlR3'	4	0.1667	0.0155	0.9141
b'CHR15:41572531:T'	b'M55CtrlR4'	4	0.1539	0.0178	0.9141
b'CHR15:45095849:C'	b'M55CtrlR1'	4	0.1708	0.0173	0.8770
b'CHR15:45095849:C'	b'M55CtrlR2'	4	0.1899	0.0183	0.8770
b'CHR15:45095849:C'	b'M55CtrlR3'	4	0.1667	0.0155	0.8770
b'CHR15:45095849:C'	b'M55CtrlR4'	4	0.1539	0.0178	0.8770
b'CHR16:1257049:T'	b'M55CtrlR1'	4	0.1708	0.0173	0.7049
b'CHR16:1257049:T'	b'M55CtrlR2'	4	0.1899	0.0183	0.7049
b'CHR16:1257049:T'	b'M55CtrlR3'	4	0.1667	0.0155	0.7049
b'CHR16:1257049:T'	b'M55CtrlR4'	4	0.1539	0.0178	0.7049
b'CHR16:19715001:G'	b'M55CtrlR1'	4	0.1708	0.0173	0.5763
b'CHR16:19715001:G'	b'M55CtrlR2'	4	0.1899	0.0183	0.5763
b'CHR16:19715001:G'	b'M55CtrlR3'	4	0.1667	0.0155	0.5763
b'CHR16:19715001:G'	b'M55CtrlR4'	4	0.1539	0.0178	0.5763
b'CHR16:87904819:T'	b'M55CtrlR1'	4	0.1708	0.0173	0.9812
b'CHR16:87904819:T'	b'M55CtrlR2'	4	0.1899	0.0183	0.9812
b'CHR16:87904819:T'	b'M55CtrlR3'	4	0.1667	0.0155	0.9812
b'CHR16:87904819:T'	b'M55CtrlR4'	4	0.1539	0.0178	0.9812
b'CHR17:10409139:T'	b'M55CtrlR1'	4	0.1708	0.0173	0.5614
b'CHR17:10409139:T'	b'M55CtrlR2'	4	0.1899	0.0183	0.5614
b'CHR17:10409139:T'	b'M55CtrlR3'	4	0.1667	0.0155	0.5614
b'CHR17:10409139:T'	b'M55CtrlR4'	4	0.1539	0.0178	0.5614
b'CHR17:18971139:A'	b'M55CtrlR1'	4	0.1708	0.0173	0.9958
b'CHR17:18971139:A'	b'M55CtrlR2'	4	0.1899	0.0183	0.9958
b'CHR17:18971139:A'	b'M55CtrlR3'	4	0.1667	0.0155	0.9958
b'CHR17:18971139:A'	b'M55CtrlR4'	4	0.1539	0.0178	0.9958
b'CHR17:31295269:C'	b'M55CtrlR1'	4	0.1708	0.0173	0.7513
b'CHR17:31295269:C'	b'M55CtrlR2'	4	0.1899	0.0183	0.7513
b'CHR17:31295269:C'	b'M55CtrlR3'	4	0.1667	0.0155	0.7513
b'CHR17:31295269:C'	b'M55CtrlR4'	4	0.1539	0.0178	0.7513
b'CHR17:48852548:T'	b'M55CtrlR1'	4	0.1708	0.0173	0.9774
b'CHR17:48852548:T'	b'M55CtrlR2'	4	0.1899	0.0183	0.9774
b'CHR17:48852548:T'	b'M55CtrlR3'	4	0.1667	0.0155	0.9774
b'CHR17:48852548:T'	b'M55CtrlR4'	4	0.1539	0.0178	0.9774
b'CHR17:61884998:G'	b'M55CtrlR1'	4	0.1708	0.0173	0.7463
b'CHR17:61884998:G'	b'M55CtrlR2'	4	0.1899	0.0183	0.7463
b'CHR17:61884998:G'	b'M55CtrlR3'	4	0.1667	0.0155	0.7463
b'CHR17:61884998:G'	b'M55CtrlR4'	4	0.1539	0.0178	0.7463
b'CHR17:63931346:T'	b'M55CtrlR1'	4	0.1708	0.0173	0.9909
b'CHR17:63931346:T'	b'M55CtrlR2'	4	0.1899	0.0183	0.9909
b'CHR17:63931346:T'	b'M55CtrlR3'	4	0.1667	0.0155	0.9909
b'CHR17:63931346:T'	b'M55CtrlR4'	4	0.1539	0.0178	0.9909
b'CHR17:80010681:A'	b'M55CtrlR1'	4	0.1708	0.0173	0.8214
b'CHR17:80010681:A'	b'M55CtrlR2'	4	0.1899	0.0183	0.8214
b'CHR17:80010681:A'	b'M55CtrlR3'	4	0.1667	0.0155	0.8214
b'CHR17:80010681:A'	b'M55CtrlR4'	4	0.1539	0.0178	0.8214
b'CHR17:80213874:A'	b'M55CtrlR1'	4	0.1708	0.0173	0.5662
b'CHR17:80213874:A'	b'M55CtrlR2'	4	0.1899	0.0183	0.5662
b'CHR17:80213874:A'	b'M55CtrlR3'	4	0.1667	0.0155	0.5662
b'CHR17:80213874:A'	b'M55CtrlR4'	4	0.1539	0.0178	0.5662
b'CHR19:1036180:T'	b'M55CtrlR1'	4	0.1708	0.0173	0.3907
b'CHR19:1036180:T'	b'M55CtrlR2'	4	0.1899	0.0183	0.3907
b'CHR19:1036180:T'	b'M55CtrlR3'	4	0.1667	0.0155	0.3907
b'CHR19:1036180:T'	b'M55CtrlR4'	4	0.1539	0.0178	0.3907
b'CHR19:14765687:T'	b'M55CtrlR1'	4	0.1708	0.0173	0.9975
b'CHR19:14765687:T'	b'M55CtrlR2'	4	0.1899	0.0183	0.9975
b'CHR19:14765687:T'	b'M55CtrlR3'	4	0.1667	0.0155	0.9975
b'CHR19:14765687:T'	b'M55CtrlR4'	4	0.1539	0.0178	0.9975
b'CHR19:20545051:T'	b'M55CtrlR1'	4	0.1708	0.0173	0.9958
b'CHR19:20545051:T'	b'M55CtrlR2'	4	0.1899	0.0183	0.9958
b'CHR19:20545051:T'	b'M55CtrlR3'	4	0.1667	0.0155	0.9958
b'CHR19:20545051:T'	b'M55CtrlR4'	4	0.1539	0.0178	0.9958
b'CHR19:37888408:A'	b'M55CtrlR1'	4	0.1708	0.0173	0.8543
b'CHR19:37888408:A'	b'M55CtrlR2'	4	0.1899	0.0183	0.8543
b'CHR19:37888408:A'	b'M55CtrlR3'	4	0.1667	0.0155	0.8543
b'CHR19:37888408:A'	b'M55CtrlR4'	4	0.1539	0.0178	0.8543
b'CHR19:44908594:T'	b'M55CtrlR1'	4	0.1708	0.0173	0.9612
b'CHR19:44908594:T'	b'M55CtrlR2'	4	0.1899	0.0183	0.9612
b'CHR19:44908594:T'	b'M55CtrlR3'	4	0.1667	0.0155	0.9612
b'CHR19:44908594:T'	b'M55CtrlR4'	4	0.1539	0.0178	0.9612
b'CHR19:45591702:A'	b'M55CtrlR1'	4	0.1708	0.0173	0.8929
b'CHR19:45591702:A'	b'M55CtrlR2'	4	0.1899	0.0183	0.8929
b'CHR19:45591702:A'	b'M55CtrlR3'	4	0.1667	0.0155	0.8929
b'CHR19:45591702:A'	b'M55CtrlR4'	4	0.1539	0.0178	0.8929
b'CHR19:52705931:T'	b'M55CtrlR1'	4	0.1708	0.0173	0.9636
b'CHR19:52705931:T'	b'M55CtrlR2'	4	0.1899	0.0183	0.9636
b'CHR19:52705931:T'	b'M55CtrlR3'	4	0.1667	0.0155	0.9636
b'CHR19:52705931:T'	b'M55CtrlR4'	4	0.1539	0.0178	0.9636
b'CHR19:53873532:T'	b'M55CtrlR1'	4	0.1708	0.0173	0.9461
b'CHR19:53873532:T'	b'M55CtrlR2'	4	0.1899	0.0183	0.9461
b'CHR19:53873532:T'	b'M55CtrlR3'	4	0.1667	0.0155	0.9461
b'CHR19:53873532:T'	b'M55CtrlR4'	4	0.1539	0.0178	0.9461
b'CHR1:1046687:A'	b'M55CtrlR1'	4	0.1708	0.0173	0.6277
b'CHR1:1046687:A'	b'M55CtrlR2'	4	0.1899	0.0183	0.6277
b'CHR1:1046687:A'	b'M55CtrlR3'	4	0.1667	0.0155	0.6277
b'CHR1:1046687:A'	b'M55CtrlR4'	4	0.1539	0.0178	0.6277
b'CHR1:113981341:T'	b'M55CtrlR1'	4	0.1708	0.0173	0.7863
b'CHR1:113981341:T'	b'M55CtrlR2'	4	0.1899	0.0183	0.7863
b'CHR1:113981341:T'	b'M55CtrlR3'	4	0.1667	0.0155	0.7863
b'CHR1:113981341:T'	b'M55CtrlR4'	4	0.1539	0.0178	0.7863
b'CHR1:119922269:T'	b'M55CtrlR1'	4	0.1708	0.0173	0.4402
b'CHR1:119922269:T'	b'M55CtrlR2'	4	0.1899	0.0183	0.4402
b'CHR1:119922269:T'	b'M55CtrlR3'	4	0.1667	0.0155	0.4402
b'CHR1:119922269:T'	b'M55CtrlR4'	4	0.1539	0.0178	0.4402
b'CHR1:1495915:C'	b'M55CtrlR1'	4	0.1708	0.0173	0.8353
b'CHR1:1495915:C'	b'M55CtrlR2'	4	0.1899	0.0183	0.8353
b'CHR1:1495915:C'	b'M55CtrlR3'	4	0.1667	0.0155	0.8353
b'CHR1:1495915:C'	b'M55CtrlR4'	4	0.1539	0.0178	0.8353
b'CHR1:15104181:A'	b'M55CtrlR1'	4	0.1708	0.0173	0.3907
b'CHR1:15104181:A'	b'M55CtrlR2'	4	0.1899	0.0183	0.3907
b'CHR1:15104181:A'	b'M55CtrlR3'	4	0.1667	0.0155	0.3907
b'CHR1:15104181:A'	b'M55CtrlR4'	4	0.1539	0.0178	0.3907
b'CHR1:152219804:C'	b'M55CtrlR1'	4	0.1708	0.0173	0.9984
b'CHR1:152219804:C'	b'M55CtrlR2'	4	0.1899	0.0183	0.9984
b'CHR1:152219804:C'	b'M55CtrlR3'	4	0.1667	0.0155	0.9984
b'CHR1:152219804:C'	b'M55CtrlR4'	4	0.1539	0.0178	0.9984
b'CHR1:153938962:T'	b'M55CtrlR1'	4	0.1708	0.0173	0.4391
b'CHR1:153938962:T'	b'M55CtrlR2'	4	0.1899	0.0183	0.4391
b'CHR1:153938962:T'	b'M55CtrlR3'	4	0.1667	0.0155	0.4391
b'CHR1:153938962:T'	b'M55CtrlR4'	4	0.1539	0.0178	0.4391
b'CHR1:161526114:T'	b'M55CtrlR1'	4	0.1708	0.0173	0.9977
b'CHR1:161526114:T'	b'M55CtrlR2'	4	0.1899	0.0183	0.9977
b'CHR1:161526114:T'	b'M55CtrlR3'	4	0.1667	0.0155	0.9977
b'CHR1:161526114:T'	b'M55CtrlR4'	4	0.1539	0.0178	0.9977
b'CHR1:21483257:C'	b'M55CtrlR1'	4	0.1708	0.0173	0.5904
b'CHR1:21483257:C'	b'M55CtrlR2'	4	0.1899	0.0183	0.5904
b'CHR1:21483257:C'	b'M55CtrlR3'	4	0.1667	0.0155	0.5904
b'CHR1:21483257:C'	b'M55CtrlR4'	4	0.1539	0.0178	0.5904
b'CHR1:246850629:T'	b'M55CtrlR1'	4	0.1708	0.0173	0.9676
b'CHR1:246850629:T'	b'M55CtrlR2'	4	0.1899	0.0183	0.9676
b'CHR1:246850629:T'	b'M55CtrlR3'	4	0.1667	0.0155	0.9676
b'CHR1:246850629:T'	b'M55CtrlR4'	4	0.1539	0.0178	0.9676
b'CHR1:8957259:A'	b'M55CtrlR1'	4	0.1708	0.0173	0.5161
b'CHR1:8957259:A'	b'M55CtrlR2'	4	0.1899	0.0183	0.5161
b'CHR1:8957259:A'	b'M55CtrlR3'	4	0.1667	0.0155	0.5161
b'CHR1:8957259:A'	b'M55CtrlR4'	4	0.1539	0.0178	0.5161
b'CHR20:21328621:A'	b'M55CtrlR1'	4	0.1708	0.0173	0.6166
b'CHR20:21328621:A'	b'M55CtrlR2'	4	0.1899	0.0183	0.6166
b'CHR20:21328621:A'	b'M55CtrlR3'	4	0.1667	0.0155	0.6166
b'CHR20:21328621:A'	b'M55CtrlR4'	4	0.1539	0.0178	0.6166
b'CHR20:35490750:T'	b'M55CtrlR1'	4	0.1708	0.0173	0.8345
b'CHR20:35490750:T'	b'M55CtrlR2'	4	0.1899	0.0183	0.8345
b'CHR20:35490750:T'	b'M55CtrlR3'	4	0.1667	0.0155	0.8345
b'CHR20:35490750:T'	b'M55CtrlR4'	4	0.1539	0.0178	0.8345
b'CHR20:35503815:A'	b'M55CtrlR1'	4	0.1708	0.0173	0.9014
b'CHR20:35503815:A'	b'M55CtrlR2'	4	0.1899	0.0183	0.9014
b'CHR20:35503815:A'	b'M55CtrlR3'	4	0.1667	0.0155	0.9014
b'CHR20:35503815:A'	b'M55CtrlR4'	4	0.1539	0.0178	0.9014
b'CHR20:44750813:C'	b'M55CtrlR1'	4	0.1708	0.0173	0.9141
b'CHR20:44750813:C'	b'M55CtrlR2'	4	0.1899	0.0183	0.9141
b'CHR20:44750813:C'	b'M55CtrlR3'	4	0.1667	0.0155	0.9141
b'CHR20:44750813:C'	b'M55CtrlR4'	4	0.1539	0.0178	0.9141
b'CHR20:46726177:C'	b'M55CtrlR1'	4	0.1708	0.0173	0.9994
b'CHR20:46726177:C'	b'M55CtrlR2'	4	0.1899	0.0183	0.9994
b'CHR20:46726177:C'	b'M55CtrlR3'	4	0.1667	0.0155	0.9994
b'CHR20:46726177:C'	b'M55CtrlR4'	4	0.1539	0.0178	0.9994
b'CHR20:46729354:A'	b'M55CtrlR1'	4	0.1708	0.0173	0.4474
b'CHR20:46729354:A'	b'M55CtrlR2'	4	0.1899	0.0183	0.4474
b'CHR20:46729354:A'	b'M55CtrlR3'	4	0.1667	0.0155	0.4474
b'CHR20:46729354:A'	b'M55CtrlR4'	4	0.1539	0.0178	0.4474
b'CHR2:130075025:T'	b'M55CtrlR1'	4	0.1708	0.0173	0.6596
b'CHR2:130075025:T'	b'M55CtrlR2'	4	0.1899	0.0183	0.6596
b'CHR2:130075025:T'	b'M55CtrlR3'	4	0.1667	0.0155	0.6596
b'CHR2:130075025:T'	b'M55CtrlR4'	4	0.1539	0.0178	0.6596
b'CHR2:151667906:A'	b'M55CtrlR1'	4	0.1708	0.0173	0.6704
b'CHR2:151667906:A'	b'M55CtrlR2'	4	0.1899	0.0183	0.6704
b'CHR2:151667906:A'	b'M55CtrlR3'	4	0.1667	0.0155	0.6704
b'CHR2:151667906:A'	b'M55CtrlR4'	4	0.1539	0.0178	0.6704
b'CHR2:170847706:T'	b'M55CtrlR1'	4	0.1708	0.0173	0.4510
b'CHR2:170847706:T'	b'M55CtrlR2'	4	0.1899	0.0183	0.4510
b'CHR2:170847706:T'	b'M55CtrlR3'	4	0.1667	0.0155	0.4510
b'CHR2:170847706:T'	b'M55CtrlR4'	4	0.1539	0.0178	0.4510
b'CHR2:232381776:G'	b'M55CtrlR1'	4	0.1708	0.0173	0.4619
b'CHR2:232381776:G'	b'M55CtrlR2'	4	0.1899	0.0183	0.4619
b'CHR2:232381776:G'	b'M55CtrlR3'	4	0.1667	0.0155	0.4619
b'CHR2:232381776:G'	b'M55CtrlR4'	4	0.1539	0.0178	0.4619
b'CHR3:120415924:C'	b'M55CtrlR1'	4	0.1708	0.0173	0.3658
b'CHR3:120415924:C'	b'M55CtrlR2'	4	0.1899	0.0183	0.3658
b'CHR3:120415924:C'	b'M55CtrlR3'	4	0.1667	0.0155	0.3658
b'CHR3:120415924:C'	b'M55CtrlR4'	4	0.1539	0.0178	0.3658
b'CHR3:173807772:G'	b'M55CtrlR1'	4	0.1708	0.0173	0.5725
b'CHR3:173807772:G'	b'M55CtrlR2'	4	0.1899	0.0183	0.5725
b'CHR3:173807772:G'	b'M55CtrlR3'	4	0.1667	0.0155	0.5725
b'CHR3:173807772:G'	b'M55CtrlR4'	4	0.1539	0.0178	0.5725
b'CHR3:184577409:A'	b'M55CtrlR1'	4	0.1708	0.0173	0.8608
b'CHR3:184577409:A'	b'M55CtrlR2'	4	0.1899	0.0183	0.8608
b'CHR3:184577409:A'	b'M55CtrlR3'	4	0.1667	0.0155	0.8608
b'CHR3:184577409:A'	b'M55CtrlR4'	4	0.1539	0.0178	0.8608
b'CHR3:50320148:G'	b'M55CtrlR1'	4	0.1708	0.0173	0.9665
b'CHR3:50320148:G'	b'M55CtrlR2'	4	0.1899	0.0183	0.9665
b'CHR3:50320148:G'	b'M55CtrlR3'	4	0.1667	0.0155	0.9665
b'CHR3:50320148:G'	b'M55CtrlR4'	4	0.1539	0.0178	0.9665
b'CHR3:9950005:A'	b'M55CtrlR1'	4	0.1708	0.0173	0.9661
b'CHR3:9950005:A'	b'M55CtrlR2'	4	0.1899	0.0183	0.9661
b'CHR3:9950005:A'	b'M55CtrlR3'	4	0.1667	0.0155	0.9661
b'CHR3:9950005:A'	b'M55CtrlR4'	4	0.1539	0.0178	0.9661
b'CHR4:125317234:A'	b'M55CtrlR1'	4	0.1708	0.0173	0.9275
b'CHR4:125317234:A'	b'M55CtrlR2'	4	0.1899	0.0183	0.9275
b'CHR4:125317234:A'	b'M55CtrlR3'	4	0.1667	0.0155	0.9275
b'CHR4:125317234:A'	b'M55CtrlR4'	4	0.1539	0.0178	0.9275
b'CHR4:147673062:T'	b'M55CtrlR1'	4	0.1708	0.0173	0.6897
b'CHR4:147673062:T'	b'M55CtrlR2'	4	0.1899	0.0183	0.6897
b'CHR4:147673062:T'	b'M55CtrlR3'	4	0.1667	0.0155	0.6897
b'CHR4:147673062:T'	b'M55CtrlR4'	4	0.1539	0.0178	0.6897
b'CHR4:157333318:G'	b'M55CtrlR1'	4	0.1708	0.0173	0.4649
b'CHR4:157333318:G'	b'M55CtrlR2'	4	0.1899	0.0183	0.4649
b'CHR4:157333318:G'	b'M55CtrlR3'	4	0.1667	0.0155	0.4649
b'CHR4:157333318:G'	b'M55CtrlR4'	4	0.1539	0.0178	0.4649
b'CHR4:70644514:G'	b'M55CtrlR1'	4	0.1708	0.0173	0.7385
b'CHR4:70644514:G'	b'M55CtrlR2'	4	0.1899	0.0183	0.7385
b'CHR4:70644514:G'	b'M55CtrlR3'	4	0.1667	0.0155	0.7385
b'CHR4:70644514:G'	b'M55CtrlR4'	4	0.1539	0.0178	0.7385
b'CHR5:141491438:A'	b'M55CtrlR1'	4	0.1708	0.0173	0.9958
b'CHR5:141491438:A'	b'M55CtrlR2'	4	0.1899	0.0183	0.9958
b'CHR5:141491438:A'	b'M55CtrlR3'	4	0.1667	0.0155	0.9958
b'CHR5:141491438:A'	b'M55CtrlR4'	4	0.1539	0.0178	0.9958
b'CHR5:51389819:T'	b'M55CtrlR1'	4	0.1708	0.0173	0.4710
b'CHR5:51389819:T'	b'M55CtrlR2'	4	0.1899	0.0183	0.4710
b'CHR5:51389819:T'	b'M55CtrlR3'	4	0.1667	0.0155	0.4710
b'CHR5:51389819:T'	b'M55CtrlR4'	4	0.1539	0.0178	0.4710
b'CHR6:13711047:G'	b'M55CtrlR1'	4	0.1708	0.0173	0.5989
b'CHR6:13711047:G'	b'M55CtrlR2'	4	0.1899	0.0183	0.5989
b'CHR6:13711047:G'	b'M55CtrlR3'	4	0.1667	0.0155	0.5989
b'CHR6:13711047:G'	b'M55CtrlR4'	4	0.1539	0.0178	0.5989
b'CHR6:16326648:A'	b'M55CtrlR1'	4	0.1708	0.0173	0.6770
b'CHR6:16326648:A'	b'M55CtrlR2'	4	0.1899	0.0183	0.6770
b'CHR6:16326648:A'	b'M55CtrlR3'	4	0.1667	0.0155	0.6770
b'CHR6:16326648:A'	b'M55CtrlR4'	4	0.1539	0.0178	0.6770
b'CHR6:3264292:T'	b'M55CtrlR1'	4	0.1708	0.0173	0.7716
b'CHR6:3264292:T'	b'M55CtrlR2'	4	0.1899	0.0183	0.7716
b'CHR6:3264292:T'	b'M55CtrlR3'	4	0.1667	0.0155	0.7716
b'CHR6:3264292:T'	b'M55CtrlR4'	4	0.1539	0.0178	0.7716
b'CHR6:3264293:C'	b'M55CtrlR1'	4	0.1708	0.0173	0.7716
b'CHR6:3264293:C'	b'M55CtrlR2'	4	0.1899	0.0183	0.7716
b'CHR6:3264293:C'	b'M55CtrlR3'	4	0.1667	0.0155	0.7716
b'CHR6:3264293:C'	b'M55CtrlR4'	4	0.1539	0.0178	0.7716
b'CHR6:57174231:A'	b'M55CtrlR1'	4	0.1708	0.0173	0.6471
b'CHR6:57174231:A'	b'M55CtrlR2'	4	0.1899	0.0183	0.6471
b'CHR6:57174231:A'	b'M55CtrlR3'	4	0.1667	0.0155	0.6471
b'CHR6:57174231:A'	b'M55CtrlR4'	4	0.1539	0.0178	0.6471
b'CHR6:7601487:T'	b'M55CtrlR1'	4	0.1708	0.0173	0.6342
b'CHR6:7601487:T'	b'M55CtrlR2'	4	0.1899	0.0183	0.6342
b'CHR6:7601487:T'	b'M55CtrlR3'	4	0.1667	0.0155	0.6342
b'CHR6:7601487:T'	b'M55CtrlR4'	4	0.1539	0.0178	0.6342
b'CHR7:44539245:T'	b'M55CtrlR1'	4	0.1708	0.0173	0.5978
b'CHR7:44539245:T'	b'M55CtrlR2'	4	0.1899	0.0183	0.5978
b'CHR7:44539245:T'	b'M55CtrlR3'	4	0.1667	0.0155	0.5978
b'CHR7:44539245:T'	b'M55CtrlR4'	4	0.1539	0.0178	0.5978
b'CHR8:142785653:A'	b'M55CtrlR1'	4	0.1708	0.0173	0.8987
b'CHR8:142785653:A'	b'M55CtrlR2'	4	0.1899	0.0183	0.8987
b'CHR8:142785653:A'	b'M55CtrlR3'	4	0.1667	0.0155	0.8987
b'CHR8:142785653:A'	b'M55CtrlR4'	4	0.1539	0.0178	0.8987
b'CHR8:144040433:T'	b'M55CtrlR1'	4	0.1708	0.0173	0.7813
b'CHR8:144040433:T'	b'M55CtrlR2'	4	0.1899	0.0183	0.7813
b'CHR8:144040433:T'	b'M55CtrlR3'	4	0.1667	0.0155	0.7813
b'CHR8:144040433:T'	b'M55CtrlR4'	4	0.1539	0.0178	0.7813
b'CHR9:125326478:G'	b'M55CtrlR1'	4	0.1708	0.0173	0.9866
b'CHR9:125326478:G'	b'M55CtrlR2'	4	0.1899	0.0183	0.9866
b'CHR9:125326478:G'	b'M55CtrlR3'	4	0.1667	0.0155	0.9866
b'CHR9:125326478:G'	b'M55CtrlR4'	4	0.1539	0.0178	0.9866
b'CHR9:125337434:T'	b'M55CtrlR1'	4	0.1708	0.0173	0.6930
b'CHR9:125337434:T'	b'M55CtrlR2'	4	0.1899	0.0183	0.6930
b'CHR9:125337434:T'	b'M55CtrlR3'	4	0.1667	0.0155	0.6930
b'CHR9:125337434:T'	b'M55CtrlR4'	4	0.1539	0.0178	0.6930
b'CHR9:129068201:C'	b'M55CtrlR1'	4	0.1708	0.0173	0.8931
b'CHR9:129068201:C'	b'M55CtrlR2'	4	0.1899	0.0183	0.8931
b'CHR9:129068201:C'	b'M55CtrlR3'	4	0.1667	0.0155	0.8931
b'CHR9:129068201:C'	b'M55CtrlR4'	4	0.1539	0.0178	0.8931
b'CHR9:93952939:A'	b'M55CtrlR1'	4	0.1708	0.0173	0.8885
b'CHR9:93952939:A'	b'M55CtrlR2'	4	0.1899	0.0183	0.8885
b'CHR9:93952939:A'	b'M55CtrlR3'	4	0.1667	0.0155	0.8885
b'CHR9:93952939:A'	b'M55CtrlR4'	4	0.1539	0.0178	0.8885
b'CHR9:95086149:A'	b'M55CtrlR1'	4	0.1708	0.0173	0.6146
b'CHR9:95086149:A'	b'M55CtrlR2'	4	0.1899	0.0183	0.6146
b'CHR9:95086149:A'	b'M55CtrlR3'	4	0.1667	0.0155	0.6146
b'CHR9:95086149:A'	b'M55CtrlR4'	4	0.1539	0.0178	0.6146
