mutation_id	sample_id	ref_counts	alt_counts	major_cn	minor_cn	normal_cn	tumour_content
CHR1:942934:C	M49CtrlR1	15	10	1	1	2	1
CHR1:1046687:A	M49CtrlR1	61	4	1	1	2	1
CHR1:3478610:A	M49CtrlR1	9	4	1	1	2	1
CHR1:3763211:T	M49CtrlR1	15	12	1	1	2	1
CHR1:7827188:A	M49CtrlR1	12	9	1	1	2	1
CHR1:11706367:T	M49CtrlR1	1	2	1	1	2	1
CHR1:11779915:A	M49CtrlR1	5	9	1	1	2	1
CHR1:13343011:A	M49CtrlR1	13	9	1	1	2	1
CHR1:13421192:T	M49CtrlR1	27	10	1	1	2	1
CHR1:13782619:G	M49CtrlR1	13	9	1	1	2	1
CHR1:15939409:A	M49CtrlR1	10	5	1	1	2	1
CHR1:16409637:C	M49CtrlR1	8	4	1	1	2	1
CHR1:16759300:T	M49CtrlR1	50	8	1	1	2	1
CHR1:17070097:A	M49CtrlR1	9	6	1	1	2	1
CHR1:17079314:A	M49CtrlR1	24	8	1	1	2	1
CHR1:17084646:G	M49CtrlR1	18	18	1	1	2	1
CHR1:18877503:G	M49CtrlR1	10	5	1	1	2	1
CHR1:19282760:C	M49CtrlR1	33	31	1	1	2	1
CHR1:19623568:C	M49CtrlR1	8	3	1	1	2	1
CHR1:20084839:T	M49CtrlR1	20	12	1	1	2	1
CHR1:21874505:T	M49CtrlR1	9	11	1	1	2	1
CHR1:22526222:C	M49CtrlR1	19	10	1	1	2	1
CHR1:25243590:C	M49CtrlR1	24	11	1	1	2	1
CHR1:26344118:T	M49CtrlR1	24	24	1	1	2	1
CHR1:26952030:A	M49CtrlR1	19	8	1	1	2	1
CHR1:31630664:G	M49CtrlR1	10	10	1	1	2	1
CHR1:31698605:G	M49CtrlR1	8	5	1	1	2	1
CHR1:32770050:G	M49CtrlR1	18	10	1	1	2	1
CHR1:33494462:G	M49CtrlR1	14	12	1	1	2	1
CHR1:51840355:A	M49CtrlR1	12	5	1	1	2	1
CHR1:53247055:T	M49CtrlR1	9	10	1	1	2	1
CHR1:53250744:A	M49CtrlR1	10	16	1	1	2	1
CHR1:53594343:C	M49CtrlR1	9	11	1	1	2	1
CHR1:63323280:A	M49CtrlR1	6	7	1	1	2	1
CHR1:63415881:T	M49CtrlR1	7	4	1	1	2	1
CHR1:64844806:C	M49CtrlR1	17	9	1	1	2	1
CHR1:70039224:A	M49CtrlR1	37	5	1	1	2	1
CHR1:111242317:G	M49CtrlR1	16	4	1	1	2	1
CHR1:155054385:T	M49CtrlR1	17	10	1	1	2	1
CHR1:157586429:T	M49CtrlR1	65	5	1	1	2	1
CHR1:160155085:A	M49CtrlR1	3	4	1	1	2	1
CHR1:168308838:T	M49CtrlR1	10	4	1	1	2	1
CHR1:202160698:C	M49CtrlR1	12	14	1	1	2	1
CHR1:215567710:G	M49CtrlR1	12	18	1	1	2	1
CHR1:229547554:G	M49CtrlR1	10	2	1	1	2	1
CHR1:230921501:T	M49CtrlR1	7	5	1	1	2	1
CHR1:247423969:T	M49CtrlR1	26	12	1	1	2	1
CHR1:248273507:A	M49CtrlR1	16	4	1	1	2	1
CHR1:248273509:C	M49CtrlR1	15	4	1	1	2	1
CHR2:73291715:T	M49CtrlR1	7	5	1	1	2	1
CHR2:79869920:C	M49CtrlR1	62	4	1	1	2	1
CHR2:170847706:T	M49CtrlR1	21	2	1	1	2	1
CHR2:219451248:A	M49CtrlR1	12	14	1	1	2	1
CHR3:9950005:A	M49CtrlR1	67	7	1	1	2	1
CHR3:41800280:T	M49CtrlR1	10	4	1	1	2	1
CHR3:48447042:C	M49CtrlR1	17	6	1	1	2	1
CHR3:50320148:G	M49CtrlR1	74	5	1	1	2	1
CHR4:5825510:T	M49CtrlR1	20	3	1	1	2	1
CHR4:125317234:A	M49CtrlR1	48	7	1	1	2	1
CHR5:141051875:G	M49CtrlR1	41	3	1	1	2	1
CHR6:2749147:T	M49CtrlR1	8	3	1	1	2	1
CHR6:3154637:C	M49CtrlR1	12	4	1	1	2	1
CHR6:7581403:A	M49CtrlR1	24	7	1	1	2	1
CHR6:10687513:T	M49CtrlR1	36	10	1	1	2	1
CHR6:11193627:A	M49CtrlR1	46	10	1	1	2	1
CHR6:12120212:G	M49CtrlR1	21	5	1	1	2	1
CHR6:13711047:G	M49CtrlR1	8	6	1	1	2	1
CHR7:151066568:A	M49CtrlR1	12	8	1	1	2	1
CHR9:26928213:T	M49CtrlR1	19	18	1	0	2	1
CHR9:95881156:A	M49CtrlR1	44	3	1	1	2	1
CHR10:73751113:G	M49CtrlR1	77	6	1	1	2	1
CHR10:128101279:T	M49CtrlR1	17	8	1	1	2	1
CHR11:120128675:T	M49CtrlR1	26	8	1	1	2	1
CHR14:31178233:C	M49CtrlR1	11	6	1	1	2	1
CHR14:70978536:T	M49CtrlR1	22	4	1	1	2	1
CHR16:3141065:G	M49CtrlR1	12	2	1	1	2	1
CHR17:8819116:C	M49CtrlR1	20	4	1	1	2	1
CHR17:10539354:G	M49CtrlR1	32	3	1	1	2	1
CHR19:1049270:A	M49CtrlR1	8	7	1	1	2	1
CHR19:1495334:T	M49CtrlR1	36	7	1	1	2	1
CHR19:20545051:T	M49CtrlR1	32	7	1	0	2	1
CHR19:36915827:T	M49CtrlR1	89	9	1	1	2	1
CHR19:52705931:T	M49CtrlR1	48	5	1	1	2	1
CHR19:52881597:A	M49CtrlR1	23	10	1	1	2	1
CHR19:56027551:C	M49CtrlR1	49	4	1	1	2	1
CHR1:1495915:C	M49CtrlR2	24	4	1	1	2	1
CHR1:3478610:A	M49CtrlR2	4	6	1	1	2	1
CHR1:3763211:T	M49CtrlR2	14	7	1	1	2	1
CHR1:7827188:A	M49CtrlR2	11	8	1	1	2	1
CHR1:11779915:A	M49CtrlR2	9	7	1	1	2	1
CHR1:13343011:A	M49CtrlR2	6	7	1	1	2	1
CHR1:13421192:T	M49CtrlR2	30	18	1	1	2	1
CHR1:15939409:A	M49CtrlR2	16	3	1	1	2	1
CHR1:16409637:C	M49CtrlR2	15	8	1	1	2	1
CHR1:16759300:T	M49CtrlR2	32	7	1	1	2	1
CHR1:17070097:A	M49CtrlR2	17	11	1	1	2	1
CHR1:17079314:A	M49CtrlR2	18	8	1	1	2	1
CHR1:18877503:G	M49CtrlR2	4	4	1	1	2	1
CHR1:19282760:C	M49CtrlR2	24	10	1	1	2	1
CHR1:19623568:C	M49CtrlR2	2	10	1	1	2	1
CHR1:20084839:T	M49CtrlR2	11	5	1	1	2	1
CHR1:21874505:T	M49CtrlR2	9	9	1	1	2	1
CHR1:22526222:C	M49CtrlR2	28	12	1	1	2	1
CHR1:25243590:C	M49CtrlR2	15	5	1	1	2	1
CHR1:26344118:T	M49CtrlR2	31	8	1	1	2	1
CHR1:26952030:A	M49CtrlR2	18	13	1	1	2	1
CHR1:31630664:G	M49CtrlR2	9	5	1	1	2	1
CHR1:31698605:G	M49CtrlR2	11	9	1	1	2	1
CHR1:33494462:G	M49CtrlR2	13	3	1	1	2	1
CHR1:51840355:A	M49CtrlR2	10	3	1	1	2	1
CHR1:53247055:T	M49CtrlR2	8	6	1	1	2	1
CHR1:53250744:A	M49CtrlR2	15	6	1	1	2	1
CHR1:53594343:C	M49CtrlR2	6	7	1	1	2	1
CHR1:63323280:A	M49CtrlR2	8	4	1	1	2	1
CHR1:63415881:T	M49CtrlR2	18	4	1	1	2	1
CHR1:64844806:C	M49CtrlR2	29	10	1	1	2	1
CHR1:70039224:A	M49CtrlR2	48	4	1	1	2	1
CHR1:111242317:G	M49CtrlR2	23	5	1	1	2	1
CHR1:152812643:C	M49CtrlR2	18	6	1	1	2	1
CHR1:155054385:T	M49CtrlR2	16	17	1	1	2	1
CHR1:161526114:T	M49CtrlR2	115	5	1	1	2	1
CHR1:202160698:C	M49CtrlR2	19	9	1	1	2	1
CHR1:215567710:G	M49CtrlR2	17	9	1	1	2	1
CHR1:230921501:T	M49CtrlR2	14	6	1	1	2	1
CHR1:247423969:T	M49CtrlR2	30	5	1	1	2	1
CHR2:135115329:A	M49CtrlR2	42	4	1	1	2	1
CHR2:156549720:T	M49CtrlR2	32	4	1	1	2	1
CHR2:219451248:A	M49CtrlR2	14	14	1	1	2	1
CHR3:9950005:A	M49CtrlR2	61	9	1	1	2	1
CHR3:78600261:T	M49CtrlR2	73	6	1	1	2	1
CHR4:185463040:A	M49CtrlR2	15	3	1	1	2	1
CHR5:51389819:T	M49CtrlR2	15	4	1	1	2	1
CHR5:141431886:T	M49CtrlR2	38	4	1	1	2	1
CHR5:150540177:C	M49CtrlR2	9	7	1	1	2	1
CHR6:7581403:A	M49CtrlR2	22	7	1	1	2	1
CHR6:7601487:T	M49CtrlR2	12	3	1	1	2	1
CHR6:9775825:A	M49CtrlR2	12	3	1	1	2	1
CHR6:10687513:T	M49CtrlR2	37	5	1	1	2	1
CHR6:11193627:A	M49CtrlR2	36	6	1	1	2	1
CHR6:43369355:A	M49CtrlR2	10	3	1	1	2	1
CHR7:151066568:A	M49CtrlR2	4	4	1	1	2	1
CHR9:26928213:T	M49CtrlR2	13	6	1	0	2	1
CHR9:93952939:A	M49CtrlR2	40	3	1	1	2	1
CHR9:98782570:A	M49CtrlR2	16	2	1	1	2	1
CHR9:125337434:T	M49CtrlR2	53	9	1	1	2	1
CHR10:73751113:G	M49CtrlR2	44	6	1	1	2	1
CHR10:128101279:T	M49CtrlR2	11	7	1	1	2	1
CHR11:57646395:A	M49CtrlR2	14	2	1	1	2	1
CHR11:120128675:T	M49CtrlR2	37	5	1	1	2	1
CHR14:31178233:C	M49CtrlR2	10	8	1	1	2	1
CHR16:1241453:A	M49CtrlR2	11	5	1	1	2	1
CHR18:2934431:C	M49CtrlR2	24	3	1	0	2	1
CHR19:1049270:A	M49CtrlR2	7	10	1	1	2	1
CHR19:1495334:T	M49CtrlR2	54	6	1	1	2	1
CHR19:13209361:T	M49CtrlR2	35	5	1	1	2	1
CHR19:14765687:T	M49CtrlR2	220	6	1	1	2	1
CHR19:17226319:A	M49CtrlR2	36	3	1	1	2	1
CHR19:36915827:T	M49CtrlR2	65	4	1	1	2	1
CHR19:37888408:A	M49CtrlR2	62	5	1	1	2	1
CHR19:45591702:A	M49CtrlR2	77	5	1	1	2	1
CHR19:51627961:A	M49CtrlR2	74	5	1	1	2	1
CHR19:52881597:A	M49CtrlR2	41	8	1	1	2	1
CHR20:19992282:A	M49CtrlR2	22	3	1	1	2	1
CHR22:41511947:C	M49CtrlR2	12	3	1	1	2	1
CHR1:942934:C	M49CtrlR3	18	11	1	1	2	1
CHR1:1495915:C	M49CtrlR3	33	6	1	1	2	1
CHR1:3478610:A	M49CtrlR3	8	5	1	1	2	1
CHR1:3763211:T	M49CtrlR3	12	21	1	1	2	1
CHR1:7827188:A	M49CtrlR3	12	5	1	1	2	1
CHR1:8957259:A	M49CtrlR3	32	4	1	1	2	1
CHR1:11706367:T	M49CtrlR3	18	7	1	1	2	1
CHR1:11779915:A	M49CtrlR3	8	5	1	1	2	1
CHR1:13343011:A	M49CtrlR3	40	9	1	1	2	1
CHR1:13421192:T	M49CtrlR3	35	20	1	1	2	1
CHR1:13773141:T	M49CtrlR3	25	14	1	1	2	1
CHR1:13782619:G	M49CtrlR3	11	10	1	1	2	1
CHR1:15939409:A	M49CtrlR3	14	4	1	1	2	1
CHR1:16050982:T	M49CtrlR3	53	6	1	1	2	1
CHR1:16409637:C	M49CtrlR3	20	4	1	1	2	1
CHR1:17079314:A	M49CtrlR3	22	12	1	1	2	1
CHR1:18481971:A	M49CtrlR3	13	10	1	1	2	1
CHR1:18877503:G	M49CtrlR3	16	5	1	1	2	1
CHR1:19282760:C	M49CtrlR3	28	19	1	1	2	1
CHR1:19623568:C	M49CtrlR3	9	6	1	1	2	1
CHR1:20084839:T	M49CtrlR3	6	4	1	1	2	1
CHR1:21483257:C	M49CtrlR3	37	3	1	1	2	1
CHR1:21874505:T	M49CtrlR3	15	9	1	1	2	1
CHR1:22526222:C	M49CtrlR3	24	9	1	1	2	1
CHR1:26344118:T	M49CtrlR3	38	15	1	1	2	1
CHR1:26952030:A	M49CtrlR3	25	17	1	1	2	1
CHR1:27360975:T	M49CtrlR3	5	9	1	1	2	1
CHR1:31630664:G	M49CtrlR3	7	2	1	1	2	1
CHR1:31698605:G	M49CtrlR3	6	3	1	1	2	1
CHR1:32770050:G	M49CtrlR3	8	12	1	1	2	1
CHR1:33494462:G	M49CtrlR3	16	3	1	1	2	1
CHR1:51840355:A	M49CtrlR3	9	3	1	1	2	1
CHR1:53078767:A	M49CtrlR3	16	9	1	1	2	1
CHR1:53247055:T	M49CtrlR3	15	3	1	1	2	1
CHR1:53250744:A	M49CtrlR3	13	7	1	1	2	1
CHR1:53594343:C	M49CtrlR3	20	6	1	1	2	1
CHR1:63323280:A	M49CtrlR3	8	8	1	1	2	1
CHR1:63415881:T	M49CtrlR3	1	9	1	1	2	1
CHR1:64844806:C	M49CtrlR3	21	17	1	1	2	1
CHR1:70039224:A	M49CtrlR3	28	4	1	1	2	1
CHR1:111242317:G	M49CtrlR3	16	3	1	1	2	1
CHR1:113981341:T	M49CtrlR3	67	5	1	1	2	1
CHR1:155054385:T	M49CtrlR3	13	11	1	1	2	1
CHR1:157586429:T	M49CtrlR3	57	3	1	1	2	1
CHR1:215567710:G	M49CtrlR3	22	4	1	1	2	1
CHR1:247423969:T	M49CtrlR3	23	8	1	1	2	1
CHR2:73291715:T	M49CtrlR3	10	5	1	1	2	1
CHR2:131125753:T	M49CtrlR3	9	3	1	1	2	1
CHR2:219451248:A	M49CtrlR3	14	8	1	1	2	1
CHR3:9950005:A	M49CtrlR3	60	13	1	1	2	1
CHR3:14668125:G	M49CtrlR3	18	3	1	1	2	1
CHR3:41800280:T	M49CtrlR3	8	9	1	1	2	1
CHR3:48447042:C	M49CtrlR3	18	10	1	1	2	1
CHR3:50320148:G	M49CtrlR3	44	4	1	1	2	1
CHR4:185656724:G	M49CtrlR3	10	3	1	1	2	1
CHR5:141431886:T	M49CtrlR3	50	3	1	1	2	1
CHR5:150540177:C	M49CtrlR3	4	7	1	1	2	1
CHR5:173609254:G	M49CtrlR3	13	3	1	1	2	1
CHR6:2749147:T	M49CtrlR3	13	3	1	1	2	1
CHR6:7393219:T	M49CtrlR3	37	6	1	1	2	1
CHR6:7577027:T	M49CtrlR3	29	6	1	1	2	1
CHR6:7581403:A	M49CtrlR3	24	4	1	1	2	1
CHR6:9775825:A	M49CtrlR3	10	5	1	1	2	1
CHR6:11193627:A	M49CtrlR3	46	9	1	1	2	1
CHR6:12120212:G	M49CtrlR3	26	6	1	1	2	1
CHR6:42862523:G	M49CtrlR3	45	4	1	1	2	1
CHR9:26928213:T	M49CtrlR3	17	12	1	1	2	1
CHR9:89348205:A	M49CtrlR3	21	2	1	1	2	1
CHR9:95881156:A	M49CtrlR3	30	10	1	1	2	1
CHR9:129068201:C	M49CtrlR3	72	6	1	1	2	1
CHR10:92240093:G	M49CtrlR3	13	5	1	1	2	1
CHR10:102593720:G	M49CtrlR3	41	3	1	1	2	1
CHR10:119579974:C	M49CtrlR3	5	2	1	1	2	1
CHR10:128101279:T	M49CtrlR3	11	7	1	1	2	1
CHR11:77190101:A	M49CtrlR3	16	3	1	1	2	1
CHR11:77190102:A	M49CtrlR3	16	3	1	1	2	1
CHR12:40481156:A	M49CtrlR3	168	4	1	1	2	1
CHR12:40481157:G	M49CtrlR3	167	4	1	1	2	1
CHR12:48329951:T	M49CtrlR3	22	5	1	1	2	1
CHR13:71559855:A	M49CtrlR3	21	4	1	1	2	1
CHR14:31178233:C	M49CtrlR3	4	3	1	1	2	1
CHR14:102929246:A	M49CtrlR3	12	2	1	1	2	1
CHR17:7817620:C	M49CtrlR3	63	4	1	1	2	1
CHR17:10539354:G	M49CtrlR3	7	4	1	1	2	1
CHR17:15716798:G	M49CtrlR3	62	4	1	1	2	1
CHR19:1049270:A	M49CtrlR3	13	7	1	1	2	1
CHR19:1495334:T	M49CtrlR3	51	3	1	1	2	1
CHR19:45591702:A	M49CtrlR3	54	3	1	1	2	1
CHR19:52881597:A	M49CtrlR3	46	8	1	1	2	1
CHR1:942934:C	M49CtrlR4	25	22	2	1	2	1
CHR1:1046687:A	M49CtrlR4	48	4	2	1	2	1
CHR1:3478610:A	M49CtrlR4	13	5	1	1	2	1
CHR1:3763211:T	M49CtrlR4	7	16	1	1	2	1
CHR1:7827188:A	M49CtrlR4	13	8	1	1	2	1
CHR1:11706367:T	M49CtrlR4	9	5	1	1	2	1
CHR1:11779915:A	M49CtrlR4	5	9	1	1	2	1
CHR1:13343011:A	M49CtrlR4	15	13	1	1	2	1
CHR1:13421192:T	M49CtrlR4	21	16	1	1	2	1
CHR1:13782619:G	M49CtrlR4	10	15	1	1	2	1
CHR1:15939409:A	M49CtrlR4	18	8	1	1	2	1
CHR1:16409637:C	M49CtrlR4	10	10	1	1	2	1
CHR1:16759300:T	M49CtrlR4	48	10	1	1	2	1
CHR1:17070097:A	M49CtrlR4	6	9	1	1	2	1
CHR1:17079314:A	M49CtrlR4	11	17	1	1	2	1
CHR1:18877503:G	M49CtrlR4	11	6	1	1	2	1
CHR1:19282760:C	M49CtrlR4	22	30	1	1	2	1
CHR1:19623568:C	M49CtrlR4	2	7	1	1	2	1
CHR1:20084839:T	M49CtrlR4	6	4	1	1	2	1
CHR1:21483257:C	M49CtrlR4	37	3	1	1	2	1
CHR1:21874505:T	M49CtrlR4	12	7	1	1	2	1
CHR1:22526222:C	M49CtrlR4	24	8	1	1	2	1
CHR1:25243590:C	M49CtrlR4	10	9	1	1	2	1
CHR1:26344118:T	M49CtrlR4	24	23	1	1	2	1
CHR1:26952030:A	M49CtrlR4	18	8	1	1	2	1
CHR1:31630664:G	M49CtrlR4	4	4	1	1	2	1
CHR1:31698605:G	M49CtrlR4	14	5	1	1	2	1
CHR1:32770050:G	M49CtrlR4	26	10	1	1	2	1
CHR1:33494462:G	M49CtrlR4	18	7	1	1	2	1
CHR1:51840355:A	M49CtrlR4	4	8	1	1	2	1
CHR1:53250744:A	M49CtrlR4	18	7	1	1	2	1
CHR1:53594343:C	M49CtrlR4	17	7	1	1	2	1
CHR1:63323280:A	M49CtrlR4	6	7	1	1	2	1
CHR1:63415881:T	M49CtrlR4	6	9	1	1	2	1
CHR1:64844806:C	M49CtrlR4	13	8	1	1	2	1
CHR1:152812643:C	M49CtrlR4	12	3	1	1	2	1
CHR1:155054385:T	M49CtrlR4	12	7	1	1	2	1
CHR1:158699883:T	M49CtrlR4	30	3	1	1	2	1
CHR1:202160698:C	M49CtrlR4	16	5	1	1	2	1
CHR1:215567710:G	M49CtrlR4	26	17	1	1	2	1
CHR1:230921501:T	M49CtrlR4	7	3	1	1	2	1
CHR1:247423969:T	M49CtrlR4	28	17	1	1	2	1
CHR1:248273507:A	M49CtrlR4	17	5	1	1	2	1
CHR1:248273509:C	M49CtrlR4	16	5	1	1	2	1
CHR2:73291715:T	M49CtrlR4	16	6	1	1	2	1
CHR2:97167731:A	M49CtrlR4	19	2	1	1	2	1
CHR2:127289755:A	M49CtrlR4	20	3	1	1	2	1
CHR2:208333381:G	M49CtrlR4	12	2	1	1	2	1
CHR2:219451248:A	M49CtrlR4	20	13	1	1	2	1
CHR2:232381776:G	M49CtrlR4	22	3	1	1	2	1
CHR3:9950005:A	M49CtrlR4	38	5	1	1	2	1
CHR3:41800280:T	M49CtrlR4	4	5	1	1	2	1
CHR3:48447042:C	M49CtrlR4	29	9	1	1	2	1
CHR3:55073793:A	M49CtrlR4	32	4	1	1	2	1
CHR3:63834186:C	M49CtrlR4	55	4	1	1	2	1
CHR4:2824643:T	M49CtrlR4	62	4	1	1	2	1
CHR4:85942222:C	M49CtrlR4	23	4	1	1	2	1
CHR4:125317234:A	M49CtrlR4	74	7	1	1	2	1
CHR5:51389819:T	M49CtrlR4	32	3	1	1	2	1
CHR6:7393219:T	M49CtrlR4	35	7	1	0	2	1
CHR6:7577027:T	M49CtrlR4	21	6	1	0	2	1
CHR6:7581403:A	M49CtrlR4	32	7	1	0	2	1
CHR6:10687513:T	M49CtrlR4	31	6	1	0	2	1
CHR6:11193627:A	M49CtrlR4	41	14	1	0	2	1
CHR6:12120212:G	M49CtrlR4	31	5	1	0	2	1
CHR7:151066568:A	M49CtrlR4	4	3	1	1	2	1
CHR8:40674861:C	M49CtrlR4	13	4	1	0	2	1
CHR8:144040433:T	M49CtrlR4	38	6	2	1	2	1
CHR9:26928213:T	M49CtrlR4	17	8	1	1	2	1
CHR10:128101279:T	M49CtrlR4	8	13	1	1	2	1
CHR11:94998292:G	M49CtrlR4	62	5	1	1	2	1
CHR11:120128675:T	M49CtrlR4	40	8	1	1	2	1
CHR12:9152922:A	M49CtrlR4	15	5	1	0	2	1
CHR12:55027042:G	M49CtrlR4	30	4	1	1	2	1
CHR12:85046079:A	M49CtrlR4	55	4	2	1	2	1
CHR12:122988845:T	M49CtrlR4	50	6	2	1	2	1
CHR13:94479083:A	M49CtrlR4	10	2	1	1	2	1
CHR13:113633258:T	M49CtrlR4	34	5	1	1	2	1
CHR15:23566598:A	M49CtrlR4	43	9	1	0	2	1
CHR17:15716798:G	M49CtrlR4	59	3	1	1	2	1
CHR17:81937211:G	M49CtrlR4	6	6	2	1	2	1
CHR19:1049270:A	M49CtrlR4	11	9	1	1	2	1
CHR19:1495334:T	M49CtrlR4	55	4	1	1	2	1
CHR19:14765687:T	M49CtrlR4	214	5	1	1	2	1
CHR19:36915827:T	M49CtrlR4	55	14	1	1	2	1
CHR19:37243400:A	M49CtrlR4	12	3	1	1	2	1
CHR19:52705931:T	M49CtrlR4	41	4	1	1	2	1
CHR19:52881597:A	M49CtrlR4	32	13	1	1	2	1
CHR19:56554274:G	M49CtrlR4	15	2	1	1	2	1
CHR3:48447042:C	M49CtrlR2	0	0	1	1	2	1
CHR6:12120212:G	M49CtrlR2	0	0	1	1	2	1
CHR1:70039224:A	M49CtrlR4	0	0	1	1	2	1
CHR1:111242317:G	M49CtrlR4	0	0	1	1	2	1
CHR1:11706367:T	M49CtrlR2	0	0	1	1	2	1
CHR7:151066568:A	M49CtrlR3	0	0	1	1	2	1
CHR1:16759300:T	M49CtrlR3	0	0	1	1	2	1
CHR19:36915827:T	M49CtrlR3	0	0	1	1	2	1
CHR1:25243590:C	M49CtrlR3	0	0	1	1	2	1
CHR11:120128675:T	M49CtrlR3	0	0	1	1	2	1
CHR1:13782619:G	M49CtrlR2	0	0	1	1	2	1
CHR1:53247055:T	M49CtrlR4	0	0	1	1	2	1
CHR1:230921501:T	M49CtrlR3	0	0	1	1	2	1
CHR1:202160698:C	M49CtrlR3	0	0	1	1	2	1
CHR1:17070097:A	M49CtrlR3	0	0	1	1	2	1
CHR14:31178233:C	M49CtrlR4	0	0	1	1	2	1
CHR1:32770050:G	M49CtrlR2	0	0	1	1	2	1
CHR3:41800280:T	M49CtrlR2	0	0	1	1	2	1
CHR1:942934:C	M49CtrlR2	0	0	1	1	2	1
CHR2:73291715:T	M49CtrlR2	0	0	1	1	2	1
CHR6:10687513:T	M49CtrlR3	0	0	1	1	2	1
CHR6:9775825:A	M49CtrlR1	0	0	1	1	2	1
CHR6:9775825:A	M49CtrlR4	0	0	1	1	2	1
CHR6:2749147:T	M49CtrlR2	0	0	1	1	2	1
CHR6:2749147:T	M49CtrlR4	0	0	1	1	2	1
CHR19:52705931:T	M49CtrlR2	0	0	1	1	2	1
CHR19:52705931:T	M49CtrlR3	0	0	1	1	2	1
CHR1:1046687:A	M49CtrlR2	0	0	1	1	2	1
CHR1:1046687:A	M49CtrlR3	0	0	1	1	2	1
CHR17:10539354:G	M49CtrlR2	0	0	1	1	2	1
CHR17:10539354:G	M49CtrlR4	0	0	1	1	2	1
CHR1:248273507:A	M49CtrlR2	0	0	1	1	2	1
CHR1:248273507:A	M49CtrlR3	0	0	1	1	2	1
CHR6:7393219:T	M49CtrlR1	0	0	1	1	2	1
CHR6:7393219:T	M49CtrlR2	0	0	1	1	2	1
CHR17:15716798:G	M49CtrlR1	0	0	1	1	2	1
CHR17:15716798:G	M49CtrlR2	0	0	1	1	2	1
CHR1:1495915:C	M49CtrlR1	0	0	1	1	2	1
CHR1:1495915:C	M49CtrlR4	0	0	1	1	2	1
CHR1:21483257:C	M49CtrlR1	0	0	1	1	2	1
CHR1:21483257:C	M49CtrlR2	0	0	1	1	2	1
CHR5:51389819:T	M49CtrlR1	0	0	1	1	2	1
CHR5:51389819:T	M49CtrlR3	0	0	1	1	2	1
CHR9:95881156:A	M49CtrlR2	0	0	1	1	2	1
CHR9:95881156:A	M49CtrlR4	0	0	1	1	2	1
CHR5:141431886:T	M49CtrlR1	0	0	1	1	2	1
CHR5:141431886:T	M49CtrlR4	0	0	1	1	2	1
CHR1:152812643:C	M49CtrlR1	0	0	1	1	2	1
CHR1:152812643:C	M49CtrlR3	0	0	1	1	2	1
CHR4:125317234:A	M49CtrlR2	0	0	1	1	2	1
CHR4:125317234:A	M49CtrlR3	0	0	1	1	2	1
CHR19:14765687:T	M49CtrlR1	0	0	1	1	2	1
CHR19:14765687:T	M49CtrlR3	0	0	1	1	2	1
CHR1:248273509:C	M49CtrlR2	0	0	1	1	2	1
CHR1:248273509:C	M49CtrlR3	0	0	1	1	2	1
CHR5:150540177:C	M49CtrlR1	0	0	1	1	2	1
CHR5:150540177:C	M49CtrlR4	0	0	1	1	2	1
CHR10:73751113:G	M49CtrlR3	0	0	1	1	2	1
CHR10:73751113:G	M49CtrlR4	0	0	1	1	2	1
CHR3:50320148:G	M49CtrlR2	0	0	1	1	2	1
CHR3:50320148:G	M49CtrlR4	0	0	1	1	2	1
CHR19:45591702:A	M49CtrlR1	0	0	1	1	2	1
CHR19:45591702:A	M49CtrlR4	0	0	1	1	2	1
CHR6:7577027:T	M49CtrlR1	0	0	1	1	2	1
CHR6:7577027:T	M49CtrlR2	0	0	1	1	2	1
CHR1:157586429:T	M49CtrlR2	0	0	1	1	2	1
CHR1:157586429:T	M49CtrlR4	0	0	1	1	2	1
CHR2:97167731:A	M49CtrlR1	0	0	1	1	2	1
CHR2:97167731:A	M49CtrlR2	0	0	1	1	2	1
CHR2:97167731:A	M49CtrlR3	0	0	1	1	2	1
CHR4:185656724:G	M49CtrlR1	0	0	1	1	2	1
CHR4:185656724:G	M49CtrlR2	0	0	1	1	2	1
CHR4:185656724:G	M49CtrlR4	0	0	1	1	2	1
CHR1:17084646:G	M49CtrlR2	0	0	1	1	2	1
CHR1:17084646:G	M49CtrlR3	0	0	1	1	2	1
CHR1:17084646:G	M49CtrlR4	0	0	1	1	2	1
CHR11:57646395:A	M49CtrlR1	0	0	1	1	2	1
CHR11:57646395:A	M49CtrlR3	0	0	1	1	2	1
CHR11:57646395:A	M49CtrlR4	0	0	1	1	2	1
CHR3:14668125:G	M49CtrlR1	0	0	1	1	2	1
CHR3:14668125:G	M49CtrlR2	0	0	1	1	2	1
CHR3:14668125:G	M49CtrlR4	0	0	1	1	2	1
CHR8:144040433:T	M49CtrlR1	0	0	1	1	2	1
CHR8:144040433:T	M49CtrlR2	0	0	1	1	2	1
CHR8:144040433:T	M49CtrlR3	0	0	1	1	2	1
CHR3:55073793:A	M49CtrlR1	0	0	1	1	2	1
CHR3:55073793:A	M49CtrlR2	0	0	1	1	2	1
CHR3:55073793:A	M49CtrlR3	0	0	1	1	2	1
CHR12:48329951:T	M49CtrlR1	0	0	1	1	2	1
CHR12:48329951:T	M49CtrlR2	0	0	1	1	2	1
CHR12:48329951:T	M49CtrlR4	0	0	1	1	2	1
CHR12:122988845:T	M49CtrlR1	0	0	1	1	2	1
CHR12:122988845:T	M49CtrlR2	0	0	1	1	2	1
CHR12:122988845:T	M49CtrlR3	0	0	1	1	2	1
CHR2:79869920:C	M49CtrlR2	0	0	1	1	2	1
CHR2:79869920:C	M49CtrlR3	0	0	1	1	2	1
CHR2:79869920:C	M49CtrlR4	0	0	1	1	2	1
CHR19:37243400:A	M49CtrlR1	0	0	1	1	2	1
CHR19:37243400:A	M49CtrlR2	0	0	1	1	2	1
CHR19:37243400:A	M49CtrlR3	0	0	1	1	2	1
CHR4:85942222:C	M49CtrlR1	0	0	1	1	2	1
CHR4:85942222:C	M49CtrlR2	0	0	1	1	2	1
CHR4:85942222:C	M49CtrlR3	0	0	1	1	2	1
CHR1:168308838:T	M49CtrlR2	0	0	1	1	2	1
CHR1:168308838:T	M49CtrlR3	0	0	1	1	2	1
CHR1:168308838:T	M49CtrlR4	0	0	1	1	2	1
CHR1:113981341:T	M49CtrlR1	0	0	1	1	2	1
CHR1:113981341:T	M49CtrlR2	0	0	1	1	2	1
CHR1:113981341:T	M49CtrlR4	0	0	1	1	2	1
CHR14:70978536:T	M49CtrlR2	0	0	1	1	2	1
CHR14:70978536:T	M49CtrlR3	0	0	1	1	2	1
CHR14:70978536:T	M49CtrlR4	0	0	1	1	2	1
CHR3:78600261:T	M49CtrlR1	0	0	1	1	2	1
CHR3:78600261:T	M49CtrlR3	0	0	1	1	2	1
CHR3:78600261:T	M49CtrlR4	0	0	1	1	2	1
CHR6:13711047:G	M49CtrlR2	0	0	1	1	2	1
CHR6:13711047:G	M49CtrlR3	0	0	1	1	2	1
CHR6:13711047:G	M49CtrlR4	0	0	1	1	2	1
CHR1:158699883:T	M49CtrlR1	0	0	1	1	2	1
CHR1:158699883:T	M49CtrlR2	0	0	1	1	2	1
CHR1:158699883:T	M49CtrlR3	0	0	1	1	2	1
CHR12:40481156:A	M49CtrlR1	0	0	1	1	2	1
CHR12:40481156:A	M49CtrlR2	0	0	1	1	2	1
CHR12:40481156:A	M49CtrlR4	0	0	1	1	2	1
CHR9:125337434:T	M49CtrlR1	0	0	1	1	2	1
CHR9:125337434:T	M49CtrlR3	0	0	1	1	2	1
CHR9:125337434:T	M49CtrlR4	0	0	1	1	2	1
CHR19:13209361:T	M49CtrlR1	0	0	1	1	2	1
CHR19:13209361:T	M49CtrlR3	0	0	1	1	2	1
CHR19:13209361:T	M49CtrlR4	0	0	1	1	2	1
CHR19:56027551:C	M49CtrlR2	0	0	1	1	2	1
CHR19:56027551:C	M49CtrlR3	0	0	1	1	2	1
CHR19:56027551:C	M49CtrlR4	0	0	1	1	2	1
CHR17:8819116:C	M49CtrlR2	0	0	1	1	2	1
CHR17:8819116:C	M49CtrlR3	0	0	1	1	2	1
CHR17:8819116:C	M49CtrlR4	0	0	1	1	2	1
CHR6:7601487:T	M49CtrlR1	0	0	1	1	2	1
CHR6:7601487:T	M49CtrlR3	0	0	1	1	2	1
CHR6:7601487:T	M49CtrlR4	0	0	1	1	2	1
CHR17:7817620:C	M49CtrlR1	0	0	1	1	2	1
CHR17:7817620:C	M49CtrlR2	0	0	1	1	2	1
CHR17:7817620:C	M49CtrlR4	0	0	1	1	2	1
CHR11:94998292:G	M49CtrlR1	0	0	1	1	2	1
CHR11:94998292:G	M49CtrlR2	0	0	1	1	2	1
CHR11:94998292:G	M49CtrlR3	0	0	1	1	2	1
CHR12:9152922:A	M49CtrlR1	0	0	1	1	2	1
CHR12:9152922:A	M49CtrlR2	0	0	1	1	2	1
CHR12:9152922:A	M49CtrlR3	0	0	1	1	2	1
CHR10:92240093:G	M49CtrlR1	0	0	1	1	2	1
CHR10:92240093:G	M49CtrlR2	0	0	1	1	2	1
CHR10:92240093:G	M49CtrlR4	0	0	1	1	2	1
CHR2:131125753:T	M49CtrlR1	0	0	1	1	2	1
CHR2:131125753:T	M49CtrlR2	0	0	1	1	2	1
CHR2:131125753:T	M49CtrlR4	0	0	1	1	2	1
CHR4:5825510:T	M49CtrlR2	0	0	1	1	2	1
CHR4:5825510:T	M49CtrlR3	0	0	1	1	2	1
CHR4:5825510:T	M49CtrlR4	0	0	1	1	2	1
CHR12:85046079:A	M49CtrlR1	0	0	1	1	2	1
CHR12:85046079:A	M49CtrlR2	0	0	1	1	2	1
CHR12:85046079:A	M49CtrlR3	0	0	1	1	2	1
CHR6:3154637:C	M49CtrlR2	0	0	1	1	2	1
CHR6:3154637:C	M49CtrlR3	0	0	1	1	2	1
CHR6:3154637:C	M49CtrlR4	0	0	1	1	2	1
CHR22:41511947:C	M49CtrlR1	0	0	1	1	2	1
CHR22:41511947:C	M49CtrlR3	0	0	1	1	2	1
CHR22:41511947:C	M49CtrlR4	0	0	1	1	2	1
CHR17:81937211:G	M49CtrlR1	0	0	1	1	2	1
CHR17:81937211:G	M49CtrlR2	0	0	1	1	2	1
CHR17:81937211:G	M49CtrlR3	0	0	1	1	2	1
CHR2:156549720:T	M49CtrlR1	0	0	1	1	2	1
CHR2:156549720:T	M49CtrlR3	0	0	1	1	2	1
CHR2:156549720:T	M49CtrlR4	0	0	1	1	2	1
CHR16:1241453:A	M49CtrlR1	0	0	1	1	2	1
CHR16:1241453:A	M49CtrlR3	0	0	1	1	2	1
CHR16:1241453:A	M49CtrlR4	0	0	1	1	2	1
CHR19:17226319:A	M49CtrlR1	0	0	1	1	2	1
CHR19:17226319:A	M49CtrlR3	0	0	1	1	2	1
CHR19:17226319:A	M49CtrlR4	0	0	1	1	2	1
CHR2:135115329:A	M49CtrlR1	0	0	1	1	2	1
CHR2:135115329:A	M49CtrlR3	0	0	1	1	2	1
CHR2:135115329:A	M49CtrlR4	0	0	1	1	2	1
CHR15:23566598:A	M49CtrlR1	0	0	1	1	2	1
CHR15:23566598:A	M49CtrlR2	0	0	1	1	2	1
CHR15:23566598:A	M49CtrlR3	0	0	1	1	2	1
CHR4:185463040:A	M49CtrlR1	0	0	1	1	2	1
CHR4:185463040:A	M49CtrlR3	0	0	1	1	2	1
CHR4:185463040:A	M49CtrlR4	0	0	1	1	2	1
CHR10:102593720:G	M49CtrlR1	0	0	1	1	2	1
CHR10:102593720:G	M49CtrlR2	0	0	1	1	2	1
CHR10:102593720:G	M49CtrlR4	0	0	1	1	2	1
CHR9:129068201:C	M49CtrlR1	0	0	1	1	2	1
CHR9:129068201:C	M49CtrlR2	0	0	1	1	2	1
CHR9:129068201:C	M49CtrlR4	0	0	1	1	2	1
CHR9:89348205:A	M49CtrlR1	0	0	1	1	2	1
CHR9:89348205:A	M49CtrlR2	0	0	1	1	2	1
CHR9:89348205:A	M49CtrlR4	0	0	1	1	2	1
CHR9:98782570:A	M49CtrlR1	0	0	1	1	2	1
CHR9:98782570:A	M49CtrlR3	0	0	1	1	2	1
CHR9:98782570:A	M49CtrlR4	0	0	1	1	2	1
CHR1:161526114:T	M49CtrlR1	0	0	1	1	2	1
CHR1:161526114:T	M49CtrlR3	0	0	1	1	2	1
CHR1:161526114:T	M49CtrlR4	0	0	1	1	2	1
CHR12:40481157:G	M49CtrlR1	0	0	1	1	2	1
CHR12:40481157:G	M49CtrlR2	0	0	1	1	2	1
CHR12:40481157:G	M49CtrlR4	0	0	1	1	2	1
CHR11:77190101:A	M49CtrlR1	0	0	1	1	2	1
CHR11:77190101:A	M49CtrlR2	0	0	1	1	2	1
CHR11:77190101:A	M49CtrlR4	0	0	1	1	2	1
CHR2:232381776:G	M49CtrlR1	0	0	1	1	2	1
CHR2:232381776:G	M49CtrlR2	0	0	1	1	2	1
CHR2:232381776:G	M49CtrlR3	0	0	1	1	2	1
CHR16:3141065:G	M49CtrlR2	0	0	1	1	2	1
CHR16:3141065:G	M49CtrlR3	0	0	1	1	2	1
CHR16:3141065:G	M49CtrlR4	0	0	1	1	2	1
CHR3:63834186:C	M49CtrlR1	0	0	1	1	2	1
CHR3:63834186:C	M49CtrlR2	0	0	1	1	2	1
CHR3:63834186:C	M49CtrlR3	0	0	1	1	2	1
CHR2:208333381:G	M49CtrlR1	0	0	1	1	2	1
CHR2:208333381:G	M49CtrlR2	0	0	1	1	2	1
CHR2:208333381:G	M49CtrlR3	0	0	1	1	2	1
CHR12:55027042:G	M49CtrlR1	0	0	1	1	2	1
CHR12:55027042:G	M49CtrlR2	0	0	1	1	2	1
CHR12:55027042:G	M49CtrlR3	0	0	1	1	2	1
CHR18:2934431:C	M49CtrlR1	0	0	1	1	2	1
CHR18:2934431:C	M49CtrlR3	0	0	1	1	2	1
CHR18:2934431:C	M49CtrlR4	0	0	1	1	2	1
CHR2:170847706:T	M49CtrlR2	0	0	1	1	2	1
CHR2:170847706:T	M49CtrlR3	0	0	1	1	2	1
CHR2:170847706:T	M49CtrlR4	0	0	1	1	2	1
CHR1:18481971:A	M49CtrlR1	0	0	1	1	2	1
CHR1:18481971:A	M49CtrlR2	0	0	1	1	2	1
CHR1:18481971:A	M49CtrlR4	0	0	1	1	2	1
CHR1:160155085:A	M49CtrlR2	0	0	1	1	2	1
CHR1:160155085:A	M49CtrlR3	0	0	1	1	2	1
CHR1:160155085:A	M49CtrlR4	0	0	1	1	2	1
CHR1:8957259:A	M49CtrlR1	0	0	1	1	2	1
CHR1:8957259:A	M49CtrlR2	0	0	1	1	2	1
CHR1:8957259:A	M49CtrlR4	0	0	1	1	2	1
CHR20:19992282:A	M49CtrlR1	0	0	1	1	2	1
CHR20:19992282:A	M49CtrlR3	0	0	1	1	2	1
CHR20:19992282:A	M49CtrlR4	0	0	1	1	2	1
CHR19:56554274:G	M49CtrlR1	0	0	1	1	2	1
CHR19:56554274:G	M49CtrlR2	0	0	1	1	2	1
CHR19:56554274:G	M49CtrlR3	0	0	1	1	2	1
CHR19:37888408:A	M49CtrlR1	0	0	1	1	2	1
CHR19:37888408:A	M49CtrlR3	0	0	1	1	2	1
CHR19:37888408:A	M49CtrlR4	0	0	1	1	2	1
CHR1:16050982:T	M49CtrlR1	0	0	1	1	2	1
CHR1:16050982:T	M49CtrlR2	0	0	1	1	2	1
CHR1:16050982:T	M49CtrlR4	0	0	1	1	2	1
CHR5:173609254:G	M49CtrlR1	0	0	1	1	2	1
CHR5:173609254:G	M49CtrlR2	0	0	1	1	2	1
CHR5:173609254:G	M49CtrlR4	0	0	1	1	2	1
CHR10:119579974:C	M49CtrlR1	0	0	1	1	2	1
CHR10:119579974:C	M49CtrlR2	0	0	1	1	2	1
CHR10:119579974:C	M49CtrlR4	0	0	1	1	2	1
CHR13:113633258:T	M49CtrlR1	0	0	1	1	2	1
CHR13:113633258:T	M49CtrlR2	0	0	1	1	2	1
CHR13:113633258:T	M49CtrlR3	0	0	1	1	2	1
CHR2:127289755:A	M49CtrlR1	0	0	1	1	2	1
CHR2:127289755:A	M49CtrlR2	0	0	1	1	2	1
CHR2:127289755:A	M49CtrlR3	0	0	1	1	2	1
CHR5:141051875:G	M49CtrlR2	0	0	1	1	2	1
CHR5:141051875:G	M49CtrlR3	0	0	1	1	2	1
CHR5:141051875:G	M49CtrlR4	0	0	1	1	2	1
CHR6:42862523:G	M49CtrlR1	0	0	1	1	2	1
CHR6:42862523:G	M49CtrlR2	0	0	1	1	2	1
CHR6:42862523:G	M49CtrlR4	0	0	1	1	2	1
CHR6:43369355:A	M49CtrlR1	0	0	1	1	2	1
CHR6:43369355:A	M49CtrlR3	0	0	1	1	2	1
CHR6:43369355:A	M49CtrlR4	0	0	1	1	2	1
CHR1:13773141:T	M49CtrlR1	0	0	1	1	2	1
CHR1:13773141:T	M49CtrlR2	0	0	1	1	2	1
CHR1:13773141:T	M49CtrlR4	0	0	1	1	2	1
CHR13:71559855:A	M49CtrlR1	0	0	1	1	2	1
CHR13:71559855:A	M49CtrlR2	0	0	1	1	2	1
CHR13:71559855:A	M49CtrlR4	0	0	1	1	2	1
CHR1:229547554:G	M49CtrlR2	0	0	1	1	2	1
CHR1:229547554:G	M49CtrlR3	0	0	1	1	2	1
CHR1:229547554:G	M49CtrlR4	0	0	1	1	2	1
CHR9:93952939:A	M49CtrlR1	0	0	1	1	2	1
CHR9:93952939:A	M49CtrlR3	0	0	1	1	2	1
CHR9:93952939:A	M49CtrlR4	0	0	1	1	2	1
CHR4:2824643:T	M49CtrlR1	0	0	1	1	2	1
CHR4:2824643:T	M49CtrlR2	0	0	1	1	2	1
CHR4:2824643:T	M49CtrlR3	0	0	1	1	2	1
CHR13:94479083:A	M49CtrlR1	0	0	1	1	2	1
CHR13:94479083:A	M49CtrlR2	0	0	1	1	2	1
CHR13:94479083:A	M49CtrlR3	0	0	1	1	2	1
CHR14:102929246:A	M49CtrlR1	0	0	1	1	2	1
CHR14:102929246:A	M49CtrlR2	0	0	1	1	2	1
CHR14:102929246:A	M49CtrlR4	0	0	1	1	2	1
CHR11:77190102:A	M49CtrlR1	0	0	1	1	2	1
CHR11:77190102:A	M49CtrlR2	0	0	1	1	2	1
CHR11:77190102:A	M49CtrlR4	0	0	1	1	2	1
CHR8:40674861:C	M49CtrlR1	0	0	1	1	2	1
CHR8:40674861:C	M49CtrlR2	0	0	1	1	2	1
CHR8:40674861:C	M49CtrlR3	0	0	1	1	2	1
CHR19:20545051:T	M49CtrlR2	0	0	1	1	2	1
CHR19:20545051:T	M49CtrlR3	0	0	1	1	2	1
CHR19:20545051:T	M49CtrlR4	0	0	1	1	2	1
CHR1:27360975:T	M49CtrlR1	0	0	1	1	2	1
CHR1:27360975:T	M49CtrlR2	0	0	1	1	2	1
CHR1:27360975:T	M49CtrlR4	0	0	1	1	2	1
CHR1:53078767:A	M49CtrlR1	0	0	1	1	2	1
CHR1:53078767:A	M49CtrlR2	0	0	1	1	2	1
CHR1:53078767:A	M49CtrlR4	0	0	1	1	2	1
CHR19:51627961:A	M49CtrlR1	0	0	1	1	2	1
CHR19:51627961:A	M49CtrlR3	0	0	1	1	2	1
CHR19:51627961:A	M49CtrlR4	0	0	1	1	2	1
