mutation_id	sample_id	ref_counts	alt_counts	major_cn	minor_cn	normal_cn	tumour_content
CHR1:942934:C	M55CtrlR1	23	15	1	1	2	1
CHR1:1495915:C	M55CtrlR1	46	3	1	1	2	1
CHR1:3478610:A	M55CtrlR1	3	5	1	1	2	1
CHR1:3763211:T	M55CtrlR1	15	2	1	1	2	1
CHR1:7827188:A	M55CtrlR1	11	17	1	1	2	1
CHR1:11706367:T	M55CtrlR1	2	4	1	1	2	1
CHR1:11779915:A	M55CtrlR1	7	7	1	1	2	1
CHR1:13343011:A	M55CtrlR1	22	16	1	1	2	1
CHR1:13421192:T	M55CtrlR1	23	15	1	1	2	1
CHR1:13782619:G	M55CtrlR1	13	13	1	1	2	1
CHR1:15104181:A	M55CtrlR1	15	3	1	1	2	1
CHR1:15939409:A	M55CtrlR1	9	15	1	1	2	1
CHR1:16409637:C	M55CtrlR1	14	4	1	1	2	1
CHR1:17070097:A	M55CtrlR1	11	3	1	1	2	1
CHR1:17079314:A	M55CtrlR1	11	10	1	1	2	1
CHR1:18877503:G	M55CtrlR1	11	8	1	1	2	1
CHR1:19282760:C	M55CtrlR1	20	16	1	1	2	1
CHR1:19623568:C	M55CtrlR1	10	12	1	1	2	1
CHR1:20084839:T	M55CtrlR1	4	5	1	1	2	1
CHR1:21483257:C	M55CtrlR1	20	4	1	1	2	1
CHR1:22526222:C	M55CtrlR1	20	14	1	1	2	1
CHR1:25243590:C	M55CtrlR1	16	4	1	1	2	1
CHR1:26344118:T	M55CtrlR1	22	15	1	1	2	1
CHR1:26952030:A	M55CtrlR1	18	7	1	1	2	1
CHR1:27360975:T	M55CtrlR1	6	4	1	1	2	1
CHR1:31630664:G	M55CtrlR1	7	9	1	1	2	1
CHR1:31698605:G	M55CtrlR1	18	6	1	1	2	1
CHR1:32770050:G	M55CtrlR1	19	8	1	1	2	1
CHR1:33494462:G	M55CtrlR1	17	13	1	1	2	1
CHR1:51840355:A	M55CtrlR1	5	13	1	1	2	1
CHR1:53247055:T	M55CtrlR1	14	10	1	1	2	1
CHR1:53250744:A	M55CtrlR1	18	8	1	1	2	1
CHR1:53594343:C	M55CtrlR1	15	6	1	1	2	1
CHR1:63323280:A	M55CtrlR1	8	9	1	1	2	1
CHR1:63415881:T	M55CtrlR1	12	7	1	1	2	1
CHR1:64844806:C	M55CtrlR1	22	12	1	1	2	1
CHR1:111242317:G	M55CtrlR1	13	6	1	1	2	1
CHR1:153938962:T	M55CtrlR1	17	3	1	1	2	1
CHR1:155054385:T	M55CtrlR1	18	6	1	1	2	1
CHR1:157586429:T	M55CtrlR1	40	7	1	1	2	1
CHR1:202160698:C	M55CtrlR1	15	3	1	1	2	1
CHR1:215567710:G	M55CtrlR1	24	7	1	1	2	1
CHR1:230921501:T	M55CtrlR1	13	4	1	1	2	1
CHR1:247423969:T	M55CtrlR1	34	5	1	1	2	1
CHR1:248273507:A	M55CtrlR1	17	4	1	1	2	1
CHR1:248273509:C	M55CtrlR1	17	4	1	1	2	1
CHR2:107859472:T	M55CtrlR1	56	18	1	1	2	1
CHR2:151667906:A	M55CtrlR1	22	2	1	1	2	1
CHR2:170847706:T	M55CtrlR1	24	4	1	1	2	1
CHR2:186838999:G	M55CtrlR1	26	5	1	1	2	1
CHR2:219451248:A	M55CtrlR1	17	4	1	1	2	1
CHR2:232381776:G	M55CtrlR1	18	3	1	1	2	1
CHR3:9950005:A	M55CtrlR1	62	7	1	1	2	1
CHR3:41800280:T	M55CtrlR1	3	4	1	1	2	1
CHR3:48447042:C	M55CtrlR1	30	7	1	1	2	1
CHR3:123092379:A	M55CtrlR1	9	6	2	0	2	1
CHR3:171082335:T	M55CtrlR1	7	4	2	0	2	1
CHR5:51389819:T	M55CtrlR1	25	4	1	1	2	1
CHR5:150540177:C	M55CtrlR1	11	4	1	1	2	1
CHR6:2749147:T	M55CtrlR1	18	6	1	0	2	1
CHR6:7393219:T	M55CtrlR1	16	2	1	0	2	1
CHR6:7577027:T	M55CtrlR1	21	3	1	0	2	1
CHR6:7581403:A	M55CtrlR1	24	3	1	0	2	1
CHR6:7601487:T	M55CtrlR1	16	3	1	0	2	1
CHR6:9775825:A	M55CtrlR1	8	2	1	0	2	1
CHR6:10687513:T	M55CtrlR1	32	6	1	0	2	1
CHR6:11193627:A	M55CtrlR1	41	9	1	0	2	1
CHR6:12120212:G	M55CtrlR1	21	9	1	0	2	1
CHR6:16326648:A	M55CtrlR1	30	3	1	1	2	1
CHR8:142785653:A	M55CtrlR1	66	4	2	0	2	1
CHR8:144040433:T	M55CtrlR1	37	6	2	0	2	1
CHR9:26928213:T	M55CtrlR1	21	14	1	1	2	1
CHR9:93952939:A	M55CtrlR1	57	5	1	1	2	1
CHR9:95881156:A	M55CtrlR1	30	3	1	1	2	1
CHR9:125337434:T	M55CtrlR1	39	4	1	1	2	1
CHR9:129068201:C	M55CtrlR1	66	4	1	1	2	1
CHR10:128101279:T	M55CtrlR1	11	13	1	1	2	1
CHR10:133084811:T	M55CtrlR1	9	2	1	1	2	1
CHR11:6270799:T	M55CtrlR1	59	4	1	1	2	1
CHR11:73975073:A	M55CtrlR1	26	4	1	1	2	1
CHR11:120128675:T	M55CtrlR1	28	6	1	1	2	1
CHR12:7929771:C	M55CtrlR1	18	3	1	1	2	1
CHR12:112477653:T	M55CtrlR1	12	2	2	1	2	1
CHR12:129700067:A	M55CtrlR1	29	5	1	1	2	1
CHR13:110715518:T	M55CtrlR1	10	3	1	1	2	1
CHR14:20144218:A	M55CtrlR1	58	4	1	1	2	1
CHR14:20144219:A	M55CtrlR1	58	4	1	1	2	1
CHR14:31178233:C	M55CtrlR1	7	14	1	1	2	1
CHR14:70060875:T	M55CtrlR1	9	4	1	1	2	1
CHR15:41572531:T	M55CtrlR1	39	7	1	1	2	1
CHR16:1257049:T	M55CtrlR1	40	4	1	1	2	1
CHR16:19715001:G	M55CtrlR1	16	3	2	0	2	1
CHR17:10409139:T	M55CtrlR1	16	2	1	1	2	1
CHR17:10539354:G	M55CtrlR1	27	6	1	1	2	1
CHR17:61884998:G	M55CtrlR1	45	5	2	0	2	1
CHR17:80010681:A	M55CtrlR1	20	3	2	0	2	1
CHR17:81937211:G	M55CtrlR1	9	5	2	0	2	1
CHR19:1036180:T	M55CtrlR1	15	3	1	1	2	1
CHR19:1049270:A	M55CtrlR1	5	6	1	1	2	1
CHR19:13209361:T	M55CtrlR1	19	6	1	1	2	1
CHR19:14765687:T	M55CtrlR1	193	5	1	1	2	1
CHR19:37888408:A	M55CtrlR1	67	5	1	1	2	1
CHR19:52881597:A	M55CtrlR1	45	9	1	1	2	1
CHR19:53873532:T	M55CtrlR1	74	3	1	1	2	1
CHR20:21328621:A	M55CtrlR1	26	3	1	1	2	1
CHR20:35490750:T	M55CtrlR1	33	3	2	0	2	1
CHR20:44750813:C	M55CtrlR1	37	7	2	0	2	1
CHR1:942934:C	M55CtrlR2	16	10	1	1	2	1
CHR1:3478610:A	M55CtrlR2	8	3	1	1	2	1
CHR1:3763211:T	M55CtrlR2	11	10	1	1	2	1
CHR1:7827188:A	M55CtrlR2	12	5	1	1	2	1
CHR1:11706367:T	M55CtrlR2	11	11	1	1	2	1
CHR1:11779915:A	M55CtrlR2	5	4	1	1	2	1
CHR1:13343011:A	M55CtrlR2	22	18	1	1	2	1
CHR1:13421192:T	M55CtrlR2	24	20	1	1	2	1
CHR1:13782619:G	M55CtrlR2	13	9	1	1	2	1
CHR1:15939409:A	M55CtrlR2	11	11	1	1	2	1
CHR1:16409637:C	M55CtrlR2	9	7	1	1	2	1
CHR1:16759300:T	M55CtrlR2	53	13	1	1	2	1
CHR1:17079314:A	M55CtrlR2	12	12	1	1	2	1
CHR1:18877503:G	M55CtrlR2	7	3	1	1	2	1
CHR1:19282760:C	M55CtrlR2	24	17	1	1	2	1
CHR1:20084839:T	M55CtrlR2	9	10	1	1	2	1
CHR1:21874505:T	M55CtrlR2	4	6	1	1	2	1
CHR1:22526222:C	M55CtrlR2	22	11	1	1	2	1
CHR1:26344118:T	M55CtrlR2	28	20	1	1	2	1
CHR1:26952030:A	M55CtrlR2	12	8	1	1	2	1
CHR1:27360975:T	M55CtrlR2	12	6	1	1	2	1
CHR1:31630664:G	M55CtrlR2	8	13	1	1	2	1
CHR1:31698605:G	M55CtrlR2	13	4	1	1	2	1
CHR1:32770050:G	M55CtrlR2	12	9	1	1	2	1
CHR1:33494462:G	M55CtrlR2	21	11	1	1	2	1
CHR1:51840355:A	M55CtrlR2	10	3	1	1	2	1
CHR1:53247055:T	M55CtrlR2	9	9	1	1	2	1
CHR1:53250744:A	M55CtrlR2	13	11	1	1	2	1
CHR1:53594343:C	M55CtrlR2	14	9	1	1	2	1
CHR1:53594575:C	M55CtrlR2	23	23	1	1	2	1
CHR1:63323280:A	M55CtrlR2	7	7	1	1	2	1
CHR1:63415881:T	M55CtrlR2	11	3	1	1	2	1
CHR1:64844806:C	M55CtrlR2	21	8	1	1	2	1
CHR1:66893260:C	M55CtrlR2	13	4	1	1	2	1
CHR1:111242317:G	M55CtrlR2	16	8	1	1	2	1
CHR1:113981341:T	M55CtrlR2	47	4	1	1	2	1
CHR1:119922269:T	M55CtrlR2	9	2	1	1	2	1
CHR1:155054385:T	M55CtrlR2	15	11	1	1	2	1
CHR1:157586429:T	M55CtrlR2	50	6	1	1	2	1
CHR1:202160698:C	M55CtrlR2	15	4	1	1	2	1
CHR1:215567710:G	M55CtrlR2	12	10	1	1	2	1
CHR1:230921501:T	M55CtrlR2	9	5	1	1	2	1
CHR1:247423969:T	M55CtrlR2	44	13	1	1	2	1
CHR2:73291715:T	M55CtrlR2	7	6	1	1	2	1
CHR2:219451248:A	M55CtrlR2	8	7	1	1	2	1
CHR3:9950005:A	M55CtrlR2	51	4	1	1	2	1
CHR3:41800280:T	M55CtrlR2	21	4	1	1	2	1
CHR3:50320148:G	M55CtrlR2	58	7	1	1	2	1
CHR3:55073793:A	M55CtrlR2	31	4	1	1	2	1
CHR3:123092379:A	M55CtrlR2	4	5	2	0	2	1
CHR3:171082335:T	M55CtrlR2	7	7	2	0	2	1
CHR4:70644514:G	M55CtrlR2	37	4	1	1	2	1
CHR4:125317234:A	M55CtrlR2	74	5	1	1	2	1
CHR4:147673062:T	M55CtrlR2	19	2	1	1	2	1
CHR4:157333318:G	M55CtrlR2	25	5	1	1	2	1
CHR5:150540177:C	M55CtrlR2	8	4	1	1	2	1
CHR6:2749147:T	M55CtrlR2	10	4	1	0	2	1
CHR6:3264292:T	M55CtrlR2	16	2	1	0	2	1
CHR6:3264293:C	M55CtrlR2	16	2	1	0	2	1
CHR6:7581403:A	M55CtrlR2	22	9	1	0	2	1
CHR6:7601487:T	M55CtrlR2	14	4	1	0	2	1
CHR6:9775825:A	M55CtrlR2	7	3	1	0	2	1
CHR6:11193627:A	M55CtrlR2	34	9	1	0	2	1
CHR6:12120212:G	M55CtrlR2	29	5	1	0	2	1
CHR6:13711047:G	M55CtrlR2	7	2	1	0	2	1
CHR6:154832130:T	M55CtrlR2	24	5	1	1	2	1
CHR7:39085988:C	M55CtrlR2	14	5	1	1	2	1
CHR7:39085990:C	M55CtrlR2	13	5	1	1	2	1
CHR7:44539245:T	M55CtrlR2	40	6	1	1	2	1
CHR7:55747834:A	M55CtrlR2	13	4	1	1	2	1
CHR7:151066568:A	M55CtrlR2	7	7	1	1	2	1
CHR9:26928213:T	M55CtrlR2	32	6	1	0	2	1
CHR9:95881156:A	M55CtrlR2	35	3	1	1	2	1
CHR9:125326478:G	M55CtrlR2	65	4	1	1	2	1
CHR10:73751113:G	M55CtrlR2	63	5	1	1	2	1
CHR10:92240093:G	M55CtrlR2	9	4	1	1	2	1
CHR10:128101279:T	M55CtrlR2	11	17	1	1	2	1
CHR11:77685130:T	M55CtrlR2	35	4	1	1	2	1
CHR11:120128675:T	M55CtrlR2	21	16	1	1	2	1
CHR11:123806117:C	M55CtrlR2	40	4	1	1	2	1
CHR12:40481156:A	M55CtrlR2	121	10	2	0	2	1
CHR12:40481157:G	M55CtrlR2	121	10	2	0	2	1
CHR12:57629873:G	M55CtrlR2	16	2	2	0	2	1
CHR12:108518570:T	M55CtrlR2	68	4	2	1	2	1
CHR13:95234663:A	M55CtrlR2	41	5	1	1	2	1
CHR14:31178233:C	M55CtrlR2	9	7	1	1	2	1
CHR14:74260736:T	M55CtrlR2	17	3	2	0	2	1
CHR15:23566598:A	M55CtrlR2	27	6	1	1	2	1
CHR15:33826673:A	M55CtrlR2	23	4	1	1	2	1
CHR15:45095849:C	M55CtrlR2	46	3	1	1	2	1
CHR16:1241453:A	M55CtrlR2	1	5	1	1	2	1
CHR16:87904819:T	M55CtrlR2	51	5	1	1	2	1
CHR17:10539354:G	M55CtrlR2	30	4	1	1	2	1
CHR17:80010681:A	M55CtrlR2	32	3	1	1	2	1
CHR17:80213874:A	M55CtrlR2	31	5	1	1	2	1
CHR17:81937211:G	M55CtrlR2	7	2	1	1	2	1
CHR19:1049270:A	M55CtrlR2	7	11	1	1	2	1
CHR19:45591702:A	M55CtrlR2	52	6	1	1	2	1
CHR19:52705931:T	M55CtrlR2	53	5	1	1	2	1
CHR19:52881597:A	M55CtrlR2	27	14	1	1	2	1
CHR20:35490750:T	M55CtrlR2	23	4	2	0	2	1
CHR20:46729354:A	M55CtrlR2	12	4	2	0	2	1
CHR1:942934:C	M55CtrlR3	15	13	1	1	2	1
CHR1:3478610:A	M55CtrlR3	5	6	1	1	2	1
CHR1:3763211:T	M55CtrlR3	14	9	1	1	2	1
CHR1:7827188:A	M55CtrlR3	15	6	1	1	2	1
CHR1:8957259:A	M55CtrlR3	40	7	1	1	2	1
CHR1:11706367:T	M55CtrlR3	4	4	1	1	2	1
CHR1:11779915:A	M55CtrlR3	11	6	1	1	2	1
CHR1:13343011:A	M55CtrlR3	13	7	1	1	2	1
CHR1:13421192:T	M55CtrlR3	28	23	1	1	2	1
CHR1:13782619:G	M55CtrlR3	14	8	1	1	2	1
CHR1:15939409:A	M55CtrlR3	13	12	1	1	2	1
CHR1:16409637:C	M55CtrlR3	10	18	1	1	2	1
CHR1:16759300:T	M55CtrlR3	40	13	1	1	2	1
CHR1:17079314:A	M55CtrlR3	18	10	1	1	2	1
CHR1:18877503:G	M55CtrlR3	10	3	1	1	2	1
CHR1:19282760:C	M55CtrlR3	23	30	1	1	2	1
CHR1:19623568:C	M55CtrlR3	8	5	1	1	2	1
CHR1:20084839:T	M55CtrlR3	9	12	1	1	2	1
CHR1:21483257:C	M55CtrlR3	37	5	1	1	2	1
CHR1:21874505:T	M55CtrlR3	12	6	1	1	2	1
CHR1:22526222:C	M55CtrlR3	15	18	1	1	2	1
CHR1:25243590:C	M55CtrlR3	7	10	1	1	2	1
CHR1:26344118:T	M55CtrlR3	30	17	1	1	2	1
CHR1:26952030:A	M55CtrlR3	9	9	1	1	2	1
CHR1:27360975:T	M55CtrlR3	3	4	1	1	2	1
CHR1:31630664:G	M55CtrlR3	3	7	1	1	2	1
CHR1:32770050:G	M55CtrlR3	16	17	1	1	2	1
CHR1:33494462:G	M55CtrlR3	15	11	1	1	2	1
CHR1:51840355:A	M55CtrlR3	9	10	1	1	2	1
CHR1:53247055:T	M55CtrlR3	10	9	1	1	2	1
CHR1:53250744:A	M55CtrlR3	16	16	1	1	2	1
CHR1:53594343:C	M55CtrlR3	21	12	1	1	2	1
CHR1:63323280:A	M55CtrlR3	10	6	1	1	2	1
CHR1:63415881:T	M55CtrlR3	9	5	1	1	2	1
CHR1:64844806:C	M55CtrlR3	11	11	1	1	2	1
CHR1:111242317:G	M55CtrlR3	20	5	1	1	2	1
CHR1:152219804:C	M55CtrlR3	74	3	1	1	2	1
CHR1:155054385:T	M55CtrlR3	25	12	1	1	2	1
CHR1:157586429:T	M55CtrlR3	47	11	1	1	2	1
CHR1:160155085:A	M55CtrlR3	6	5	1	1	2	1
CHR1:161526114:T	M55CtrlR3	95	6	1	1	2	1
CHR1:202160698:C	M55CtrlR3	15	12	1	1	2	1
CHR1:215567710:G	M55CtrlR3	16	6	1	1	2	1
CHR1:230921501:T	M55CtrlR3	11	4	1	1	2	1
CHR1:246850629:T	M55CtrlR3	51	4	1	1	2	1
CHR1:247423969:T	M55CtrlR3	50	13	1	1	2	1
CHR1:248273507:A	M55CtrlR3	20	3	1	1	2	1
CHR1:248273509:C	M55CtrlR3	20	3	1	1	2	1
CHR2:73291715:T	M55CtrlR3	10	6	1	1	2	1
CHR2:219451248:A	M55CtrlR3	10	9	1	1	2	1
CHR3:9950005:A	M55CtrlR3	53	5	1	1	2	1
CHR3:48447042:C	M55CtrlR3	21	16	1	1	2	1
CHR3:50320148:G	M55CtrlR3	44	5	1	1	2	1
CHR3:55073793:A	M55CtrlR3	18	4	1	1	2	1
CHR3:120415924:C	M55CtrlR3	11	4	2	0	2	1
CHR3:123092379:A	M55CtrlR3	8	7	2	0	2	1
CHR3:171082335:T	M55CtrlR3	5	2	2	0	2	1
CHR3:173807772:G	M55CtrlR3	12	3	2	0	2	1
CHR3:184577409:A	M55CtrlR3	31	4	2	0	2	1
CHR4:105942405:T	M55CtrlR3	25	5	1	1	2	1
CHR5:35807207:A	M55CtrlR3	21	8	1	1	2	1
CHR5:141491438:A	M55CtrlR3	72	4	1	1	2	1
CHR5:150540177:C	M55CtrlR3	10	11	1	1	2	1
CHR6:7393219:T	M55CtrlR3	33	8	1	1	2	1
CHR6:7577027:T	M55CtrlR3	18	13	1	1	2	1
CHR6:7581403:A	M55CtrlR3	36	8	1	1	2	1
CHR6:10687513:T	M55CtrlR3	32	9	1	1	2	1
CHR6:11193627:A	M55CtrlR3	39	16	1	1	2	1
CHR6:12120212:G	M55CtrlR3	21	5	1	1	2	1
CHR6:57174231:A	M55CtrlR3	20	3	1	1	2	1
CHR7:151066568:A	M55CtrlR3	11	4	1	1	2	1
CHR8:144040433:T	M55CtrlR3	36	7	2	0	2	1
CHR9:26928213:T	M55CtrlR3	14	10	1	1	2	1
CHR9:95086149:A	M55CtrlR3	19	3	1	1	2	1
CHR9:125326478:G	M55CtrlR3	48	5	1	1	2	1
CHR10:37153617:T	M55CtrlR3	28	6	1	0	2	1
CHR10:102381157:T	M55CtrlR3	19	2	1	1	2	1
CHR10:128101279:T	M55CtrlR3	21	8	1	1	2	1
CHR11:6270799:T	M55CtrlR3	45	5	1	1	2	1
CHR11:18729503:A	M55CtrlR3	8	3	1	1	2	1
CHR11:56490737:A	M55CtrlR3	16	3	1	1	2	1
CHR11:72136010:A	M55CtrlR3	45	6	1	1	2	1
CHR11:103245294:A	M55CtrlR3	33	5	1	1	2	1
CHR11:120128675:T	M55CtrlR3	40	13	1	1	2	1
CHR12:40481156:A	M55CtrlR3	132	10	2	0	2	1
CHR12:40481157:G	M55CtrlR3	130	10	2	0	2	1
CHR12:56267413:A	M55CtrlR3	57	5	2	0	2	1
CHR12:57478728:T	M55CtrlR3	26	3	2	0	2	1
CHR12:74538384:T	M55CtrlR3	17	1	2	0	2	1
CHR12:85046079:A	M55CtrlR3	48	8	2	1	2	1
CHR12:108518570:T	M55CtrlR3	102	3	2	1	2	1
CHR13:33016802:A	M55CtrlR3	13	5	1	1	2	1
CHR14:31178233:C	M55CtrlR3	17	4	1	1	2	1
CHR15:41572531:T	M55CtrlR3	49	4	1	1	2	1
CHR17:18971139:A	M55CtrlR3	72	4	1	1	2	1
CHR17:48852548:T	M55CtrlR3	62	5	1	1	2	1
CHR17:63931346:T	M55CtrlR3	87	7	1	1	2	1
CHR17:81937211:G	M55CtrlR3	6	3	1	1	2	1
CHR19:1049270:A	M55CtrlR3	8	5	1	1	2	1
CHR19:20545051:T	M55CtrlR3	44	6	1	0	2	1
CHR19:52881597:A	M55CtrlR3	35	19	1	1	2	1
CHR20:44750813:C	M55CtrlR3	36	4	2	0	2	1
CHR20:46726177:C	M55CtrlR3	70	4	2	0	2	1
CHR21:44591443:C	M55CtrlR3	29	7	1	1	2	1
CHR22:37018347:A	M55CtrlR3	11	3	1	1	2	1
CHR1:942934:C	M55CtrlR4	21	3	1	1	2	1
CHR1:1046687:A	M55CtrlR4	48	6	1	1	2	1
CHR1:3478610:A	M55CtrlR4	4	5	1	1	2	1
CHR1:3763211:T	M55CtrlR4	16	7	1	1	2	1
CHR1:11706367:T	M55CtrlR4	6	8	1	1	2	1
CHR1:11779915:A	M55CtrlR4	2	2	1	1	2	1
CHR1:13343011:A	M55CtrlR4	10	12	1	1	2	1
CHR1:13421192:T	M55CtrlR4	31	13	1	1	2	1
CHR1:13782619:G	M55CtrlR4	12	4	1	1	2	1
CHR1:15939409:A	M55CtrlR4	12	14	1	1	2	1
CHR1:16409637:C	M55CtrlR4	10	7	1	1	2	1
CHR1:16759300:T	M55CtrlR4	62	11	1	1	2	1
CHR1:17070097:A	M55CtrlR4	5	5	1	1	2	1
CHR1:17079314:A	M55CtrlR4	19	5	1	1	2	1
CHR1:17084646:G	M55CtrlR4	22	12	1	1	2	1
CHR1:18854521:C	M55CtrlR4	36	13	1	1	2	1
CHR1:18854588:C	M55CtrlR4	31	11	1	1	2	1
CHR1:18877503:G	M55CtrlR4	10	3	1	1	2	1
CHR1:19282760:C	M55CtrlR4	28	18	1	1	2	1
CHR1:19623568:C	M55CtrlR4	8	3	1	1	2	1
CHR1:20084839:T	M55CtrlR4	9	6	1	1	2	1
CHR1:21483257:C	M55CtrlR4	31	4	1	1	2	1
CHR1:22526222:C	M55CtrlR4	18	8	1	1	2	1
CHR1:25243590:C	M55CtrlR4	13	9	1	1	2	1
CHR1:26344118:T	M55CtrlR4	28	15	1	1	2	1
CHR1:27360975:T	M55CtrlR4	6	7	1	1	2	1
CHR1:31630664:G	M55CtrlR4	14	9	1	1	2	1
CHR1:31698605:G	M55CtrlR4	10	6	1	1	2	1
CHR1:32770050:G	M55CtrlR4	13	10	1	1	2	1
CHR1:33494462:G	M55CtrlR4	11	7	1	1	2	1
CHR1:51840355:A	M55CtrlR4	15	6	1	1	2	1
CHR1:53247055:T	M55CtrlR4	10	7	1	1	2	1
CHR1:53250744:A	M55CtrlR4	14	15	1	1	2	1
CHR1:53594343:C	M55CtrlR4	11	8	1	1	2	1
CHR1:53594575:C	M55CtrlR4	29	18	1	1	2	1
CHR1:63323280:A	M55CtrlR4	14	5	1	1	2	1
CHR1:64844806:C	M55CtrlR4	22	6	1	1	2	1
CHR1:70039224:A	M55CtrlR4	38	6	1	1	2	1
CHR1:111242317:G	M55CtrlR4	18	4	1	1	2	1
CHR1:113981341:T	M55CtrlR4	52	7	1	1	2	1
CHR1:155054385:T	M55CtrlR4	12	11	1	1	2	1
CHR1:215567710:G	M55CtrlR4	9	15	1	1	2	1
CHR1:230921501:T	M55CtrlR4	15	6	1	1	2	1
CHR2:73291715:T	M55CtrlR4	12	4	1	1	2	1
CHR2:130075025:T	M55CtrlR4	26	3	1	1	2	1
CHR2:219451248:A	M55CtrlR4	8	7	1	1	2	1
CHR3:9950005:A	M55CtrlR4	58	9	1	1	2	1
CHR3:41800280:T	M55CtrlR4	22	7	1	1	2	1
CHR3:48447042:C	M55CtrlR4	27	8	1	1	2	1
CHR3:50320148:G	M55CtrlR4	60	5	1	1	2	1
CHR5:150540177:C	M55CtrlR4	12	4	1	1	2	1
CHR6:2749147:T	M55CtrlR4	14	4	1	0	2	1
CHR6:7581403:A	M55CtrlR4	35	8	1	0	2	1
CHR6:9775825:A	M55CtrlR4	11	5	1	0	2	1
CHR6:10687513:T	M55CtrlR4	33	7	1	0	2	1
CHR6:11193627:A	M55CtrlR4	44	10	1	0	2	1
CHR6:12120212:G	M55CtrlR4	28	9	1	0	2	1
CHR9:26928213:T	M55CtrlR4	14	10	1	0	2	1
CHR9:93952939:A	M55CtrlR4	54	5	1	1	2	1
CHR9:95881156:A	M55CtrlR4	49	10	1	1	2	1
CHR10:128101279:T	M55CtrlR4	19	8	1	1	2	1
CHR12:40481156:A	M55CtrlR4	132	8	1	1	2	1
CHR12:40481157:G	M55CtrlR4	132	8	1	1	2	1
CHR12:55027042:G	M55CtrlR4	40	5	1	1	2	1
CHR12:108518570:T	M55CtrlR4	84	6	2	1	2	1
CHR14:31178233:C	M55CtrlR4	4	6	1	1	2	1
CHR14:52042283:A	M55CtrlR4	72	3	1	1	2	1
CHR16:28342968:A	M55CtrlR4	3	2	1	1	2	1
CHR16:87904819:T	M55CtrlR4	66	3	2	0	2	1
CHR17:10539354:G	M55CtrlR4	21	4	1	1	2	1
CHR17:31295269:C	M55CtrlR4	45	6	2	0	2	1
CHR19:1049270:A	M55CtrlR4	3	10	1	1	2	1
CHR19:20545051:T	M55CtrlR4	64	5	1	0	2	1
CHR19:44908594:T	M55CtrlR4	99	6	1	1	2	1
CHR19:45591702:A	M55CtrlR4	59	5	1	1	2	1
CHR19:52705931:T	M55CtrlR4	53	3	1	1	2	1
CHR19:52881597:A	M55CtrlR4	27	13	1	1	2	1
CHR20:35503815:A	M55CtrlR4	66	5	2	0	2	1
CHR20:46726177:C	M55CtrlR4	88	6	2	0	2	1
CHR6:2749147:T	M55CtrlR3	0	0	1	1	2	1
CHR1:19623568:C	M55CtrlR2	0	0	1	1	2	1
CHR1:21483257:C	M55CtrlR2	0	0	1	1	2	1
CHR1:202160698:C	M55CtrlR4	0	0	1	1	2	1
CHR3:50320148:G	M55CtrlR1	0	0	1	1	2	1
CHR1:157586429:T	M55CtrlR4	0	0	1	1	2	1
CHR1:63415881:T	M55CtrlR4	0	0	1	1	2	1
CHR1:247423969:T	M55CtrlR4	0	0	1	1	2	1
CHR11:120128675:T	M55CtrlR4	0	0	1	1	2	1
CHR3:171082335:T	M55CtrlR4	0	0	1	1	2	1
CHR17:10539354:G	M55CtrlR3	0	0	1	1	2	1
CHR12:108518570:T	M55CtrlR1	0	0	1	1	2	1
CHR6:10687513:T	M55CtrlR2	0	0	1	1	2	1
CHR3:48447042:C	M55CtrlR2	0	0	1	1	2	1
CHR2:73291715:T	M55CtrlR1	0	0	1	1	2	1
CHR1:31698605:G	M55CtrlR3	0	0	1	1	2	1
CHR6:9775825:A	M55CtrlR3	0	0	1	1	2	1
CHR17:81937211:G	M55CtrlR4	0	0	1	1	2	1
CHR9:95881156:A	M55CtrlR3	0	0	1	1	2	1
CHR1:26952030:A	M55CtrlR4	0	0	1	1	2	1
CHR1:16759300:T	M55CtrlR1	0	0	1	1	2	1
CHR3:41800280:T	M55CtrlR3	0	0	1	1	2	1
CHR1:25243590:C	M55CtrlR2	0	0	1	1	2	1
CHR1:7827188:A	M55CtrlR4	0	0	1	1	2	1
CHR12:40481156:A	M55CtrlR1	0	0	1	1	2	1
CHR12:40481157:G	M55CtrlR1	0	0	1	1	2	1
CHR3:123092379:A	M55CtrlR4	0	0	1	1	2	1
CHR6:7577027:T	M55CtrlR2	0	0	1	1	2	1
CHR6:7577027:T	M55CtrlR4	0	0	1	1	2	1
CHR9:125326478:G	M55CtrlR1	0	0	1	1	2	1
CHR9:125326478:G	M55CtrlR4	0	0	1	1	2	1
CHR1:53594575:C	M55CtrlR1	0	0	1	1	2	1
CHR1:53594575:C	M55CtrlR3	0	0	1	1	2	1
CHR20:44750813:C	M55CtrlR2	0	0	1	1	2	1
CHR20:44750813:C	M55CtrlR4	0	0	1	1	2	1
CHR19:45591702:A	M55CtrlR1	0	0	1	1	2	1
CHR19:45591702:A	M55CtrlR3	0	0	1	1	2	1
CHR8:144040433:T	M55CtrlR2	0	0	1	1	2	1
CHR8:144040433:T	M55CtrlR4	0	0	1	1	2	1
CHR1:17070097:A	M55CtrlR2	0	0	1	1	2	1
CHR1:17070097:A	M55CtrlR3	0	0	1	1	2	1
CHR15:41572531:T	M55CtrlR2	0	0	1	1	2	1
CHR15:41572531:T	M55CtrlR4	0	0	1	1	2	1
CHR20:35490750:T	M55CtrlR3	0	0	1	1	2	1
CHR20:35490750:T	M55CtrlR4	0	0	1	1	2	1
CHR9:93952939:A	M55CtrlR2	0	0	1	1	2	1
CHR9:93952939:A	M55CtrlR3	0	0	1	1	2	1
CHR19:52705931:T	M55CtrlR1	0	0	1	1	2	1
CHR19:52705931:T	M55CtrlR3	0	0	1	1	2	1
CHR1:248273509:C	M55CtrlR2	0	0	1	1	2	1
CHR1:248273509:C	M55CtrlR4	0	0	1	1	2	1
CHR7:151066568:A	M55CtrlR1	0	0	1	1	2	1
CHR7:151066568:A	M55CtrlR4	0	0	1	1	2	1
CHR6:7601487:T	M55CtrlR3	0	0	1	1	2	1
CHR6:7601487:T	M55CtrlR4	0	0	1	1	2	1
CHR6:7393219:T	M55CtrlR2	0	0	1	1	2	1
CHR6:7393219:T	M55CtrlR4	0	0	1	1	2	1
CHR1:21874505:T	M55CtrlR1	0	0	1	1	2	1
CHR1:21874505:T	M55CtrlR4	0	0	1	1	2	1
CHR20:46726177:C	M55CtrlR1	0	0	1	1	2	1
CHR20:46726177:C	M55CtrlR2	0	0	1	1	2	1
CHR1:113981341:T	M55CtrlR1	0	0	1	1	2	1
CHR1:113981341:T	M55CtrlR3	0	0	1	1	2	1
CHR11:6270799:T	M55CtrlR2	0	0	1	1	2	1
CHR11:6270799:T	M55CtrlR4	0	0	1	1	2	1
CHR17:80010681:A	M55CtrlR3	0	0	1	1	2	1
CHR17:80010681:A	M55CtrlR4	0	0	1	1	2	1
CHR3:55073793:A	M55CtrlR1	0	0	1	1	2	1
CHR3:55073793:A	M55CtrlR4	0	0	1	1	2	1
CHR19:20545051:T	M55CtrlR1	0	0	1	1	2	1
CHR19:20545051:T	M55CtrlR2	0	0	1	1	2	1
CHR1:248273507:A	M55CtrlR2	0	0	1	1	2	1
CHR1:248273507:A	M55CtrlR4	0	0	1	1	2	1
CHR16:87904819:T	M55CtrlR1	0	0	1	1	2	1
CHR16:87904819:T	M55CtrlR3	0	0	1	1	2	1
CHR3:184577409:A	M55CtrlR1	0	0	1	1	2	1
CHR3:184577409:A	M55CtrlR2	0	0	1	1	2	1
CHR3:184577409:A	M55CtrlR4	0	0	1	1	2	1
CHR6:57174231:A	M55CtrlR1	0	0	1	1	2	1
CHR6:57174231:A	M55CtrlR2	0	0	1	1	2	1
CHR6:57174231:A	M55CtrlR4	0	0	1	1	2	1
CHR17:31295269:C	M55CtrlR1	0	0	1	1	2	1
CHR17:31295269:C	M55CtrlR2	0	0	1	1	2	1
CHR17:31295269:C	M55CtrlR3	0	0	1	1	2	1
CHR22:37018347:A	M55CtrlR1	0	0	1	1	2	1
CHR22:37018347:A	M55CtrlR2	0	0	1	1	2	1
CHR22:37018347:A	M55CtrlR4	0	0	1	1	2	1
CHR16:1257049:T	M55CtrlR2	0	0	1	1	2	1
CHR16:1257049:T	M55CtrlR3	0	0	1	1	2	1
CHR16:1257049:T	M55CtrlR4	0	0	1	1	2	1
CHR7:44539245:T	M55CtrlR1	0	0	1	1	2	1
CHR7:44539245:T	M55CtrlR3	0	0	1	1	2	1
CHR7:44539245:T	M55CtrlR4	0	0	1	1	2	1
CHR10:73751113:G	M55CtrlR1	0	0	1	1	2	1
CHR10:73751113:G	M55CtrlR3	0	0	1	1	2	1
CHR10:73751113:G	M55CtrlR4	0	0	1	1	2	1
CHR21:44591443:C	M55CtrlR1	0	0	1	1	2	1
CHR21:44591443:C	M55CtrlR2	0	0	1	1	2	1
CHR21:44591443:C	M55CtrlR4	0	0	1	1	2	1
CHR10:133084811:T	M55CtrlR2	0	0	1	1	2	1
CHR10:133084811:T	M55CtrlR3	0	0	1	1	2	1
CHR10:133084811:T	M55CtrlR4	0	0	1	1	2	1
CHR1:1495915:C	M55CtrlR2	0	0	1	1	2	1
CHR1:1495915:C	M55CtrlR3	0	0	1	1	2	1
CHR1:1495915:C	M55CtrlR4	0	0	1	1	2	1
CHR9:95086149:A	M55CtrlR1	0	0	1	1	2	1
CHR9:95086149:A	M55CtrlR2	0	0	1	1	2	1
CHR9:95086149:A	M55CtrlR4	0	0	1	1	2	1
CHR11:123806117:C	M55CtrlR1	0	0	1	1	2	1
CHR11:123806117:C	M55CtrlR3	0	0	1	1	2	1
CHR11:123806117:C	M55CtrlR4	0	0	1	1	2	1
CHR1:152219804:C	M55CtrlR1	0	0	1	1	2	1
CHR1:152219804:C	M55CtrlR2	0	0	1	1	2	1
CHR1:152219804:C	M55CtrlR4	0	0	1	1	2	1
CHR17:63931346:T	M55CtrlR1	0	0	1	1	2	1
CHR17:63931346:T	M55CtrlR2	0	0	1	1	2	1
CHR17:63931346:T	M55CtrlR4	0	0	1	1	2	1
CHR5:51389819:T	M55CtrlR2	0	0	1	1	2	1
CHR5:51389819:T	M55CtrlR3	0	0	1	1	2	1
CHR5:51389819:T	M55CtrlR4	0	0	1	1	2	1
CHR1:161526114:T	M55CtrlR1	0	0	1	1	2	1
CHR1:161526114:T	M55CtrlR2	0	0	1	1	2	1
CHR1:161526114:T	M55CtrlR4	0	0	1	1	2	1
CHR12:57478728:T	M55CtrlR1	0	0	1	1	2	1
CHR12:57478728:T	M55CtrlR2	0	0	1	1	2	1
CHR12:57478728:T	M55CtrlR4	0	0	1	1	2	1
CHR17:48852548:T	M55CtrlR1	0	0	1	1	2	1
CHR17:48852548:T	M55CtrlR2	0	0	1	1	2	1
CHR17:48852548:T	M55CtrlR4	0	0	1	1	2	1
CHR1:17084646:G	M55CtrlR1	0	0	1	1	2	1
CHR1:17084646:G	M55CtrlR2	0	0	1	1	2	1
CHR1:17084646:G	M55CtrlR3	0	0	1	1	2	1
CHR14:70060875:T	M55CtrlR2	0	0	1	1	2	1
CHR14:70060875:T	M55CtrlR3	0	0	1	1	2	1
CHR14:70060875:T	M55CtrlR4	0	0	1	1	2	1
CHR1:1046687:A	M55CtrlR1	0	0	1	1	2	1
CHR1:1046687:A	M55CtrlR2	0	0	1	1	2	1
CHR1:1046687:A	M55CtrlR3	0	0	1	1	2	1
CHR1:15104181:A	M55CtrlR2	0	0	1	1	2	1
CHR1:15104181:A	M55CtrlR3	0	0	1	1	2	1
CHR1:15104181:A	M55CtrlR4	0	0	1	1	2	1
CHR19:13209361:T	M55CtrlR2	0	0	1	1	2	1
CHR19:13209361:T	M55CtrlR3	0	0	1	1	2	1
CHR19:13209361:T	M55CtrlR4	0	0	1	1	2	1
CHR10:92240093:G	M55CtrlR1	0	0	1	1	2	1
CHR10:92240093:G	M55CtrlR3	0	0	1	1	2	1
CHR10:92240093:G	M55CtrlR4	0	0	1	1	2	1
CHR12:7929771:C	M55CtrlR2	0	0	1	1	2	1
CHR12:7929771:C	M55CtrlR3	0	0	1	1	2	1
CHR12:7929771:C	M55CtrlR4	0	0	1	1	2	1
CHR7:39085988:C	M55CtrlR1	0	0	1	1	2	1
CHR7:39085988:C	M55CtrlR3	0	0	1	1	2	1
CHR7:39085988:C	M55CtrlR4	0	0	1	1	2	1
CHR7:55747834:A	M55CtrlR1	0	0	1	1	2	1
CHR7:55747834:A	M55CtrlR3	0	0	1	1	2	1
CHR7:55747834:A	M55CtrlR4	0	0	1	1	2	1
CHR12:112477653:T	M55CtrlR2	0	0	1	1	2	1
CHR12:112477653:T	M55CtrlR3	0	0	1	1	2	1
CHR12:112477653:T	M55CtrlR4	0	0	1	1	2	1
CHR1:246850629:T	M55CtrlR1	0	0	1	1	2	1
CHR1:246850629:T	M55CtrlR2	0	0	1	1	2	1
CHR1:246850629:T	M55CtrlR4	0	0	1	1	2	1
CHR2:232381776:G	M55CtrlR2	0	0	1	1	2	1
CHR2:232381776:G	M55CtrlR3	0	0	1	1	2	1
CHR2:232381776:G	M55CtrlR4	0	0	1	1	2	1
CHR12:55027042:G	M55CtrlR1	0	0	1	1	2	1
CHR12:55027042:G	M55CtrlR2	0	0	1	1	2	1
CHR12:55027042:G	M55CtrlR3	0	0	1	1	2	1
CHR3:120415924:C	M55CtrlR1	0	0	1	1	2	1
CHR3:120415924:C	M55CtrlR2	0	0	1	1	2	1
CHR3:120415924:C	M55CtrlR4	0	0	1	1	2	1
CHR17:10409139:T	M55CtrlR2	0	0	1	1	2	1
CHR17:10409139:T	M55CtrlR3	0	0	1	1	2	1
CHR17:10409139:T	M55CtrlR4	0	0	1	1	2	1
CHR1:18854521:C	M55CtrlR1	0	0	1	1	2	1
CHR1:18854521:C	M55CtrlR2	0	0	1	1	2	1
CHR1:18854521:C	M55CtrlR3	0	0	1	1	2	1
CHR14:52042283:A	M55CtrlR1	0	0	1	1	2	1
CHR14:52042283:A	M55CtrlR2	0	0	1	1	2	1
CHR14:52042283:A	M55CtrlR3	0	0	1	1	2	1
CHR6:3264292:T	M55CtrlR1	0	0	1	1	2	1
CHR6:3264292:T	M55CtrlR3	0	0	1	1	2	1
CHR6:3264292:T	M55CtrlR4	0	0	1	1	2	1
CHR2:107859472:T	M55CtrlR2	0	0	1	1	2	1
CHR2:107859472:T	M55CtrlR3	0	0	1	1	2	1
CHR2:107859472:T	M55CtrlR4	0	0	1	1	2	1
CHR16:28342968:A	M55CtrlR1	0	0	1	1	2	1
CHR16:28342968:A	M55CtrlR2	0	0	1	1	2	1
CHR16:28342968:A	M55CtrlR3	0	0	1	1	2	1
CHR10:37153617:T	M55CtrlR1	0	0	1	1	2	1
CHR10:37153617:T	M55CtrlR2	0	0	1	1	2	1
CHR10:37153617:T	M55CtrlR4	0	0	1	1	2	1
CHR2:130075025:T	M55CtrlR1	0	0	1	1	2	1
CHR2:130075025:T	M55CtrlR2	0	0	1	1	2	1
CHR2:130075025:T	M55CtrlR3	0	0	1	1	2	1
CHR7:39085990:C	M55CtrlR1	0	0	1	1	2	1
CHR7:39085990:C	M55CtrlR3	0	0	1	1	2	1
CHR7:39085990:C	M55CtrlR4	0	0	1	1	2	1
CHR11:73975073:A	M55CtrlR2	0	0	1	1	2	1
CHR11:73975073:A	M55CtrlR3	0	0	1	1	2	1
CHR11:73975073:A	M55CtrlR4	0	0	1	1	2	1
CHR13:95234663:A	M55CtrlR1	0	0	1	1	2	1
CHR13:95234663:A	M55CtrlR3	0	0	1	1	2	1
CHR13:95234663:A	M55CtrlR4	0	0	1	1	2	1
CHR17:80213874:A	M55CtrlR1	0	0	1	1	2	1
CHR17:80213874:A	M55CtrlR3	0	0	1	1	2	1
CHR17:80213874:A	M55CtrlR4	0	0	1	1	2	1
CHR11:56490737:A	M55CtrlR1	0	0	1	1	2	1
CHR11:56490737:A	M55CtrlR2	0	0	1	1	2	1
CHR11:56490737:A	M55CtrlR4	0	0	1	1	2	1
CHR8:142785653:A	M55CtrlR2	0	0	1	1	2	1
CHR8:142785653:A	M55CtrlR3	0	0	1	1	2	1
CHR8:142785653:A	M55CtrlR4	0	0	1	1	2	1
CHR1:160155085:A	M55CtrlR1	0	0	1	1	2	1
CHR1:160155085:A	M55CtrlR2	0	0	1	1	2	1
CHR1:160155085:A	M55CtrlR4	0	0	1	1	2	1
CHR2:186838999:G	M55CtrlR2	0	0	1	1	2	1
CHR2:186838999:G	M55CtrlR3	0	0	1	1	2	1
CHR2:186838999:G	M55CtrlR4	0	0	1	1	2	1
CHR5:35807207:A	M55CtrlR1	0	0	1	1	2	1
CHR5:35807207:A	M55CtrlR2	0	0	1	1	2	1
CHR5:35807207:A	M55CtrlR4	0	0	1	1	2	1
CHR14:74260736:T	M55CtrlR1	0	0	1	1	2	1
CHR14:74260736:T	M55CtrlR3	0	0	1	1	2	1
CHR14:74260736:T	M55CtrlR4	0	0	1	1	2	1
CHR12:56267413:A	M55CtrlR1	0	0	1	1	2	1
CHR12:56267413:A	M55CtrlR2	0	0	1	1	2	1
CHR12:56267413:A	M55CtrlR4	0	0	1	1	2	1
CHR11:77685130:T	M55CtrlR1	0	0	1	1	2	1
CHR11:77685130:T	M55CtrlR3	0	0	1	1	2	1
CHR11:77685130:T	M55CtrlR4	0	0	1	1	2	1
CHR12:57629873:G	M55CtrlR1	0	0	1	1	2	1
CHR12:57629873:G	M55CtrlR3	0	0	1	1	2	1
CHR12:57629873:G	M55CtrlR4	0	0	1	1	2	1
CHR6:16326648:A	M55CtrlR2	0	0	1	1	2	1
CHR6:16326648:A	M55CtrlR3	0	0	1	1	2	1
CHR6:16326648:A	M55CtrlR4	0	0	1	1	2	1
CHR11:103245294:A	M55CtrlR1	0	0	1	1	2	1
CHR11:103245294:A	M55CtrlR2	0	0	1	1	2	1
CHR11:103245294:A	M55CtrlR4	0	0	1	1	2	1
CHR19:1036180:T	M55CtrlR2	0	0	1	1	2	1
CHR19:1036180:T	M55CtrlR3	0	0	1	1	2	1
CHR19:1036180:T	M55CtrlR4	0	0	1	1	2	1
CHR4:125317234:A	M55CtrlR1	0	0	1	1	2	1
CHR4:125317234:A	M55CtrlR3	0	0	1	1	2	1
CHR4:125317234:A	M55CtrlR4	0	0	1	1	2	1
CHR19:14765687:T	M55CtrlR2	0	0	1	1	2	1
CHR19:14765687:T	M55CtrlR3	0	0	1	1	2	1
CHR19:14765687:T	M55CtrlR4	0	0	1	1	2	1
CHR4:70644514:G	M55CtrlR1	0	0	1	1	2	1
CHR4:70644514:G	M55CtrlR3	0	0	1	1	2	1
CHR4:70644514:G	M55CtrlR4	0	0	1	1	2	1
CHR15:23566598:A	M55CtrlR1	0	0	1	1	2	1
CHR15:23566598:A	M55CtrlR3	0	0	1	1	2	1
CHR15:23566598:A	M55CtrlR4	0	0	1	1	2	1
CHR1:153938962:T	M55CtrlR2	0	0	1	1	2	1
CHR1:153938962:T	M55CtrlR3	0	0	1	1	2	1
CHR1:153938962:T	M55CtrlR4	0	0	1	1	2	1
CHR12:74538384:T	M55CtrlR1	0	0	1	1	2	1
CHR12:74538384:T	M55CtrlR2	0	0	1	1	2	1
CHR12:74538384:T	M55CtrlR4	0	0	1	1	2	1
CHR17:18971139:A	M55CtrlR1	0	0	1	1	2	1
CHR17:18971139:A	M55CtrlR2	0	0	1	1	2	1
CHR17:18971139:A	M55CtrlR4	0	0	1	1	2	1
CHR12:85046079:A	M55CtrlR1	0	0	1	1	2	1
CHR12:85046079:A	M55CtrlR2	0	0	1	1	2	1
CHR12:85046079:A	M55CtrlR4	0	0	1	1	2	1
CHR19:44908594:T	M55CtrlR1	0	0	1	1	2	1
CHR19:44908594:T	M55CtrlR2	0	0	1	1	2	1
CHR19:44908594:T	M55CtrlR3	0	0	1	1	2	1
CHR13:33016802:A	M55CtrlR1	0	0	1	1	2	1
CHR13:33016802:A	M55CtrlR2	0	0	1	1	2	1
CHR13:33016802:A	M55CtrlR4	0	0	1	1	2	1
CHR20:46729354:A	M55CtrlR1	0	0	1	1	2	1
CHR20:46729354:A	M55CtrlR3	0	0	1	1	2	1
CHR20:46729354:A	M55CtrlR4	0	0	1	1	2	1
CHR9:125337434:T	M55CtrlR2	0	0	1	1	2	1
CHR9:125337434:T	M55CtrlR3	0	0	1	1	2	1
CHR9:125337434:T	M55CtrlR4	0	0	1	1	2	1
CHR2:170847706:T	M55CtrlR2	0	0	1	1	2	1
CHR2:170847706:T	M55CtrlR3	0	0	1	1	2	1
CHR2:170847706:T	M55CtrlR4	0	0	1	1	2	1
CHR1:18854588:C	M55CtrlR1	0	0	1	1	2	1
CHR1:18854588:C	M55CtrlR2	0	0	1	1	2	1
CHR1:18854588:C	M55CtrlR3	0	0	1	1	2	1
CHR6:3264293:C	M55CtrlR1	0	0	1	1	2	1
CHR6:3264293:C	M55CtrlR3	0	0	1	1	2	1
CHR6:3264293:C	M55CtrlR4	0	0	1	1	2	1
CHR6:13711047:G	M55CtrlR1	0	0	1	1	2	1
CHR6:13711047:G	M55CtrlR3	0	0	1	1	2	1
CHR6:13711047:G	M55CtrlR4	0	0	1	1	2	1
CHR10:102381157:T	M55CtrlR1	0	0	1	1	2	1
CHR10:102381157:T	M55CtrlR2	0	0	1	1	2	1
CHR10:102381157:T	M55CtrlR4	0	0	1	1	2	1
CHR11:72136010:A	M55CtrlR1	0	0	1	1	2	1
CHR11:72136010:A	M55CtrlR2	0	0	1	1	2	1
CHR11:72136010:A	M55CtrlR4	0	0	1	1	2	1
CHR12:129700067:A	M55CtrlR2	0	0	1	1	2	1
CHR12:129700067:A	M55CtrlR3	0	0	1	1	2	1
CHR12:129700067:A	M55CtrlR4	0	0	1	1	2	1
CHR11:18729503:A	M55CtrlR1	0	0	1	1	2	1
CHR11:18729503:A	M55CtrlR2	0	0	1	1	2	1
CHR11:18729503:A	M55CtrlR4	0	0	1	1	2	1
CHR4:147673062:T	M55CtrlR1	0	0	1	1	2	1
CHR4:147673062:T	M55CtrlR3	0	0	1	1	2	1
CHR4:147673062:T	M55CtrlR4	0	0	1	1	2	1
CHR4:157333318:G	M55CtrlR1	0	0	1	1	2	1
CHR4:157333318:G	M55CtrlR3	0	0	1	1	2	1
CHR4:157333318:G	M55CtrlR4	0	0	1	1	2	1
CHR3:173807772:G	M55CtrlR1	0	0	1	1	2	1
CHR3:173807772:G	M55CtrlR2	0	0	1	1	2	1
CHR3:173807772:G	M55CtrlR4	0	0	1	1	2	1
CHR9:129068201:C	M55CtrlR2	0	0	1	1	2	1
CHR9:129068201:C	M55CtrlR3	0	0	1	1	2	1
CHR9:129068201:C	M55CtrlR4	0	0	1	1	2	1
CHR1:8957259:A	M55CtrlR1	0	0	1	1	2	1
CHR1:8957259:A	M55CtrlR2	0	0	1	1	2	1
CHR1:8957259:A	M55CtrlR4	0	0	1	1	2	1
CHR16:19715001:G	M55CtrlR2	0	0	1	1	2	1
CHR16:19715001:G	M55CtrlR3	0	0	1	1	2	1
CHR16:19715001:G	M55CtrlR4	0	0	1	1	2	1
CHR1:119922269:T	M55CtrlR1	0	0	1	1	2	1
CHR1:119922269:T	M55CtrlR3	0	0	1	1	2	1
CHR1:119922269:T	M55CtrlR4	0	0	1	1	2	1
CHR4:105942405:T	M55CtrlR1	0	0	1	1	2	1
CHR4:105942405:T	M55CtrlR2	0	0	1	1	2	1
CHR4:105942405:T	M55CtrlR4	0	0	1	1	2	1
CHR17:61884998:G	M55CtrlR2	0	0	1	1	2	1
CHR17:61884998:G	M55CtrlR3	0	0	1	1	2	1
CHR17:61884998:G	M55CtrlR4	0	0	1	1	2	1
CHR6:154832130:T	M55CtrlR1	0	0	1	1	2	1
CHR6:154832130:T	M55CtrlR3	0	0	1	1	2	1
CHR6:154832130:T	M55CtrlR4	0	0	1	1	2	1
CHR19:37888408:A	M55CtrlR2	0	0	1	1	2	1
CHR19:37888408:A	M55CtrlR3	0	0	1	1	2	1
CHR19:37888408:A	M55CtrlR4	0	0	1	1	2	1
CHR19:53873532:T	M55CtrlR2	0	0	1	1	2	1
CHR19:53873532:T	M55CtrlR3	0	0	1	1	2	1
CHR19:53873532:T	M55CtrlR4	0	0	1	1	2	1
CHR5:141491438:A	M55CtrlR1	0	0	1	1	2	1
CHR5:141491438:A	M55CtrlR2	0	0	1	1	2	1
CHR5:141491438:A	M55CtrlR4	0	0	1	1	2	1
CHR15:45095849:C	M55CtrlR1	0	0	1	1	2	1
CHR15:45095849:C	M55CtrlR3	0	0	1	1	2	1
CHR15:45095849:C	M55CtrlR4	0	0	1	1	2	1
CHR20:21328621:A	M55CtrlR2	0	0	1	1	2	1
CHR20:21328621:A	M55CtrlR3	0	0	1	1	2	1
CHR20:21328621:A	M55CtrlR4	0	0	1	1	2	1
CHR1:70039224:A	M55CtrlR1	0	0	1	1	2	1
CHR1:70039224:A	M55CtrlR2	0	0	1	1	2	1
CHR1:70039224:A	M55CtrlR3	0	0	1	1	2	1
CHR14:20144219:A	M55CtrlR2	0	0	1	1	2	1
CHR14:20144219:A	M55CtrlR3	0	0	1	1	2	1
CHR14:20144219:A	M55CtrlR4	0	0	1	1	2	1
CHR20:35503815:A	M55CtrlR1	0	0	1	1	2	1
CHR20:35503815:A	M55CtrlR2	0	0	1	1	2	1
CHR20:35503815:A	M55CtrlR3	0	0	1	1	2	1
CHR15:33826673:A	M55CtrlR1	0	0	1	1	2	1
CHR15:33826673:A	M55CtrlR3	0	0	1	1	2	1
CHR15:33826673:A	M55CtrlR4	0	0	1	1	2	1
CHR14:20144218:A	M55CtrlR2	0	0	1	1	2	1
CHR14:20144218:A	M55CtrlR3	0	0	1	1	2	1
CHR14:20144218:A	M55CtrlR4	0	0	1	1	2	1
CHR13:110715518:T	M55CtrlR2	0	0	1	1	2	1
CHR13:110715518:T	M55CtrlR3	0	0	1	1	2	1
CHR13:110715518:T	M55CtrlR4	0	0	1	1	2	1
CHR1:66893260:C	M55CtrlR1	0	0	1	1	2	1
CHR1:66893260:C	M55CtrlR3	0	0	1	1	2	1
CHR1:66893260:C	M55CtrlR4	0	0	1	1	2	1
CHR16:1241453:A	M55CtrlR1	0	0	1	1	2	1
CHR16:1241453:A	M55CtrlR3	0	0	1	1	2	1
CHR16:1241453:A	M55CtrlR4	0	0	1	1	2	1
CHR2:151667906:A	M55CtrlR2	0	0	1	1	2	1
CHR2:151667906:A	M55CtrlR3	0	0	1	1	2	1
CHR2:151667906:A	M55CtrlR4	0	0	1	1	2	1
