mutation_id	sample_id	cluster_id	cellular_prevalence	cellular_prevalence_std	cluster_assignment_prob
b'CHR12:40481156:A'	b'M61SunitR1'	0	0.0690	0.0187	0.9926
b'CHR12:40481156:A'	b'M61SunitR2'	0	0.0699	0.0271	0.9926
b'CHR12:40481156:A'	b'M61SunitR3'	0	0.3034	0.1210	0.9926
b'CHR12:40481156:A'	b'M61SunitR4'	0	0.0839	0.0197	0.9926
b'CHR12:40481157:G'	b'M61SunitR1'	0	0.0690	0.0187	0.9919
b'CHR12:40481157:G'	b'M61SunitR2'	0	0.0699	0.0271	0.9919
b'CHR12:40481157:G'	b'M61SunitR3'	0	0.3034	0.1210	0.9919
b'CHR12:40481157:G'	b'M61SunitR4'	0	0.0839	0.0197	0.9919
b'CHR12:40482641:G'	b'M61SunitR1'	0	0.0690	0.0187	0.9956
b'CHR12:40482641:G'	b'M61SunitR2'	0	0.0699	0.0271	0.9956
b'CHR12:40482641:G'	b'M61SunitR3'	0	0.3034	0.1210	0.9956
b'CHR12:40482641:G'	b'M61SunitR4'	0	0.0839	0.0197	0.9956
b'CHR19:14765687:T'	b'M61SunitR1'	0	0.0690	0.0187	1.0000
b'CHR19:14765687:T'	b'M61SunitR2'	0	0.0699	0.0271	1.0000
b'CHR19:14765687:T'	b'M61SunitR3'	0	0.3034	0.1210	1.0000
b'CHR19:14765687:T'	b'M61SunitR4'	0	0.0839	0.0197	1.0000
b'CHR19:43081182:G'	b'M61SunitR1'	0	0.0690	0.0187	0.9481
b'CHR19:43081182:G'	b'M61SunitR2'	0	0.0699	0.0271	0.9481
b'CHR19:43081182:G'	b'M61SunitR3'	0	0.3034	0.1210	0.9481
b'CHR19:43081182:G'	b'M61SunitR4'	0	0.0839	0.0197	0.9481
b'CHR8:143871184:T'	b'M61SunitR1'	0	0.0690	0.0187	0.5836
b'CHR8:143871184:T'	b'M61SunitR2'	0	0.0699	0.0271	0.5836
b'CHR8:143871184:T'	b'M61SunitR3'	0	0.3034	0.1210	0.5836
b'CHR8:143871184:T'	b'M61SunitR4'	0	0.0839	0.0197	0.5836
b'CHR1:13421192:T'	b'M61SunitR1'	1	0.4916	0.0541	0.8722
b'CHR1:13421192:T'	b'M61SunitR2'	1	0.4531	0.0473	0.8722
b'CHR1:13421192:T'	b'M61SunitR3'	1	0.4286	0.0524	0.8722
b'CHR1:13421192:T'	b'M61SunitR4'	1	0.4792	0.0546	0.8722
b'CHR1:16759300:T'	b'M61SunitR1'	1	0.4916	0.0541	0.9953
b'CHR1:16759300:T'	b'M61SunitR2'	1	0.4531	0.0473	0.9953
b'CHR1:16759300:T'	b'M61SunitR3'	1	0.4286	0.0524	0.9953
b'CHR1:16759300:T'	b'M61SunitR4'	1	0.4792	0.0546	0.9953
b'CHR1:247423969:T'	b'M61SunitR1'	1	0.4916	0.0541	0.9819
b'CHR1:247423969:T'	b'M61SunitR2'	1	0.4531	0.0473	0.9819
b'CHR1:247423969:T'	b'M61SunitR3'	1	0.4286	0.0524	0.9819
b'CHR1:247423969:T'	b'M61SunitR4'	1	0.4792	0.0546	0.9819
b'CHR1:942934:C'	b'M61SunitR1'	1	0.4916	0.0541	0.9187
b'CHR1:942934:C'	b'M61SunitR2'	1	0.4531	0.0473	0.9187
b'CHR1:942934:C'	b'M61SunitR3'	1	0.4286	0.0524	0.9187
b'CHR1:942934:C'	b'M61SunitR4'	1	0.4792	0.0546	0.9187
b'CHR7:151066568:A'	b'M61SunitR1'	1	0.4916	0.0541	0.4462
b'CHR7:151066568:A'	b'M61SunitR2'	1	0.4531	0.0473	0.4462
b'CHR7:151066568:A'	b'M61SunitR3'	1	0.4286	0.0524	0.4462
b'CHR7:151066568:A'	b'M61SunitR4'	1	0.4792	0.0546	0.4462
b'CHR1:155054385:T'	b'M61SunitR1'	2	0.6207	0.0417	0.8745
b'CHR1:155054385:T'	b'M61SunitR2'	2	0.8046	0.0516	0.8745
b'CHR1:155054385:T'	b'M61SunitR3'	2	0.9107	0.0475	0.8745
b'CHR1:155054385:T'	b'M61SunitR4'	2	0.5341	0.0431	0.8745
b'CHR1:16409637:C'	b'M61SunitR1'	2	0.6207	0.0417	0.5956
b'CHR1:16409637:C'	b'M61SunitR2'	2	0.8046	0.0516	0.5956
b'CHR1:16409637:C'	b'M61SunitR3'	2	0.9107	0.0475	0.5956
b'CHR1:16409637:C'	b'M61SunitR4'	2	0.5341	0.0431	0.5956
b'CHR1:17079314:A'	b'M61SunitR1'	2	0.6207	0.0417	0.7269
b'CHR1:17079314:A'	b'M61SunitR2'	2	0.8046	0.0516	0.7269
b'CHR1:17079314:A'	b'M61SunitR3'	2	0.9107	0.0475	0.7269
b'CHR1:17079314:A'	b'M61SunitR4'	2	0.5341	0.0431	0.7269
b'CHR1:17084646:G'	b'M61SunitR1'	2	0.6207	0.0417	0.4997
b'CHR1:17084646:G'	b'M61SunitR2'	2	0.8046	0.0516	0.4997
b'CHR1:17084646:G'	b'M61SunitR3'	2	0.9107	0.0475	0.4997
b'CHR1:17084646:G'	b'M61SunitR4'	2	0.5341	0.0431	0.4997
b'CHR1:18481971:A'	b'M61SunitR1'	2	0.6207	0.0417	0.6594
b'CHR1:18481971:A'	b'M61SunitR2'	2	0.8046	0.0516	0.6594
b'CHR1:18481971:A'	b'M61SunitR3'	2	0.9107	0.0475	0.6594
b'CHR1:18481971:A'	b'M61SunitR4'	2	0.5341	0.0431	0.6594
b'CHR1:18877503:G'	b'M61SunitR1'	2	0.6207	0.0417	0.9435
b'CHR1:18877503:G'	b'M61SunitR2'	2	0.8046	0.0516	0.9435
b'CHR1:18877503:G'	b'M61SunitR3'	2	0.9107	0.0475	0.9435
b'CHR1:18877503:G'	b'M61SunitR4'	2	0.5341	0.0431	0.9435
b'CHR1:20084839:T'	b'M61SunitR1'	2	0.6207	0.0417	0.9692
b'CHR1:20084839:T'	b'M61SunitR2'	2	0.8046	0.0516	0.9692
b'CHR1:20084839:T'	b'M61SunitR3'	2	0.9107	0.0475	0.9692
b'CHR1:20084839:T'	b'M61SunitR4'	2	0.5341	0.0431	0.9692
b'CHR1:202160698:C'	b'M61SunitR1'	2	0.6207	0.0417	0.5905
b'CHR1:202160698:C'	b'M61SunitR2'	2	0.8046	0.0516	0.5905
b'CHR1:202160698:C'	b'M61SunitR3'	2	0.9107	0.0475	0.5905
b'CHR1:202160698:C'	b'M61SunitR4'	2	0.5341	0.0431	0.5905
b'CHR1:21874505:T'	b'M61SunitR1'	2	0.6207	0.0417	0.6214
b'CHR1:21874505:T'	b'M61SunitR2'	2	0.8046	0.0516	0.6214
b'CHR1:21874505:T'	b'M61SunitR3'	2	0.9107	0.0475	0.6214
b'CHR1:21874505:T'	b'M61SunitR4'	2	0.5341	0.0431	0.6214
b'CHR1:22526222:C'	b'M61SunitR1'	2	0.6207	0.0417	0.8841
b'CHR1:22526222:C'	b'M61SunitR2'	2	0.8046	0.0516	0.8841
b'CHR1:22526222:C'	b'M61SunitR3'	2	0.9107	0.0475	0.8841
b'CHR1:22526222:C'	b'M61SunitR4'	2	0.5341	0.0431	0.8841
b'CHR1:25243590:C'	b'M61SunitR1'	2	0.6207	0.0417	0.9644
b'CHR1:25243590:C'	b'M61SunitR2'	2	0.8046	0.0516	0.9644
b'CHR1:25243590:C'	b'M61SunitR3'	2	0.9107	0.0475	0.9644
b'CHR1:25243590:C'	b'M61SunitR4'	2	0.5341	0.0431	0.9644
b'CHR1:27360975:T'	b'M61SunitR1'	2	0.6207	0.0417	0.7876
b'CHR1:27360975:T'	b'M61SunitR2'	2	0.8046	0.0516	0.7876
b'CHR1:27360975:T'	b'M61SunitR3'	2	0.9107	0.0475	0.7876
b'CHR1:27360975:T'	b'M61SunitR4'	2	0.5341	0.0431	0.7876
b'CHR1:31630664:G'	b'M61SunitR1'	2	0.6207	0.0417	0.8152
b'CHR1:31630664:G'	b'M61SunitR2'	2	0.8046	0.0516	0.8152
b'CHR1:31630664:G'	b'M61SunitR3'	2	0.9107	0.0475	0.8152
b'CHR1:31630664:G'	b'M61SunitR4'	2	0.5341	0.0431	0.8152
b'CHR1:32770050:G'	b'M61SunitR1'	2	0.6207	0.0417	0.9672
b'CHR1:32770050:G'	b'M61SunitR2'	2	0.8046	0.0516	0.9672
b'CHR1:32770050:G'	b'M61SunitR3'	2	0.9107	0.0475	0.9672
b'CHR1:32770050:G'	b'M61SunitR4'	2	0.5341	0.0431	0.9672
b'CHR1:51840355:A'	b'M61SunitR1'	2	0.6207	0.0417	0.9871
b'CHR1:51840355:A'	b'M61SunitR2'	2	0.8046	0.0516	0.9871
b'CHR1:51840355:A'	b'M61SunitR3'	2	0.9107	0.0475	0.9871
b'CHR1:51840355:A'	b'M61SunitR4'	2	0.5341	0.0431	0.9871
b'CHR1:53247055:T'	b'M61SunitR1'	2	0.6207	0.0417	0.7145
b'CHR1:53247055:T'	b'M61SunitR2'	2	0.8046	0.0516	0.7145
b'CHR1:53247055:T'	b'M61SunitR3'	2	0.9107	0.0475	0.7145
b'CHR1:53247055:T'	b'M61SunitR4'	2	0.5341	0.0431	0.7145
b'CHR1:63323280:A'	b'M61SunitR1'	2	0.6207	0.0417	0.6979
b'CHR1:63323280:A'	b'M61SunitR2'	2	0.8046	0.0516	0.6979
b'CHR1:63323280:A'	b'M61SunitR3'	2	0.9107	0.0475	0.6979
b'CHR1:63323280:A'	b'M61SunitR4'	2	0.5341	0.0431	0.6979
b'CHR1:63415881:T'	b'M61SunitR1'	2	0.6207	0.0417	0.5172
b'CHR1:63415881:T'	b'M61SunitR2'	2	0.8046	0.0516	0.5172
b'CHR1:63415881:T'	b'M61SunitR3'	2	0.9107	0.0475	0.5172
b'CHR1:63415881:T'	b'M61SunitR4'	2	0.5341	0.0431	0.5172
b'CHR22:37066106:C'	b'M61SunitR1'	2	0.6207	0.0417	0.7035
b'CHR22:37066106:C'	b'M61SunitR2'	2	0.8046	0.0516	0.7035
b'CHR22:37066106:C'	b'M61SunitR3'	2	0.9107	0.0475	0.7035
b'CHR22:37066106:C'	b'M61SunitR4'	2	0.5341	0.0431	0.7035
b'CHR2:73291715:T'	b'M61SunitR1'	2	0.6207	0.0417	0.7362
b'CHR2:73291715:T'	b'M61SunitR2'	2	0.8046	0.0516	0.7362
b'CHR2:73291715:T'	b'M61SunitR3'	2	0.9107	0.0475	0.7362
b'CHR2:73291715:T'	b'M61SunitR4'	2	0.5341	0.0431	0.7362
b'CHR3:48447042:C'	b'M61SunitR1'	2	0.6207	0.0417	0.6632
b'CHR3:48447042:C'	b'M61SunitR2'	2	0.8046	0.0516	0.6632
b'CHR3:48447042:C'	b'M61SunitR3'	2	0.9107	0.0475	0.6632
b'CHR3:48447042:C'	b'M61SunitR4'	2	0.5341	0.0431	0.6632
b'CHR5:150540177:C'	b'M61SunitR1'	2	0.6207	0.0417	0.9057
b'CHR5:150540177:C'	b'M61SunitR2'	2	0.8046	0.0516	0.9057
b'CHR5:150540177:C'	b'M61SunitR3'	2	0.9107	0.0475	0.9057
b'CHR5:150540177:C'	b'M61SunitR4'	2	0.5341	0.0431	0.9057
b'CHR6:3154637:C'	b'M61SunitR1'	2	0.6207	0.0417	0.3201
b'CHR6:3154637:C'	b'M61SunitR2'	2	0.8046	0.0516	0.3201
b'CHR6:3154637:C'	b'M61SunitR3'	2	0.9107	0.0475	0.3201
b'CHR6:3154637:C'	b'M61SunitR4'	2	0.5341	0.0431	0.3201
b'CHR9:26928213:T'	b'M61SunitR1'	2	0.6207	0.0417	0.7964
b'CHR9:26928213:T'	b'M61SunitR2'	2	0.8046	0.0516	0.7964
b'CHR9:26928213:T'	b'M61SunitR3'	2	0.9107	0.0475	0.7964
b'CHR9:26928213:T'	b'M61SunitR4'	2	0.5341	0.0431	0.7964
b'CHR10:16928249:A'	b'M61SunitR1'	3	0.2387	0.0204	0.8611
b'CHR10:16928249:A'	b'M61SunitR2'	3	0.2201	0.0203	0.8611
b'CHR10:16928249:A'	b'M61SunitR3'	3	0.2456	0.0262	0.8611
b'CHR10:16928249:A'	b'M61SunitR4'	3	0.2148	0.0193	0.8611
b'CHR10:27994928:C'	b'M61SunitR1'	3	0.2387	0.0204	0.5791
b'CHR10:27994928:C'	b'M61SunitR2'	3	0.2201	0.0203	0.5791
b'CHR10:27994928:C'	b'M61SunitR3'	3	0.2456	0.0262	0.5791
b'CHR10:27994928:C'	b'M61SunitR4'	3	0.2148	0.0193	0.5791
b'CHR10:37153617:T'	b'M61SunitR1'	3	0.2387	0.0204	0.9427
b'CHR10:37153617:T'	b'M61SunitR2'	3	0.2201	0.0203	0.9427
b'CHR10:37153617:T'	b'M61SunitR3'	3	0.2456	0.0262	0.9427
b'CHR10:37153617:T'	b'M61SunitR4'	3	0.2148	0.0193	0.9427
b'CHR11:117917207:C'	b'M61SunitR1'	3	0.2387	0.0204	0.9412
b'CHR11:117917207:C'	b'M61SunitR2'	3	0.2201	0.0203	0.9412
b'CHR11:117917207:C'	b'M61SunitR3'	3	0.2456	0.0262	0.9412
b'CHR11:117917207:C'	b'M61SunitR4'	3	0.2148	0.0193	0.9412
b'CHR11:120128675:T'	b'M61SunitR1'	3	0.2387	0.0204	0.9994
b'CHR11:120128675:T'	b'M61SunitR2'	3	0.2201	0.0203	0.9994
b'CHR11:120128675:T'	b'M61SunitR3'	3	0.2456	0.0262	0.9994
b'CHR11:120128675:T'	b'M61SunitR4'	3	0.2148	0.0193	0.9994
b'CHR11:6002291:G'	b'M61SunitR1'	3	0.2387	0.0204	0.4606
b'CHR11:6002291:G'	b'M61SunitR2'	3	0.2201	0.0203	0.4606
b'CHR11:6002291:G'	b'M61SunitR3'	3	0.2456	0.0262	0.4606
b'CHR11:6002291:G'	b'M61SunitR4'	3	0.2148	0.0193	0.4606
b'CHR11:63904940:C'	b'M61SunitR1'	3	0.2387	0.0204	0.3889
b'CHR11:63904940:C'	b'M61SunitR2'	3	0.2201	0.0203	0.3889
b'CHR11:63904940:C'	b'M61SunitR3'	3	0.2456	0.0262	0.3889
b'CHR11:63904940:C'	b'M61SunitR4'	3	0.2148	0.0193	0.3889
b'CHR11:63904942:A'	b'M61SunitR1'	3	0.2387	0.0204	0.3889
b'CHR11:63904942:A'	b'M61SunitR2'	3	0.2201	0.0203	0.3889
b'CHR11:63904942:A'	b'M61SunitR3'	3	0.2456	0.0262	0.3889
b'CHR11:63904942:A'	b'M61SunitR4'	3	0.2148	0.0193	0.3889
b'CHR11:65778836:A'	b'M61SunitR1'	3	0.2387	0.0204	0.9541
b'CHR11:65778836:A'	b'M61SunitR2'	3	0.2201	0.0203	0.9541
b'CHR11:65778836:A'	b'M61SunitR3'	3	0.2456	0.0262	0.9541
b'CHR11:65778836:A'	b'M61SunitR4'	3	0.2148	0.0193	0.9541
b'CHR11:73975073:A'	b'M61SunitR1'	3	0.2387	0.0204	0.9429
b'CHR11:73975073:A'	b'M61SunitR2'	3	0.2201	0.0203	0.9429
b'CHR11:73975073:A'	b'M61SunitR3'	3	0.2456	0.0262	0.9429
b'CHR11:73975073:A'	b'M61SunitR4'	3	0.2148	0.0193	0.9429
b'CHR12:108518570:T'	b'M61SunitR1'	3	0.2387	0.0204	0.9314
b'CHR12:108518570:T'	b'M61SunitR2'	3	0.2201	0.0203	0.9314
b'CHR12:108518570:T'	b'M61SunitR3'	3	0.2456	0.0262	0.9314
b'CHR12:108518570:T'	b'M61SunitR4'	3	0.2148	0.0193	0.9314
b'CHR12:25144543:A'	b'M61SunitR1'	3	0.2387	0.0204	0.7776
b'CHR12:25144543:A'	b'M61SunitR2'	3	0.2201	0.0203	0.7776
b'CHR12:25144543:A'	b'M61SunitR3'	3	0.2456	0.0262	0.7776
b'CHR12:25144543:A'	b'M61SunitR4'	3	0.2148	0.0193	0.7776
b'CHR12:51699632:A'	b'M61SunitR1'	3	0.2387	0.0204	0.5729
b'CHR12:51699632:A'	b'M61SunitR2'	3	0.2201	0.0203	0.5729
b'CHR12:51699632:A'	b'M61SunitR3'	3	0.2456	0.0262	0.5729
b'CHR12:51699632:A'	b'M61SunitR4'	3	0.2148	0.0193	0.5729
b'CHR12:55027042:G'	b'M61SunitR1'	3	0.2387	0.0204	0.8494
b'CHR12:55027042:G'	b'M61SunitR2'	3	0.2201	0.0203	0.8494
b'CHR12:55027042:G'	b'M61SunitR3'	3	0.2456	0.0262	0.8494
b'CHR12:55027042:G'	b'M61SunitR4'	3	0.2148	0.0193	0.8494
b'CHR12:56267413:A'	b'M61SunitR1'	3	0.2387	0.0204	0.9827
b'CHR12:56267413:A'	b'M61SunitR2'	3	0.2201	0.0203	0.9827
b'CHR12:56267413:A'	b'M61SunitR3'	3	0.2456	0.0262	0.9827
b'CHR12:56267413:A'	b'M61SunitR4'	3	0.2148	0.0193	0.9827
b'CHR12:57629873:G'	b'M61SunitR1'	3	0.2387	0.0204	0.9294
b'CHR12:57629873:G'	b'M61SunitR2'	3	0.2201	0.0203	0.9294
b'CHR12:57629873:G'	b'M61SunitR3'	3	0.2456	0.0262	0.9294
b'CHR12:57629873:G'	b'M61SunitR4'	3	0.2148	0.0193	0.9294
b'CHR12:85046079:A'	b'M61SunitR1'	3	0.2387	0.0204	0.8043
b'CHR12:85046079:A'	b'M61SunitR2'	3	0.2201	0.0203	0.8043
b'CHR12:85046079:A'	b'M61SunitR3'	3	0.2456	0.0262	0.8043
b'CHR12:85046079:A'	b'M61SunitR4'	3	0.2148	0.0193	0.8043
b'CHR14:36725655:A'	b'M61SunitR1'	3	0.2387	0.0204	0.7603
b'CHR14:36725655:A'	b'M61SunitR2'	3	0.2201	0.0203	0.7603
b'CHR14:36725655:A'	b'M61SunitR3'	3	0.2456	0.0262	0.7603
b'CHR14:36725655:A'	b'M61SunitR4'	3	0.2148	0.0193	0.7603
b'CHR15:23566598:A'	b'M61SunitR1'	3	0.2387	0.0204	0.9885
b'CHR15:23566598:A'	b'M61SunitR2'	3	0.2201	0.0203	0.9885
b'CHR15:23566598:A'	b'M61SunitR3'	3	0.2456	0.0262	0.9885
b'CHR15:23566598:A'	b'M61SunitR4'	3	0.2148	0.0193	0.9885
b'CHR15:33826673:A'	b'M61SunitR1'	3	0.2387	0.0204	0.6304
b'CHR15:33826673:A'	b'M61SunitR2'	3	0.2201	0.0203	0.6304
b'CHR15:33826673:A'	b'M61SunitR3'	3	0.2456	0.0262	0.6304
b'CHR15:33826673:A'	b'M61SunitR4'	3	0.2148	0.0193	0.6304
b'CHR15:41572531:T'	b'M61SunitR1'	3	0.2387	0.0204	0.8941
b'CHR15:41572531:T'	b'M61SunitR2'	3	0.2201	0.0203	0.8941
b'CHR15:41572531:T'	b'M61SunitR3'	3	0.2456	0.0262	0.8941
b'CHR15:41572531:T'	b'M61SunitR4'	3	0.2148	0.0193	0.8941
b'CHR17:10511933:A'	b'M61SunitR1'	3	0.2387	0.0204	0.7083
b'CHR17:10511933:A'	b'M61SunitR2'	3	0.2201	0.0203	0.7083
b'CHR17:10511933:A'	b'M61SunitR3'	3	0.2456	0.0262	0.7083
b'CHR17:10511933:A'	b'M61SunitR4'	3	0.2148	0.0193	0.7083
b'CHR17:10539354:G'	b'M61SunitR1'	3	0.2387	0.0204	0.7924
b'CHR17:10539354:G'	b'M61SunitR2'	3	0.2201	0.0203	0.7924
b'CHR17:10539354:G'	b'M61SunitR3'	3	0.2456	0.0262	0.7924
b'CHR17:10539354:G'	b'M61SunitR4'	3	0.2148	0.0193	0.7924
b'CHR17:20204775:G'	b'M61SunitR1'	3	0.2387	0.0204	0.8997
b'CHR17:20204775:G'	b'M61SunitR2'	3	0.2201	0.0203	0.8997
b'CHR17:20204775:G'	b'M61SunitR3'	3	0.2456	0.0262	0.8997
b'CHR17:20204775:G'	b'M61SunitR4'	3	0.2148	0.0193	0.8997
b'CHR19:1495334:T'	b'M61SunitR1'	3	0.2387	0.0204	0.9137
b'CHR19:1495334:T'	b'M61SunitR2'	3	0.2201	0.0203	0.9137
b'CHR19:1495334:T'	b'M61SunitR3'	3	0.2456	0.0262	0.9137
b'CHR19:1495334:T'	b'M61SunitR4'	3	0.2148	0.0193	0.9137
b'CHR19:18870062:C'	b'M61SunitR1'	3	0.2387	0.0204	0.9243
b'CHR19:18870062:C'	b'M61SunitR2'	3	0.2201	0.0203	0.9243
b'CHR19:18870062:C'	b'M61SunitR3'	3	0.2456	0.0262	0.9243
b'CHR19:18870062:C'	b'M61SunitR4'	3	0.2148	0.0193	0.9243
b'CHR19:20545051:T'	b'M61SunitR1'	3	0.2387	0.0204	0.8479
b'CHR19:20545051:T'	b'M61SunitR2'	3	0.2201	0.0203	0.8479
b'CHR19:20545051:T'	b'M61SunitR3'	3	0.2456	0.0262	0.8479
b'CHR19:20545051:T'	b'M61SunitR4'	3	0.2148	0.0193	0.8479
b'CHR19:36915827:T'	b'M61SunitR1'	3	0.2387	0.0204	0.9992
b'CHR19:36915827:T'	b'M61SunitR2'	3	0.2201	0.0203	0.9992
b'CHR19:36915827:T'	b'M61SunitR3'	3	0.2456	0.0262	0.9992
b'CHR19:36915827:T'	b'M61SunitR4'	3	0.2148	0.0193	0.9992
b'CHR19:45591702:A'	b'M61SunitR1'	3	0.2387	0.0204	0.9134
b'CHR19:45591702:A'	b'M61SunitR2'	3	0.2201	0.0203	0.9134
b'CHR19:45591702:A'	b'M61SunitR3'	3	0.2456	0.0262	0.9134
b'CHR19:45591702:A'	b'M61SunitR4'	3	0.2148	0.0193	0.9134
b'CHR19:47042860:A'	b'M61SunitR1'	3	0.2387	0.0204	0.8692
b'CHR19:47042860:A'	b'M61SunitR2'	3	0.2201	0.0203	0.8692
b'CHR19:47042860:A'	b'M61SunitR3'	3	0.2456	0.0262	0.8692
b'CHR19:47042860:A'	b'M61SunitR4'	3	0.2148	0.0193	0.8692
b'CHR19:4714132:A'	b'M61SunitR1'	3	0.2387	0.0204	0.8550
b'CHR19:4714132:A'	b'M61SunitR2'	3	0.2201	0.0203	0.8550
b'CHR19:4714132:A'	b'M61SunitR3'	3	0.2456	0.0262	0.8550
b'CHR19:4714132:A'	b'M61SunitR4'	3	0.2148	0.0193	0.8550
b'CHR19:52705931:T'	b'M61SunitR1'	3	0.2387	0.0204	0.9853
b'CHR19:52705931:T'	b'M61SunitR2'	3	0.2201	0.0203	0.9853
b'CHR19:52705931:T'	b'M61SunitR3'	3	0.2456	0.0262	0.9853
b'CHR19:52705931:T'	b'M61SunitR4'	3	0.2148	0.0193	0.9853
b'CHR1:1046687:A'	b'M61SunitR1'	3	0.2387	0.0204	0.9840
b'CHR1:1046687:A'	b'M61SunitR2'	3	0.2201	0.0203	0.9840
b'CHR1:1046687:A'	b'M61SunitR3'	3	0.2456	0.0262	0.9840
b'CHR1:1046687:A'	b'M61SunitR4'	3	0.2148	0.0193	0.9840
b'CHR1:108718880:A'	b'M61SunitR1'	3	0.2387	0.0204	0.9416
b'CHR1:108718880:A'	b'M61SunitR2'	3	0.2201	0.0203	0.9416
b'CHR1:108718880:A'	b'M61SunitR3'	3	0.2456	0.0262	0.9416
b'CHR1:108718880:A'	b'M61SunitR4'	3	0.2148	0.0193	0.9416
b'CHR1:113981341:T'	b'M61SunitR1'	3	0.2387	0.0204	0.9667
b'CHR1:113981341:T'	b'M61SunitR2'	3	0.2201	0.0203	0.9667
b'CHR1:113981341:T'	b'M61SunitR3'	3	0.2456	0.0262	0.9667
b'CHR1:113981341:T'	b'M61SunitR4'	3	0.2148	0.0193	0.9667
b'CHR1:1495915:C'	b'M61SunitR1'	3	0.2387	0.0204	0.7875
b'CHR1:1495915:C'	b'M61SunitR2'	3	0.2201	0.0203	0.7875
b'CHR1:1495915:C'	b'M61SunitR3'	3	0.2456	0.0262	0.7875
b'CHR1:1495915:C'	b'M61SunitR4'	3	0.2148	0.0193	0.7875
b'CHR1:152812643:C'	b'M61SunitR1'	3	0.2387	0.0204	0.8964
b'CHR1:152812643:C'	b'M61SunitR2'	3	0.2201	0.0203	0.8964
b'CHR1:152812643:C'	b'M61SunitR3'	3	0.2456	0.0262	0.8964
b'CHR1:152812643:C'	b'M61SunitR4'	3	0.2148	0.0193	0.8964
b'CHR1:157586429:T'	b'M61SunitR1'	3	0.2387	0.0204	0.9594
b'CHR1:157586429:T'	b'M61SunitR2'	3	0.2201	0.0203	0.9594
b'CHR1:157586429:T'	b'M61SunitR3'	3	0.2456	0.0262	0.9594
b'CHR1:157586429:T'	b'M61SunitR4'	3	0.2148	0.0193	0.9594
b'CHR1:236571361:A'	b'M61SunitR1'	3	0.2387	0.0204	0.5812
b'CHR1:236571361:A'	b'M61SunitR2'	3	0.2201	0.0203	0.5812
b'CHR1:236571361:A'	b'M61SunitR3'	3	0.2456	0.0262	0.5812
b'CHR1:236571361:A'	b'M61SunitR4'	3	0.2148	0.0193	0.5812
b'CHR1:248273507:A'	b'M61SunitR1'	3	0.2387	0.0204	0.5812
b'CHR1:248273507:A'	b'M61SunitR2'	3	0.2201	0.0203	0.5812
b'CHR1:248273507:A'	b'M61SunitR3'	3	0.2456	0.0262	0.5812
b'CHR1:248273507:A'	b'M61SunitR4'	3	0.2148	0.0193	0.5812
b'CHR1:248273509:C'	b'M61SunitR1'	3	0.2387	0.0204	0.5812
b'CHR1:248273509:C'	b'M61SunitR2'	3	0.2201	0.0203	0.5812
b'CHR1:248273509:C'	b'M61SunitR3'	3	0.2456	0.0262	0.5812
b'CHR1:248273509:C'	b'M61SunitR4'	3	0.2148	0.0193	0.5812
b'CHR1:41037530:G'	b'M61SunitR1'	3	0.2387	0.0204	0.5125
b'CHR1:41037530:G'	b'M61SunitR2'	3	0.2201	0.0203	0.5125
b'CHR1:41037530:G'	b'M61SunitR3'	3	0.2456	0.0262	0.5125
b'CHR1:41037530:G'	b'M61SunitR4'	3	0.2148	0.0193	0.5125
b'CHR1:44805530:A'	b'M61SunitR1'	3	0.2387	0.0204	0.8656
b'CHR1:44805530:A'	b'M61SunitR2'	3	0.2201	0.0203	0.8656
b'CHR1:44805530:A'	b'M61SunitR3'	3	0.2456	0.0262	0.8656
b'CHR1:44805530:A'	b'M61SunitR4'	3	0.2148	0.0193	0.8656
b'CHR1:52642989:A'	b'M61SunitR1'	3	0.2387	0.0204	0.6880
b'CHR1:52642989:A'	b'M61SunitR2'	3	0.2201	0.0203	0.6880
b'CHR1:52642989:A'	b'M61SunitR3'	3	0.2456	0.0262	0.6880
b'CHR1:52642989:A'	b'M61SunitR4'	3	0.2148	0.0193	0.6880
b'CHR1:52988103:T'	b'M61SunitR1'	3	0.2387	0.0204	0.7778
b'CHR1:52988103:T'	b'M61SunitR2'	3	0.2201	0.0203	0.7778
b'CHR1:52988103:T'	b'M61SunitR3'	3	0.2456	0.0262	0.7778
b'CHR1:52988103:T'	b'M61SunitR4'	3	0.2148	0.0193	0.7778
b'CHR1:8957259:A'	b'M61SunitR1'	3	0.2387	0.0204	0.9878
b'CHR1:8957259:A'	b'M61SunitR2'	3	0.2201	0.0203	0.9878
b'CHR1:8957259:A'	b'M61SunitR3'	3	0.2456	0.0262	0.9878
b'CHR1:8957259:A'	b'M61SunitR4'	3	0.2148	0.0193	0.9878
b'CHR20:21328621:A'	b'M61SunitR1'	3	0.2387	0.0204	0.6919
b'CHR20:21328621:A'	b'M61SunitR2'	3	0.2201	0.0203	0.6919
b'CHR20:21328621:A'	b'M61SunitR3'	3	0.2456	0.0262	0.6919
b'CHR20:21328621:A'	b'M61SunitR4'	3	0.2148	0.0193	0.6919
b'CHR2:107859472:T'	b'M61SunitR1'	3	0.2387	0.0204	0.8391
b'CHR2:107859472:T'	b'M61SunitR2'	3	0.2201	0.0203	0.8391
b'CHR2:107859472:T'	b'M61SunitR3'	3	0.2456	0.0262	0.8391
b'CHR2:107859472:T'	b'M61SunitR4'	3	0.2148	0.0193	0.8391
b'CHR2:124865392:A'	b'M61SunitR1'	3	0.2387	0.0204	0.6208
b'CHR2:124865392:A'	b'M61SunitR2'	3	0.2201	0.0203	0.6208
b'CHR2:124865392:A'	b'M61SunitR3'	3	0.2456	0.0262	0.6208
b'CHR2:124865392:A'	b'M61SunitR4'	3	0.2148	0.0193	0.6208
b'CHR2:156549720:T'	b'M61SunitR1'	3	0.2387	0.0204	0.9909
b'CHR2:156549720:T'	b'M61SunitR2'	3	0.2201	0.0203	0.9909
b'CHR2:156549720:T'	b'M61SunitR3'	3	0.2456	0.0262	0.9909
b'CHR2:156549720:T'	b'M61SunitR4'	3	0.2148	0.0193	0.9909
b'CHR2:170847706:T'	b'M61SunitR1'	3	0.2387	0.0204	0.4958
b'CHR2:170847706:T'	b'M61SunitR2'	3	0.2201	0.0203	0.4958
b'CHR2:170847706:T'	b'M61SunitR3'	3	0.2456	0.0262	0.4958
b'CHR2:170847706:T'	b'M61SunitR4'	3	0.2148	0.0193	0.4958
b'CHR2:201493458:A'	b'M61SunitR1'	3	0.2387	0.0204	0.5155
b'CHR2:201493458:A'	b'M61SunitR2'	3	0.2201	0.0203	0.5155
b'CHR2:201493458:A'	b'M61SunitR3'	3	0.2456	0.0262	0.5155
b'CHR2:201493458:A'	b'M61SunitR4'	3	0.2148	0.0193	0.5155
b'CHR2:218474766:G'	b'M61SunitR1'	3	0.2387	0.0204	0.7986
b'CHR2:218474766:G'	b'M61SunitR2'	3	0.2201	0.0203	0.7986
b'CHR2:218474766:G'	b'M61SunitR3'	3	0.2456	0.0262	0.7986
b'CHR2:218474766:G'	b'M61SunitR4'	3	0.2148	0.0193	0.7986
b'CHR2:232381539:G'	b'M61SunitR1'	3	0.2387	0.0204	0.5848
b'CHR2:232381539:G'	b'M61SunitR2'	3	0.2201	0.0203	0.5848
b'CHR2:232381539:G'	b'M61SunitR3'	3	0.2456	0.0262	0.5848
b'CHR2:232381539:G'	b'M61SunitR4'	3	0.2148	0.0193	0.5848
b'CHR2:240682800:T'	b'M61SunitR1'	3	0.2387	0.0204	0.5107
b'CHR2:240682800:T'	b'M61SunitR2'	3	0.2201	0.0203	0.5107
b'CHR2:240682800:T'	b'M61SunitR3'	3	0.2456	0.0262	0.5107
b'CHR2:240682800:T'	b'M61SunitR4'	3	0.2148	0.0193	0.5107
b'CHR2:71364013:T'	b'M61SunitR1'	3	0.2387	0.0204	0.8550
b'CHR2:71364013:T'	b'M61SunitR2'	3	0.2201	0.0203	0.8550
b'CHR2:71364013:T'	b'M61SunitR3'	3	0.2456	0.0262	0.8550
b'CHR2:71364013:T'	b'M61SunitR4'	3	0.2148	0.0193	0.8550
b'CHR2:85663826:A'	b'M61SunitR1'	3	0.2387	0.0204	0.8692
b'CHR2:85663826:A'	b'M61SunitR2'	3	0.2201	0.0203	0.8692
b'CHR2:85663826:A'	b'M61SunitR3'	3	0.2456	0.0262	0.8692
b'CHR2:85663826:A'	b'M61SunitR4'	3	0.2148	0.0193	0.8692
b'CHR3:48656801:A'	b'M61SunitR1'	3	0.2387	0.0204	0.6301
b'CHR3:48656801:A'	b'M61SunitR2'	3	0.2201	0.0203	0.6301
b'CHR3:48656801:A'	b'M61SunitR3'	3	0.2456	0.0262	0.6301
b'CHR3:48656801:A'	b'M61SunitR4'	3	0.2148	0.0193	0.6301
b'CHR3:50320148:G'	b'M61SunitR1'	3	0.2387	0.0204	0.8921
b'CHR3:50320148:G'	b'M61SunitR2'	3	0.2201	0.0203	0.8921
b'CHR3:50320148:G'	b'M61SunitR3'	3	0.2456	0.0262	0.8921
b'CHR3:50320148:G'	b'M61SunitR4'	3	0.2148	0.0193	0.8921
b'CHR3:55073793:A'	b'M61SunitR1'	3	0.2387	0.0204	0.9039
b'CHR3:55073793:A'	b'M61SunitR2'	3	0.2201	0.0203	0.9039
b'CHR3:55073793:A'	b'M61SunitR3'	3	0.2456	0.0262	0.9039
b'CHR3:55073793:A'	b'M61SunitR4'	3	0.2148	0.0193	0.9039
b'CHR3:78600261:T'	b'M61SunitR1'	3	0.2387	0.0204	0.9487
b'CHR3:78600261:T'	b'M61SunitR2'	3	0.2201	0.0203	0.9487
b'CHR3:78600261:T'	b'M61SunitR3'	3	0.2456	0.0262	0.9487
b'CHR3:78600261:T'	b'M61SunitR4'	3	0.2148	0.0193	0.9487
b'CHR3:9950005:A'	b'M61SunitR1'	3	0.2387	0.0204	1.0000
b'CHR3:9950005:A'	b'M61SunitR2'	3	0.2201	0.0203	1.0000
b'CHR3:9950005:A'	b'M61SunitR3'	3	0.2456	0.0262	1.0000
b'CHR3:9950005:A'	b'M61SunitR4'	3	0.2148	0.0193	1.0000
b'CHR4:125317234:A'	b'M61SunitR1'	3	0.2387	0.0204	0.9995
b'CHR4:125317234:A'	b'M61SunitR2'	3	0.2201	0.0203	0.9995
b'CHR4:125317234:A'	b'M61SunitR3'	3	0.2456	0.0262	0.9995
b'CHR4:125317234:A'	b'M61SunitR4'	3	0.2148	0.0193	0.9995
b'CHR4:147673062:T'	b'M61SunitR1'	3	0.2387	0.0204	0.5455
b'CHR4:147673062:T'	b'M61SunitR2'	3	0.2201	0.0203	0.5455
b'CHR4:147673062:T'	b'M61SunitR3'	3	0.2456	0.0262	0.5455
b'CHR4:147673062:T'	b'M61SunitR4'	3	0.2148	0.0193	0.5455
b'CHR4:185656724:G'	b'M61SunitR1'	3	0.2387	0.0204	0.7240
b'CHR4:185656724:G'	b'M61SunitR2'	3	0.2201	0.0203	0.7240
b'CHR4:185656724:G'	b'M61SunitR3'	3	0.2456	0.0262	0.7240
b'CHR4:185656724:G'	b'M61SunitR4'	3	0.2148	0.0193	0.7240
b'CHR4:186663325:A'	b'M61SunitR1'	3	0.2387	0.0204	0.7104
b'CHR4:186663325:A'	b'M61SunitR2'	3	0.2201	0.0203	0.7104
b'CHR4:186663325:A'	b'M61SunitR3'	3	0.2456	0.0262	0.7104
b'CHR4:186663325:A'	b'M61SunitR4'	3	0.2148	0.0193	0.7104
b'CHR5:139682878:T'	b'M61SunitR1'	3	0.2387	0.0204	0.4403
b'CHR5:139682878:T'	b'M61SunitR2'	3	0.2201	0.0203	0.4403
b'CHR5:139682878:T'	b'M61SunitR3'	3	0.2456	0.0262	0.4403
b'CHR5:139682878:T'	b'M61SunitR4'	3	0.2148	0.0193	0.4403
b'CHR5:139682880:A'	b'M61SunitR1'	3	0.2387	0.0204	0.4403
b'CHR5:139682880:A'	b'M61SunitR2'	3	0.2201	0.0203	0.4403
b'CHR5:139682880:A'	b'M61SunitR3'	3	0.2456	0.0262	0.4403
b'CHR5:139682880:A'	b'M61SunitR4'	3	0.2148	0.0193	0.4403
b'CHR5:141123573:T'	b'M61SunitR1'	3	0.2387	0.0204	0.9539
b'CHR5:141123573:T'	b'M61SunitR2'	3	0.2201	0.0203	0.9539
b'CHR5:141123573:T'	b'M61SunitR3'	3	0.2456	0.0262	0.9539
b'CHR5:141123573:T'	b'M61SunitR4'	3	0.2148	0.0193	0.9539
b'CHR5:141394009:T'	b'M61SunitR1'	3	0.2387	0.0204	0.9417
b'CHR5:141394009:T'	b'M61SunitR2'	3	0.2201	0.0203	0.9417
b'CHR5:141394009:T'	b'M61SunitR3'	3	0.2456	0.0262	0.9417
b'CHR5:141394009:T'	b'M61SunitR4'	3	0.2148	0.0193	0.9417
b'CHR5:157651252:C'	b'M61SunitR1'	3	0.2387	0.0204	0.8380
b'CHR5:157651252:C'	b'M61SunitR2'	3	0.2201	0.0203	0.8380
b'CHR5:157651252:C'	b'M61SunitR3'	3	0.2456	0.0262	0.8380
b'CHR5:157651252:C'	b'M61SunitR4'	3	0.2148	0.0193	0.8380
b'CHR5:168669936:A'	b'M61SunitR1'	3	0.2387	0.0204	0.8177
b'CHR5:168669936:A'	b'M61SunitR2'	3	0.2201	0.0203	0.8177
b'CHR5:168669936:A'	b'M61SunitR3'	3	0.2456	0.0262	0.8177
b'CHR5:168669936:A'	b'M61SunitR4'	3	0.2148	0.0193	0.8177
b'CHR5:74634923:T'	b'M61SunitR1'	3	0.2387	0.0204	0.8820
b'CHR5:74634923:T'	b'M61SunitR2'	3	0.2201	0.0203	0.8820
b'CHR5:74634923:T'	b'M61SunitR3'	3	0.2456	0.0262	0.8820
b'CHR5:74634923:T'	b'M61SunitR4'	3	0.2148	0.0193	0.8820
b'CHR6:10687513:T'	b'M61SunitR1'	3	0.2387	0.0204	0.9987
b'CHR6:10687513:T'	b'M61SunitR2'	3	0.2201	0.0203	0.9987
b'CHR6:10687513:T'	b'M61SunitR3'	3	0.2456	0.0262	0.9987
b'CHR6:10687513:T'	b'M61SunitR4'	3	0.2148	0.0193	0.9987
b'CHR6:11193627:A'	b'M61SunitR1'	3	0.2387	0.0204	0.9982
b'CHR6:11193627:A'	b'M61SunitR2'	3	0.2201	0.0203	0.9982
b'CHR6:11193627:A'	b'M61SunitR3'	3	0.2456	0.0262	0.9982
b'CHR6:11193627:A'	b'M61SunitR4'	3	0.2148	0.0193	0.9982
b'CHR6:12120212:G'	b'M61SunitR1'	3	0.2387	0.0204	0.7360
b'CHR6:12120212:G'	b'M61SunitR2'	3	0.2201	0.0203	0.7360
b'CHR6:12120212:G'	b'M61SunitR3'	3	0.2456	0.0262	0.7360
b'CHR6:12120212:G'	b'M61SunitR4'	3	0.2148	0.0193	0.7360
b'CHR6:160243652:T'	b'M61SunitR1'	3	0.2387	0.0204	0.5989
b'CHR6:160243652:T'	b'M61SunitR2'	3	0.2201	0.0203	0.5989
b'CHR6:160243652:T'	b'M61SunitR3'	3	0.2456	0.0262	0.5989
b'CHR6:160243652:T'	b'M61SunitR4'	3	0.2148	0.0193	0.5989
b'CHR6:73409315:G'	b'M61SunitR1'	3	0.2387	0.0204	0.6576
b'CHR6:73409315:G'	b'M61SunitR2'	3	0.2201	0.0203	0.6576
b'CHR6:73409315:G'	b'M61SunitR3'	3	0.2456	0.0262	0.6576
b'CHR6:73409315:G'	b'M61SunitR4'	3	0.2148	0.0193	0.6576
b'CHR6:7393219:T'	b'M61SunitR1'	3	0.2387	0.0204	0.8148
b'CHR6:7393219:T'	b'M61SunitR2'	3	0.2201	0.0203	0.8148
b'CHR6:7393219:T'	b'M61SunitR3'	3	0.2456	0.0262	0.8148
b'CHR6:7393219:T'	b'M61SunitR4'	3	0.2148	0.0193	0.8148
b'CHR6:7581403:A'	b'M61SunitR1'	3	0.2387	0.0204	0.9782
b'CHR6:7581403:A'	b'M61SunitR2'	3	0.2201	0.0203	0.9782
b'CHR6:7581403:A'	b'M61SunitR3'	3	0.2456	0.0262	0.9782
b'CHR6:7581403:A'	b'M61SunitR4'	3	0.2148	0.0193	0.9782
b'CHR6:7601487:T'	b'M61SunitR1'	3	0.2387	0.0204	0.6156
b'CHR6:7601487:T'	b'M61SunitR2'	3	0.2201	0.0203	0.6156
b'CHR6:7601487:T'	b'M61SunitR3'	3	0.2456	0.0262	0.6156
b'CHR6:7601487:T'	b'M61SunitR4'	3	0.2148	0.0193	0.6156
b'CHR6:9775825:A'	b'M61SunitR1'	3	0.2387	0.0204	0.5257
b'CHR6:9775825:A'	b'M61SunitR2'	3	0.2201	0.0203	0.5257
b'CHR6:9775825:A'	b'M61SunitR3'	3	0.2456	0.0262	0.5257
b'CHR6:9775825:A'	b'M61SunitR4'	3	0.2148	0.0193	0.5257
b'CHR7:103523460:A'	b'M61SunitR1'	3	0.2387	0.0204	0.6165
b'CHR7:103523460:A'	b'M61SunitR2'	3	0.2201	0.0203	0.6165
b'CHR7:103523460:A'	b'M61SunitR3'	3	0.2456	0.0262	0.6165
b'CHR7:103523460:A'	b'M61SunitR4'	3	0.2148	0.0193	0.6165
b'CHR7:39085988:C'	b'M61SunitR1'	3	0.2387	0.0204	0.8279
b'CHR7:39085988:C'	b'M61SunitR2'	3	0.2201	0.0203	0.8279
b'CHR7:39085988:C'	b'M61SunitR3'	3	0.2456	0.0262	0.8279
b'CHR7:39085988:C'	b'M61SunitR4'	3	0.2148	0.0193	0.8279
b'CHR7:39085990:C'	b'M61SunitR1'	3	0.2387	0.0204	0.8279
b'CHR7:39085990:C'	b'M61SunitR2'	3	0.2201	0.0203	0.8279
b'CHR7:39085990:C'	b'M61SunitR3'	3	0.2456	0.0262	0.8279
b'CHR7:39085990:C'	b'M61SunitR4'	3	0.2148	0.0193	0.8279
b'CHR7:44539245:T'	b'M61SunitR1'	3	0.2387	0.0204	0.6798
b'CHR7:44539245:T'	b'M61SunitR2'	3	0.2201	0.0203	0.6798
b'CHR7:44539245:T'	b'M61SunitR3'	3	0.2456	0.0262	0.6798
b'CHR7:44539245:T'	b'M61SunitR4'	3	0.2148	0.0193	0.6798
b'CHR8:143925249:T'	b'M61SunitR1'	3	0.2387	0.0204	0.3571
b'CHR8:143925249:T'	b'M61SunitR2'	3	0.2201	0.0203	0.3571
b'CHR8:143925249:T'	b'M61SunitR3'	3	0.2456	0.0262	0.3571
b'CHR8:143925249:T'	b'M61SunitR4'	3	0.2148	0.0193	0.3571
b'CHR8:144040433:T'	b'M61SunitR1'	3	0.2387	0.0204	0.6452
b'CHR8:144040433:T'	b'M61SunitR2'	3	0.2201	0.0203	0.6452
b'CHR8:144040433:T'	b'M61SunitR3'	3	0.2456	0.0262	0.6452
b'CHR8:144040433:T'	b'M61SunitR4'	3	0.2148	0.0193	0.6452
b'CHR8:54459829:A'	b'M61SunitR1'	3	0.2387	0.0204	0.9375
b'CHR8:54459829:A'	b'M61SunitR2'	3	0.2201	0.0203	0.9375
b'CHR8:54459829:A'	b'M61SunitR3'	3	0.2456	0.0262	0.9375
b'CHR8:54459829:A'	b'M61SunitR4'	3	0.2148	0.0193	0.9375
b'CHR9:123381818:C'	b'M61SunitR1'	3	0.2387	0.0204	0.8824
b'CHR9:123381818:C'	b'M61SunitR2'	3	0.2201	0.0203	0.8824
b'CHR9:123381818:C'	b'M61SunitR3'	3	0.2456	0.0262	0.8824
b'CHR9:123381818:C'	b'M61SunitR4'	3	0.2148	0.0193	0.8824
b'CHR9:125326478:G'	b'M61SunitR1'	3	0.2387	0.0204	0.9610
b'CHR9:125326478:G'	b'M61SunitR2'	3	0.2201	0.0203	0.9610
b'CHR9:125326478:G'	b'M61SunitR3'	3	0.2456	0.0262	0.9610
b'CHR9:125326478:G'	b'M61SunitR4'	3	0.2148	0.0193	0.9610
b'CHR9:127034499:A'	b'M61SunitR1'	3	0.2387	0.0204	0.7049
b'CHR9:127034499:A'	b'M61SunitR2'	3	0.2201	0.0203	0.7049
b'CHR9:127034499:A'	b'M61SunitR3'	3	0.2456	0.0262	0.7049
b'CHR9:127034499:A'	b'M61SunitR4'	3	0.2148	0.0193	0.7049
b'CHR9:134727314:A'	b'M61SunitR1'	3	0.2387	0.0204	0.7316
b'CHR9:134727314:A'	b'M61SunitR2'	3	0.2201	0.0203	0.7316
b'CHR9:134727314:A'	b'M61SunitR3'	3	0.2456	0.0262	0.7316
b'CHR9:134727314:A'	b'M61SunitR4'	3	0.2148	0.0193	0.7316
b'CHR9:34371863:A'	b'M61SunitR1'	3	0.2387	0.0204	0.9704
b'CHR9:34371863:A'	b'M61SunitR2'	3	0.2201	0.0203	0.9704
b'CHR9:34371863:A'	b'M61SunitR3'	3	0.2456	0.0262	0.9704
b'CHR9:34371863:A'	b'M61SunitR4'	3	0.2148	0.0193	0.9704
b'CHR9:34726205:G'	b'M61SunitR1'	3	0.2387	0.0204	0.8422
b'CHR9:34726205:G'	b'M61SunitR2'	3	0.2201	0.0203	0.8422
b'CHR9:34726205:G'	b'M61SunitR3'	3	0.2456	0.0262	0.8422
b'CHR9:34726205:G'	b'M61SunitR4'	3	0.2148	0.0193	0.8422
b'CHR9:34726207:A'	b'M61SunitR1'	3	0.2387	0.0204	0.8422
b'CHR9:34726207:A'	b'M61SunitR2'	3	0.2201	0.0203	0.8422
b'CHR9:34726207:A'	b'M61SunitR3'	3	0.2456	0.0262	0.8422
b'CHR9:34726207:A'	b'M61SunitR4'	3	0.2148	0.0193	0.8422
b'CHR9:78328164:G'	b'M61SunitR1'	3	0.2387	0.0204	0.5155
b'CHR9:78328164:G'	b'M61SunitR2'	3	0.2201	0.0203	0.5155
b'CHR9:78328164:G'	b'M61SunitR3'	3	0.2456	0.0262	0.5155
b'CHR9:78328164:G'	b'M61SunitR4'	3	0.2148	0.0193	0.5155
b'CHR9:95881156:A'	b'M61SunitR1'	3	0.2387	0.0204	0.7640
b'CHR9:95881156:A'	b'M61SunitR2'	3	0.2201	0.0203	0.7640
b'CHR9:95881156:A'	b'M61SunitR3'	3	0.2456	0.0262	0.7640
b'CHR9:95881156:A'	b'M61SunitR4'	3	0.2148	0.0193	0.7640
b'CHR10:128101279:T'	b'M61SunitR1'	4	0.7579	0.0420	0.8330
b'CHR10:128101279:T'	b'M61SunitR2'	4	0.7547	0.0400	0.8330
b'CHR10:128101279:T'	b'M61SunitR3'	4	0.6097	0.0392	0.8330
b'CHR10:128101279:T'	b'M61SunitR4'	4	0.8444	0.0406	0.8330
b'CHR10:92240093:G'	b'M61SunitR1'	4	0.7579	0.0420	0.3315
b'CHR10:92240093:G'	b'M61SunitR2'	4	0.7547	0.0400	0.3315
b'CHR10:92240093:G'	b'M61SunitR3'	4	0.6097	0.0392	0.3315
b'CHR10:92240093:G'	b'M61SunitR4'	4	0.8444	0.0406	0.3315
b'CHR14:31178233:C'	b'M61SunitR1'	4	0.7579	0.0420	0.7646
b'CHR14:31178233:C'	b'M61SunitR2'	4	0.7547	0.0400	0.7646
b'CHR14:31178233:C'	b'M61SunitR3'	4	0.6097	0.0392	0.7646
b'CHR14:31178233:C'	b'M61SunitR4'	4	0.8444	0.0406	0.7646
b'CHR15:68432031:T'	b'M61SunitR1'	4	0.7579	0.0420	0.5262
b'CHR15:68432031:T'	b'M61SunitR2'	4	0.7547	0.0400	0.5262
b'CHR15:68432031:T'	b'M61SunitR3'	4	0.6097	0.0392	0.5262
b'CHR15:68432031:T'	b'M61SunitR4'	4	0.8444	0.0406	0.5262
b'CHR16:1241453:A'	b'M61SunitR1'	4	0.7579	0.0420	0.8038
b'CHR16:1241453:A'	b'M61SunitR2'	4	0.7547	0.0400	0.8038
b'CHR16:1241453:A'	b'M61SunitR3'	4	0.6097	0.0392	0.8038
b'CHR16:1241453:A'	b'M61SunitR4'	4	0.8444	0.0406	0.8038
b'CHR19:1049270:A'	b'M61SunitR1'	4	0.7579	0.0420	0.8513
b'CHR19:1049270:A'	b'M61SunitR2'	4	0.7547	0.0400	0.8513
b'CHR19:1049270:A'	b'M61SunitR3'	4	0.6097	0.0392	0.8513
b'CHR19:1049270:A'	b'M61SunitR4'	4	0.8444	0.0406	0.8513
b'CHR19:52881597:A'	b'M61SunitR1'	4	0.7579	0.0420	0.8394
b'CHR19:52881597:A'	b'M61SunitR2'	4	0.7547	0.0400	0.8394
b'CHR19:52881597:A'	b'M61SunitR3'	4	0.6097	0.0392	0.8394
b'CHR19:52881597:A'	b'M61SunitR4'	4	0.8444	0.0406	0.8394
b'CHR1:111242317:G'	b'M61SunitR1'	4	0.7579	0.0420	0.9929
b'CHR1:111242317:G'	b'M61SunitR2'	4	0.7547	0.0400	0.9929
b'CHR1:111242317:G'	b'M61SunitR3'	4	0.6097	0.0392	0.9929
b'CHR1:111242317:G'	b'M61SunitR4'	4	0.8444	0.0406	0.9929
b'CHR1:11706367:T'	b'M61SunitR1'	4	0.7579	0.0420	0.5747
b'CHR1:11706367:T'	b'M61SunitR2'	4	0.7547	0.0400	0.5747
b'CHR1:11706367:T'	b'M61SunitR3'	4	0.6097	0.0392	0.5747
b'CHR1:11706367:T'	b'M61SunitR4'	4	0.8444	0.0406	0.5747
b'CHR1:11779915:A'	b'M61SunitR1'	4	0.7579	0.0420	0.5759
b'CHR1:11779915:A'	b'M61SunitR2'	4	0.7547	0.0400	0.5759
b'CHR1:11779915:A'	b'M61SunitR3'	4	0.6097	0.0392	0.5759
b'CHR1:11779915:A'	b'M61SunitR4'	4	0.8444	0.0406	0.5759
b'CHR1:13343011:A'	b'M61SunitR1'	4	0.7579	0.0420	0.9141
b'CHR1:13343011:A'	b'M61SunitR2'	4	0.7547	0.0400	0.9141
b'CHR1:13343011:A'	b'M61SunitR3'	4	0.6097	0.0392	0.9141
b'CHR1:13343011:A'	b'M61SunitR4'	4	0.8444	0.0406	0.9141
b'CHR1:13773141:T'	b'M61SunitR1'	4	0.7579	0.0420	0.3852
b'CHR1:13773141:T'	b'M61SunitR2'	4	0.7547	0.0400	0.3852
b'CHR1:13773141:T'	b'M61SunitR3'	4	0.6097	0.0392	0.3852
b'CHR1:13773141:T'	b'M61SunitR4'	4	0.8444	0.0406	0.3852
b'CHR1:13782619:G'	b'M61SunitR1'	4	0.7579	0.0420	0.8236
b'CHR1:13782619:G'	b'M61SunitR2'	4	0.7547	0.0400	0.8236
b'CHR1:13782619:G'	b'M61SunitR3'	4	0.6097	0.0392	0.8236
b'CHR1:13782619:G'	b'M61SunitR4'	4	0.8444	0.0406	0.8236
b'CHR1:15939409:A'	b'M61SunitR1'	4	0.7579	0.0420	0.9932
b'CHR1:15939409:A'	b'M61SunitR2'	4	0.7547	0.0400	0.9932
b'CHR1:15939409:A'	b'M61SunitR3'	4	0.6097	0.0392	0.9932
b'CHR1:15939409:A'	b'M61SunitR4'	4	0.8444	0.0406	0.9932
b'CHR1:17070097:A'	b'M61SunitR1'	4	0.7579	0.0420	0.8417
b'CHR1:17070097:A'	b'M61SunitR2'	4	0.7547	0.0400	0.8417
b'CHR1:17070097:A'	b'M61SunitR3'	4	0.6097	0.0392	0.8417
b'CHR1:17070097:A'	b'M61SunitR4'	4	0.8444	0.0406	0.8417
b'CHR1:19282760:C'	b'M61SunitR1'	4	0.7579	0.0420	0.9900
b'CHR1:19282760:C'	b'M61SunitR2'	4	0.7547	0.0400	0.9900
b'CHR1:19282760:C'	b'M61SunitR3'	4	0.6097	0.0392	0.9900
b'CHR1:19282760:C'	b'M61SunitR4'	4	0.8444	0.0406	0.9900
b'CHR1:19623568:C'	b'M61SunitR1'	4	0.7579	0.0420	0.3915
b'CHR1:19623568:C'	b'M61SunitR2'	4	0.7547	0.0400	0.3915
b'CHR1:19623568:C'	b'M61SunitR3'	4	0.6097	0.0392	0.3915
b'CHR1:19623568:C'	b'M61SunitR4'	4	0.8444	0.0406	0.3915
b'CHR1:215567710:G'	b'M61SunitR1'	4	0.7579	0.0420	0.9695
b'CHR1:215567710:G'	b'M61SunitR2'	4	0.7547	0.0400	0.9695
b'CHR1:215567710:G'	b'M61SunitR3'	4	0.6097	0.0392	0.9695
b'CHR1:215567710:G'	b'M61SunitR4'	4	0.8444	0.0406	0.9695
b'CHR1:230921501:T'	b'M61SunitR1'	4	0.7579	0.0420	0.5957
b'CHR1:230921501:T'	b'M61SunitR2'	4	0.7547	0.0400	0.5957
b'CHR1:230921501:T'	b'M61SunitR3'	4	0.6097	0.0392	0.5957
b'CHR1:230921501:T'	b'M61SunitR4'	4	0.8444	0.0406	0.5957
b'CHR1:26344118:T'	b'M61SunitR1'	4	0.7579	0.0420	0.9435
b'CHR1:26344118:T'	b'M61SunitR2'	4	0.7547	0.0400	0.9435
b'CHR1:26344118:T'	b'M61SunitR3'	4	0.6097	0.0392	0.9435
b'CHR1:26344118:T'	b'M61SunitR4'	4	0.8444	0.0406	0.9435
b'CHR1:26952030:A'	b'M61SunitR1'	4	0.7579	0.0420	0.9709
b'CHR1:26952030:A'	b'M61SunitR2'	4	0.7547	0.0400	0.9709
b'CHR1:26952030:A'	b'M61SunitR3'	4	0.6097	0.0392	0.9709
b'CHR1:26952030:A'	b'M61SunitR4'	4	0.8444	0.0406	0.9709
b'CHR1:31698605:G'	b'M61SunitR1'	4	0.7579	0.0420	0.8019
b'CHR1:31698605:G'	b'M61SunitR2'	4	0.7547	0.0400	0.8019
b'CHR1:31698605:G'	b'M61SunitR3'	4	0.6097	0.0392	0.8019
b'CHR1:31698605:G'	b'M61SunitR4'	4	0.8444	0.0406	0.8019
b'CHR1:33494462:G'	b'M61SunitR1'	4	0.7579	0.0420	0.9999
b'CHR1:33494462:G'	b'M61SunitR2'	4	0.7547	0.0400	0.9999
b'CHR1:33494462:G'	b'M61SunitR3'	4	0.6097	0.0392	0.9999
b'CHR1:33494462:G'	b'M61SunitR4'	4	0.8444	0.0406	0.9999
b'CHR1:3478610:A'	b'M61SunitR1'	4	0.7579	0.0420	0.7563
b'CHR1:3478610:A'	b'M61SunitR2'	4	0.7547	0.0400	0.7563
b'CHR1:3478610:A'	b'M61SunitR3'	4	0.6097	0.0392	0.7563
b'CHR1:3478610:A'	b'M61SunitR4'	4	0.8444	0.0406	0.7563
b'CHR1:3763211:T'	b'M61SunitR1'	4	0.7579	0.0420	0.4878
b'CHR1:3763211:T'	b'M61SunitR2'	4	0.7547	0.0400	0.4878
b'CHR1:3763211:T'	b'M61SunitR3'	4	0.6097	0.0392	0.4878
b'CHR1:3763211:T'	b'M61SunitR4'	4	0.8444	0.0406	0.4878
b'CHR1:53250744:A'	b'M61SunitR1'	4	0.7579	0.0420	0.9757
b'CHR1:53250744:A'	b'M61SunitR2'	4	0.7547	0.0400	0.9757
b'CHR1:53250744:A'	b'M61SunitR3'	4	0.6097	0.0392	0.9757
b'CHR1:53250744:A'	b'M61SunitR4'	4	0.8444	0.0406	0.9757
b'CHR1:53594343:C'	b'M61SunitR1'	4	0.7579	0.0420	0.9752
b'CHR1:53594343:C'	b'M61SunitR2'	4	0.7547	0.0400	0.9752
b'CHR1:53594343:C'	b'M61SunitR3'	4	0.6097	0.0392	0.9752
b'CHR1:53594343:C'	b'M61SunitR4'	4	0.8444	0.0406	0.9752
b'CHR1:53594575:C'	b'M61SunitR1'	4	0.7579	0.0420	0.9449
b'CHR1:53594575:C'	b'M61SunitR2'	4	0.7547	0.0400	0.9449
b'CHR1:53594575:C'	b'M61SunitR3'	4	0.6097	0.0392	0.9449
b'CHR1:53594575:C'	b'M61SunitR4'	4	0.8444	0.0406	0.9449
b'CHR1:64844806:C'	b'M61SunitR1'	4	0.7579	0.0420	0.9731
b'CHR1:64844806:C'	b'M61SunitR2'	4	0.7547	0.0400	0.9731
b'CHR1:64844806:C'	b'M61SunitR3'	4	0.6097	0.0392	0.9731
b'CHR1:64844806:C'	b'M61SunitR4'	4	0.8444	0.0406	0.9731
b'CHR1:7827188:A'	b'M61SunitR1'	4	0.7579	0.0420	0.7405
b'CHR1:7827188:A'	b'M61SunitR2'	4	0.7547	0.0400	0.7405
b'CHR1:7827188:A'	b'M61SunitR3'	4	0.6097	0.0392	0.7405
b'CHR1:7827188:A'	b'M61SunitR4'	4	0.8444	0.0406	0.7405
b'CHR2:219451248:A'	b'M61SunitR1'	4	0.7579	0.0420	0.5575
b'CHR2:219451248:A'	b'M61SunitR2'	4	0.7547	0.0400	0.5575
b'CHR2:219451248:A'	b'M61SunitR3'	4	0.6097	0.0392	0.5575
b'CHR2:219451248:A'	b'M61SunitR4'	4	0.8444	0.0406	0.5575
b'CHR2:232564321:T'	b'M61SunitR1'	4	0.7579	0.0420	0.3865
b'CHR2:232564321:T'	b'M61SunitR2'	4	0.7547	0.0400	0.3865
b'CHR2:232564321:T'	b'M61SunitR3'	4	0.6097	0.0392	0.3865
b'CHR2:232564321:T'	b'M61SunitR4'	4	0.8444	0.0406	0.3865
b'CHR3:41800280:T'	b'M61SunitR1'	4	0.7579	0.0420	0.6208
b'CHR3:41800280:T'	b'M61SunitR2'	4	0.7547	0.0400	0.6208
b'CHR3:41800280:T'	b'M61SunitR3'	4	0.6097	0.0392	0.6208
b'CHR3:41800280:T'	b'M61SunitR4'	4	0.8444	0.0406	0.6208
b'CHR4:85942222:C'	b'M61SunitR1'	4	0.7579	0.0420	0.3649
b'CHR4:85942222:C'	b'M61SunitR2'	4	0.7547	0.0400	0.3649
b'CHR4:85942222:C'	b'M61SunitR3'	4	0.6097	0.0392	0.3649
b'CHR4:85942222:C'	b'M61SunitR4'	4	0.8444	0.0406	0.3649
b'CHR7:72942166:T'	b'M61SunitR1'	4	0.7579	0.0420	0.3503
b'CHR7:72942166:T'	b'M61SunitR2'	4	0.7547	0.0400	0.3503
b'CHR7:72942166:T'	b'M61SunitR3'	4	0.6097	0.0392	0.3503
b'CHR7:72942166:T'	b'M61SunitR4'	4	0.8444	0.0406	0.3503
