mutation_id	sample_id	cluster_id	cellular_prevalence	cellular_prevalence_std	cluster_assignment_prob
b'CHR1:13421192:T'	b'M61SunitR1'	0	0.4905	0.0534	0.8772
b'CHR1:13421192:T'	b'M61SunitR2'	0	0.4525	0.0467	0.8772
b'CHR1:13421192:T'	b'M61SunitR3'	0	0.4305	0.0520	0.8772
b'CHR1:13421192:T'	b'M61SunitR4'	0	0.4776	0.0539	0.8772
b'CHR1:13773141:T'	b'M61SunitR1'	0	0.4905	0.0534	0.3967
b'CHR1:13773141:T'	b'M61SunitR2'	0	0.4525	0.0467	0.3967
b'CHR1:13773141:T'	b'M61SunitR3'	0	0.4305	0.0520	0.3967
b'CHR1:13773141:T'	b'M61SunitR4'	0	0.4776	0.0539	0.3967
b'CHR1:16759300:T'	b'M61SunitR1'	0	0.4905	0.0534	0.9954
b'CHR1:16759300:T'	b'M61SunitR2'	0	0.4525	0.0467	0.9954
b'CHR1:16759300:T'	b'M61SunitR3'	0	0.4305	0.0520	0.9954
b'CHR1:16759300:T'	b'M61SunitR4'	0	0.4776	0.0539	0.9954
b'CHR1:19623568:C'	b'M61SunitR1'	0	0.4905	0.0534	0.3935
b'CHR1:19623568:C'	b'M61SunitR2'	0	0.4525	0.0467	0.3935
b'CHR1:19623568:C'	b'M61SunitR3'	0	0.4305	0.0520	0.3935
b'CHR1:19623568:C'	b'M61SunitR4'	0	0.4776	0.0539	0.3935
b'CHR1:247423969:T'	b'M61SunitR1'	0	0.4905	0.0534	0.9835
b'CHR1:247423969:T'	b'M61SunitR2'	0	0.4525	0.0467	0.9835
b'CHR1:247423969:T'	b'M61SunitR3'	0	0.4305	0.0520	0.9835
b'CHR1:247423969:T'	b'M61SunitR4'	0	0.4776	0.0539	0.9835
b'CHR1:942934:C'	b'M61SunitR1'	0	0.4905	0.0534	0.9255
b'CHR1:942934:C'	b'M61SunitR2'	0	0.4525	0.0467	0.9255
b'CHR1:942934:C'	b'M61SunitR3'	0	0.4305	0.0520	0.9255
b'CHR1:942934:C'	b'M61SunitR4'	0	0.4776	0.0539	0.9255
b'CHR2:170847706:T'	b'M61SunitR1'	0	0.4905	0.0534	0.5068
b'CHR2:170847706:T'	b'M61SunitR2'	0	0.4525	0.0467	0.5068
b'CHR2:170847706:T'	b'M61SunitR3'	0	0.4305	0.0520	0.5068
b'CHR2:170847706:T'	b'M61SunitR4'	0	0.4776	0.0539	0.5068
b'CHR7:151066568:A'	b'M61SunitR1'	0	0.4905	0.0534	0.4666
b'CHR7:151066568:A'	b'M61SunitR2'	0	0.4525	0.0467	0.4666
b'CHR7:151066568:A'	b'M61SunitR3'	0	0.4305	0.0520	0.4666
b'CHR7:151066568:A'	b'M61SunitR4'	0	0.4776	0.0539	0.4666
b'CHR1:155054385:T'	b'M61SunitR1'	1	0.6225	0.0417	0.8719
b'CHR1:155054385:T'	b'M61SunitR2'	1	0.8050	0.0514	0.8719
b'CHR1:155054385:T'	b'M61SunitR3'	1	0.9113	0.0474	0.8719
b'CHR1:155054385:T'	b'M61SunitR4'	1	0.5364	0.0431	0.8719
b'CHR1:16409637:C'	b'M61SunitR1'	1	0.6225	0.0417	0.6044
b'CHR1:16409637:C'	b'M61SunitR2'	1	0.8050	0.0514	0.6044
b'CHR1:16409637:C'	b'M61SunitR3'	1	0.9113	0.0474	0.6044
b'CHR1:16409637:C'	b'M61SunitR4'	1	0.5364	0.0431	0.6044
b'CHR1:17079314:A'	b'M61SunitR1'	1	0.6225	0.0417	0.7343
b'CHR1:17079314:A'	b'M61SunitR2'	1	0.8050	0.0514	0.7343
b'CHR1:17079314:A'	b'M61SunitR3'	1	0.9113	0.0474	0.7343
b'CHR1:17079314:A'	b'M61SunitR4'	1	0.5364	0.0431	0.7343
b'CHR1:17084646:G'	b'M61SunitR1'	1	0.6225	0.0417	0.5036
b'CHR1:17084646:G'	b'M61SunitR2'	1	0.8050	0.0514	0.5036
b'CHR1:17084646:G'	b'M61SunitR3'	1	0.9113	0.0474	0.5036
b'CHR1:17084646:G'	b'M61SunitR4'	1	0.5364	0.0431	0.5036
b'CHR1:18481971:A'	b'M61SunitR1'	1	0.6225	0.0417	0.6667
b'CHR1:18481971:A'	b'M61SunitR2'	1	0.8050	0.0514	0.6667
b'CHR1:18481971:A'	b'M61SunitR3'	1	0.9113	0.0474	0.6667
b'CHR1:18481971:A'	b'M61SunitR4'	1	0.5364	0.0431	0.6667
b'CHR1:18877503:G'	b'M61SunitR1'	1	0.6225	0.0417	0.9454
b'CHR1:18877503:G'	b'M61SunitR2'	1	0.8050	0.0514	0.9454
b'CHR1:18877503:G'	b'M61SunitR3'	1	0.9113	0.0474	0.9454
b'CHR1:18877503:G'	b'M61SunitR4'	1	0.5364	0.0431	0.9454
b'CHR1:20084839:T'	b'M61SunitR1'	1	0.6225	0.0417	0.9686
b'CHR1:20084839:T'	b'M61SunitR2'	1	0.8050	0.0514	0.9686
b'CHR1:20084839:T'	b'M61SunitR3'	1	0.9113	0.0474	0.9686
b'CHR1:20084839:T'	b'M61SunitR4'	1	0.5364	0.0431	0.9686
b'CHR1:202160698:C'	b'M61SunitR1'	1	0.6225	0.0417	0.5884
b'CHR1:202160698:C'	b'M61SunitR2'	1	0.8050	0.0514	0.5884
b'CHR1:202160698:C'	b'M61SunitR3'	1	0.9113	0.0474	0.5884
b'CHR1:202160698:C'	b'M61SunitR4'	1	0.5364	0.0431	0.5884
b'CHR1:21874505:T'	b'M61SunitR1'	1	0.6225	0.0417	0.6232
b'CHR1:21874505:T'	b'M61SunitR2'	1	0.8050	0.0514	0.6232
b'CHR1:21874505:T'	b'M61SunitR3'	1	0.9113	0.0474	0.6232
b'CHR1:21874505:T'	b'M61SunitR4'	1	0.5364	0.0431	0.6232
b'CHR1:22526222:C'	b'M61SunitR1'	1	0.6225	0.0417	0.8870
b'CHR1:22526222:C'	b'M61SunitR2'	1	0.8050	0.0514	0.8870
b'CHR1:22526222:C'	b'M61SunitR3'	1	0.9113	0.0474	0.8870
b'CHR1:22526222:C'	b'M61SunitR4'	1	0.5364	0.0431	0.8870
b'CHR1:25243590:C'	b'M61SunitR1'	1	0.6225	0.0417	0.9649
b'CHR1:25243590:C'	b'M61SunitR2'	1	0.8050	0.0514	0.9649
b'CHR1:25243590:C'	b'M61SunitR3'	1	0.9113	0.0474	0.9649
b'CHR1:25243590:C'	b'M61SunitR4'	1	0.5364	0.0431	0.9649
b'CHR1:27360975:T'	b'M61SunitR1'	1	0.6225	0.0417	0.7911
b'CHR1:27360975:T'	b'M61SunitR2'	1	0.8050	0.0514	0.7911
b'CHR1:27360975:T'	b'M61SunitR3'	1	0.9113	0.0474	0.7911
b'CHR1:27360975:T'	b'M61SunitR4'	1	0.5364	0.0431	0.7911
b'CHR1:31630664:G'	b'M61SunitR1'	1	0.6225	0.0417	0.8201
b'CHR1:31630664:G'	b'M61SunitR2'	1	0.8050	0.0514	0.8201
b'CHR1:31630664:G'	b'M61SunitR3'	1	0.9113	0.0474	0.8201
b'CHR1:31630664:G'	b'M61SunitR4'	1	0.5364	0.0431	0.8201
b'CHR1:32770050:G'	b'M61SunitR1'	1	0.6225	0.0417	0.9697
b'CHR1:32770050:G'	b'M61SunitR2'	1	0.8050	0.0514	0.9697
b'CHR1:32770050:G'	b'M61SunitR3'	1	0.9113	0.0474	0.9697
b'CHR1:32770050:G'	b'M61SunitR4'	1	0.5364	0.0431	0.9697
b'CHR1:51840355:A'	b'M61SunitR1'	1	0.6225	0.0417	0.9879
b'CHR1:51840355:A'	b'M61SunitR2'	1	0.8050	0.0514	0.9879
b'CHR1:51840355:A'	b'M61SunitR3'	1	0.9113	0.0474	0.9879
b'CHR1:51840355:A'	b'M61SunitR4'	1	0.5364	0.0431	0.9879
b'CHR1:53247055:T'	b'M61SunitR1'	1	0.6225	0.0417	0.7310
b'CHR1:53247055:T'	b'M61SunitR2'	1	0.8050	0.0514	0.7310
b'CHR1:53247055:T'	b'M61SunitR3'	1	0.9113	0.0474	0.7310
b'CHR1:53247055:T'	b'M61SunitR4'	1	0.5364	0.0431	0.7310
b'CHR1:63323280:A'	b'M61SunitR1'	1	0.6225	0.0417	0.6998
b'CHR1:63323280:A'	b'M61SunitR2'	1	0.8050	0.0514	0.6998
b'CHR1:63323280:A'	b'M61SunitR3'	1	0.9113	0.0474	0.6998
b'CHR1:63323280:A'	b'M61SunitR4'	1	0.5364	0.0431	0.6998
b'CHR1:63415881:T'	b'M61SunitR1'	1	0.6225	0.0417	0.5219
b'CHR1:63415881:T'	b'M61SunitR2'	1	0.8050	0.0514	0.5219
b'CHR1:63415881:T'	b'M61SunitR3'	1	0.9113	0.0474	0.5219
b'CHR1:63415881:T'	b'M61SunitR4'	1	0.5364	0.0431	0.5219
b'CHR22:37066106:C'	b'M61SunitR1'	1	0.6225	0.0417	0.7089
b'CHR22:37066106:C'	b'M61SunitR2'	1	0.8050	0.0514	0.7089
b'CHR22:37066106:C'	b'M61SunitR3'	1	0.9113	0.0474	0.7089
b'CHR22:37066106:C'	b'M61SunitR4'	1	0.5364	0.0431	0.7089
b'CHR2:73291715:T'	b'M61SunitR1'	1	0.6225	0.0417	0.7402
b'CHR2:73291715:T'	b'M61SunitR2'	1	0.8050	0.0514	0.7402
b'CHR2:73291715:T'	b'M61SunitR3'	1	0.9113	0.0474	0.7402
b'CHR2:73291715:T'	b'M61SunitR4'	1	0.5364	0.0431	0.7402
b'CHR3:48447042:C'	b'M61SunitR1'	1	0.6225	0.0417	0.6456
b'CHR3:48447042:C'	b'M61SunitR2'	1	0.8050	0.0514	0.6456
b'CHR3:48447042:C'	b'M61SunitR3'	1	0.9113	0.0474	0.6456
b'CHR3:48447042:C'	b'M61SunitR4'	1	0.5364	0.0431	0.6456
b'CHR5:150540177:C'	b'M61SunitR1'	1	0.6225	0.0417	0.9064
b'CHR5:150540177:C'	b'M61SunitR2'	1	0.8050	0.0514	0.9064
b'CHR5:150540177:C'	b'M61SunitR3'	1	0.9113	0.0474	0.9064
b'CHR5:150540177:C'	b'M61SunitR4'	1	0.5364	0.0431	0.9064
b'CHR6:3154637:C'	b'M61SunitR1'	1	0.6225	0.0417	0.3344
b'CHR6:3154637:C'	b'M61SunitR2'	1	0.8050	0.0514	0.3344
b'CHR6:3154637:C'	b'M61SunitR3'	1	0.9113	0.0474	0.3344
b'CHR6:3154637:C'	b'M61SunitR4'	1	0.5364	0.0431	0.3344
b'CHR9:26928213:T'	b'M61SunitR1'	1	0.6225	0.0417	0.7739
b'CHR9:26928213:T'	b'M61SunitR2'	1	0.8050	0.0514	0.7739
b'CHR9:26928213:T'	b'M61SunitR3'	1	0.9113	0.0474	0.7739
b'CHR9:26928213:T'	b'M61SunitR4'	1	0.5364	0.0431	0.7739
b'CHR10:128101279:T'	b'M61SunitR1'	2	0.7575	0.0421	0.8292
b'CHR10:128101279:T'	b'M61SunitR2'	2	0.7546	0.0401	0.8292
b'CHR10:128101279:T'	b'M61SunitR3'	2	0.6079	0.0392	0.8292
b'CHR10:128101279:T'	b'M61SunitR4'	2	0.8449	0.0407	0.8292
b'CHR10:92240093:G'	b'M61SunitR1'	2	0.7575	0.0421	0.3419
b'CHR10:92240093:G'	b'M61SunitR2'	2	0.7546	0.0401	0.3419
b'CHR10:92240093:G'	b'M61SunitR3'	2	0.6079	0.0392	0.3419
b'CHR10:92240093:G'	b'M61SunitR4'	2	0.8449	0.0407	0.3419
b'CHR14:31178233:C'	b'M61SunitR1'	2	0.7575	0.0421	0.7616
b'CHR14:31178233:C'	b'M61SunitR2'	2	0.7546	0.0401	0.7616
b'CHR14:31178233:C'	b'M61SunitR3'	2	0.6079	0.0392	0.7616
b'CHR14:31178233:C'	b'M61SunitR4'	2	0.8449	0.0407	0.7616
b'CHR15:68432031:T'	b'M61SunitR1'	2	0.7575	0.0421	0.5261
b'CHR15:68432031:T'	b'M61SunitR2'	2	0.7546	0.0401	0.5261
b'CHR15:68432031:T'	b'M61SunitR3'	2	0.6079	0.0392	0.5261
b'CHR15:68432031:T'	b'M61SunitR4'	2	0.8449	0.0407	0.5261
b'CHR16:1241453:A'	b'M61SunitR1'	2	0.7575	0.0421	0.7985
b'CHR16:1241453:A'	b'M61SunitR2'	2	0.7546	0.0401	0.7985
b'CHR16:1241453:A'	b'M61SunitR3'	2	0.6079	0.0392	0.7985
b'CHR16:1241453:A'	b'M61SunitR4'	2	0.8449	0.0407	0.7985
b'CHR19:1049270:A'	b'M61SunitR1'	2	0.7575	0.0421	0.8354
b'CHR19:1049270:A'	b'M61SunitR2'	2	0.7546	0.0401	0.8354
b'CHR19:1049270:A'	b'M61SunitR3'	2	0.6079	0.0392	0.8354
b'CHR19:1049270:A'	b'M61SunitR4'	2	0.8449	0.0407	0.8354
b'CHR19:52881597:A'	b'M61SunitR1'	2	0.7575	0.0421	0.8389
b'CHR19:52881597:A'	b'M61SunitR2'	2	0.7546	0.0401	0.8389
b'CHR19:52881597:A'	b'M61SunitR3'	2	0.6079	0.0392	0.8389
b'CHR19:52881597:A'	b'M61SunitR4'	2	0.8449	0.0407	0.8389
b'CHR1:111242317:G'	b'M61SunitR1'	2	0.7575	0.0421	0.9931
b'CHR1:111242317:G'	b'M61SunitR2'	2	0.7546	0.0401	0.9931
b'CHR1:111242317:G'	b'M61SunitR3'	2	0.6079	0.0392	0.9931
b'CHR1:111242317:G'	b'M61SunitR4'	2	0.8449	0.0407	0.9931
b'CHR1:11706367:T'	b'M61SunitR1'	2	0.7575	0.0421	0.5646
b'CHR1:11706367:T'	b'M61SunitR2'	2	0.7546	0.0401	0.5646
b'CHR1:11706367:T'	b'M61SunitR3'	2	0.6079	0.0392	0.5646
b'CHR1:11706367:T'	b'M61SunitR4'	2	0.8449	0.0407	0.5646
b'CHR1:11779915:A'	b'M61SunitR1'	2	0.7575	0.0421	0.5785
b'CHR1:11779915:A'	b'M61SunitR2'	2	0.7546	0.0401	0.5785
b'CHR1:11779915:A'	b'M61SunitR3'	2	0.6079	0.0392	0.5785
b'CHR1:11779915:A'	b'M61SunitR4'	2	0.8449	0.0407	0.5785
b'CHR1:13343011:A'	b'M61SunitR1'	2	0.7575	0.0421	0.9094
b'CHR1:13343011:A'	b'M61SunitR2'	2	0.7546	0.0401	0.9094
b'CHR1:13343011:A'	b'M61SunitR3'	2	0.6079	0.0392	0.9094
b'CHR1:13343011:A'	b'M61SunitR4'	2	0.8449	0.0407	0.9094
b'CHR1:13782619:G'	b'M61SunitR1'	2	0.7575	0.0421	0.8196
b'CHR1:13782619:G'	b'M61SunitR2'	2	0.7546	0.0401	0.8196
b'CHR1:13782619:G'	b'M61SunitR3'	2	0.6079	0.0392	0.8196
b'CHR1:13782619:G'	b'M61SunitR4'	2	0.8449	0.0407	0.8196
b'CHR1:15939409:A'	b'M61SunitR1'	2	0.7575	0.0421	0.9926
b'CHR1:15939409:A'	b'M61SunitR2'	2	0.7546	0.0401	0.9926
b'CHR1:15939409:A'	b'M61SunitR3'	2	0.6079	0.0392	0.9926
b'CHR1:15939409:A'	b'M61SunitR4'	2	0.8449	0.0407	0.9926
b'CHR1:17070097:A'	b'M61SunitR1'	2	0.7575	0.0421	0.8370
b'CHR1:17070097:A'	b'M61SunitR2'	2	0.7546	0.0401	0.8370
b'CHR1:17070097:A'	b'M61SunitR3'	2	0.6079	0.0392	0.8370
b'CHR1:17070097:A'	b'M61SunitR4'	2	0.8449	0.0407	0.8370
b'CHR1:19282760:C'	b'M61SunitR1'	2	0.7575	0.0421	0.9893
b'CHR1:19282760:C'	b'M61SunitR2'	2	0.7546	0.0401	0.9893
b'CHR1:19282760:C'	b'M61SunitR3'	2	0.6079	0.0392	0.9893
b'CHR1:19282760:C'	b'M61SunitR4'	2	0.8449	0.0407	0.9893
b'CHR1:215567710:G'	b'M61SunitR1'	2	0.7575	0.0421	0.9682
b'CHR1:215567710:G'	b'M61SunitR2'	2	0.7546	0.0401	0.9682
b'CHR1:215567710:G'	b'M61SunitR3'	2	0.6079	0.0392	0.9682
b'CHR1:215567710:G'	b'M61SunitR4'	2	0.8449	0.0407	0.9682
b'CHR1:230921501:T'	b'M61SunitR1'	2	0.7575	0.0421	0.5828
b'CHR1:230921501:T'	b'M61SunitR2'	2	0.7546	0.0401	0.5828
b'CHR1:230921501:T'	b'M61SunitR3'	2	0.6079	0.0392	0.5828
b'CHR1:230921501:T'	b'M61SunitR4'	2	0.8449	0.0407	0.5828
b'CHR1:26344118:T'	b'M61SunitR1'	2	0.7575	0.0421	0.9425
b'CHR1:26344118:T'	b'M61SunitR2'	2	0.7546	0.0401	0.9425
b'CHR1:26344118:T'	b'M61SunitR3'	2	0.6079	0.0392	0.9425
b'CHR1:26344118:T'	b'M61SunitR4'	2	0.8449	0.0407	0.9425
b'CHR1:26952030:A'	b'M61SunitR1'	2	0.7575	0.0421	0.9695
b'CHR1:26952030:A'	b'M61SunitR2'	2	0.7546	0.0401	0.9695
b'CHR1:26952030:A'	b'M61SunitR3'	2	0.6079	0.0392	0.9695
b'CHR1:26952030:A'	b'M61SunitR4'	2	0.8449	0.0407	0.9695
b'CHR1:31698605:G'	b'M61SunitR1'	2	0.7575	0.0421	0.8010
b'CHR1:31698605:G'	b'M61SunitR2'	2	0.7546	0.0401	0.8010
b'CHR1:31698605:G'	b'M61SunitR3'	2	0.6079	0.0392	0.8010
b'CHR1:31698605:G'	b'M61SunitR4'	2	0.8449	0.0407	0.8010
b'CHR1:33494462:G'	b'M61SunitR1'	2	0.7575	0.0421	0.9999
b'CHR1:33494462:G'	b'M61SunitR2'	2	0.7546	0.0401	0.9999
b'CHR1:33494462:G'	b'M61SunitR3'	2	0.6079	0.0392	0.9999
b'CHR1:33494462:G'	b'M61SunitR4'	2	0.8449	0.0407	0.9999
b'CHR1:3478610:A'	b'M61SunitR1'	2	0.7575	0.0421	0.7487
b'CHR1:3478610:A'	b'M61SunitR2'	2	0.7546	0.0401	0.7487
b'CHR1:3478610:A'	b'M61SunitR3'	2	0.6079	0.0392	0.7487
b'CHR1:3478610:A'	b'M61SunitR4'	2	0.8449	0.0407	0.7487
b'CHR1:3763211:T'	b'M61SunitR1'	2	0.7575	0.0421	0.4811
b'CHR1:3763211:T'	b'M61SunitR2'	2	0.7546	0.0401	0.4811
b'CHR1:3763211:T'	b'M61SunitR3'	2	0.6079	0.0392	0.4811
b'CHR1:3763211:T'	b'M61SunitR4'	2	0.8449	0.0407	0.4811
b'CHR1:53250744:A'	b'M61SunitR1'	2	0.7575	0.0421	0.9746
b'CHR1:53250744:A'	b'M61SunitR2'	2	0.7546	0.0401	0.9746
b'CHR1:53250744:A'	b'M61SunitR3'	2	0.6079	0.0392	0.9746
b'CHR1:53250744:A'	b'M61SunitR4'	2	0.8449	0.0407	0.9746
b'CHR1:53594343:C'	b'M61SunitR1'	2	0.7575	0.0421	0.9744
b'CHR1:53594343:C'	b'M61SunitR2'	2	0.7546	0.0401	0.9744
b'CHR1:53594343:C'	b'M61SunitR3'	2	0.6079	0.0392	0.9744
b'CHR1:53594343:C'	b'M61SunitR4'	2	0.8449	0.0407	0.9744
b'CHR1:53594575:C'	b'M61SunitR1'	2	0.7575	0.0421	0.9421
b'CHR1:53594575:C'	b'M61SunitR2'	2	0.7546	0.0401	0.9421
b'CHR1:53594575:C'	b'M61SunitR3'	2	0.6079	0.0392	0.9421
b'CHR1:53594575:C'	b'M61SunitR4'	2	0.8449	0.0407	0.9421
b'CHR1:64844806:C'	b'M61SunitR1'	2	0.7575	0.0421	0.9722
b'CHR1:64844806:C'	b'M61SunitR2'	2	0.7546	0.0401	0.9722
b'CHR1:64844806:C'	b'M61SunitR3'	2	0.6079	0.0392	0.9722
b'CHR1:64844806:C'	b'M61SunitR4'	2	0.8449	0.0407	0.9722
b'CHR1:7827188:A'	b'M61SunitR1'	2	0.7575	0.0421	0.7301
b'CHR1:7827188:A'	b'M61SunitR2'	2	0.7546	0.0401	0.7301
b'CHR1:7827188:A'	b'M61SunitR3'	2	0.6079	0.0392	0.7301
b'CHR1:7827188:A'	b'M61SunitR4'	2	0.8449	0.0407	0.7301
b'CHR2:219451248:A'	b'M61SunitR1'	2	0.7575	0.0421	0.5492
b'CHR2:219451248:A'	b'M61SunitR2'	2	0.7546	0.0401	0.5492
b'CHR2:219451248:A'	b'M61SunitR3'	2	0.6079	0.0392	0.5492
b'CHR2:219451248:A'	b'M61SunitR4'	2	0.8449	0.0407	0.5492
b'CHR2:232564321:T'	b'M61SunitR1'	2	0.7575	0.0421	0.3892
b'CHR2:232564321:T'	b'M61SunitR2'	2	0.7546	0.0401	0.3892
b'CHR2:232564321:T'	b'M61SunitR3'	2	0.6079	0.0392	0.3892
b'CHR2:232564321:T'	b'M61SunitR4'	2	0.8449	0.0407	0.3892
b'CHR3:41800280:T'	b'M61SunitR1'	2	0.7575	0.0421	0.6319
b'CHR3:41800280:T'	b'M61SunitR2'	2	0.7546	0.0401	0.6319
b'CHR3:41800280:T'	b'M61SunitR3'	2	0.6079	0.0392	0.6319
b'CHR3:41800280:T'	b'M61SunitR4'	2	0.8449	0.0407	0.6319
b'CHR4:85942222:C'	b'M61SunitR1'	2	0.7575	0.0421	0.3757
b'CHR4:85942222:C'	b'M61SunitR2'	2	0.7546	0.0401	0.3757
b'CHR4:85942222:C'	b'M61SunitR3'	2	0.6079	0.0392	0.3757
b'CHR4:85942222:C'	b'M61SunitR4'	2	0.8449	0.0407	0.3757
b'CHR7:72942166:T'	b'M61SunitR1'	2	0.7575	0.0421	0.3614
b'CHR7:72942166:T'	b'M61SunitR2'	2	0.7546	0.0401	0.3614
b'CHR7:72942166:T'	b'M61SunitR3'	2	0.6079	0.0392	0.3614
b'CHR7:72942166:T'	b'M61SunitR4'	2	0.8449	0.0407	0.3614
b'CHR12:40481156:A'	b'M61SunitR1'	3	0.0689	0.0187	0.9925
b'CHR12:40481156:A'	b'M61SunitR2'	3	0.0697	0.0271	0.9925
b'CHR12:40481156:A'	b'M61SunitR3'	3	0.3088	0.1235	0.9925
b'CHR12:40481156:A'	b'M61SunitR4'	3	0.0839	0.0197	0.9925
b'CHR12:40481157:G'	b'M61SunitR1'	3	0.0689	0.0187	0.9918
b'CHR12:40481157:G'	b'M61SunitR2'	3	0.0697	0.0271	0.9918
b'CHR12:40481157:G'	b'M61SunitR3'	3	0.3088	0.1235	0.9918
b'CHR12:40481157:G'	b'M61SunitR4'	3	0.0839	0.0197	0.9918
b'CHR12:40482641:G'	b'M61SunitR1'	3	0.0689	0.0187	0.9955
b'CHR12:40482641:G'	b'M61SunitR2'	3	0.0697	0.0271	0.9955
b'CHR12:40482641:G'	b'M61SunitR3'	3	0.3088	0.1235	0.9955
b'CHR12:40482641:G'	b'M61SunitR4'	3	0.0839	0.0197	0.9955
b'CHR19:14765687:T'	b'M61SunitR1'	3	0.0689	0.0187	1.0000
b'CHR19:14765687:T'	b'M61SunitR2'	3	0.0697	0.0271	1.0000
b'CHR19:14765687:T'	b'M61SunitR3'	3	0.3088	0.1235	1.0000
b'CHR19:14765687:T'	b'M61SunitR4'	3	0.0839	0.0197	1.0000
b'CHR19:43081182:G'	b'M61SunitR1'	3	0.0689	0.0187	0.9475
b'CHR19:43081182:G'	b'M61SunitR2'	3	0.0697	0.0271	0.9475
b'CHR19:43081182:G'	b'M61SunitR3'	3	0.3088	0.1235	0.9475
b'CHR19:43081182:G'	b'M61SunitR4'	3	0.0839	0.0197	0.9475
b'CHR8:143871184:T'	b'M61SunitR1'	3	0.0689	0.0187	0.5800
b'CHR8:143871184:T'	b'M61SunitR2'	3	0.0697	0.0271	0.5800
b'CHR8:143871184:T'	b'M61SunitR3'	3	0.3088	0.1235	0.5800
b'CHR8:143871184:T'	b'M61SunitR4'	3	0.0839	0.0197	0.5800
b'CHR10:16928249:A'	b'M61SunitR1'	4	0.2388	0.0204	0.8629
b'CHR10:16928249:A'	b'M61SunitR2'	4	0.2201	0.0203	0.8629
b'CHR10:16928249:A'	b'M61SunitR3'	4	0.2459	0.0262	0.8629
b'CHR10:16928249:A'	b'M61SunitR4'	4	0.2148	0.0193	0.8629
b'CHR10:27994928:C'	b'M61SunitR1'	4	0.2388	0.0204	0.5946
b'CHR10:27994928:C'	b'M61SunitR2'	4	0.2201	0.0203	0.5946
b'CHR10:27994928:C'	b'M61SunitR3'	4	0.2459	0.0262	0.5946
b'CHR10:27994928:C'	b'M61SunitR4'	4	0.2148	0.0193	0.5946
b'CHR10:37153617:T'	b'M61SunitR1'	4	0.2388	0.0204	0.9447
b'CHR10:37153617:T'	b'M61SunitR2'	4	0.2201	0.0203	0.9447
b'CHR10:37153617:T'	b'M61SunitR3'	4	0.2459	0.0262	0.9447
b'CHR10:37153617:T'	b'M61SunitR4'	4	0.2148	0.0193	0.9447
b'CHR11:117917207:C'	b'M61SunitR1'	4	0.2388	0.0204	0.9450
b'CHR11:117917207:C'	b'M61SunitR2'	4	0.2201	0.0203	0.9450
b'CHR11:117917207:C'	b'M61SunitR3'	4	0.2459	0.0262	0.9450
b'CHR11:117917207:C'	b'M61SunitR4'	4	0.2148	0.0193	0.9450
b'CHR11:120128675:T'	b'M61SunitR1'	4	0.2388	0.0204	0.9993
b'CHR11:120128675:T'	b'M61SunitR2'	4	0.2201	0.0203	0.9993
b'CHR11:120128675:T'	b'M61SunitR3'	4	0.2459	0.0262	0.9993
b'CHR11:120128675:T'	b'M61SunitR4'	4	0.2148	0.0193	0.9993
b'CHR11:6002291:G'	b'M61SunitR1'	4	0.2388	0.0204	0.4786
b'CHR11:6002291:G'	b'M61SunitR2'	4	0.2201	0.0203	0.4786
b'CHR11:6002291:G'	b'M61SunitR3'	4	0.2459	0.0262	0.4786
b'CHR11:6002291:G'	b'M61SunitR4'	4	0.2148	0.0193	0.4786
b'CHR11:63904940:C'	b'M61SunitR1'	4	0.2388	0.0204	0.4086
b'CHR11:63904940:C'	b'M61SunitR2'	4	0.2201	0.0203	0.4086
b'CHR11:63904940:C'	b'M61SunitR3'	4	0.2459	0.0262	0.4086
b'CHR11:63904940:C'	b'M61SunitR4'	4	0.2148	0.0193	0.4086
b'CHR11:63904942:A'	b'M61SunitR1'	4	0.2388	0.0204	0.4086
b'CHR11:63904942:A'	b'M61SunitR2'	4	0.2201	0.0203	0.4086
b'CHR11:63904942:A'	b'M61SunitR3'	4	0.2459	0.0262	0.4086
b'CHR11:63904942:A'	b'M61SunitR4'	4	0.2148	0.0193	0.4086
b'CHR11:65778836:A'	b'M61SunitR1'	4	0.2388	0.0204	0.9525
b'CHR11:65778836:A'	b'M61SunitR2'	4	0.2201	0.0203	0.9525
b'CHR11:65778836:A'	b'M61SunitR3'	4	0.2459	0.0262	0.9525
b'CHR11:65778836:A'	b'M61SunitR4'	4	0.2148	0.0193	0.9525
b'CHR11:73975073:A'	b'M61SunitR1'	4	0.2388	0.0204	0.9439
b'CHR11:73975073:A'	b'M61SunitR2'	4	0.2201	0.0203	0.9439
b'CHR11:73975073:A'	b'M61SunitR3'	4	0.2459	0.0262	0.9439
b'CHR11:73975073:A'	b'M61SunitR4'	4	0.2148	0.0193	0.9439
b'CHR12:108518570:T'	b'M61SunitR1'	4	0.2388	0.0204	0.9360
b'CHR12:108518570:T'	b'M61SunitR2'	4	0.2201	0.0203	0.9360
b'CHR12:108518570:T'	b'M61SunitR3'	4	0.2459	0.0262	0.9360
b'CHR12:108518570:T'	b'M61SunitR4'	4	0.2148	0.0193	0.9360
b'CHR12:25144543:A'	b'M61SunitR1'	4	0.2388	0.0204	0.7867
b'CHR12:25144543:A'	b'M61SunitR2'	4	0.2201	0.0203	0.7867
b'CHR12:25144543:A'	b'M61SunitR3'	4	0.2459	0.0262	0.7867
b'CHR12:25144543:A'	b'M61SunitR4'	4	0.2148	0.0193	0.7867
b'CHR12:51699632:A'	b'M61SunitR1'	4	0.2388	0.0204	0.5958
b'CHR12:51699632:A'	b'M61SunitR2'	4	0.2201	0.0203	0.5958
b'CHR12:51699632:A'	b'M61SunitR3'	4	0.2459	0.0262	0.5958
b'CHR12:51699632:A'	b'M61SunitR4'	4	0.2148	0.0193	0.5958
b'CHR12:55027042:G'	b'M61SunitR1'	4	0.2388	0.0204	0.8553
b'CHR12:55027042:G'	b'M61SunitR2'	4	0.2201	0.0203	0.8553
b'CHR12:55027042:G'	b'M61SunitR3'	4	0.2459	0.0262	0.8553
b'CHR12:55027042:G'	b'M61SunitR4'	4	0.2148	0.0193	0.8553
b'CHR12:56267413:A'	b'M61SunitR1'	4	0.2388	0.0204	0.9829
b'CHR12:56267413:A'	b'M61SunitR2'	4	0.2201	0.0203	0.9829
b'CHR12:56267413:A'	b'M61SunitR3'	4	0.2459	0.0262	0.9829
b'CHR12:56267413:A'	b'M61SunitR4'	4	0.2148	0.0193	0.9829
b'CHR12:57629873:G'	b'M61SunitR1'	4	0.2388	0.0204	0.9328
b'CHR12:57629873:G'	b'M61SunitR2'	4	0.2201	0.0203	0.9328
b'CHR12:57629873:G'	b'M61SunitR3'	4	0.2459	0.0262	0.9328
b'CHR12:57629873:G'	b'M61SunitR4'	4	0.2148	0.0193	0.9328
b'CHR12:85046079:A'	b'M61SunitR1'	4	0.2388	0.0204	0.8081
b'CHR12:85046079:A'	b'M61SunitR2'	4	0.2201	0.0203	0.8081
b'CHR12:85046079:A'	b'M61SunitR3'	4	0.2459	0.0262	0.8081
b'CHR12:85046079:A'	b'M61SunitR4'	4	0.2148	0.0193	0.8081
b'CHR14:36725655:A'	b'M61SunitR1'	4	0.2388	0.0204	0.7790
b'CHR14:36725655:A'	b'M61SunitR2'	4	0.2201	0.0203	0.7790
b'CHR14:36725655:A'	b'M61SunitR3'	4	0.2459	0.0262	0.7790
b'CHR14:36725655:A'	b'M61SunitR4'	4	0.2148	0.0193	0.7790
b'CHR15:23566598:A'	b'M61SunitR1'	4	0.2388	0.0204	0.9884
b'CHR15:23566598:A'	b'M61SunitR2'	4	0.2201	0.0203	0.9884
b'CHR15:23566598:A'	b'M61SunitR3'	4	0.2459	0.0262	0.9884
b'CHR15:23566598:A'	b'M61SunitR4'	4	0.2148	0.0193	0.9884
b'CHR15:33826673:A'	b'M61SunitR1'	4	0.2388	0.0204	0.6353
b'CHR15:33826673:A'	b'M61SunitR2'	4	0.2201	0.0203	0.6353
b'CHR15:33826673:A'	b'M61SunitR3'	4	0.2459	0.0262	0.6353
b'CHR15:33826673:A'	b'M61SunitR4'	4	0.2148	0.0193	0.6353
b'CHR15:41572531:T'	b'M61SunitR1'	4	0.2388	0.0204	0.8980
b'CHR15:41572531:T'	b'M61SunitR2'	4	0.2201	0.0203	0.8980
b'CHR15:41572531:T'	b'M61SunitR3'	4	0.2459	0.0262	0.8980
b'CHR15:41572531:T'	b'M61SunitR4'	4	0.2148	0.0193	0.8980
b'CHR17:10511933:A'	b'M61SunitR1'	4	0.2388	0.0204	0.7251
b'CHR17:10511933:A'	b'M61SunitR2'	4	0.2201	0.0203	0.7251
b'CHR17:10511933:A'	b'M61SunitR3'	4	0.2459	0.0262	0.7251
b'CHR17:10511933:A'	b'M61SunitR4'	4	0.2148	0.0193	0.7251
b'CHR17:10539354:G'	b'M61SunitR1'	4	0.2388	0.0204	0.8042
b'CHR17:10539354:G'	b'M61SunitR2'	4	0.2201	0.0203	0.8042
b'CHR17:10539354:G'	b'M61SunitR3'	4	0.2459	0.0262	0.8042
b'CHR17:10539354:G'	b'M61SunitR4'	4	0.2148	0.0193	0.8042
b'CHR17:20204775:G'	b'M61SunitR1'	4	0.2388	0.0204	0.9015
b'CHR17:20204775:G'	b'M61SunitR2'	4	0.2201	0.0203	0.9015
b'CHR17:20204775:G'	b'M61SunitR3'	4	0.2459	0.0262	0.9015
b'CHR17:20204775:G'	b'M61SunitR4'	4	0.2148	0.0193	0.9015
b'CHR19:1495334:T'	b'M61SunitR1'	4	0.2388	0.0204	0.9149
b'CHR19:1495334:T'	b'M61SunitR2'	4	0.2201	0.0203	0.9149
b'CHR19:1495334:T'	b'M61SunitR3'	4	0.2459	0.0262	0.9149
b'CHR19:1495334:T'	b'M61SunitR4'	4	0.2148	0.0193	0.9149
b'CHR19:18870062:C'	b'M61SunitR1'	4	0.2388	0.0204	0.9242
b'CHR19:18870062:C'	b'M61SunitR2'	4	0.2201	0.0203	0.9242
b'CHR19:18870062:C'	b'M61SunitR3'	4	0.2459	0.0262	0.9242
b'CHR19:18870062:C'	b'M61SunitR4'	4	0.2148	0.0193	0.9242
b'CHR19:20545051:T'	b'M61SunitR1'	4	0.2388	0.0204	0.8505
b'CHR19:20545051:T'	b'M61SunitR2'	4	0.2201	0.0203	0.8505
b'CHR19:20545051:T'	b'M61SunitR3'	4	0.2459	0.0262	0.8505
b'CHR19:20545051:T'	b'M61SunitR4'	4	0.2148	0.0193	0.8505
b'CHR19:36915827:T'	b'M61SunitR1'	4	0.2388	0.0204	0.9992
b'CHR19:36915827:T'	b'M61SunitR2'	4	0.2201	0.0203	0.9992
b'CHR19:36915827:T'	b'M61SunitR3'	4	0.2459	0.0262	0.9992
b'CHR19:36915827:T'	b'M61SunitR4'	4	0.2148	0.0193	0.9992
b'CHR19:45591702:A'	b'M61SunitR1'	4	0.2388	0.0204	0.9148
b'CHR19:45591702:A'	b'M61SunitR2'	4	0.2201	0.0203	0.9148
b'CHR19:45591702:A'	b'M61SunitR3'	4	0.2459	0.0262	0.9148
b'CHR19:45591702:A'	b'M61SunitR4'	4	0.2148	0.0193	0.9148
b'CHR19:47042860:A'	b'M61SunitR1'	4	0.2388	0.0204	0.8782
b'CHR19:47042860:A'	b'M61SunitR2'	4	0.2201	0.0203	0.8782
b'CHR19:47042860:A'	b'M61SunitR3'	4	0.2459	0.0262	0.8782
b'CHR19:47042860:A'	b'M61SunitR4'	4	0.2148	0.0193	0.8782
b'CHR19:4714132:A'	b'M61SunitR1'	4	0.2388	0.0204	0.8654
b'CHR19:4714132:A'	b'M61SunitR2'	4	0.2201	0.0203	0.8654
b'CHR19:4714132:A'	b'M61SunitR3'	4	0.2459	0.0262	0.8654
b'CHR19:4714132:A'	b'M61SunitR4'	4	0.2148	0.0193	0.8654
b'CHR19:52705931:T'	b'M61SunitR1'	4	0.2388	0.0204	0.9864
b'CHR19:52705931:T'	b'M61SunitR2'	4	0.2201	0.0203	0.9864
b'CHR19:52705931:T'	b'M61SunitR3'	4	0.2459	0.0262	0.9864
b'CHR19:52705931:T'	b'M61SunitR4'	4	0.2148	0.0193	0.9864
b'CHR1:1046687:A'	b'M61SunitR1'	4	0.2388	0.0204	0.9843
b'CHR1:1046687:A'	b'M61SunitR2'	4	0.2201	0.0203	0.9843
b'CHR1:1046687:A'	b'M61SunitR3'	4	0.2459	0.0262	0.9843
b'CHR1:1046687:A'	b'M61SunitR4'	4	0.2148	0.0193	0.9843
b'CHR1:108718880:A'	b'M61SunitR1'	4	0.2388	0.0204	0.9425
b'CHR1:108718880:A'	b'M61SunitR2'	4	0.2201	0.0203	0.9425
b'CHR1:108718880:A'	b'M61SunitR3'	4	0.2459	0.0262	0.9425
b'CHR1:108718880:A'	b'M61SunitR4'	4	0.2148	0.0193	0.9425
b'CHR1:113981341:T'	b'M61SunitR1'	4	0.2388	0.0204	0.9663
b'CHR1:113981341:T'	b'M61SunitR2'	4	0.2201	0.0203	0.9663
b'CHR1:113981341:T'	b'M61SunitR3'	4	0.2459	0.0262	0.9663
b'CHR1:113981341:T'	b'M61SunitR4'	4	0.2148	0.0193	0.9663
b'CHR1:1495915:C'	b'M61SunitR1'	4	0.2388	0.0204	0.7922
b'CHR1:1495915:C'	b'M61SunitR2'	4	0.2201	0.0203	0.7922
b'CHR1:1495915:C'	b'M61SunitR3'	4	0.2459	0.0262	0.7922
b'CHR1:1495915:C'	b'M61SunitR4'	4	0.2148	0.0193	0.7922
b'CHR1:152812643:C'	b'M61SunitR1'	4	0.2388	0.0204	0.9030
b'CHR1:152812643:C'	b'M61SunitR2'	4	0.2201	0.0203	0.9030
b'CHR1:152812643:C'	b'M61SunitR3'	4	0.2459	0.0262	0.9030
b'CHR1:152812643:C'	b'M61SunitR4'	4	0.2148	0.0193	0.9030
b'CHR1:157586429:T'	b'M61SunitR1'	4	0.2388	0.0204	0.9601
b'CHR1:157586429:T'	b'M61SunitR2'	4	0.2201	0.0203	0.9601
b'CHR1:157586429:T'	b'M61SunitR3'	4	0.2459	0.0262	0.9601
b'CHR1:157586429:T'	b'M61SunitR4'	4	0.2148	0.0193	0.9601
b'CHR1:236571361:A'	b'M61SunitR1'	4	0.2388	0.0204	0.5974
b'CHR1:236571361:A'	b'M61SunitR2'	4	0.2201	0.0203	0.5974
b'CHR1:236571361:A'	b'M61SunitR3'	4	0.2459	0.0262	0.5974
b'CHR1:236571361:A'	b'M61SunitR4'	4	0.2148	0.0193	0.5974
b'CHR1:248273507:A'	b'M61SunitR1'	4	0.2388	0.0204	0.5974
b'CHR1:248273507:A'	b'M61SunitR2'	4	0.2201	0.0203	0.5974
b'CHR1:248273507:A'	b'M61SunitR3'	4	0.2459	0.0262	0.5974
b'CHR1:248273507:A'	b'M61SunitR4'	4	0.2148	0.0193	0.5974
b'CHR1:248273509:C'	b'M61SunitR1'	4	0.2388	0.0204	0.5974
b'CHR1:248273509:C'	b'M61SunitR2'	4	0.2201	0.0203	0.5974
b'CHR1:248273509:C'	b'M61SunitR3'	4	0.2459	0.0262	0.5974
b'CHR1:248273509:C'	b'M61SunitR4'	4	0.2148	0.0193	0.5974
b'CHR1:41037530:G'	b'M61SunitR1'	4	0.2388	0.0204	0.5268
b'CHR1:41037530:G'	b'M61SunitR2'	4	0.2201	0.0203	0.5268
b'CHR1:41037530:G'	b'M61SunitR3'	4	0.2459	0.0262	0.5268
b'CHR1:41037530:G'	b'M61SunitR4'	4	0.2148	0.0193	0.5268
b'CHR1:44805530:A'	b'M61SunitR1'	4	0.2388	0.0204	0.8673
b'CHR1:44805530:A'	b'M61SunitR2'	4	0.2201	0.0203	0.8673
b'CHR1:44805530:A'	b'M61SunitR3'	4	0.2459	0.0262	0.8673
b'CHR1:44805530:A'	b'M61SunitR4'	4	0.2148	0.0193	0.8673
b'CHR1:52642989:A'	b'M61SunitR1'	4	0.2388	0.0204	0.7036
b'CHR1:52642989:A'	b'M61SunitR2'	4	0.2201	0.0203	0.7036
b'CHR1:52642989:A'	b'M61SunitR3'	4	0.2459	0.0262	0.7036
b'CHR1:52642989:A'	b'M61SunitR4'	4	0.2148	0.0193	0.7036
b'CHR1:52988103:T'	b'M61SunitR1'	4	0.2388	0.0204	0.7897
b'CHR1:52988103:T'	b'M61SunitR2'	4	0.2201	0.0203	0.7897
b'CHR1:52988103:T'	b'M61SunitR3'	4	0.2459	0.0262	0.7897
b'CHR1:52988103:T'	b'M61SunitR4'	4	0.2148	0.0193	0.7897
b'CHR1:8957259:A'	b'M61SunitR1'	4	0.2388	0.0204	0.9872
b'CHR1:8957259:A'	b'M61SunitR2'	4	0.2201	0.0203	0.9872
b'CHR1:8957259:A'	b'M61SunitR3'	4	0.2459	0.0262	0.9872
b'CHR1:8957259:A'	b'M61SunitR4'	4	0.2148	0.0193	0.9872
b'CHR20:21328621:A'	b'M61SunitR1'	4	0.2388	0.0204	0.7008
b'CHR20:21328621:A'	b'M61SunitR2'	4	0.2201	0.0203	0.7008
b'CHR20:21328621:A'	b'M61SunitR3'	4	0.2459	0.0262	0.7008
b'CHR20:21328621:A'	b'M61SunitR4'	4	0.2148	0.0193	0.7008
b'CHR2:107859472:T'	b'M61SunitR1'	4	0.2388	0.0204	0.8410
b'CHR2:107859472:T'	b'M61SunitR2'	4	0.2201	0.0203	0.8410
b'CHR2:107859472:T'	b'M61SunitR3'	4	0.2459	0.0262	0.8410
b'CHR2:107859472:T'	b'M61SunitR4'	4	0.2148	0.0193	0.8410
b'CHR2:124865392:A'	b'M61SunitR1'	4	0.2388	0.0204	0.6308
b'CHR2:124865392:A'	b'M61SunitR2'	4	0.2201	0.0203	0.6308
b'CHR2:124865392:A'	b'M61SunitR3'	4	0.2459	0.0262	0.6308
b'CHR2:124865392:A'	b'M61SunitR4'	4	0.2148	0.0193	0.6308
b'CHR2:156549720:T'	b'M61SunitR1'	4	0.2388	0.0204	0.9908
b'CHR2:156549720:T'	b'M61SunitR2'	4	0.2201	0.0203	0.9908
b'CHR2:156549720:T'	b'M61SunitR3'	4	0.2459	0.0262	0.9908
b'CHR2:156549720:T'	b'M61SunitR4'	4	0.2148	0.0193	0.9908
b'CHR2:201493458:A'	b'M61SunitR1'	4	0.2388	0.0204	0.5417
b'CHR2:201493458:A'	b'M61SunitR2'	4	0.2201	0.0203	0.5417
b'CHR2:201493458:A'	b'M61SunitR3'	4	0.2459	0.0262	0.5417
b'CHR2:201493458:A'	b'M61SunitR4'	4	0.2148	0.0193	0.5417
b'CHR2:218474766:G'	b'M61SunitR1'	4	0.2388	0.0204	0.8045
b'CHR2:218474766:G'	b'M61SunitR2'	4	0.2201	0.0203	0.8045
b'CHR2:218474766:G'	b'M61SunitR3'	4	0.2459	0.0262	0.8045
b'CHR2:218474766:G'	b'M61SunitR4'	4	0.2148	0.0193	0.8045
b'CHR2:232381539:G'	b'M61SunitR1'	4	0.2388	0.0204	0.5885
b'CHR2:232381539:G'	b'M61SunitR2'	4	0.2201	0.0203	0.5885
b'CHR2:232381539:G'	b'M61SunitR3'	4	0.2459	0.0262	0.5885
b'CHR2:232381539:G'	b'M61SunitR4'	4	0.2148	0.0193	0.5885
b'CHR2:240682800:T'	b'M61SunitR1'	4	0.2388	0.0204	0.5144
b'CHR2:240682800:T'	b'M61SunitR2'	4	0.2201	0.0203	0.5144
b'CHR2:240682800:T'	b'M61SunitR3'	4	0.2459	0.0262	0.5144
b'CHR2:240682800:T'	b'M61SunitR4'	4	0.2148	0.0193	0.5144
b'CHR2:71364013:T'	b'M61SunitR1'	4	0.2388	0.0204	0.8654
b'CHR2:71364013:T'	b'M61SunitR2'	4	0.2201	0.0203	0.8654
b'CHR2:71364013:T'	b'M61SunitR3'	4	0.2459	0.0262	0.8654
b'CHR2:71364013:T'	b'M61SunitR4'	4	0.2148	0.0193	0.8654
b'CHR2:85663826:A'	b'M61SunitR1'	4	0.2388	0.0204	0.8782
b'CHR2:85663826:A'	b'M61SunitR2'	4	0.2201	0.0203	0.8782
b'CHR2:85663826:A'	b'M61SunitR3'	4	0.2459	0.0262	0.8782
b'CHR2:85663826:A'	b'M61SunitR4'	4	0.2148	0.0193	0.8782
b'CHR3:48656801:A'	b'M61SunitR1'	4	0.2388	0.0204	0.6350
b'CHR3:48656801:A'	b'M61SunitR2'	4	0.2201	0.0203	0.6350
b'CHR3:48656801:A'	b'M61SunitR3'	4	0.2459	0.0262	0.6350
b'CHR3:48656801:A'	b'M61SunitR4'	4	0.2148	0.0193	0.6350
b'CHR3:50320148:G'	b'M61SunitR1'	4	0.2388	0.0204	0.8942
b'CHR3:50320148:G'	b'M61SunitR2'	4	0.2201	0.0203	0.8942
b'CHR3:50320148:G'	b'M61SunitR3'	4	0.2459	0.0262	0.8942
b'CHR3:50320148:G'	b'M61SunitR4'	4	0.2148	0.0193	0.8942
b'CHR3:55073793:A'	b'M61SunitR1'	4	0.2388	0.0204	0.9081
b'CHR3:55073793:A'	b'M61SunitR2'	4	0.2201	0.0203	0.9081
b'CHR3:55073793:A'	b'M61SunitR3'	4	0.2459	0.0262	0.9081
b'CHR3:55073793:A'	b'M61SunitR4'	4	0.2148	0.0193	0.9081
b'CHR3:78600261:T'	b'M61SunitR1'	4	0.2388	0.0204	0.9495
b'CHR3:78600261:T'	b'M61SunitR2'	4	0.2201	0.0203	0.9495
b'CHR3:78600261:T'	b'M61SunitR3'	4	0.2459	0.0262	0.9495
b'CHR3:78600261:T'	b'M61SunitR4'	4	0.2148	0.0193	0.9495
b'CHR3:9950005:A'	b'M61SunitR1'	4	0.2388	0.0204	1.0000
b'CHR3:9950005:A'	b'M61SunitR2'	4	0.2201	0.0203	1.0000
b'CHR3:9950005:A'	b'M61SunitR3'	4	0.2459	0.0262	1.0000
b'CHR3:9950005:A'	b'M61SunitR4'	4	0.2148	0.0193	1.0000
b'CHR4:125317234:A'	b'M61SunitR1'	4	0.2388	0.0204	0.9995
b'CHR4:125317234:A'	b'M61SunitR2'	4	0.2201	0.0203	0.9995
b'CHR4:125317234:A'	b'M61SunitR3'	4	0.2459	0.0262	0.9995
b'CHR4:125317234:A'	b'M61SunitR4'	4	0.2148	0.0193	0.9995
b'CHR4:147673062:T'	b'M61SunitR1'	4	0.2388	0.0204	0.5548
b'CHR4:147673062:T'	b'M61SunitR2'	4	0.2201	0.0203	0.5548
b'CHR4:147673062:T'	b'M61SunitR3'	4	0.2459	0.0262	0.5548
b'CHR4:147673062:T'	b'M61SunitR4'	4	0.2148	0.0193	0.5548
b'CHR4:185656724:G'	b'M61SunitR1'	4	0.2388	0.0204	0.7417
b'CHR4:185656724:G'	b'M61SunitR2'	4	0.2201	0.0203	0.7417
b'CHR4:185656724:G'	b'M61SunitR3'	4	0.2459	0.0262	0.7417
b'CHR4:185656724:G'	b'M61SunitR4'	4	0.2148	0.0193	0.7417
b'CHR4:186663325:A'	b'M61SunitR1'	4	0.2388	0.0204	0.7242
b'CHR4:186663325:A'	b'M61SunitR2'	4	0.2201	0.0203	0.7242
b'CHR4:186663325:A'	b'M61SunitR3'	4	0.2459	0.0262	0.7242
b'CHR4:186663325:A'	b'M61SunitR4'	4	0.2148	0.0193	0.7242
b'CHR5:139682878:T'	b'M61SunitR1'	4	0.2388	0.0204	0.4613
b'CHR5:139682878:T'	b'M61SunitR2'	4	0.2201	0.0203	0.4613
b'CHR5:139682878:T'	b'M61SunitR3'	4	0.2459	0.0262	0.4613
b'CHR5:139682878:T'	b'M61SunitR4'	4	0.2148	0.0193	0.4613
b'CHR5:139682880:A'	b'M61SunitR1'	4	0.2388	0.0204	0.4613
b'CHR5:139682880:A'	b'M61SunitR2'	4	0.2201	0.0203	0.4613
b'CHR5:139682880:A'	b'M61SunitR3'	4	0.2459	0.0262	0.4613
b'CHR5:139682880:A'	b'M61SunitR4'	4	0.2148	0.0193	0.4613
b'CHR5:141123573:T'	b'M61SunitR1'	4	0.2388	0.0204	0.9544
b'CHR5:141123573:T'	b'M61SunitR2'	4	0.2201	0.0203	0.9544
b'CHR5:141123573:T'	b'M61SunitR3'	4	0.2459	0.0262	0.9544
b'CHR5:141123573:T'	b'M61SunitR4'	4	0.2148	0.0193	0.9544
b'CHR5:141394009:T'	b'M61SunitR1'	4	0.2388	0.0204	0.9427
b'CHR5:141394009:T'	b'M61SunitR2'	4	0.2201	0.0203	0.9427
b'CHR5:141394009:T'	b'M61SunitR3'	4	0.2459	0.0262	0.9427
b'CHR5:141394009:T'	b'M61SunitR4'	4	0.2148	0.0193	0.9427
b'CHR5:157651252:C'	b'M61SunitR1'	4	0.2388	0.0204	0.8499
b'CHR5:157651252:C'	b'M61SunitR2'	4	0.2201	0.0203	0.8499
b'CHR5:157651252:C'	b'M61SunitR3'	4	0.2459	0.0262	0.8499
b'CHR5:157651252:C'	b'M61SunitR4'	4	0.2148	0.0193	0.8499
b'CHR5:168669936:A'	b'M61SunitR1'	4	0.2388	0.0204	0.8314
b'CHR5:168669936:A'	b'M61SunitR2'	4	0.2201	0.0203	0.8314
b'CHR5:168669936:A'	b'M61SunitR3'	4	0.2459	0.0262	0.8314
b'CHR5:168669936:A'	b'M61SunitR4'	4	0.2148	0.0193	0.8314
b'CHR5:74634923:T'	b'M61SunitR1'	4	0.2388	0.0204	0.8857
b'CHR5:74634923:T'	b'M61SunitR2'	4	0.2201	0.0203	0.8857
b'CHR5:74634923:T'	b'M61SunitR3'	4	0.2459	0.0262	0.8857
b'CHR5:74634923:T'	b'M61SunitR4'	4	0.2148	0.0193	0.8857
b'CHR6:10687513:T'	b'M61SunitR1'	4	0.2388	0.0204	0.9986
b'CHR6:10687513:T'	b'M61SunitR2'	4	0.2201	0.0203	0.9986
b'CHR6:10687513:T'	b'M61SunitR3'	4	0.2459	0.0262	0.9986
b'CHR6:10687513:T'	b'M61SunitR4'	4	0.2148	0.0193	0.9986
b'CHR6:11193627:A'	b'M61SunitR1'	4	0.2388	0.0204	0.9982
b'CHR6:11193627:A'	b'M61SunitR2'	4	0.2201	0.0203	0.9982
b'CHR6:11193627:A'	b'M61SunitR3'	4	0.2459	0.0262	0.9982
b'CHR6:11193627:A'	b'M61SunitR4'	4	0.2148	0.0193	0.9982
b'CHR6:12120212:G'	b'M61SunitR1'	4	0.2388	0.0204	0.7255
b'CHR6:12120212:G'	b'M61SunitR2'	4	0.2201	0.0203	0.7255
b'CHR6:12120212:G'	b'M61SunitR3'	4	0.2459	0.0262	0.7255
b'CHR6:12120212:G'	b'M61SunitR4'	4	0.2148	0.0193	0.7255
b'CHR6:160243652:T'	b'M61SunitR1'	4	0.2388	0.0204	0.6126
b'CHR6:160243652:T'	b'M61SunitR2'	4	0.2201	0.0203	0.6126
b'CHR6:160243652:T'	b'M61SunitR3'	4	0.2459	0.0262	0.6126
b'CHR6:160243652:T'	b'M61SunitR4'	4	0.2148	0.0193	0.6126
b'CHR6:73409315:G'	b'M61SunitR1'	4	0.2388	0.0204	0.6671
b'CHR6:73409315:G'	b'M61SunitR2'	4	0.2201	0.0203	0.6671
b'CHR6:73409315:G'	b'M61SunitR3'	4	0.2459	0.0262	0.6671
b'CHR6:73409315:G'	b'M61SunitR4'	4	0.2148	0.0193	0.6671
b'CHR6:7393219:T'	b'M61SunitR1'	4	0.2388	0.0204	0.8059
b'CHR6:7393219:T'	b'M61SunitR2'	4	0.2201	0.0203	0.8059
b'CHR6:7393219:T'	b'M61SunitR3'	4	0.2459	0.0262	0.8059
b'CHR6:7393219:T'	b'M61SunitR4'	4	0.2148	0.0193	0.8059
b'CHR6:7581403:A'	b'M61SunitR1'	4	0.2388	0.0204	0.9772
b'CHR6:7581403:A'	b'M61SunitR2'	4	0.2201	0.0203	0.9772
b'CHR6:7581403:A'	b'M61SunitR3'	4	0.2459	0.0262	0.9772
b'CHR6:7581403:A'	b'M61SunitR4'	4	0.2148	0.0193	0.9772
b'CHR6:7601487:T'	b'M61SunitR1'	4	0.2388	0.0204	0.6060
b'CHR6:7601487:T'	b'M61SunitR2'	4	0.2201	0.0203	0.6060
b'CHR6:7601487:T'	b'M61SunitR3'	4	0.2459	0.0262	0.6060
b'CHR6:7601487:T'	b'M61SunitR4'	4	0.2148	0.0193	0.6060
b'CHR6:9775825:A'	b'M61SunitR1'	4	0.2388	0.0204	0.5138
b'CHR6:9775825:A'	b'M61SunitR2'	4	0.2201	0.0203	0.5138
b'CHR6:9775825:A'	b'M61SunitR3'	4	0.2459	0.0262	0.5138
b'CHR6:9775825:A'	b'M61SunitR4'	4	0.2148	0.0193	0.5138
b'CHR7:103523460:A'	b'M61SunitR1'	4	0.2388	0.0204	0.6320
b'CHR7:103523460:A'	b'M61SunitR2'	4	0.2201	0.0203	0.6320
b'CHR7:103523460:A'	b'M61SunitR3'	4	0.2459	0.0262	0.6320
b'CHR7:103523460:A'	b'M61SunitR4'	4	0.2148	0.0193	0.6320
b'CHR7:39085988:C'	b'M61SunitR1'	4	0.2388	0.0204	0.8250
b'CHR7:39085988:C'	b'M61SunitR2'	4	0.2201	0.0203	0.8250
b'CHR7:39085988:C'	b'M61SunitR3'	4	0.2459	0.0262	0.8250
b'CHR7:39085988:C'	b'M61SunitR4'	4	0.2148	0.0193	0.8250
b'CHR7:39085990:C'	b'M61SunitR1'	4	0.2388	0.0204	0.8250
b'CHR7:39085990:C'	b'M61SunitR2'	4	0.2201	0.0203	0.8250
b'CHR7:39085990:C'	b'M61SunitR3'	4	0.2459	0.0262	0.8250
b'CHR7:39085990:C'	b'M61SunitR4'	4	0.2148	0.0193	0.8250
b'CHR7:44539245:T'	b'M61SunitR1'	4	0.2388	0.0204	0.6825
b'CHR7:44539245:T'	b'M61SunitR2'	4	0.2201	0.0203	0.6825
b'CHR7:44539245:T'	b'M61SunitR3'	4	0.2459	0.0262	0.6825
b'CHR7:44539245:T'	b'M61SunitR4'	4	0.2148	0.0193	0.6825
b'CHR8:143925249:T'	b'M61SunitR1'	4	0.2388	0.0204	0.3733
b'CHR8:143925249:T'	b'M61SunitR2'	4	0.2201	0.0203	0.3733
b'CHR8:143925249:T'	b'M61SunitR3'	4	0.2459	0.0262	0.3733
b'CHR8:143925249:T'	b'M61SunitR4'	4	0.2148	0.0193	0.3733
b'CHR8:144040433:T'	b'M61SunitR1'	4	0.2388	0.0204	0.6627
b'CHR8:144040433:T'	b'M61SunitR2'	4	0.2201	0.0203	0.6627
b'CHR8:144040433:T'	b'M61SunitR3'	4	0.2459	0.0262	0.6627
b'CHR8:144040433:T'	b'M61SunitR4'	4	0.2148	0.0193	0.6627
b'CHR8:54459829:A'	b'M61SunitR1'	4	0.2388	0.0204	0.9416
b'CHR8:54459829:A'	b'M61SunitR2'	4	0.2201	0.0203	0.9416
b'CHR8:54459829:A'	b'M61SunitR3'	4	0.2459	0.0262	0.9416
b'CHR8:54459829:A'	b'M61SunitR4'	4	0.2148	0.0193	0.9416
b'CHR9:123381818:C'	b'M61SunitR1'	4	0.2388	0.0204	0.8842
b'CHR9:123381818:C'	b'M61SunitR2'	4	0.2201	0.0203	0.8842
b'CHR9:123381818:C'	b'M61SunitR3'	4	0.2459	0.0262	0.8842
b'CHR9:123381818:C'	b'M61SunitR4'	4	0.2148	0.0193	0.8842
b'CHR9:125326478:G'	b'M61SunitR1'	4	0.2388	0.0204	0.9618
b'CHR9:125326478:G'	b'M61SunitR2'	4	0.2201	0.0203	0.9618
b'CHR9:125326478:G'	b'M61SunitR3'	4	0.2459	0.0262	0.9618
b'CHR9:125326478:G'	b'M61SunitR4'	4	0.2148	0.0193	0.9618
b'CHR9:127034499:A'	b'M61SunitR1'	4	0.2388	0.0204	0.7176
b'CHR9:127034499:A'	b'M61SunitR2'	4	0.2201	0.0203	0.7176
b'CHR9:127034499:A'	b'M61SunitR3'	4	0.2459	0.0262	0.7176
b'CHR9:127034499:A'	b'M61SunitR4'	4	0.2148	0.0193	0.7176
b'CHR9:134727314:A'	b'M61SunitR1'	4	0.2388	0.0204	0.7507
b'CHR9:134727314:A'	b'M61SunitR2'	4	0.2201	0.0203	0.7507
b'CHR9:134727314:A'	b'M61SunitR3'	4	0.2459	0.0262	0.7507
b'CHR9:134727314:A'	b'M61SunitR4'	4	0.2148	0.0193	0.7507
b'CHR9:34371863:A'	b'M61SunitR1'	4	0.2388	0.0204	0.9738
b'CHR9:34371863:A'	b'M61SunitR2'	4	0.2201	0.0203	0.9738
b'CHR9:34371863:A'	b'M61SunitR3'	4	0.2459	0.0262	0.9738
b'CHR9:34371863:A'	b'M61SunitR4'	4	0.2148	0.0193	0.9738
b'CHR9:34726205:G'	b'M61SunitR1'	4	0.2388	0.0204	0.8493
b'CHR9:34726205:G'	b'M61SunitR2'	4	0.2201	0.0203	0.8493
b'CHR9:34726205:G'	b'M61SunitR3'	4	0.2459	0.0262	0.8493
b'CHR9:34726205:G'	b'M61SunitR4'	4	0.2148	0.0193	0.8493
b'CHR9:34726207:A'	b'M61SunitR1'	4	0.2388	0.0204	0.8493
b'CHR9:34726207:A'	b'M61SunitR2'	4	0.2201	0.0203	0.8493
b'CHR9:34726207:A'	b'M61SunitR3'	4	0.2459	0.0262	0.8493
b'CHR9:34726207:A'	b'M61SunitR4'	4	0.2148	0.0193	0.8493
b'CHR9:78328164:G'	b'M61SunitR1'	4	0.2388	0.0204	0.5344
b'CHR9:78328164:G'	b'M61SunitR2'	4	0.2201	0.0203	0.5344
b'CHR9:78328164:G'	b'M61SunitR3'	4	0.2459	0.0262	0.5344
b'CHR9:78328164:G'	b'M61SunitR4'	4	0.2148	0.0193	0.5344
b'CHR9:95881156:A'	b'M61SunitR1'	4	0.2388	0.0204	0.7605
b'CHR9:95881156:A'	b'M61SunitR2'	4	0.2201	0.0203	0.7605
b'CHR9:95881156:A'	b'M61SunitR3'	4	0.2459	0.0262	0.7605
b'CHR9:95881156:A'	b'M61SunitR4'	4	0.2148	0.0193	0.7605
