mutation_id	sample_id	cluster_id	cellular_prevalence	cellular_prevalence_std	cluster_assignment_prob
b'CHR10:16928249:A'	b'M61SunitR1'	0	0.2389	0.0204	0.8653
b'CHR10:16928249:A'	b'M61SunitR2'	0	0.2202	0.0203	0.8653
b'CHR10:16928249:A'	b'M61SunitR3'	0	0.2458	0.0262	0.8653
b'CHR10:16928249:A'	b'M61SunitR4'	0	0.2151	0.0193	0.8653
b'CHR10:27994928:C'	b'M61SunitR1'	0	0.2389	0.0204	0.5891
b'CHR10:27994928:C'	b'M61SunitR2'	0	0.2202	0.0203	0.5891
b'CHR10:27994928:C'	b'M61SunitR3'	0	0.2458	0.0262	0.5891
b'CHR10:27994928:C'	b'M61SunitR4'	0	0.2151	0.0193	0.5891
b'CHR10:37153617:T'	b'M61SunitR1'	0	0.2389	0.0204	0.9446
b'CHR10:37153617:T'	b'M61SunitR2'	0	0.2202	0.0203	0.9446
b'CHR10:37153617:T'	b'M61SunitR3'	0	0.2458	0.0262	0.9446
b'CHR10:37153617:T'	b'M61SunitR4'	0	0.2151	0.0193	0.9446
b'CHR11:117917207:C'	b'M61SunitR1'	0	0.2389	0.0204	0.9460
b'CHR11:117917207:C'	b'M61SunitR2'	0	0.2202	0.0203	0.9460
b'CHR11:117917207:C'	b'M61SunitR3'	0	0.2458	0.0262	0.9460
b'CHR11:117917207:C'	b'M61SunitR4'	0	0.2151	0.0193	0.9460
b'CHR11:120128675:T'	b'M61SunitR1'	0	0.2389	0.0204	0.9994
b'CHR11:120128675:T'	b'M61SunitR2'	0	0.2202	0.0203	0.9994
b'CHR11:120128675:T'	b'M61SunitR3'	0	0.2458	0.0262	0.9994
b'CHR11:120128675:T'	b'M61SunitR4'	0	0.2151	0.0193	0.9994
b'CHR11:6002291:G'	b'M61SunitR1'	0	0.2389	0.0204	0.4714
b'CHR11:6002291:G'	b'M61SunitR2'	0	0.2202	0.0203	0.4714
b'CHR11:6002291:G'	b'M61SunitR3'	0	0.2458	0.0262	0.4714
b'CHR11:6002291:G'	b'M61SunitR4'	0	0.2151	0.0193	0.4714
b'CHR11:63904940:C'	b'M61SunitR1'	0	0.2389	0.0204	0.3999
b'CHR11:63904940:C'	b'M61SunitR2'	0	0.2202	0.0203	0.3999
b'CHR11:63904940:C'	b'M61SunitR3'	0	0.2458	0.0262	0.3999
b'CHR11:63904940:C'	b'M61SunitR4'	0	0.2151	0.0193	0.3999
b'CHR11:63904942:A'	b'M61SunitR1'	0	0.2389	0.0204	0.3999
b'CHR11:63904942:A'	b'M61SunitR2'	0	0.2202	0.0203	0.3999
b'CHR11:63904942:A'	b'M61SunitR3'	0	0.2458	0.0262	0.3999
b'CHR11:63904942:A'	b'M61SunitR4'	0	0.2151	0.0193	0.3999
b'CHR11:65778836:A'	b'M61SunitR1'	0	0.2389	0.0204	0.9551
b'CHR11:65778836:A'	b'M61SunitR2'	0	0.2202	0.0203	0.9551
b'CHR11:65778836:A'	b'M61SunitR3'	0	0.2458	0.0262	0.9551
b'CHR11:65778836:A'	b'M61SunitR4'	0	0.2151	0.0193	0.9551
b'CHR11:73975073:A'	b'M61SunitR1'	0	0.2389	0.0204	0.9445
b'CHR11:73975073:A'	b'M61SunitR2'	0	0.2202	0.0203	0.9445
b'CHR11:73975073:A'	b'M61SunitR3'	0	0.2458	0.0262	0.9445
b'CHR11:73975073:A'	b'M61SunitR4'	0	0.2151	0.0193	0.9445
b'CHR12:108518570:T'	b'M61SunitR1'	0	0.2389	0.0204	0.9367
b'CHR12:108518570:T'	b'M61SunitR2'	0	0.2202	0.0203	0.9367
b'CHR12:108518570:T'	b'M61SunitR3'	0	0.2458	0.0262	0.9367
b'CHR12:108518570:T'	b'M61SunitR4'	0	0.2151	0.0193	0.9367
b'CHR12:25144543:A'	b'M61SunitR1'	0	0.2389	0.0204	0.7847
b'CHR12:25144543:A'	b'M61SunitR2'	0	0.2202	0.0203	0.7847
b'CHR12:25144543:A'	b'M61SunitR3'	0	0.2458	0.0262	0.7847
b'CHR12:25144543:A'	b'M61SunitR4'	0	0.2151	0.0193	0.7847
b'CHR12:51699632:A'	b'M61SunitR1'	0	0.2389	0.0204	0.5863
b'CHR12:51699632:A'	b'M61SunitR2'	0	0.2202	0.0203	0.5863
b'CHR12:51699632:A'	b'M61SunitR3'	0	0.2458	0.0262	0.5863
b'CHR12:51699632:A'	b'M61SunitR4'	0	0.2151	0.0193	0.5863
b'CHR12:55027042:G'	b'M61SunitR1'	0	0.2389	0.0204	0.8545
b'CHR12:55027042:G'	b'M61SunitR2'	0	0.2202	0.0203	0.8545
b'CHR12:55027042:G'	b'M61SunitR3'	0	0.2458	0.0262	0.8545
b'CHR12:55027042:G'	b'M61SunitR4'	0	0.2151	0.0193	0.8545
b'CHR12:56267413:A'	b'M61SunitR1'	0	0.2389	0.0204	0.9829
b'CHR12:56267413:A'	b'M61SunitR2'	0	0.2202	0.0203	0.9829
b'CHR12:56267413:A'	b'M61SunitR3'	0	0.2458	0.0262	0.9829
b'CHR12:56267413:A'	b'M61SunitR4'	0	0.2151	0.0193	0.9829
b'CHR12:57629873:G'	b'M61SunitR1'	0	0.2389	0.0204	0.9324
b'CHR12:57629873:G'	b'M61SunitR2'	0	0.2202	0.0203	0.9324
b'CHR12:57629873:G'	b'M61SunitR3'	0	0.2458	0.0262	0.9324
b'CHR12:57629873:G'	b'M61SunitR4'	0	0.2151	0.0193	0.9324
b'CHR12:85046079:A'	b'M61SunitR1'	0	0.2389	0.0204	0.8080
b'CHR12:85046079:A'	b'M61SunitR2'	0	0.2202	0.0203	0.8080
b'CHR12:85046079:A'	b'M61SunitR3'	0	0.2458	0.0262	0.8080
b'CHR12:85046079:A'	b'M61SunitR4'	0	0.2151	0.0193	0.8080
b'CHR14:36725655:A'	b'M61SunitR1'	0	0.2389	0.0204	0.7715
b'CHR14:36725655:A'	b'M61SunitR2'	0	0.2202	0.0203	0.7715
b'CHR14:36725655:A'	b'M61SunitR3'	0	0.2458	0.0262	0.7715
b'CHR14:36725655:A'	b'M61SunitR4'	0	0.2151	0.0193	0.7715
b'CHR15:23566598:A'	b'M61SunitR1'	0	0.2389	0.0204	0.9887
b'CHR15:23566598:A'	b'M61SunitR2'	0	0.2202	0.0203	0.9887
b'CHR15:23566598:A'	b'M61SunitR3'	0	0.2458	0.0262	0.9887
b'CHR15:23566598:A'	b'M61SunitR4'	0	0.2151	0.0193	0.9887
b'CHR15:33826673:A'	b'M61SunitR1'	0	0.2389	0.0204	0.6363
b'CHR15:33826673:A'	b'M61SunitR2'	0	0.2202	0.0203	0.6363
b'CHR15:33826673:A'	b'M61SunitR3'	0	0.2458	0.0262	0.6363
b'CHR15:33826673:A'	b'M61SunitR4'	0	0.2151	0.0193	0.6363
b'CHR15:41572531:T'	b'M61SunitR1'	0	0.2389	0.0204	0.8993
b'CHR15:41572531:T'	b'M61SunitR2'	0	0.2202	0.0203	0.8993
b'CHR15:41572531:T'	b'M61SunitR3'	0	0.2458	0.0262	0.8993
b'CHR15:41572531:T'	b'M61SunitR4'	0	0.2151	0.0193	0.8993
b'CHR17:10511933:A'	b'M61SunitR1'	0	0.2389	0.0204	0.7185
b'CHR17:10511933:A'	b'M61SunitR2'	0	0.2202	0.0203	0.7185
b'CHR17:10511933:A'	b'M61SunitR3'	0	0.2458	0.0262	0.7185
b'CHR17:10511933:A'	b'M61SunitR4'	0	0.2151	0.0193	0.7185
b'CHR17:10539354:G'	b'M61SunitR1'	0	0.2389	0.0204	0.8007
b'CHR17:10539354:G'	b'M61SunitR2'	0	0.2202	0.0203	0.8007
b'CHR17:10539354:G'	b'M61SunitR3'	0	0.2458	0.0262	0.8007
b'CHR17:10539354:G'	b'M61SunitR4'	0	0.2151	0.0193	0.8007
b'CHR17:20204775:G'	b'M61SunitR1'	0	0.2389	0.0204	0.9013
b'CHR17:20204775:G'	b'M61SunitR2'	0	0.2202	0.0203	0.9013
b'CHR17:20204775:G'	b'M61SunitR3'	0	0.2458	0.0262	0.9013
b'CHR17:20204775:G'	b'M61SunitR4'	0	0.2151	0.0193	0.9013
b'CHR19:1495334:T'	b'M61SunitR1'	0	0.2389	0.0204	0.9148
b'CHR19:1495334:T'	b'M61SunitR2'	0	0.2202	0.0203	0.9148
b'CHR19:1495334:T'	b'M61SunitR3'	0	0.2458	0.0262	0.9148
b'CHR19:1495334:T'	b'M61SunitR4'	0	0.2151	0.0193	0.9148
b'CHR19:18870062:C'	b'M61SunitR1'	0	0.2389	0.0204	0.9253
b'CHR19:18870062:C'	b'M61SunitR2'	0	0.2202	0.0203	0.9253
b'CHR19:18870062:C'	b'M61SunitR3'	0	0.2458	0.0262	0.9253
b'CHR19:18870062:C'	b'M61SunitR4'	0	0.2151	0.0193	0.9253
b'CHR19:20545051:T'	b'M61SunitR1'	0	0.2389	0.0204	0.8500
b'CHR19:20545051:T'	b'M61SunitR2'	0	0.2202	0.0203	0.8500
b'CHR19:20545051:T'	b'M61SunitR3'	0	0.2458	0.0262	0.8500
b'CHR19:20545051:T'	b'M61SunitR4'	0	0.2151	0.0193	0.8500
b'CHR19:36915827:T'	b'M61SunitR1'	0	0.2389	0.0204	0.9992
b'CHR19:36915827:T'	b'M61SunitR2'	0	0.2202	0.0203	0.9992
b'CHR19:36915827:T'	b'M61SunitR3'	0	0.2458	0.0262	0.9992
b'CHR19:36915827:T'	b'M61SunitR4'	0	0.2151	0.0193	0.9992
b'CHR19:45591702:A'	b'M61SunitR1'	0	0.2389	0.0204	0.9138
b'CHR19:45591702:A'	b'M61SunitR2'	0	0.2202	0.0203	0.9138
b'CHR19:45591702:A'	b'M61SunitR3'	0	0.2458	0.0262	0.9138
b'CHR19:45591702:A'	b'M61SunitR4'	0	0.2151	0.0193	0.9138
b'CHR19:47042860:A'	b'M61SunitR1'	0	0.2389	0.0204	0.8757
b'CHR19:47042860:A'	b'M61SunitR2'	0	0.2202	0.0203	0.8757
b'CHR19:47042860:A'	b'M61SunitR3'	0	0.2458	0.0262	0.8757
b'CHR19:47042860:A'	b'M61SunitR4'	0	0.2151	0.0193	0.8757
b'CHR19:4714132:A'	b'M61SunitR1'	0	0.2389	0.0204	0.8623
b'CHR19:4714132:A'	b'M61SunitR2'	0	0.2202	0.0203	0.8623
b'CHR19:4714132:A'	b'M61SunitR3'	0	0.2458	0.0262	0.8623
b'CHR19:4714132:A'	b'M61SunitR4'	0	0.2151	0.0193	0.8623
b'CHR19:52705931:T'	b'M61SunitR1'	0	0.2389	0.0204	0.9866
b'CHR19:52705931:T'	b'M61SunitR2'	0	0.2202	0.0203	0.9866
b'CHR19:52705931:T'	b'M61SunitR3'	0	0.2458	0.0262	0.9866
b'CHR19:52705931:T'	b'M61SunitR4'	0	0.2151	0.0193	0.9866
b'CHR1:1046687:A'	b'M61SunitR1'	0	0.2389	0.0204	0.9842
b'CHR1:1046687:A'	b'M61SunitR2'	0	0.2202	0.0203	0.9842
b'CHR1:1046687:A'	b'M61SunitR3'	0	0.2458	0.0262	0.9842
b'CHR1:1046687:A'	b'M61SunitR4'	0	0.2151	0.0193	0.9842
b'CHR1:108718880:A'	b'M61SunitR1'	0	0.2389	0.0204	0.9427
b'CHR1:108718880:A'	b'M61SunitR2'	0	0.2202	0.0203	0.9427
b'CHR1:108718880:A'	b'M61SunitR3'	0	0.2458	0.0262	0.9427
b'CHR1:108718880:A'	b'M61SunitR4'	0	0.2151	0.0193	0.9427
b'CHR1:113981341:T'	b'M61SunitR1'	0	0.2389	0.0204	0.9678
b'CHR1:113981341:T'	b'M61SunitR2'	0	0.2202	0.0203	0.9678
b'CHR1:113981341:T'	b'M61SunitR3'	0	0.2458	0.0262	0.9678
b'CHR1:113981341:T'	b'M61SunitR4'	0	0.2151	0.0193	0.9678
b'CHR1:1495915:C'	b'M61SunitR1'	0	0.2389	0.0204	0.7933
b'CHR1:1495915:C'	b'M61SunitR2'	0	0.2202	0.0203	0.7933
b'CHR1:1495915:C'	b'M61SunitR3'	0	0.2458	0.0262	0.7933
b'CHR1:1495915:C'	b'M61SunitR4'	0	0.2151	0.0193	0.7933
b'CHR1:152812643:C'	b'M61SunitR1'	0	0.2389	0.0204	0.9011
b'CHR1:152812643:C'	b'M61SunitR2'	0	0.2202	0.0203	0.9011
b'CHR1:152812643:C'	b'M61SunitR3'	0	0.2458	0.0262	0.9011
b'CHR1:152812643:C'	b'M61SunitR4'	0	0.2151	0.0193	0.9011
b'CHR1:157586429:T'	b'M61SunitR1'	0	0.2389	0.0204	0.9603
b'CHR1:157586429:T'	b'M61SunitR2'	0	0.2202	0.0203	0.9603
b'CHR1:157586429:T'	b'M61SunitR3'	0	0.2458	0.0262	0.9603
b'CHR1:157586429:T'	b'M61SunitR4'	0	0.2151	0.0193	0.9603
b'CHR1:236571361:A'	b'M61SunitR1'	0	0.2389	0.0204	0.5905
b'CHR1:236571361:A'	b'M61SunitR2'	0	0.2202	0.0203	0.5905
b'CHR1:236571361:A'	b'M61SunitR3'	0	0.2458	0.0262	0.5905
b'CHR1:236571361:A'	b'M61SunitR4'	0	0.2151	0.0193	0.5905
b'CHR1:248273507:A'	b'M61SunitR1'	0	0.2389	0.0204	0.5905
b'CHR1:248273507:A'	b'M61SunitR2'	0	0.2202	0.0203	0.5905
b'CHR1:248273507:A'	b'M61SunitR3'	0	0.2458	0.0262	0.5905
b'CHR1:248273507:A'	b'M61SunitR4'	0	0.2151	0.0193	0.5905
b'CHR1:248273509:C'	b'M61SunitR1'	0	0.2389	0.0204	0.5905
b'CHR1:248273509:C'	b'M61SunitR2'	0	0.2202	0.0203	0.5905
b'CHR1:248273509:C'	b'M61SunitR3'	0	0.2458	0.0262	0.5905
b'CHR1:248273509:C'	b'M61SunitR4'	0	0.2151	0.0193	0.5905
b'CHR1:41037530:G'	b'M61SunitR1'	0	0.2389	0.0204	0.5225
b'CHR1:41037530:G'	b'M61SunitR2'	0	0.2202	0.0203	0.5225
b'CHR1:41037530:G'	b'M61SunitR3'	0	0.2458	0.0262	0.5225
b'CHR1:41037530:G'	b'M61SunitR4'	0	0.2151	0.0193	0.5225
b'CHR1:44805530:A'	b'M61SunitR1'	0	0.2389	0.0204	0.8668
b'CHR1:44805530:A'	b'M61SunitR2'	0	0.2202	0.0203	0.8668
b'CHR1:44805530:A'	b'M61SunitR3'	0	0.2458	0.0262	0.8668
b'CHR1:44805530:A'	b'M61SunitR4'	0	0.2151	0.0193	0.8668
b'CHR1:52642989:A'	b'M61SunitR1'	0	0.2389	0.0204	0.6983
b'CHR1:52642989:A'	b'M61SunitR2'	0	0.2202	0.0203	0.6983
b'CHR1:52642989:A'	b'M61SunitR3'	0	0.2458	0.0262	0.6983
b'CHR1:52642989:A'	b'M61SunitR4'	0	0.2151	0.0193	0.6983
b'CHR1:52988103:T'	b'M61SunitR1'	0	0.2389	0.0204	0.7861
b'CHR1:52988103:T'	b'M61SunitR2'	0	0.2202	0.0203	0.7861
b'CHR1:52988103:T'	b'M61SunitR3'	0	0.2458	0.0262	0.7861
b'CHR1:52988103:T'	b'M61SunitR4'	0	0.2151	0.0193	0.7861
b'CHR1:8957259:A'	b'M61SunitR1'	0	0.2389	0.0204	0.9880
b'CHR1:8957259:A'	b'M61SunitR2'	0	0.2202	0.0203	0.9880
b'CHR1:8957259:A'	b'M61SunitR3'	0	0.2458	0.0262	0.9880
b'CHR1:8957259:A'	b'M61SunitR4'	0	0.2151	0.0193	0.9880
b'CHR20:21328621:A'	b'M61SunitR1'	0	0.2389	0.0204	0.7000
b'CHR20:21328621:A'	b'M61SunitR2'	0	0.2202	0.0203	0.7000
b'CHR20:21328621:A'	b'M61SunitR3'	0	0.2458	0.0262	0.7000
b'CHR20:21328621:A'	b'M61SunitR4'	0	0.2151	0.0193	0.7000
b'CHR2:107859472:T'	b'M61SunitR1'	0	0.2389	0.0204	0.8437
b'CHR2:107859472:T'	b'M61SunitR2'	0	0.2202	0.0203	0.8437
b'CHR2:107859472:T'	b'M61SunitR3'	0	0.2458	0.0262	0.8437
b'CHR2:107859472:T'	b'M61SunitR4'	0	0.2151	0.0193	0.8437
b'CHR2:124865392:A'	b'M61SunitR1'	0	0.2389	0.0204	0.6294
b'CHR2:124865392:A'	b'M61SunitR2'	0	0.2202	0.0203	0.6294
b'CHR2:124865392:A'	b'M61SunitR3'	0	0.2458	0.0262	0.6294
b'CHR2:124865392:A'	b'M61SunitR4'	0	0.2151	0.0193	0.6294
b'CHR2:156549720:T'	b'M61SunitR1'	0	0.2389	0.0204	0.9910
b'CHR2:156549720:T'	b'M61SunitR2'	0	0.2202	0.0203	0.9910
b'CHR2:156549720:T'	b'M61SunitR3'	0	0.2458	0.0262	0.9910
b'CHR2:156549720:T'	b'M61SunitR4'	0	0.2151	0.0193	0.9910
b'CHR2:201493458:A'	b'M61SunitR1'	0	0.2389	0.0204	0.5302
b'CHR2:201493458:A'	b'M61SunitR2'	0	0.2202	0.0203	0.5302
b'CHR2:201493458:A'	b'M61SunitR3'	0	0.2458	0.0262	0.5302
b'CHR2:201493458:A'	b'M61SunitR4'	0	0.2151	0.0193	0.5302
b'CHR2:218474766:G'	b'M61SunitR1'	0	0.2389	0.0204	0.8023
b'CHR2:218474766:G'	b'M61SunitR2'	0	0.2202	0.0203	0.8023
b'CHR2:218474766:G'	b'M61SunitR3'	0	0.2458	0.0262	0.8023
b'CHR2:218474766:G'	b'M61SunitR4'	0	0.2151	0.0193	0.8023
b'CHR2:232381539:G'	b'M61SunitR1'	0	0.2389	0.0204	0.5854
b'CHR2:232381539:G'	b'M61SunitR2'	0	0.2202	0.0203	0.5854
b'CHR2:232381539:G'	b'M61SunitR3'	0	0.2458	0.0262	0.5854
b'CHR2:232381539:G'	b'M61SunitR4'	0	0.2151	0.0193	0.5854
b'CHR2:240682800:T'	b'M61SunitR1'	0	0.2389	0.0204	0.5113
b'CHR2:240682800:T'	b'M61SunitR2'	0	0.2202	0.0203	0.5113
b'CHR2:240682800:T'	b'M61SunitR3'	0	0.2458	0.0262	0.5113
b'CHR2:240682800:T'	b'M61SunitR4'	0	0.2151	0.0193	0.5113
b'CHR2:71364013:T'	b'M61SunitR1'	0	0.2389	0.0204	0.8623
b'CHR2:71364013:T'	b'M61SunitR2'	0	0.2202	0.0203	0.8623
b'CHR2:71364013:T'	b'M61SunitR3'	0	0.2458	0.0262	0.8623
b'CHR2:71364013:T'	b'M61SunitR4'	0	0.2151	0.0193	0.8623
b'CHR2:85663826:A'	b'M61SunitR1'	0	0.2389	0.0204	0.8757
b'CHR2:85663826:A'	b'M61SunitR2'	0	0.2202	0.0203	0.8757
b'CHR2:85663826:A'	b'M61SunitR3'	0	0.2458	0.0262	0.8757
b'CHR2:85663826:A'	b'M61SunitR4'	0	0.2151	0.0193	0.8757
b'CHR3:48656801:A'	b'M61SunitR1'	0	0.2389	0.0204	0.6334
b'CHR3:48656801:A'	b'M61SunitR2'	0	0.2202	0.0203	0.6334
b'CHR3:48656801:A'	b'M61SunitR3'	0	0.2458	0.0262	0.6334
b'CHR3:48656801:A'	b'M61SunitR4'	0	0.2151	0.0193	0.6334
b'CHR3:50320148:G'	b'M61SunitR1'	0	0.2389	0.0204	0.8955
b'CHR3:50320148:G'	b'M61SunitR2'	0	0.2202	0.0203	0.8955
b'CHR3:50320148:G'	b'M61SunitR3'	0	0.2458	0.0262	0.8955
b'CHR3:50320148:G'	b'M61SunitR4'	0	0.2151	0.0193	0.8955
b'CHR3:55073793:A'	b'M61SunitR1'	0	0.2389	0.0204	0.9082
b'CHR3:55073793:A'	b'M61SunitR2'	0	0.2202	0.0203	0.9082
b'CHR3:55073793:A'	b'M61SunitR3'	0	0.2458	0.0262	0.9082
b'CHR3:55073793:A'	b'M61SunitR4'	0	0.2151	0.0193	0.9082
b'CHR3:78600261:T'	b'M61SunitR1'	0	0.2389	0.0204	0.9498
b'CHR3:78600261:T'	b'M61SunitR2'	0	0.2202	0.0203	0.9498
b'CHR3:78600261:T'	b'M61SunitR3'	0	0.2458	0.0262	0.9498
b'CHR3:78600261:T'	b'M61SunitR4'	0	0.2151	0.0193	0.9498
b'CHR3:9950005:A'	b'M61SunitR1'	0	0.2389	0.0204	1.0000
b'CHR3:9950005:A'	b'M61SunitR2'	0	0.2202	0.0203	1.0000
b'CHR3:9950005:A'	b'M61SunitR3'	0	0.2458	0.0262	1.0000
b'CHR3:9950005:A'	b'M61SunitR4'	0	0.2151	0.0193	1.0000
b'CHR4:125317234:A'	b'M61SunitR1'	0	0.2389	0.0204	0.9995
b'CHR4:125317234:A'	b'M61SunitR2'	0	0.2202	0.0203	0.9995
b'CHR4:125317234:A'	b'M61SunitR3'	0	0.2458	0.0262	0.9995
b'CHR4:125317234:A'	b'M61SunitR4'	0	0.2151	0.0193	0.9995
b'CHR4:147673062:T'	b'M61SunitR1'	0	0.2389	0.0204	0.5510
b'CHR4:147673062:T'	b'M61SunitR2'	0	0.2202	0.0203	0.5510
b'CHR4:147673062:T'	b'M61SunitR3'	0	0.2458	0.0262	0.5510
b'CHR4:147673062:T'	b'M61SunitR4'	0	0.2151	0.0193	0.5510
b'CHR4:185656724:G'	b'M61SunitR1'	0	0.2389	0.0204	0.7348
b'CHR4:185656724:G'	b'M61SunitR2'	0	0.2202	0.0203	0.7348
b'CHR4:185656724:G'	b'M61SunitR3'	0	0.2458	0.0262	0.7348
b'CHR4:185656724:G'	b'M61SunitR4'	0	0.2151	0.0193	0.7348
b'CHR4:186663325:A'	b'M61SunitR1'	0	0.2389	0.0204	0.7197
b'CHR4:186663325:A'	b'M61SunitR2'	0	0.2202	0.0203	0.7197
b'CHR4:186663325:A'	b'M61SunitR3'	0	0.2458	0.0262	0.7197
b'CHR4:186663325:A'	b'M61SunitR4'	0	0.2151	0.0193	0.7197
b'CHR5:139682878:T'	b'M61SunitR1'	0	0.2389	0.0204	0.4520
b'CHR5:139682878:T'	b'M61SunitR2'	0	0.2202	0.0203	0.4520
b'CHR5:139682878:T'	b'M61SunitR3'	0	0.2458	0.0262	0.4520
b'CHR5:139682878:T'	b'M61SunitR4'	0	0.2151	0.0193	0.4520
b'CHR5:139682880:A'	b'M61SunitR1'	0	0.2389	0.0204	0.4520
b'CHR5:139682880:A'	b'M61SunitR2'	0	0.2202	0.0203	0.4520
b'CHR5:139682880:A'	b'M61SunitR3'	0	0.2458	0.0262	0.4520
b'CHR5:139682880:A'	b'M61SunitR4'	0	0.2151	0.0193	0.4520
b'CHR5:141123573:T'	b'M61SunitR1'	0	0.2389	0.0204	0.9548
b'CHR5:141123573:T'	b'M61SunitR2'	0	0.2202	0.0203	0.9548
b'CHR5:141123573:T'	b'M61SunitR3'	0	0.2458	0.0262	0.9548
b'CHR5:141123573:T'	b'M61SunitR4'	0	0.2151	0.0193	0.9548
b'CHR5:141394009:T'	b'M61SunitR1'	0	0.2389	0.0204	0.9433
b'CHR5:141394009:T'	b'M61SunitR2'	0	0.2202	0.0203	0.9433
b'CHR5:141394009:T'	b'M61SunitR3'	0	0.2458	0.0262	0.9433
b'CHR5:141394009:T'	b'M61SunitR4'	0	0.2151	0.0193	0.9433
b'CHR5:157651252:C'	b'M61SunitR1'	0	0.2389	0.0204	0.8461
b'CHR5:157651252:C'	b'M61SunitR2'	0	0.2202	0.0203	0.8461
b'CHR5:157651252:C'	b'M61SunitR3'	0	0.2458	0.0262	0.8461
b'CHR5:157651252:C'	b'M61SunitR4'	0	0.2151	0.0193	0.8461
b'CHR5:168669936:A'	b'M61SunitR1'	0	0.2389	0.0204	0.8267
b'CHR5:168669936:A'	b'M61SunitR2'	0	0.2202	0.0203	0.8267
b'CHR5:168669936:A'	b'M61SunitR3'	0	0.2458	0.0262	0.8267
b'CHR5:168669936:A'	b'M61SunitR4'	0	0.2151	0.0193	0.8267
b'CHR5:74634923:T'	b'M61SunitR1'	0	0.2389	0.0204	0.8861
b'CHR5:74634923:T'	b'M61SunitR2'	0	0.2202	0.0203	0.8861
b'CHR5:74634923:T'	b'M61SunitR3'	0	0.2458	0.0262	0.8861
b'CHR5:74634923:T'	b'M61SunitR4'	0	0.2151	0.0193	0.8861
b'CHR6:10687513:T'	b'M61SunitR1'	0	0.2389	0.0204	0.9987
b'CHR6:10687513:T'	b'M61SunitR2'	0	0.2202	0.0203	0.9987
b'CHR6:10687513:T'	b'M61SunitR3'	0	0.2458	0.0262	0.9987
b'CHR6:10687513:T'	b'M61SunitR4'	0	0.2151	0.0193	0.9987
b'CHR6:11193627:A'	b'M61SunitR1'	0	0.2389	0.0204	0.9982
b'CHR6:11193627:A'	b'M61SunitR2'	0	0.2202	0.0203	0.9982
b'CHR6:11193627:A'	b'M61SunitR3'	0	0.2458	0.0262	0.9982
b'CHR6:11193627:A'	b'M61SunitR4'	0	0.2151	0.0193	0.9982
b'CHR6:12120212:G'	b'M61SunitR1'	0	0.2389	0.0204	0.7464
b'CHR6:12120212:G'	b'M61SunitR2'	0	0.2202	0.0203	0.7464
b'CHR6:12120212:G'	b'M61SunitR3'	0	0.2458	0.0262	0.7464
b'CHR6:12120212:G'	b'M61SunitR4'	0	0.2151	0.0193	0.7464
b'CHR6:160243652:T'	b'M61SunitR1'	0	0.2389	0.0204	0.6088
b'CHR6:160243652:T'	b'M61SunitR2'	0	0.2202	0.0203	0.6088
b'CHR6:160243652:T'	b'M61SunitR3'	0	0.2458	0.0262	0.6088
b'CHR6:160243652:T'	b'M61SunitR4'	0	0.2151	0.0193	0.6088
b'CHR6:73409315:G'	b'M61SunitR1'	0	0.2389	0.0204	0.6660
b'CHR6:73409315:G'	b'M61SunitR2'	0	0.2202	0.0203	0.6660
b'CHR6:73409315:G'	b'M61SunitR3'	0	0.2458	0.0262	0.6660
b'CHR6:73409315:G'	b'M61SunitR4'	0	0.2151	0.0193	0.6660
b'CHR6:7393219:T'	b'M61SunitR1'	0	0.2389	0.0204	0.8188
b'CHR6:7393219:T'	b'M61SunitR2'	0	0.2202	0.0203	0.8188
b'CHR6:7393219:T'	b'M61SunitR3'	0	0.2458	0.0262	0.8188
b'CHR6:7393219:T'	b'M61SunitR4'	0	0.2151	0.0193	0.8188
b'CHR6:7581403:A'	b'M61SunitR1'	0	0.2389	0.0204	0.9788
b'CHR6:7581403:A'	b'M61SunitR2'	0	0.2202	0.0203	0.9788
b'CHR6:7581403:A'	b'M61SunitR3'	0	0.2458	0.0262	0.9788
b'CHR6:7581403:A'	b'M61SunitR4'	0	0.2151	0.0193	0.9788
b'CHR6:7601487:T'	b'M61SunitR1'	0	0.2389	0.0204	0.6118
b'CHR6:7601487:T'	b'M61SunitR2'	0	0.2202	0.0203	0.6118
b'CHR6:7601487:T'	b'M61SunitR3'	0	0.2458	0.0262	0.6118
b'CHR6:7601487:T'	b'M61SunitR4'	0	0.2151	0.0193	0.6118
b'CHR6:9775825:A'	b'M61SunitR1'	0	0.2389	0.0204	0.5255
b'CHR6:9775825:A'	b'M61SunitR2'	0	0.2202	0.0203	0.5255
b'CHR6:9775825:A'	b'M61SunitR3'	0	0.2458	0.0262	0.5255
b'CHR6:9775825:A'	b'M61SunitR4'	0	0.2151	0.0193	0.5255
b'CHR7:103523460:A'	b'M61SunitR1'	0	0.2389	0.0204	0.6256
b'CHR7:103523460:A'	b'M61SunitR2'	0	0.2202	0.0203	0.6256
b'CHR7:103523460:A'	b'M61SunitR3'	0	0.2458	0.0262	0.6256
b'CHR7:103523460:A'	b'M61SunitR4'	0	0.2151	0.0193	0.6256
b'CHR7:39085988:C'	b'M61SunitR1'	0	0.2389	0.0204	0.8303
b'CHR7:39085988:C'	b'M61SunitR2'	0	0.2202	0.0203	0.8303
b'CHR7:39085988:C'	b'M61SunitR3'	0	0.2458	0.0262	0.8303
b'CHR7:39085988:C'	b'M61SunitR4'	0	0.2151	0.0193	0.8303
b'CHR7:39085990:C'	b'M61SunitR1'	0	0.2389	0.0204	0.8303
b'CHR7:39085990:C'	b'M61SunitR2'	0	0.2202	0.0203	0.8303
b'CHR7:39085990:C'	b'M61SunitR3'	0	0.2458	0.0262	0.8303
b'CHR7:39085990:C'	b'M61SunitR4'	0	0.2151	0.0193	0.8303
b'CHR7:44539245:T'	b'M61SunitR1'	0	0.2389	0.0204	0.6817
b'CHR7:44539245:T'	b'M61SunitR2'	0	0.2202	0.0203	0.6817
b'CHR7:44539245:T'	b'M61SunitR3'	0	0.2458	0.0262	0.6817
b'CHR7:44539245:T'	b'M61SunitR4'	0	0.2151	0.0193	0.6817
b'CHR8:143925249:T'	b'M61SunitR1'	0	0.2389	0.0204	0.3669
b'CHR8:143925249:T'	b'M61SunitR2'	0	0.2202	0.0203	0.3669
b'CHR8:143925249:T'	b'M61SunitR3'	0	0.2458	0.0262	0.3669
b'CHR8:143925249:T'	b'M61SunitR4'	0	0.2151	0.0193	0.3669
b'CHR8:144040433:T'	b'M61SunitR1'	0	0.2389	0.0204	0.6560
b'CHR8:144040433:T'	b'M61SunitR2'	0	0.2202	0.0203	0.6560
b'CHR8:144040433:T'	b'M61SunitR3'	0	0.2458	0.0262	0.6560
b'CHR8:144040433:T'	b'M61SunitR4'	0	0.2151	0.0193	0.6560
b'CHR8:54459829:A'	b'M61SunitR1'	0	0.2389	0.0204	0.9430
b'CHR8:54459829:A'	b'M61SunitR2'	0	0.2202	0.0203	0.9430
b'CHR8:54459829:A'	b'M61SunitR3'	0	0.2458	0.0262	0.9430
b'CHR8:54459829:A'	b'M61SunitR4'	0	0.2151	0.0193	0.9430
b'CHR9:123381818:C'	b'M61SunitR1'	0	0.2389	0.0204	0.8839
b'CHR9:123381818:C'	b'M61SunitR2'	0	0.2202	0.0203	0.8839
b'CHR9:123381818:C'	b'M61SunitR3'	0	0.2458	0.0262	0.8839
b'CHR9:123381818:C'	b'M61SunitR4'	0	0.2151	0.0193	0.8839
b'CHR9:125326478:G'	b'M61SunitR1'	0	0.2389	0.0204	0.9621
b'CHR9:125326478:G'	b'M61SunitR2'	0	0.2202	0.0203	0.9621
b'CHR9:125326478:G'	b'M61SunitR3'	0	0.2458	0.0262	0.9621
b'CHR9:125326478:G'	b'M61SunitR4'	0	0.2151	0.0193	0.9621
b'CHR9:127034499:A'	b'M61SunitR1'	0	0.2389	0.0204	0.7130
b'CHR9:127034499:A'	b'M61SunitR2'	0	0.2202	0.0203	0.7130
b'CHR9:127034499:A'	b'M61SunitR3'	0	0.2458	0.0262	0.7130
b'CHR9:127034499:A'	b'M61SunitR4'	0	0.2151	0.0193	0.7130
b'CHR9:134727314:A'	b'M61SunitR1'	0	0.2389	0.0204	0.7432
b'CHR9:134727314:A'	b'M61SunitR2'	0	0.2202	0.0203	0.7432
b'CHR9:134727314:A'	b'M61SunitR3'	0	0.2458	0.0262	0.7432
b'CHR9:134727314:A'	b'M61SunitR4'	0	0.2151	0.0193	0.7432
b'CHR9:34371863:A'	b'M61SunitR1'	0	0.2389	0.0204	0.9741
b'CHR9:34371863:A'	b'M61SunitR2'	0	0.2202	0.0203	0.9741
b'CHR9:34371863:A'	b'M61SunitR3'	0	0.2458	0.0262	0.9741
b'CHR9:34371863:A'	b'M61SunitR4'	0	0.2151	0.0193	0.9741
b'CHR9:34726205:G'	b'M61SunitR1'	0	0.2389	0.0204	0.8486
b'CHR9:34726205:G'	b'M61SunitR2'	0	0.2202	0.0203	0.8486
b'CHR9:34726205:G'	b'M61SunitR3'	0	0.2458	0.0262	0.8486
b'CHR9:34726205:G'	b'M61SunitR4'	0	0.2151	0.0193	0.8486
b'CHR9:34726207:A'	b'M61SunitR1'	0	0.2389	0.0204	0.8486
b'CHR9:34726207:A'	b'M61SunitR2'	0	0.2202	0.0203	0.8486
b'CHR9:34726207:A'	b'M61SunitR3'	0	0.2458	0.0262	0.8486
b'CHR9:34726207:A'	b'M61SunitR4'	0	0.2151	0.0193	0.8486
b'CHR9:78328164:G'	b'M61SunitR1'	0	0.2389	0.0204	0.5268
b'CHR9:78328164:G'	b'M61SunitR2'	0	0.2202	0.0203	0.5268
b'CHR9:78328164:G'	b'M61SunitR3'	0	0.2458	0.0262	0.5268
b'CHR9:78328164:G'	b'M61SunitR4'	0	0.2151	0.0193	0.5268
b'CHR9:95881156:A'	b'M61SunitR1'	0	0.2389	0.0204	0.7665
b'CHR9:95881156:A'	b'M61SunitR2'	0	0.2202	0.0203	0.7665
b'CHR9:95881156:A'	b'M61SunitR3'	0	0.2458	0.0262	0.7665
b'CHR9:95881156:A'	b'M61SunitR4'	0	0.2151	0.0193	0.7665
b'CHR12:40481156:A'	b'M61SunitR1'	1	0.0689	0.0187	0.9926
b'CHR12:40481156:A'	b'M61SunitR2'	1	0.0697	0.0271	0.9926
b'CHR12:40481156:A'	b'M61SunitR3'	1	0.3085	0.1238	0.9926
b'CHR12:40481156:A'	b'M61SunitR4'	1	0.0839	0.0197	0.9926
b'CHR12:40481157:G'	b'M61SunitR1'	1	0.0689	0.0187	0.9919
b'CHR12:40481157:G'	b'M61SunitR2'	1	0.0697	0.0271	0.9919
b'CHR12:40481157:G'	b'M61SunitR3'	1	0.3085	0.1238	0.9919
b'CHR12:40481157:G'	b'M61SunitR4'	1	0.0839	0.0197	0.9919
b'CHR12:40482641:G'	b'M61SunitR1'	1	0.0689	0.0187	0.9956
b'CHR12:40482641:G'	b'M61SunitR2'	1	0.0697	0.0271	0.9956
b'CHR12:40482641:G'	b'M61SunitR3'	1	0.3085	0.1238	0.9956
b'CHR12:40482641:G'	b'M61SunitR4'	1	0.0839	0.0197	0.9956
b'CHR19:14765687:T'	b'M61SunitR1'	1	0.0689	0.0187	1.0000
b'CHR19:14765687:T'	b'M61SunitR2'	1	0.0697	0.0271	1.0000
b'CHR19:14765687:T'	b'M61SunitR3'	1	0.3085	0.1238	1.0000
b'CHR19:14765687:T'	b'M61SunitR4'	1	0.0839	0.0197	1.0000
b'CHR19:43081182:G'	b'M61SunitR1'	1	0.0689	0.0187	0.9482
b'CHR19:43081182:G'	b'M61SunitR2'	1	0.0697	0.0271	0.9482
b'CHR19:43081182:G'	b'M61SunitR3'	1	0.3085	0.1238	0.9482
b'CHR19:43081182:G'	b'M61SunitR4'	1	0.0839	0.0197	0.9482
b'CHR8:143871184:T'	b'M61SunitR1'	1	0.0689	0.0187	0.5830
b'CHR8:143871184:T'	b'M61SunitR2'	1	0.0697	0.0271	0.5830
b'CHR8:143871184:T'	b'M61SunitR3'	1	0.3085	0.1238	0.5830
b'CHR8:143871184:T'	b'M61SunitR4'	1	0.0839	0.0197	0.5830
b'CHR1:13421192:T'	b'M61SunitR1'	2	0.4935	0.0534	0.8803
b'CHR1:13421192:T'	b'M61SunitR2'	2	0.4563	0.0470	0.8803
b'CHR1:13421192:T'	b'M61SunitR3'	2	0.4331	0.0520	0.8803
b'CHR1:13421192:T'	b'M61SunitR4'	2	0.4781	0.0539	0.8803
b'CHR1:13773141:T'	b'M61SunitR1'	2	0.4935	0.0534	0.4005
b'CHR1:13773141:T'	b'M61SunitR2'	2	0.4563	0.0470	0.4005
b'CHR1:13773141:T'	b'M61SunitR3'	2	0.4331	0.0520	0.4005
b'CHR1:13773141:T'	b'M61SunitR4'	2	0.4781	0.0539	0.4005
b'CHR1:16759300:T'	b'M61SunitR1'	2	0.4935	0.0534	0.9950
b'CHR1:16759300:T'	b'M61SunitR2'	2	0.4563	0.0470	0.9950
b'CHR1:16759300:T'	b'M61SunitR3'	2	0.4331	0.0520	0.9950
b'CHR1:16759300:T'	b'M61SunitR4'	2	0.4781	0.0539	0.9950
b'CHR1:19623568:C'	b'M61SunitR1'	2	0.4935	0.0534	0.3926
b'CHR1:19623568:C'	b'M61SunitR2'	2	0.4563	0.0470	0.3926
b'CHR1:19623568:C'	b'M61SunitR3'	2	0.4331	0.0520	0.3926
b'CHR1:19623568:C'	b'M61SunitR4'	2	0.4781	0.0539	0.3926
b'CHR1:247423969:T'	b'M61SunitR1'	2	0.4935	0.0534	0.9841
b'CHR1:247423969:T'	b'M61SunitR2'	2	0.4563	0.0470	0.9841
b'CHR1:247423969:T'	b'M61SunitR3'	2	0.4331	0.0520	0.9841
b'CHR1:247423969:T'	b'M61SunitR4'	2	0.4781	0.0539	0.9841
b'CHR1:942934:C'	b'M61SunitR1'	2	0.4935	0.0534	0.9296
b'CHR1:942934:C'	b'M61SunitR2'	2	0.4563	0.0470	0.9296
b'CHR1:942934:C'	b'M61SunitR3'	2	0.4331	0.0520	0.9296
b'CHR1:942934:C'	b'M61SunitR4'	2	0.4781	0.0539	0.9296
b'CHR2:170847706:T'	b'M61SunitR1'	2	0.4935	0.0534	0.4953
b'CHR2:170847706:T'	b'M61SunitR2'	2	0.4563	0.0470	0.4953
b'CHR2:170847706:T'	b'M61SunitR3'	2	0.4331	0.0520	0.4953
b'CHR2:170847706:T'	b'M61SunitR4'	2	0.4781	0.0539	0.4953
b'CHR7:151066568:A'	b'M61SunitR1'	2	0.4935	0.0534	0.4640
b'CHR7:151066568:A'	b'M61SunitR2'	2	0.4563	0.0470	0.4640
b'CHR7:151066568:A'	b'M61SunitR3'	2	0.4331	0.0520	0.4640
b'CHR7:151066568:A'	b'M61SunitR4'	2	0.4781	0.0539	0.4640
b'CHR1:155054385:T'	b'M61SunitR1'	3	0.6232	0.0417	0.8699
b'CHR1:155054385:T'	b'M61SunitR2'	3	0.8064	0.0514	0.8699
b'CHR1:155054385:T'	b'M61SunitR3'	3	0.9118	0.0473	0.8699
b'CHR1:155054385:T'	b'M61SunitR4'	3	0.5390	0.0431	0.8699
b'CHR1:16409637:C'	b'M61SunitR1'	3	0.6232	0.0417	0.6106
b'CHR1:16409637:C'	b'M61SunitR2'	3	0.8064	0.0514	0.6106
b'CHR1:16409637:C'	b'M61SunitR3'	3	0.9118	0.0473	0.6106
b'CHR1:16409637:C'	b'M61SunitR4'	3	0.5390	0.0431	0.6106
b'CHR1:17079314:A'	b'M61SunitR1'	3	0.6232	0.0417	0.7359
b'CHR1:17079314:A'	b'M61SunitR2'	3	0.8064	0.0514	0.7359
b'CHR1:17079314:A'	b'M61SunitR3'	3	0.9118	0.0473	0.7359
b'CHR1:17079314:A'	b'M61SunitR4'	3	0.5390	0.0431	0.7359
b'CHR1:17084646:G'	b'M61SunitR1'	3	0.6232	0.0417	0.5083
b'CHR1:17084646:G'	b'M61SunitR2'	3	0.8064	0.0514	0.5083
b'CHR1:17084646:G'	b'M61SunitR3'	3	0.9118	0.0473	0.5083
b'CHR1:17084646:G'	b'M61SunitR4'	3	0.5390	0.0431	0.5083
b'CHR1:18481971:A'	b'M61SunitR1'	3	0.6232	0.0417	0.6686
b'CHR1:18481971:A'	b'M61SunitR2'	3	0.8064	0.0514	0.6686
b'CHR1:18481971:A'	b'M61SunitR3'	3	0.9118	0.0473	0.6686
b'CHR1:18481971:A'	b'M61SunitR4'	3	0.5390	0.0431	0.6686
b'CHR1:18877503:G'	b'M61SunitR1'	3	0.6232	0.0417	0.9464
b'CHR1:18877503:G'	b'M61SunitR2'	3	0.8064	0.0514	0.9464
b'CHR1:18877503:G'	b'M61SunitR3'	3	0.9118	0.0473	0.9464
b'CHR1:18877503:G'	b'M61SunitR4'	3	0.5390	0.0431	0.9464
b'CHR1:20084839:T'	b'M61SunitR1'	3	0.6232	0.0417	0.9677
b'CHR1:20084839:T'	b'M61SunitR2'	3	0.8064	0.0514	0.9677
b'CHR1:20084839:T'	b'M61SunitR3'	3	0.9118	0.0473	0.9677
b'CHR1:20084839:T'	b'M61SunitR4'	3	0.5390	0.0431	0.9677
b'CHR1:202160698:C'	b'M61SunitR1'	3	0.6232	0.0417	0.5856
b'CHR1:202160698:C'	b'M61SunitR2'	3	0.8064	0.0514	0.5856
b'CHR1:202160698:C'	b'M61SunitR3'	3	0.9118	0.0473	0.5856
b'CHR1:202160698:C'	b'M61SunitR4'	3	0.5390	0.0431	0.5856
b'CHR1:21874505:T'	b'M61SunitR1'	3	0.6232	0.0417	0.6245
b'CHR1:21874505:T'	b'M61SunitR2'	3	0.8064	0.0514	0.6245
b'CHR1:21874505:T'	b'M61SunitR3'	3	0.9118	0.0473	0.6245
b'CHR1:21874505:T'	b'M61SunitR4'	3	0.5390	0.0431	0.6245
b'CHR1:22526222:C'	b'M61SunitR1'	3	0.6232	0.0417	0.8899
b'CHR1:22526222:C'	b'M61SunitR2'	3	0.8064	0.0514	0.8899
b'CHR1:22526222:C'	b'M61SunitR3'	3	0.9118	0.0473	0.8899
b'CHR1:22526222:C'	b'M61SunitR4'	3	0.5390	0.0431	0.8899
b'CHR1:25243590:C'	b'M61SunitR1'	3	0.6232	0.0417	0.9656
b'CHR1:25243590:C'	b'M61SunitR2'	3	0.8064	0.0514	0.9656
b'CHR1:25243590:C'	b'M61SunitR3'	3	0.9118	0.0473	0.9656
b'CHR1:25243590:C'	b'M61SunitR4'	3	0.5390	0.0431	0.9656
b'CHR1:27360975:T'	b'M61SunitR1'	3	0.6232	0.0417	0.7974
b'CHR1:27360975:T'	b'M61SunitR2'	3	0.8064	0.0514	0.7974
b'CHR1:27360975:T'	b'M61SunitR3'	3	0.9118	0.0473	0.7974
b'CHR1:27360975:T'	b'M61SunitR4'	3	0.5390	0.0431	0.7974
b'CHR1:31630664:G'	b'M61SunitR1'	3	0.6232	0.0417	0.8254
b'CHR1:31630664:G'	b'M61SunitR2'	3	0.8064	0.0514	0.8254
b'CHR1:31630664:G'	b'M61SunitR3'	3	0.9118	0.0473	0.8254
b'CHR1:31630664:G'	b'M61SunitR4'	3	0.5390	0.0431	0.8254
b'CHR1:32770050:G'	b'M61SunitR1'	3	0.6232	0.0417	0.9711
b'CHR1:32770050:G'	b'M61SunitR2'	3	0.8064	0.0514	0.9711
b'CHR1:32770050:G'	b'M61SunitR3'	3	0.9118	0.0473	0.9711
b'CHR1:32770050:G'	b'M61SunitR4'	3	0.5390	0.0431	0.9711
b'CHR1:51840355:A'	b'M61SunitR1'	3	0.6232	0.0417	0.9884
b'CHR1:51840355:A'	b'M61SunitR2'	3	0.8064	0.0514	0.9884
b'CHR1:51840355:A'	b'M61SunitR3'	3	0.9118	0.0473	0.9884
b'CHR1:51840355:A'	b'M61SunitR4'	3	0.5390	0.0431	0.9884
b'CHR1:53247055:T'	b'M61SunitR1'	3	0.6232	0.0417	0.7384
b'CHR1:53247055:T'	b'M61SunitR2'	3	0.8064	0.0514	0.7384
b'CHR1:53247055:T'	b'M61SunitR3'	3	0.9118	0.0473	0.7384
b'CHR1:53247055:T'	b'M61SunitR4'	3	0.5390	0.0431	0.7384
b'CHR1:63323280:A'	b'M61SunitR1'	3	0.6232	0.0417	0.7054
b'CHR1:63323280:A'	b'M61SunitR2'	3	0.8064	0.0514	0.7054
b'CHR1:63323280:A'	b'M61SunitR3'	3	0.9118	0.0473	0.7054
b'CHR1:63323280:A'	b'M61SunitR4'	3	0.5390	0.0431	0.7054
b'CHR1:63415881:T'	b'M61SunitR1'	3	0.6232	0.0417	0.5315
b'CHR1:63415881:T'	b'M61SunitR2'	3	0.8064	0.0514	0.5315
b'CHR1:63415881:T'	b'M61SunitR3'	3	0.9118	0.0473	0.5315
b'CHR1:63415881:T'	b'M61SunitR4'	3	0.5390	0.0431	0.5315
b'CHR22:37066106:C'	b'M61SunitR1'	3	0.6232	0.0417	0.7128
b'CHR22:37066106:C'	b'M61SunitR2'	3	0.8064	0.0514	0.7128
b'CHR22:37066106:C'	b'M61SunitR3'	3	0.9118	0.0473	0.7128
b'CHR22:37066106:C'	b'M61SunitR4'	3	0.5390	0.0431	0.7128
b'CHR2:73291715:T'	b'M61SunitR1'	3	0.6232	0.0417	0.7454
b'CHR2:73291715:T'	b'M61SunitR2'	3	0.8064	0.0514	0.7454
b'CHR2:73291715:T'	b'M61SunitR3'	3	0.9118	0.0473	0.7454
b'CHR2:73291715:T'	b'M61SunitR4'	3	0.5390	0.0431	0.7454
b'CHR3:48447042:C'	b'M61SunitR1'	3	0.6232	0.0417	0.6206
b'CHR3:48447042:C'	b'M61SunitR2'	3	0.8064	0.0514	0.6206
b'CHR3:48447042:C'	b'M61SunitR3'	3	0.9118	0.0473	0.6206
b'CHR3:48447042:C'	b'M61SunitR4'	3	0.5390	0.0431	0.6206
b'CHR5:150540177:C'	b'M61SunitR1'	3	0.6232	0.0417	0.9060
b'CHR5:150540177:C'	b'M61SunitR2'	3	0.8064	0.0514	0.9060
b'CHR5:150540177:C'	b'M61SunitR3'	3	0.9118	0.0473	0.9060
b'CHR5:150540177:C'	b'M61SunitR4'	3	0.5390	0.0431	0.9060
b'CHR6:3154637:C'	b'M61SunitR1'	3	0.6232	0.0417	0.3302
b'CHR6:3154637:C'	b'M61SunitR2'	3	0.8064	0.0514	0.3302
b'CHR6:3154637:C'	b'M61SunitR3'	3	0.9118	0.0473	0.3302
b'CHR6:3154637:C'	b'M61SunitR4'	3	0.5390	0.0431	0.3302
b'CHR9:26928213:T'	b'M61SunitR1'	3	0.6232	0.0417	0.7655
b'CHR9:26928213:T'	b'M61SunitR2'	3	0.8064	0.0514	0.7655
b'CHR9:26928213:T'	b'M61SunitR3'	3	0.9118	0.0473	0.7655
b'CHR9:26928213:T'	b'M61SunitR4'	3	0.5390	0.0431	0.7655
b'CHR10:128101279:T'	b'M61SunitR1'	4	0.7583	0.0423	0.8233
b'CHR10:128101279:T'	b'M61SunitR2'	4	0.7546	0.0403	0.8233
b'CHR10:128101279:T'	b'M61SunitR3'	4	0.6071	0.0394	0.8233
b'CHR10:128101279:T'	b'M61SunitR4'	4	0.8456	0.0409	0.8233
b'CHR10:92240093:G'	b'M61SunitR1'	4	0.7583	0.0423	0.3321
b'CHR10:92240093:G'	b'M61SunitR2'	4	0.7546	0.0403	0.3321
b'CHR10:92240093:G'	b'M61SunitR3'	4	0.6071	0.0394	0.3321
b'CHR10:92240093:G'	b'M61SunitR4'	4	0.8456	0.0409	0.3321
b'CHR14:31178233:C'	b'M61SunitR1'	4	0.7583	0.0423	0.7541
b'CHR14:31178233:C'	b'M61SunitR2'	4	0.7546	0.0403	0.7541
b'CHR14:31178233:C'	b'M61SunitR3'	4	0.6071	0.0394	0.7541
b'CHR14:31178233:C'	b'M61SunitR4'	4	0.8456	0.0409	0.7541
b'CHR15:68432031:T'	b'M61SunitR1'	4	0.7583	0.0423	0.5189
b'CHR15:68432031:T'	b'M61SunitR2'	4	0.7546	0.0403	0.5189
b'CHR15:68432031:T'	b'M61SunitR3'	4	0.6071	0.0394	0.5189
b'CHR15:68432031:T'	b'M61SunitR4'	4	0.8456	0.0409	0.5189
b'CHR16:1241453:A'	b'M61SunitR1'	4	0.7583	0.0423	0.7934
b'CHR16:1241453:A'	b'M61SunitR2'	4	0.7546	0.0403	0.7934
b'CHR16:1241453:A'	b'M61SunitR3'	4	0.6071	0.0394	0.7934
b'CHR16:1241453:A'	b'M61SunitR4'	4	0.8456	0.0409	0.7934
b'CHR19:1049270:A'	b'M61SunitR1'	4	0.7583	0.0423	0.8265
b'CHR19:1049270:A'	b'M61SunitR2'	4	0.7546	0.0403	0.8265
b'CHR19:1049270:A'	b'M61SunitR3'	4	0.6071	0.0394	0.8265
b'CHR19:1049270:A'	b'M61SunitR4'	4	0.8456	0.0409	0.8265
b'CHR19:52881597:A'	b'M61SunitR1'	4	0.7583	0.0423	0.8301
b'CHR19:52881597:A'	b'M61SunitR2'	4	0.7546	0.0403	0.8301
b'CHR19:52881597:A'	b'M61SunitR3'	4	0.6071	0.0394	0.8301
b'CHR19:52881597:A'	b'M61SunitR4'	4	0.8456	0.0409	0.8301
b'CHR1:111242317:G'	b'M61SunitR1'	4	0.7583	0.0423	0.9925
b'CHR1:111242317:G'	b'M61SunitR2'	4	0.7546	0.0403	0.9925
b'CHR1:111242317:G'	b'M61SunitR3'	4	0.6071	0.0394	0.9925
b'CHR1:111242317:G'	b'M61SunitR4'	4	0.8456	0.0409	0.9925
b'CHR1:11706367:T'	b'M61SunitR1'	4	0.7583	0.0423	0.5606
b'CHR1:11706367:T'	b'M61SunitR2'	4	0.7546	0.0403	0.5606
b'CHR1:11706367:T'	b'M61SunitR3'	4	0.6071	0.0394	0.5606
b'CHR1:11706367:T'	b'M61SunitR4'	4	0.8456	0.0409	0.5606
b'CHR1:11779915:A'	b'M61SunitR1'	4	0.7583	0.0423	0.5707
b'CHR1:11779915:A'	b'M61SunitR2'	4	0.7546	0.0403	0.5707
b'CHR1:11779915:A'	b'M61SunitR3'	4	0.6071	0.0394	0.5707
b'CHR1:11779915:A'	b'M61SunitR4'	4	0.8456	0.0409	0.5707
b'CHR1:13343011:A'	b'M61SunitR1'	4	0.7583	0.0423	0.9051
b'CHR1:13343011:A'	b'M61SunitR2'	4	0.7546	0.0403	0.9051
b'CHR1:13343011:A'	b'M61SunitR3'	4	0.6071	0.0394	0.9051
b'CHR1:13343011:A'	b'M61SunitR4'	4	0.8456	0.0409	0.9051
b'CHR1:13782619:G'	b'M61SunitR1'	4	0.7583	0.0423	0.8168
b'CHR1:13782619:G'	b'M61SunitR2'	4	0.7546	0.0403	0.8168
b'CHR1:13782619:G'	b'M61SunitR3'	4	0.6071	0.0394	0.8168
b'CHR1:13782619:G'	b'M61SunitR4'	4	0.8456	0.0409	0.8168
b'CHR1:15939409:A'	b'M61SunitR1'	4	0.7583	0.0423	0.9922
b'CHR1:15939409:A'	b'M61SunitR2'	4	0.7546	0.0403	0.9922
b'CHR1:15939409:A'	b'M61SunitR3'	4	0.6071	0.0394	0.9922
b'CHR1:15939409:A'	b'M61SunitR4'	4	0.8456	0.0409	0.9922
b'CHR1:17070097:A'	b'M61SunitR1'	4	0.7583	0.0423	0.8318
b'CHR1:17070097:A'	b'M61SunitR2'	4	0.7546	0.0403	0.8318
b'CHR1:17070097:A'	b'M61SunitR3'	4	0.6071	0.0394	0.8318
b'CHR1:17070097:A'	b'M61SunitR4'	4	0.8456	0.0409	0.8318
b'CHR1:19282760:C'	b'M61SunitR1'	4	0.7583	0.0423	0.9888
b'CHR1:19282760:C'	b'M61SunitR2'	4	0.7546	0.0403	0.9888
b'CHR1:19282760:C'	b'M61SunitR3'	4	0.6071	0.0394	0.9888
b'CHR1:19282760:C'	b'M61SunitR4'	4	0.8456	0.0409	0.9888
b'CHR1:215567710:G'	b'M61SunitR1'	4	0.7583	0.0423	0.9664
b'CHR1:215567710:G'	b'M61SunitR2'	4	0.7546	0.0403	0.9664
b'CHR1:215567710:G'	b'M61SunitR3'	4	0.6071	0.0394	0.9664
b'CHR1:215567710:G'	b'M61SunitR4'	4	0.8456	0.0409	0.9664
b'CHR1:230921501:T'	b'M61SunitR1'	4	0.7583	0.0423	0.5770
b'CHR1:230921501:T'	b'M61SunitR2'	4	0.7546	0.0403	0.5770
b'CHR1:230921501:T'	b'M61SunitR3'	4	0.6071	0.0394	0.5770
b'CHR1:230921501:T'	b'M61SunitR4'	4	0.8456	0.0409	0.5770
b'CHR1:26344118:T'	b'M61SunitR1'	4	0.7583	0.0423	0.9385
b'CHR1:26344118:T'	b'M61SunitR2'	4	0.7546	0.0403	0.9385
b'CHR1:26344118:T'	b'M61SunitR3'	4	0.6071	0.0394	0.9385
b'CHR1:26344118:T'	b'M61SunitR4'	4	0.8456	0.0409	0.9385
b'CHR1:26952030:A'	b'M61SunitR1'	4	0.7583	0.0423	0.9681
b'CHR1:26952030:A'	b'M61SunitR2'	4	0.7546	0.0403	0.9681
b'CHR1:26952030:A'	b'M61SunitR3'	4	0.6071	0.0394	0.9681
b'CHR1:26952030:A'	b'M61SunitR4'	4	0.8456	0.0409	0.9681
b'CHR1:31698605:G'	b'M61SunitR1'	4	0.7583	0.0423	0.8002
b'CHR1:31698605:G'	b'M61SunitR2'	4	0.7546	0.0403	0.8002
b'CHR1:31698605:G'	b'M61SunitR3'	4	0.6071	0.0394	0.8002
b'CHR1:31698605:G'	b'M61SunitR4'	4	0.8456	0.0409	0.8002
b'CHR1:33494462:G'	b'M61SunitR1'	4	0.7583	0.0423	0.9999
b'CHR1:33494462:G'	b'M61SunitR2'	4	0.7546	0.0403	0.9999
b'CHR1:33494462:G'	b'M61SunitR3'	4	0.6071	0.0394	0.9999
b'CHR1:33494462:G'	b'M61SunitR4'	4	0.8456	0.0409	0.9999
b'CHR1:3478610:A'	b'M61SunitR1'	4	0.7583	0.0423	0.7410
b'CHR1:3478610:A'	b'M61SunitR2'	4	0.7546	0.0403	0.7410
b'CHR1:3478610:A'	b'M61SunitR3'	4	0.6071	0.0394	0.7410
b'CHR1:3478610:A'	b'M61SunitR4'	4	0.8456	0.0409	0.7410
b'CHR1:3763211:T'	b'M61SunitR1'	4	0.7583	0.0423	0.4738
b'CHR1:3763211:T'	b'M61SunitR2'	4	0.7546	0.0403	0.4738
b'CHR1:3763211:T'	b'M61SunitR3'	4	0.6071	0.0394	0.4738
b'CHR1:3763211:T'	b'M61SunitR4'	4	0.8456	0.0409	0.4738
b'CHR1:53250744:A'	b'M61SunitR1'	4	0.7583	0.0423	0.9738
b'CHR1:53250744:A'	b'M61SunitR2'	4	0.7546	0.0403	0.9738
b'CHR1:53250744:A'	b'M61SunitR3'	4	0.6071	0.0394	0.9738
b'CHR1:53250744:A'	b'M61SunitR4'	4	0.8456	0.0409	0.9738
b'CHR1:53594343:C'	b'M61SunitR1'	4	0.7583	0.0423	0.9732
b'CHR1:53594343:C'	b'M61SunitR2'	4	0.7546	0.0403	0.9732
b'CHR1:53594343:C'	b'M61SunitR3'	4	0.6071	0.0394	0.9732
b'CHR1:53594343:C'	b'M61SunitR4'	4	0.8456	0.0409	0.9732
b'CHR1:53594575:C'	b'M61SunitR1'	4	0.7583	0.0423	0.9386
b'CHR1:53594575:C'	b'M61SunitR2'	4	0.7546	0.0403	0.9386
b'CHR1:53594575:C'	b'M61SunitR3'	4	0.6071	0.0394	0.9386
b'CHR1:53594575:C'	b'M61SunitR4'	4	0.8456	0.0409	0.9386
b'CHR1:64844806:C'	b'M61SunitR1'	4	0.7583	0.0423	0.9706
b'CHR1:64844806:C'	b'M61SunitR2'	4	0.7546	0.0403	0.9706
b'CHR1:64844806:C'	b'M61SunitR3'	4	0.6071	0.0394	0.9706
b'CHR1:64844806:C'	b'M61SunitR4'	4	0.8456	0.0409	0.9706
b'CHR1:7827188:A'	b'M61SunitR1'	4	0.7583	0.0423	0.7199
b'CHR1:7827188:A'	b'M61SunitR2'	4	0.7546	0.0403	0.7199
b'CHR1:7827188:A'	b'M61SunitR3'	4	0.6071	0.0394	0.7199
b'CHR1:7827188:A'	b'M61SunitR4'	4	0.8456	0.0409	0.7199
b'CHR2:219451248:A'	b'M61SunitR1'	4	0.7583	0.0423	0.5386
b'CHR2:219451248:A'	b'M61SunitR2'	4	0.7546	0.0403	0.5386
b'CHR2:219451248:A'	b'M61SunitR3'	4	0.6071	0.0394	0.5386
b'CHR2:219451248:A'	b'M61SunitR4'	4	0.8456	0.0409	0.5386
b'CHR2:232564321:T'	b'M61SunitR1'	4	0.7583	0.0423	0.3816
b'CHR2:232564321:T'	b'M61SunitR2'	4	0.7546	0.0403	0.3816
b'CHR2:232564321:T'	b'M61SunitR3'	4	0.6071	0.0394	0.3816
b'CHR2:232564321:T'	b'M61SunitR4'	4	0.8456	0.0409	0.3816
b'CHR3:41800280:T'	b'M61SunitR1'	4	0.7583	0.0423	0.6190
b'CHR3:41800280:T'	b'M61SunitR2'	4	0.7546	0.0403	0.6190
b'CHR3:41800280:T'	b'M61SunitR3'	4	0.6071	0.0394	0.6190
b'CHR3:41800280:T'	b'M61SunitR4'	4	0.8456	0.0409	0.6190
b'CHR4:85942222:C'	b'M61SunitR1'	4	0.7583	0.0423	0.3653
b'CHR4:85942222:C'	b'M61SunitR2'	4	0.7546	0.0403	0.3653
b'CHR4:85942222:C'	b'M61SunitR3'	4	0.6071	0.0394	0.3653
b'CHR4:85942222:C'	b'M61SunitR4'	4	0.8456	0.0409	0.3653
b'CHR7:72942166:T'	b'M61SunitR1'	4	0.7583	0.0423	0.3505
b'CHR7:72942166:T'	b'M61SunitR2'	4	0.7546	0.0403	0.3505
b'CHR7:72942166:T'	b'M61SunitR3'	4	0.6071	0.0394	0.3505
b'CHR7:72942166:T'	b'M61SunitR4'	4	0.8456	0.0409	0.3505
