mutation_id	sample_id	cluster_id	cellular_prevalence	cellular_prevalence_std	cluster_assignment_prob
b'CHR1:155054385:T'	b'M61SunitR1'	0	0.5874	0.0374	0.9406
b'CHR1:155054385:T'	b'M61SunitR2'	0	0.7606	0.0455	0.9406
b'CHR1:155054385:T'	b'M61SunitR3'	0	0.8319	0.0466	0.9406
b'CHR1:155054385:T'	b'M61SunitR4'	0	0.5075	0.0388	0.9406
b'CHR1:16409637:C'	b'M61SunitR1'	0	0.5874	0.0374	0.6138
b'CHR1:16409637:C'	b'M61SunitR2'	0	0.7606	0.0455	0.6138
b'CHR1:16409637:C'	b'M61SunitR3'	0	0.8319	0.0466	0.6138
b'CHR1:16409637:C'	b'M61SunitR4'	0	0.5075	0.0388	0.6138
b'CHR1:17079314:A'	b'M61SunitR1'	0	0.5874	0.0374	0.7256
b'CHR1:17079314:A'	b'M61SunitR2'	0	0.7606	0.0455	0.7256
b'CHR1:17079314:A'	b'M61SunitR3'	0	0.8319	0.0466	0.7256
b'CHR1:17079314:A'	b'M61SunitR4'	0	0.5075	0.0388	0.7256
b'CHR1:17084646:G'	b'M61SunitR1'	0	0.5874	0.0374	0.5256
b'CHR1:17084646:G'	b'M61SunitR2'	0	0.7606	0.0455	0.5256
b'CHR1:17084646:G'	b'M61SunitR3'	0	0.8319	0.0466	0.5256
b'CHR1:17084646:G'	b'M61SunitR4'	0	0.5075	0.0388	0.5256
b'CHR1:18481971:A'	b'M61SunitR1'	0	0.5874	0.0374	0.6826
b'CHR1:18481971:A'	b'M61SunitR2'	0	0.7606	0.0455	0.6826
b'CHR1:18481971:A'	b'M61SunitR3'	0	0.8319	0.0466	0.6826
b'CHR1:18481971:A'	b'M61SunitR4'	0	0.5075	0.0388	0.6826
b'CHR1:18877503:G'	b'M61SunitR1'	0	0.5874	0.0374	0.9161
b'CHR1:18877503:G'	b'M61SunitR2'	0	0.7606	0.0455	0.9161
b'CHR1:18877503:G'	b'M61SunitR3'	0	0.8319	0.0466	0.9161
b'CHR1:18877503:G'	b'M61SunitR4'	0	0.5075	0.0388	0.9161
b'CHR1:20084839:T'	b'M61SunitR1'	0	0.5874	0.0374	0.9782
b'CHR1:20084839:T'	b'M61SunitR2'	0	0.7606	0.0455	0.9782
b'CHR1:20084839:T'	b'M61SunitR3'	0	0.8319	0.0466	0.9782
b'CHR1:20084839:T'	b'M61SunitR4'	0	0.5075	0.0388	0.9782
b'CHR1:202160698:C'	b'M61SunitR1'	0	0.5874	0.0374	0.7539
b'CHR1:202160698:C'	b'M61SunitR2'	0	0.7606	0.0455	0.7539
b'CHR1:202160698:C'	b'M61SunitR3'	0	0.8319	0.0466	0.7539
b'CHR1:202160698:C'	b'M61SunitR4'	0	0.5075	0.0388	0.7539
b'CHR1:21874505:T'	b'M61SunitR1'	0	0.5874	0.0374	0.6951
b'CHR1:21874505:T'	b'M61SunitR2'	0	0.7606	0.0455	0.6951
b'CHR1:21874505:T'	b'M61SunitR3'	0	0.8319	0.0466	0.6951
b'CHR1:21874505:T'	b'M61SunitR4'	0	0.5075	0.0388	0.6951
b'CHR1:22526222:C'	b'M61SunitR1'	0	0.5874	0.0374	0.9076
b'CHR1:22526222:C'	b'M61SunitR2'	0	0.7606	0.0455	0.9076
b'CHR1:22526222:C'	b'M61SunitR3'	0	0.8319	0.0466	0.9076
b'CHR1:22526222:C'	b'M61SunitR4'	0	0.5075	0.0388	0.9076
b'CHR1:247423969:T'	b'M61SunitR1'	0	0.5874	0.0374	0.7751
b'CHR1:247423969:T'	b'M61SunitR2'	0	0.7606	0.0455	0.7751
b'CHR1:247423969:T'	b'M61SunitR3'	0	0.8319	0.0466	0.7751
b'CHR1:247423969:T'	b'M61SunitR4'	0	0.5075	0.0388	0.7751
b'CHR1:25243590:C'	b'M61SunitR1'	0	0.5874	0.0374	0.9664
b'CHR1:25243590:C'	b'M61SunitR2'	0	0.7606	0.0455	0.9664
b'CHR1:25243590:C'	b'M61SunitR3'	0	0.8319	0.0466	0.9664
b'CHR1:25243590:C'	b'M61SunitR4'	0	0.5075	0.0388	0.9664
b'CHR1:27360975:T'	b'M61SunitR1'	0	0.5874	0.0374	0.7833
b'CHR1:27360975:T'	b'M61SunitR2'	0	0.7606	0.0455	0.7833
b'CHR1:27360975:T'	b'M61SunitR3'	0	0.8319	0.0466	0.7833
b'CHR1:27360975:T'	b'M61SunitR4'	0	0.5075	0.0388	0.7833
b'CHR1:31630664:G'	b'M61SunitR1'	0	0.5874	0.0374	0.7860
b'CHR1:31630664:G'	b'M61SunitR2'	0	0.7606	0.0455	0.7860
b'CHR1:31630664:G'	b'M61SunitR3'	0	0.8319	0.0466	0.7860
b'CHR1:31630664:G'	b'M61SunitR4'	0	0.5075	0.0388	0.7860
b'CHR1:32770050:G'	b'M61SunitR1'	0	0.5874	0.0374	0.9295
b'CHR1:32770050:G'	b'M61SunitR2'	0	0.7606	0.0455	0.9295
b'CHR1:32770050:G'	b'M61SunitR3'	0	0.8319	0.0466	0.9295
b'CHR1:32770050:G'	b'M61SunitR4'	0	0.5075	0.0388	0.9295
b'CHR1:3763211:T'	b'M61SunitR1'	0	0.5874	0.0374	0.5577
b'CHR1:3763211:T'	b'M61SunitR2'	0	0.7606	0.0455	0.5577
b'CHR1:3763211:T'	b'M61SunitR3'	0	0.8319	0.0466	0.5577
b'CHR1:3763211:T'	b'M61SunitR4'	0	0.5075	0.0388	0.5577
b'CHR1:51840355:A'	b'M61SunitR1'	0	0.5874	0.0374	0.9726
b'CHR1:51840355:A'	b'M61SunitR2'	0	0.7606	0.0455	0.9726
b'CHR1:51840355:A'	b'M61SunitR3'	0	0.8319	0.0466	0.9726
b'CHR1:51840355:A'	b'M61SunitR4'	0	0.5075	0.0388	0.9726
b'CHR1:53247055:T'	b'M61SunitR1'	0	0.5874	0.0374	0.5224
b'CHR1:53247055:T'	b'M61SunitR2'	0	0.7606	0.0455	0.5224
b'CHR1:53247055:T'	b'M61SunitR3'	0	0.8319	0.0466	0.5224
b'CHR1:53247055:T'	b'M61SunitR4'	0	0.5075	0.0388	0.5224
b'CHR1:63323280:A'	b'M61SunitR1'	0	0.5874	0.0374	0.7579
b'CHR1:63323280:A'	b'M61SunitR2'	0	0.7606	0.0455	0.7579
b'CHR1:63323280:A'	b'M61SunitR3'	0	0.8319	0.0466	0.7579
b'CHR1:63323280:A'	b'M61SunitR4'	0	0.5075	0.0388	0.7579
b'CHR1:63415881:T'	b'M61SunitR1'	0	0.5874	0.0374	0.5641
b'CHR1:63415881:T'	b'M61SunitR2'	0	0.7606	0.0455	0.5641
b'CHR1:63415881:T'	b'M61SunitR3'	0	0.8319	0.0466	0.5641
b'CHR1:63415881:T'	b'M61SunitR4'	0	0.5075	0.0388	0.5641
b'CHR1:942934:C'	b'M61SunitR1'	0	0.5874	0.0374	0.9276
b'CHR1:942934:C'	b'M61SunitR2'	0	0.7606	0.0455	0.9276
b'CHR1:942934:C'	b'M61SunitR3'	0	0.8319	0.0466	0.9276
b'CHR1:942934:C'	b'M61SunitR4'	0	0.5075	0.0388	0.9276
b'CHR22:37066106:C'	b'M61SunitR1'	0	0.5874	0.0374	0.7228
b'CHR22:37066106:C'	b'M61SunitR2'	0	0.7606	0.0455	0.7228
b'CHR22:37066106:C'	b'M61SunitR3'	0	0.8319	0.0466	0.7228
b'CHR22:37066106:C'	b'M61SunitR4'	0	0.5075	0.0388	0.7228
b'CHR2:232564321:T'	b'M61SunitR1'	0	0.5874	0.0374	0.4395
b'CHR2:232564321:T'	b'M61SunitR2'	0	0.7606	0.0455	0.4395
b'CHR2:232564321:T'	b'M61SunitR3'	0	0.8319	0.0466	0.4395
b'CHR2:232564321:T'	b'M61SunitR4'	0	0.5075	0.0388	0.4395
b'CHR2:73291715:T'	b'M61SunitR1'	0	0.5874	0.0374	0.7375
b'CHR2:73291715:T'	b'M61SunitR2'	0	0.7606	0.0455	0.7375
b'CHR2:73291715:T'	b'M61SunitR3'	0	0.8319	0.0466	0.7375
b'CHR2:73291715:T'	b'M61SunitR4'	0	0.5075	0.0388	0.7375
b'CHR3:48447042:C'	b'M61SunitR1'	0	0.5874	0.0374	0.9658
b'CHR3:48447042:C'	b'M61SunitR2'	0	0.7606	0.0455	0.9658
b'CHR3:48447042:C'	b'M61SunitR3'	0	0.8319	0.0466	0.9658
b'CHR3:48447042:C'	b'M61SunitR4'	0	0.5075	0.0388	0.9658
b'CHR5:150540177:C'	b'M61SunitR1'	0	0.5874	0.0374	0.9144
b'CHR5:150540177:C'	b'M61SunitR2'	0	0.7606	0.0455	0.9144
b'CHR5:150540177:C'	b'M61SunitR3'	0	0.8319	0.0466	0.9144
b'CHR5:150540177:C'	b'M61SunitR4'	0	0.5075	0.0388	0.9144
b'CHR6:3154637:C'	b'M61SunitR1'	0	0.5874	0.0374	0.3737
b'CHR6:3154637:C'	b'M61SunitR2'	0	0.7606	0.0455	0.3737
b'CHR6:3154637:C'	b'M61SunitR3'	0	0.8319	0.0466	0.3737
b'CHR6:3154637:C'	b'M61SunitR4'	0	0.5075	0.0388	0.3737
b'CHR7:151066568:A'	b'M61SunitR1'	0	0.5874	0.0374	0.3989
b'CHR7:151066568:A'	b'M61SunitR2'	0	0.7606	0.0455	0.3989
b'CHR7:151066568:A'	b'M61SunitR3'	0	0.8319	0.0466	0.3989
b'CHR7:151066568:A'	b'M61SunitR4'	0	0.5075	0.0388	0.3989
b'CHR9:26928213:T'	b'M61SunitR1'	0	0.5874	0.0374	0.9970
b'CHR9:26928213:T'	b'M61SunitR2'	0	0.7606	0.0455	0.9970
b'CHR9:26928213:T'	b'M61SunitR3'	0	0.8319	0.0466	0.9970
b'CHR9:26928213:T'	b'M61SunitR4'	0	0.5075	0.0388	0.9970
b'CHR12:40481156:A'	b'M61SunitR1'	1	0.0735	0.0186	0.9988
b'CHR12:40481156:A'	b'M61SunitR2'	1	0.0776	0.0264	0.9988
b'CHR12:40481156:A'	b'M61SunitR3'	1	0.2717	0.0940	0.9988
b'CHR12:40481156:A'	b'M61SunitR4'	1	0.0846	0.0186	0.9988
b'CHR12:40481157:G'	b'M61SunitR1'	1	0.0735	0.0186	0.9986
b'CHR12:40481157:G'	b'M61SunitR2'	1	0.0776	0.0264	0.9986
b'CHR12:40481157:G'	b'M61SunitR3'	1	0.2717	0.0940	0.9986
b'CHR12:40481157:G'	b'M61SunitR4'	1	0.0846	0.0186	0.9986
b'CHR12:40482641:G'	b'M61SunitR1'	1	0.0735	0.0186	0.9983
b'CHR12:40482641:G'	b'M61SunitR2'	1	0.0776	0.0264	0.9983
b'CHR12:40482641:G'	b'M61SunitR3'	1	0.2717	0.0940	0.9983
b'CHR12:40482641:G'	b'M61SunitR4'	1	0.0846	0.0186	0.9983
b'CHR19:14765687:T'	b'M61SunitR1'	1	0.0735	0.0186	1.0000
b'CHR19:14765687:T'	b'M61SunitR2'	1	0.0776	0.0264	1.0000
b'CHR19:14765687:T'	b'M61SunitR3'	1	0.2717	0.0940	1.0000
b'CHR19:14765687:T'	b'M61SunitR4'	1	0.0846	0.0186	1.0000
b'CHR19:43081182:G'	b'M61SunitR1'	1	0.0735	0.0186	0.9860
b'CHR19:43081182:G'	b'M61SunitR2'	1	0.0776	0.0264	0.9860
b'CHR19:43081182:G'	b'M61SunitR3'	1	0.2717	0.0940	0.9860
b'CHR19:43081182:G'	b'M61SunitR4'	1	0.0846	0.0186	0.9860
b'CHR2:232381539:G'	b'M61SunitR1'	1	0.0735	0.0186	0.6396
b'CHR2:232381539:G'	b'M61SunitR2'	1	0.0776	0.0264	0.6396
b'CHR2:232381539:G'	b'M61SunitR3'	1	0.2717	0.0940	0.6396
b'CHR2:232381539:G'	b'M61SunitR4'	1	0.0846	0.0186	0.6396
b'CHR2:240682800:T'	b'M61SunitR1'	1	0.0735	0.0186	0.6922
b'CHR2:240682800:T'	b'M61SunitR2'	1	0.0776	0.0264	0.6922
b'CHR2:240682800:T'	b'M61SunitR3'	1	0.2717	0.0940	0.6922
b'CHR2:240682800:T'	b'M61SunitR4'	1	0.0846	0.0186	0.6922
b'CHR3:48656801:A'	b'M61SunitR1'	1	0.0735	0.0186	0.5797
b'CHR3:48656801:A'	b'M61SunitR2'	1	0.0776	0.0264	0.5797
b'CHR3:48656801:A'	b'M61SunitR3'	1	0.2717	0.0940	0.5797
b'CHR3:48656801:A'	b'M61SunitR4'	1	0.0846	0.0186	0.5797
b'CHR8:143871184:T'	b'M61SunitR1'	1	0.0735	0.0186	0.7616
b'CHR8:143871184:T'	b'M61SunitR2'	1	0.0776	0.0264	0.7616
b'CHR8:143871184:T'	b'M61SunitR3'	1	0.2717	0.0940	0.7616
b'CHR8:143871184:T'	b'M61SunitR4'	1	0.0846	0.0186	0.7616
b'CHR10:128101279:T'	b'M61SunitR1'	2	0.7611	0.0405	0.8090
b'CHR10:128101279:T'	b'M61SunitR2'	2	0.7227	0.0377	0.8090
b'CHR10:128101279:T'	b'M61SunitR3'	2	0.6091	0.0376	0.8090
b'CHR10:128101279:T'	b'M61SunitR4'	2	0.8341	0.0392	0.8090
b'CHR10:92240093:G'	b'M61SunitR1'	2	0.7611	0.0405	0.3763
b'CHR10:92240093:G'	b'M61SunitR2'	2	0.7227	0.0377	0.3763
b'CHR10:92240093:G'	b'M61SunitR3'	2	0.6091	0.0376	0.3763
b'CHR10:92240093:G'	b'M61SunitR4'	2	0.8341	0.0392	0.3763
b'CHR14:31178233:C'	b'M61SunitR1'	2	0.7611	0.0405	0.7360
b'CHR14:31178233:C'	b'M61SunitR2'	2	0.7227	0.0377	0.7360
b'CHR14:31178233:C'	b'M61SunitR3'	2	0.6091	0.0376	0.7360
b'CHR14:31178233:C'	b'M61SunitR4'	2	0.8341	0.0392	0.7360
b'CHR15:68432031:T'	b'M61SunitR1'	2	0.7611	0.0405	0.5895
b'CHR15:68432031:T'	b'M61SunitR2'	2	0.7227	0.0377	0.5895
b'CHR15:68432031:T'	b'M61SunitR3'	2	0.6091	0.0376	0.5895
b'CHR15:68432031:T'	b'M61SunitR4'	2	0.8341	0.0392	0.5895
b'CHR16:1241453:A'	b'M61SunitR1'	2	0.7611	0.0405	0.8324
b'CHR16:1241453:A'	b'M61SunitR2'	2	0.7227	0.0377	0.8324
b'CHR16:1241453:A'	b'M61SunitR3'	2	0.6091	0.0376	0.8324
b'CHR16:1241453:A'	b'M61SunitR4'	2	0.8341	0.0392	0.8324
b'CHR19:1049270:A'	b'M61SunitR1'	2	0.7611	0.0405	0.9526
b'CHR19:1049270:A'	b'M61SunitR2'	2	0.7227	0.0377	0.9526
b'CHR19:1049270:A'	b'M61SunitR3'	2	0.6091	0.0376	0.9526
b'CHR19:1049270:A'	b'M61SunitR4'	2	0.8341	0.0392	0.9526
b'CHR19:52881597:A'	b'M61SunitR1'	2	0.7611	0.0405	0.9709
b'CHR19:52881597:A'	b'M61SunitR2'	2	0.7227	0.0377	0.9709
b'CHR19:52881597:A'	b'M61SunitR3'	2	0.6091	0.0376	0.9709
b'CHR19:52881597:A'	b'M61SunitR4'	2	0.8341	0.0392	0.9709
b'CHR1:111242317:G'	b'M61SunitR1'	2	0.7611	0.0405	0.9971
b'CHR1:111242317:G'	b'M61SunitR2'	2	0.7227	0.0377	0.9971
b'CHR1:111242317:G'	b'M61SunitR3'	2	0.6091	0.0376	0.9971
b'CHR1:111242317:G'	b'M61SunitR4'	2	0.8341	0.0392	0.9971
b'CHR1:11706367:T'	b'M61SunitR1'	2	0.7611	0.0405	0.6287
b'CHR1:11706367:T'	b'M61SunitR2'	2	0.7227	0.0377	0.6287
b'CHR1:11706367:T'	b'M61SunitR3'	2	0.6091	0.0376	0.6287
b'CHR1:11706367:T'	b'M61SunitR4'	2	0.8341	0.0392	0.6287
b'CHR1:11779915:A'	b'M61SunitR1'	2	0.7611	0.0405	0.5612
b'CHR1:11779915:A'	b'M61SunitR2'	2	0.7227	0.0377	0.5612
b'CHR1:11779915:A'	b'M61SunitR3'	2	0.6091	0.0376	0.5612
b'CHR1:11779915:A'	b'M61SunitR4'	2	0.8341	0.0392	0.5612
b'CHR1:13343011:A'	b'M61SunitR1'	2	0.7611	0.0405	0.9242
b'CHR1:13343011:A'	b'M61SunitR2'	2	0.7227	0.0377	0.9242
b'CHR1:13343011:A'	b'M61SunitR3'	2	0.6091	0.0376	0.9242
b'CHR1:13343011:A'	b'M61SunitR4'	2	0.8341	0.0392	0.9242
b'CHR1:13421192:T'	b'M61SunitR1'	2	0.7611	0.0405	0.9208
b'CHR1:13421192:T'	b'M61SunitR2'	2	0.7227	0.0377	0.9208
b'CHR1:13421192:T'	b'M61SunitR3'	2	0.6091	0.0376	0.9208
b'CHR1:13421192:T'	b'M61SunitR4'	2	0.8341	0.0392	0.9208
b'CHR1:13773141:T'	b'M61SunitR1'	2	0.7611	0.0405	0.5579
b'CHR1:13773141:T'	b'M61SunitR2'	2	0.7227	0.0377	0.5579
b'CHR1:13773141:T'	b'M61SunitR3'	2	0.6091	0.0376	0.5579
b'CHR1:13773141:T'	b'M61SunitR4'	2	0.8341	0.0392	0.5579
b'CHR1:13782619:G'	b'M61SunitR1'	2	0.7611	0.0405	0.8323
b'CHR1:13782619:G'	b'M61SunitR2'	2	0.7227	0.0377	0.8323
b'CHR1:13782619:G'	b'M61SunitR3'	2	0.6091	0.0376	0.8323
b'CHR1:13782619:G'	b'M61SunitR4'	2	0.8341	0.0392	0.8323
b'CHR1:15939409:A'	b'M61SunitR1'	2	0.7611	0.0405	0.9952
b'CHR1:15939409:A'	b'M61SunitR2'	2	0.7227	0.0377	0.9952
b'CHR1:15939409:A'	b'M61SunitR3'	2	0.6091	0.0376	0.9952
b'CHR1:15939409:A'	b'M61SunitR4'	2	0.8341	0.0392	0.9952
b'CHR1:17070097:A'	b'M61SunitR1'	2	0.7611	0.0405	0.8197
b'CHR1:17070097:A'	b'M61SunitR2'	2	0.7227	0.0377	0.8197
b'CHR1:17070097:A'	b'M61SunitR3'	2	0.6091	0.0376	0.8197
b'CHR1:17070097:A'	b'M61SunitR4'	2	0.8341	0.0392	0.8197
b'CHR1:19282760:C'	b'M61SunitR1'	2	0.7611	0.0405	0.9903
b'CHR1:19282760:C'	b'M61SunitR2'	2	0.7227	0.0377	0.9903
b'CHR1:19282760:C'	b'M61SunitR3'	2	0.6091	0.0376	0.9903
b'CHR1:19282760:C'	b'M61SunitR4'	2	0.8341	0.0392	0.9903
b'CHR1:19623568:C'	b'M61SunitR1'	2	0.7611	0.0405	0.6106
b'CHR1:19623568:C'	b'M61SunitR2'	2	0.7227	0.0377	0.6106
b'CHR1:19623568:C'	b'M61SunitR3'	2	0.6091	0.0376	0.6106
b'CHR1:19623568:C'	b'M61SunitR4'	2	0.8341	0.0392	0.6106
b'CHR1:215567710:G'	b'M61SunitR1'	2	0.7611	0.0405	0.9586
b'CHR1:215567710:G'	b'M61SunitR2'	2	0.7227	0.0377	0.9586
b'CHR1:215567710:G'	b'M61SunitR3'	2	0.6091	0.0376	0.9586
b'CHR1:215567710:G'	b'M61SunitR4'	2	0.8341	0.0392	0.9586
b'CHR1:230921501:T'	b'M61SunitR1'	2	0.7611	0.0405	0.6813
b'CHR1:230921501:T'	b'M61SunitR2'	2	0.7227	0.0377	0.6813
b'CHR1:230921501:T'	b'M61SunitR3'	2	0.6091	0.0376	0.6813
b'CHR1:230921501:T'	b'M61SunitR4'	2	0.8341	0.0392	0.6813
b'CHR1:26344118:T'	b'M61SunitR1'	2	0.7611	0.0405	0.8989
b'CHR1:26344118:T'	b'M61SunitR2'	2	0.7227	0.0377	0.8989
b'CHR1:26344118:T'	b'M61SunitR3'	2	0.6091	0.0376	0.8989
b'CHR1:26344118:T'	b'M61SunitR4'	2	0.8341	0.0392	0.8989
b'CHR1:26952030:A'	b'M61SunitR1'	2	0.7611	0.0405	0.9729
b'CHR1:26952030:A'	b'M61SunitR2'	2	0.7227	0.0377	0.9729
b'CHR1:26952030:A'	b'M61SunitR3'	2	0.6091	0.0376	0.9729
b'CHR1:26952030:A'	b'M61SunitR4'	2	0.8341	0.0392	0.9729
b'CHR1:31698605:G'	b'M61SunitR1'	2	0.7611	0.0405	0.9825
b'CHR1:31698605:G'	b'M61SunitR2'	2	0.7227	0.0377	0.9825
b'CHR1:31698605:G'	b'M61SunitR3'	2	0.6091	0.0376	0.9825
b'CHR1:31698605:G'	b'M61SunitR4'	2	0.8341	0.0392	0.9825
b'CHR1:33494462:G'	b'M61SunitR1'	2	0.7611	0.0405	0.9999
b'CHR1:33494462:G'	b'M61SunitR2'	2	0.7227	0.0377	0.9999
b'CHR1:33494462:G'	b'M61SunitR3'	2	0.6091	0.0376	0.9999
b'CHR1:33494462:G'	b'M61SunitR4'	2	0.8341	0.0392	0.9999
b'CHR1:3478610:A'	b'M61SunitR1'	2	0.7611	0.0405	0.7709
b'CHR1:3478610:A'	b'M61SunitR2'	2	0.7227	0.0377	0.7709
b'CHR1:3478610:A'	b'M61SunitR3'	2	0.6091	0.0376	0.7709
b'CHR1:3478610:A'	b'M61SunitR4'	2	0.8341	0.0392	0.7709
b'CHR1:53250744:A'	b'M61SunitR1'	2	0.7611	0.0405	0.9719
b'CHR1:53250744:A'	b'M61SunitR2'	2	0.7227	0.0377	0.9719
b'CHR1:53250744:A'	b'M61SunitR3'	2	0.6091	0.0376	0.9719
b'CHR1:53250744:A'	b'M61SunitR4'	2	0.8341	0.0392	0.9719
b'CHR1:53594343:C'	b'M61SunitR1'	2	0.7611	0.0405	0.9770
b'CHR1:53594343:C'	b'M61SunitR2'	2	0.7227	0.0377	0.9770
b'CHR1:53594343:C'	b'M61SunitR3'	2	0.6091	0.0376	0.9770
b'CHR1:53594343:C'	b'M61SunitR4'	2	0.8341	0.0392	0.9770
b'CHR1:53594575:C'	b'M61SunitR1'	2	0.7611	0.0405	0.9680
b'CHR1:53594575:C'	b'M61SunitR2'	2	0.7227	0.0377	0.9680
b'CHR1:53594575:C'	b'M61SunitR3'	2	0.6091	0.0376	0.9680
b'CHR1:53594575:C'	b'M61SunitR4'	2	0.8341	0.0392	0.9680
b'CHR1:64844806:C'	b'M61SunitR1'	2	0.7611	0.0405	0.9701
b'CHR1:64844806:C'	b'M61SunitR2'	2	0.7227	0.0377	0.9701
b'CHR1:64844806:C'	b'M61SunitR3'	2	0.6091	0.0376	0.9701
b'CHR1:64844806:C'	b'M61SunitR4'	2	0.8341	0.0392	0.9701
b'CHR1:7827188:A'	b'M61SunitR1'	2	0.7611	0.0405	0.7671
b'CHR1:7827188:A'	b'M61SunitR2'	2	0.7227	0.0377	0.7671
b'CHR1:7827188:A'	b'M61SunitR3'	2	0.6091	0.0376	0.7671
b'CHR1:7827188:A'	b'M61SunitR4'	2	0.8341	0.0392	0.7671
b'CHR2:219451248:A'	b'M61SunitR1'	2	0.7611	0.0405	0.5567
b'CHR2:219451248:A'	b'M61SunitR2'	2	0.7227	0.0377	0.5567
b'CHR2:219451248:A'	b'M61SunitR3'	2	0.6091	0.0376	0.5567
b'CHR2:219451248:A'	b'M61SunitR4'	2	0.8341	0.0392	0.5567
b'CHR3:41800280:T'	b'M61SunitR1'	2	0.7611	0.0405	0.6809
b'CHR3:41800280:T'	b'M61SunitR2'	2	0.7227	0.0377	0.6809
b'CHR3:41800280:T'	b'M61SunitR3'	2	0.6091	0.0376	0.6809
b'CHR3:41800280:T'	b'M61SunitR4'	2	0.8341	0.0392	0.6809
b'CHR4:85942222:C'	b'M61SunitR1'	2	0.7611	0.0405	0.4049
b'CHR4:85942222:C'	b'M61SunitR2'	2	0.7227	0.0377	0.4049
b'CHR4:85942222:C'	b'M61SunitR3'	2	0.6091	0.0376	0.4049
b'CHR4:85942222:C'	b'M61SunitR4'	2	0.8341	0.0392	0.4049
b'CHR7:72942166:T'	b'M61SunitR1'	2	0.7611	0.0405	0.3750
b'CHR7:72942166:T'	b'M61SunitR2'	2	0.7227	0.0377	0.3750
b'CHR7:72942166:T'	b'M61SunitR3'	2	0.6091	0.0376	0.3750
b'CHR7:72942166:T'	b'M61SunitR4'	2	0.8341	0.0392	0.3750
b'CHR10:16928249:A'	b'M61SunitR1'	3	0.2560	0.0203	0.8832
b'CHR10:16928249:A'	b'M61SunitR2'	3	0.2432	0.0201	0.8832
b'CHR10:16928249:A'	b'M61SunitR3'	3	0.2549	0.0249	0.8832
b'CHR10:16928249:A'	b'M61SunitR4'	3	0.2446	0.0200	0.8832
b'CHR10:27994928:C'	b'M61SunitR1'	3	0.2560	0.0203	0.6796
b'CHR10:27994928:C'	b'M61SunitR2'	3	0.2432	0.0201	0.6796
b'CHR10:27994928:C'	b'M61SunitR3'	3	0.2549	0.0249	0.6796
b'CHR10:27994928:C'	b'M61SunitR4'	3	0.2446	0.0200	0.6796
b'CHR10:37153617:T'	b'M61SunitR1'	3	0.2560	0.0203	0.9463
b'CHR10:37153617:T'	b'M61SunitR2'	3	0.2432	0.0201	0.9463
b'CHR10:37153617:T'	b'M61SunitR3'	3	0.2549	0.0249	0.9463
b'CHR10:37153617:T'	b'M61SunitR4'	3	0.2446	0.0200	0.9463
b'CHR11:117917207:C'	b'M61SunitR1'	3	0.2560	0.0203	0.9146
b'CHR11:117917207:C'	b'M61SunitR2'	3	0.2432	0.0201	0.9146
b'CHR11:117917207:C'	b'M61SunitR3'	3	0.2549	0.0249	0.9146
b'CHR11:117917207:C'	b'M61SunitR4'	3	0.2446	0.0200	0.9146
b'CHR11:120128675:T'	b'M61SunitR1'	3	0.2560	0.0203	0.9993
b'CHR11:120128675:T'	b'M61SunitR2'	3	0.2432	0.0201	0.9993
b'CHR11:120128675:T'	b'M61SunitR3'	3	0.2549	0.0249	0.9993
b'CHR11:120128675:T'	b'M61SunitR4'	3	0.2446	0.0200	0.9993
b'CHR11:6002291:G'	b'M61SunitR1'	3	0.2560	0.0203	0.5511
b'CHR11:6002291:G'	b'M61SunitR2'	3	0.2432	0.0201	0.5511
b'CHR11:6002291:G'	b'M61SunitR3'	3	0.2549	0.0249	0.5511
b'CHR11:6002291:G'	b'M61SunitR4'	3	0.2446	0.0200	0.5511
b'CHR11:63904940:C'	b'M61SunitR1'	3	0.2560	0.0203	0.4433
b'CHR11:63904940:C'	b'M61SunitR2'	3	0.2432	0.0201	0.4433
b'CHR11:63904940:C'	b'M61SunitR3'	3	0.2549	0.0249	0.4433
b'CHR11:63904940:C'	b'M61SunitR4'	3	0.2446	0.0200	0.4433
b'CHR11:63904942:A'	b'M61SunitR1'	3	0.2560	0.0203	0.4433
b'CHR11:63904942:A'	b'M61SunitR2'	3	0.2432	0.0201	0.4433
b'CHR11:63904942:A'	b'M61SunitR3'	3	0.2549	0.0249	0.4433
b'CHR11:63904942:A'	b'M61SunitR4'	3	0.2446	0.0200	0.4433
b'CHR11:65778836:A'	b'M61SunitR1'	3	0.2560	0.0203	0.9954
b'CHR11:65778836:A'	b'M61SunitR2'	3	0.2432	0.0201	0.9954
b'CHR11:65778836:A'	b'M61SunitR3'	3	0.2549	0.0249	0.9954
b'CHR11:65778836:A'	b'M61SunitR4'	3	0.2446	0.0200	0.9954
b'CHR11:73975073:A'	b'M61SunitR1'	3	0.2560	0.0203	0.9310
b'CHR11:73975073:A'	b'M61SunitR2'	3	0.2432	0.0201	0.9310
b'CHR11:73975073:A'	b'M61SunitR3'	3	0.2549	0.0249	0.9310
b'CHR11:73975073:A'	b'M61SunitR4'	3	0.2446	0.0200	0.9310
b'CHR12:108518570:T'	b'M61SunitR1'	3	0.2560	0.0203	0.9040
b'CHR12:108518570:T'	b'M61SunitR2'	3	0.2432	0.0201	0.9040
b'CHR12:108518570:T'	b'M61SunitR3'	3	0.2549	0.0249	0.9040
b'CHR12:108518570:T'	b'M61SunitR4'	3	0.2446	0.0200	0.9040
b'CHR12:25144543:A'	b'M61SunitR1'	3	0.2560	0.0203	0.8579
b'CHR12:25144543:A'	b'M61SunitR2'	3	0.2432	0.0201	0.8579
b'CHR12:25144543:A'	b'M61SunitR3'	3	0.2549	0.0249	0.8579
b'CHR12:25144543:A'	b'M61SunitR4'	3	0.2446	0.0200	0.8579
b'CHR12:51699632:A'	b'M61SunitR1'	3	0.2560	0.0203	0.6561
b'CHR12:51699632:A'	b'M61SunitR2'	3	0.2432	0.0201	0.6561
b'CHR12:51699632:A'	b'M61SunitR3'	3	0.2549	0.0249	0.6561
b'CHR12:51699632:A'	b'M61SunitR4'	3	0.2446	0.0200	0.6561
b'CHR12:55027042:G'	b'M61SunitR1'	3	0.2560	0.0203	0.8816
b'CHR12:55027042:G'	b'M61SunitR2'	3	0.2432	0.0201	0.8816
b'CHR12:55027042:G'	b'M61SunitR3'	3	0.2549	0.0249	0.8816
b'CHR12:55027042:G'	b'M61SunitR4'	3	0.2446	0.0200	0.8816
b'CHR12:56267413:A'	b'M61SunitR1'	3	0.2560	0.0203	0.9711
b'CHR12:56267413:A'	b'M61SunitR2'	3	0.2432	0.0201	0.9711
b'CHR12:56267413:A'	b'M61SunitR3'	3	0.2549	0.0249	0.9711
b'CHR12:56267413:A'	b'M61SunitR4'	3	0.2446	0.0200	0.9711
b'CHR12:57629873:G'	b'M61SunitR1'	3	0.2560	0.0203	0.9462
b'CHR12:57629873:G'	b'M61SunitR2'	3	0.2432	0.0201	0.9462
b'CHR12:57629873:G'	b'M61SunitR3'	3	0.2549	0.0249	0.9462
b'CHR12:57629873:G'	b'M61SunitR4'	3	0.2446	0.0200	0.9462
b'CHR12:85046079:A'	b'M61SunitR1'	3	0.2560	0.0203	0.9226
b'CHR12:85046079:A'	b'M61SunitR2'	3	0.2432	0.0201	0.9226
b'CHR12:85046079:A'	b'M61SunitR3'	3	0.2549	0.0249	0.9226
b'CHR12:85046079:A'	b'M61SunitR4'	3	0.2446	0.0200	0.9226
b'CHR14:36725655:A'	b'M61SunitR1'	3	0.2560	0.0203	0.8108
b'CHR14:36725655:A'	b'M61SunitR2'	3	0.2432	0.0201	0.8108
b'CHR14:36725655:A'	b'M61SunitR3'	3	0.2549	0.0249	0.8108
b'CHR14:36725655:A'	b'M61SunitR4'	3	0.2446	0.0200	0.8108
b'CHR15:23566598:A'	b'M61SunitR1'	3	0.2560	0.0203	0.9843
b'CHR15:23566598:A'	b'M61SunitR2'	3	0.2432	0.0201	0.9843
b'CHR15:23566598:A'	b'M61SunitR3'	3	0.2549	0.0249	0.9843
b'CHR15:23566598:A'	b'M61SunitR4'	3	0.2446	0.0200	0.9843
b'CHR15:33826673:A'	b'M61SunitR1'	3	0.2560	0.0203	0.7647
b'CHR15:33826673:A'	b'M61SunitR2'	3	0.2432	0.0201	0.7647
b'CHR15:33826673:A'	b'M61SunitR3'	3	0.2549	0.0249	0.7647
b'CHR15:33826673:A'	b'M61SunitR4'	3	0.2446	0.0200	0.7647
b'CHR15:41572531:T'	b'M61SunitR1'	3	0.2560	0.0203	0.8981
b'CHR15:41572531:T'	b'M61SunitR2'	3	0.2432	0.0201	0.8981
b'CHR15:41572531:T'	b'M61SunitR3'	3	0.2549	0.0249	0.8981
b'CHR15:41572531:T'	b'M61SunitR4'	3	0.2446	0.0200	0.8981
b'CHR17:10511933:A'	b'M61SunitR1'	3	0.2560	0.0203	0.7729
b'CHR17:10511933:A'	b'M61SunitR2'	3	0.2432	0.0201	0.7729
b'CHR17:10511933:A'	b'M61SunitR3'	3	0.2549	0.0249	0.7729
b'CHR17:10511933:A'	b'M61SunitR4'	3	0.2446	0.0200	0.7729
b'CHR17:10539354:G'	b'M61SunitR1'	3	0.2560	0.0203	0.9115
b'CHR17:10539354:G'	b'M61SunitR2'	3	0.2432	0.0201	0.9115
b'CHR17:10539354:G'	b'M61SunitR3'	3	0.2549	0.0249	0.9115
b'CHR17:10539354:G'	b'M61SunitR4'	3	0.2446	0.0200	0.9115
b'CHR17:20204775:G'	b'M61SunitR1'	3	0.2560	0.0203	0.8709
b'CHR17:20204775:G'	b'M61SunitR2'	3	0.2432	0.0201	0.8709
b'CHR17:20204775:G'	b'M61SunitR3'	3	0.2549	0.0249	0.8709
b'CHR17:20204775:G'	b'M61SunitR4'	3	0.2446	0.0200	0.8709
b'CHR19:1495334:T'	b'M61SunitR1'	3	0.2560	0.0203	0.8791
b'CHR19:1495334:T'	b'M61SunitR2'	3	0.2432	0.0201	0.8791
b'CHR19:1495334:T'	b'M61SunitR3'	3	0.2549	0.0249	0.8791
b'CHR19:1495334:T'	b'M61SunitR4'	3	0.2446	0.0200	0.8791
b'CHR19:18870062:C'	b'M61SunitR1'	3	0.2560	0.0203	0.9183
b'CHR19:18870062:C'	b'M61SunitR2'	3	0.2432	0.0201	0.9183
b'CHR19:18870062:C'	b'M61SunitR3'	3	0.2549	0.0249	0.9183
b'CHR19:18870062:C'	b'M61SunitR4'	3	0.2446	0.0200	0.9183
b'CHR19:20545051:T'	b'M61SunitR1'	3	0.2560	0.0203	0.7472
b'CHR19:20545051:T'	b'M61SunitR2'	3	0.2432	0.0201	0.7472
b'CHR19:20545051:T'	b'M61SunitR3'	3	0.2549	0.0249	0.7472
b'CHR19:20545051:T'	b'M61SunitR4'	3	0.2446	0.0200	0.7472
b'CHR19:36915827:T'	b'M61SunitR1'	3	0.2560	0.0203	0.9984
b'CHR19:36915827:T'	b'M61SunitR2'	3	0.2432	0.0201	0.9984
b'CHR19:36915827:T'	b'M61SunitR3'	3	0.2549	0.0249	0.9984
b'CHR19:36915827:T'	b'M61SunitR4'	3	0.2446	0.0200	0.9984
b'CHR19:45591702:A'	b'M61SunitR1'	3	0.2560	0.0203	0.7798
b'CHR19:45591702:A'	b'M61SunitR2'	3	0.2432	0.0201	0.7798
b'CHR19:45591702:A'	b'M61SunitR3'	3	0.2549	0.0249	0.7798
b'CHR19:45591702:A'	b'M61SunitR4'	3	0.2446	0.0200	0.7798
b'CHR19:47042860:A'	b'M61SunitR1'	3	0.2560	0.0203	0.9327
b'CHR19:47042860:A'	b'M61SunitR2'	3	0.2432	0.0201	0.9327
b'CHR19:47042860:A'	b'M61SunitR3'	3	0.2549	0.0249	0.9327
b'CHR19:47042860:A'	b'M61SunitR4'	3	0.2446	0.0200	0.9327
b'CHR19:4714132:A'	b'M61SunitR1'	3	0.2560	0.0203	0.9269
b'CHR19:4714132:A'	b'M61SunitR2'	3	0.2432	0.0201	0.9269
b'CHR19:4714132:A'	b'M61SunitR3'	3	0.2549	0.0249	0.9269
b'CHR19:4714132:A'	b'M61SunitR4'	3	0.2446	0.0200	0.9269
b'CHR19:52705931:T'	b'M61SunitR1'	3	0.2560	0.0203	0.9628
b'CHR19:52705931:T'	b'M61SunitR2'	3	0.2432	0.0201	0.9628
b'CHR19:52705931:T'	b'M61SunitR3'	3	0.2549	0.0249	0.9628
b'CHR19:52705931:T'	b'M61SunitR4'	3	0.2446	0.0200	0.9628
b'CHR1:1046687:A'	b'M61SunitR1'	3	0.2560	0.0203	0.9627
b'CHR1:1046687:A'	b'M61SunitR2'	3	0.2432	0.0201	0.9627
b'CHR1:1046687:A'	b'M61SunitR3'	3	0.2549	0.0249	0.9627
b'CHR1:1046687:A'	b'M61SunitR4'	3	0.2446	0.0200	0.9627
b'CHR1:108718880:A'	b'M61SunitR1'	3	0.2560	0.0203	0.9359
b'CHR1:108718880:A'	b'M61SunitR2'	3	0.2432	0.0201	0.9359
b'CHR1:108718880:A'	b'M61SunitR3'	3	0.2549	0.0249	0.9359
b'CHR1:108718880:A'	b'M61SunitR4'	3	0.2446	0.0200	0.9359
b'CHR1:113981341:T'	b'M61SunitR1'	3	0.2560	0.0203	0.9870
b'CHR1:113981341:T'	b'M61SunitR2'	3	0.2432	0.0201	0.9870
b'CHR1:113981341:T'	b'M61SunitR3'	3	0.2549	0.0249	0.9870
b'CHR1:113981341:T'	b'M61SunitR4'	3	0.2446	0.0200	0.9870
b'CHR1:1495915:C'	b'M61SunitR1'	3	0.2560	0.0203	0.8553
b'CHR1:1495915:C'	b'M61SunitR2'	3	0.2432	0.0201	0.8553
b'CHR1:1495915:C'	b'M61SunitR3'	3	0.2549	0.0249	0.8553
b'CHR1:1495915:C'	b'M61SunitR4'	3	0.2446	0.0200	0.8553
b'CHR1:152812643:C'	b'M61SunitR1'	3	0.2560	0.0203	0.9164
b'CHR1:152812643:C'	b'M61SunitR2'	3	0.2432	0.0201	0.9164
b'CHR1:152812643:C'	b'M61SunitR3'	3	0.2549	0.0249	0.9164
b'CHR1:152812643:C'	b'M61SunitR4'	3	0.2446	0.0200	0.9164
b'CHR1:157586429:T'	b'M61SunitR1'	3	0.2560	0.0203	0.9511
b'CHR1:157586429:T'	b'M61SunitR2'	3	0.2432	0.0201	0.9511
b'CHR1:157586429:T'	b'M61SunitR3'	3	0.2549	0.0249	0.9511
b'CHR1:157586429:T'	b'M61SunitR4'	3	0.2446	0.0200	0.9511
b'CHR1:16759300:T'	b'M61SunitR1'	3	0.2560	0.0203	0.9973
b'CHR1:16759300:T'	b'M61SunitR2'	3	0.2432	0.0201	0.9973
b'CHR1:16759300:T'	b'M61SunitR3'	3	0.2549	0.0249	0.9973
b'CHR1:16759300:T'	b'M61SunitR4'	3	0.2446	0.0200	0.9973
b'CHR1:236571361:A'	b'M61SunitR1'	3	0.2560	0.0203	0.6688
b'CHR1:236571361:A'	b'M61SunitR2'	3	0.2432	0.0201	0.6688
b'CHR1:236571361:A'	b'M61SunitR3'	3	0.2549	0.0249	0.6688
b'CHR1:236571361:A'	b'M61SunitR4'	3	0.2446	0.0200	0.6688
b'CHR1:248273507:A'	b'M61SunitR1'	3	0.2560	0.0203	0.6688
b'CHR1:248273507:A'	b'M61SunitR2'	3	0.2432	0.0201	0.6688
b'CHR1:248273507:A'	b'M61SunitR3'	3	0.2549	0.0249	0.6688
b'CHR1:248273507:A'	b'M61SunitR4'	3	0.2446	0.0200	0.6688
b'CHR1:248273509:C'	b'M61SunitR1'	3	0.2560	0.0203	0.6688
b'CHR1:248273509:C'	b'M61SunitR2'	3	0.2432	0.0201	0.6688
b'CHR1:248273509:C'	b'M61SunitR3'	3	0.2549	0.0249	0.6688
b'CHR1:248273509:C'	b'M61SunitR4'	3	0.2446	0.0200	0.6688
b'CHR1:41037530:G'	b'M61SunitR1'	3	0.2560	0.0203	0.6354
b'CHR1:41037530:G'	b'M61SunitR2'	3	0.2432	0.0201	0.6354
b'CHR1:41037530:G'	b'M61SunitR3'	3	0.2549	0.0249	0.6354
b'CHR1:41037530:G'	b'M61SunitR4'	3	0.2446	0.0200	0.6354
b'CHR1:44805530:A'	b'M61SunitR1'	3	0.2560	0.0203	0.8116
b'CHR1:44805530:A'	b'M61SunitR2'	3	0.2432	0.0201	0.8116
b'CHR1:44805530:A'	b'M61SunitR3'	3	0.2549	0.0249	0.8116
b'CHR1:44805530:A'	b'M61SunitR4'	3	0.2446	0.0200	0.8116
b'CHR1:52642989:A'	b'M61SunitR1'	3	0.2560	0.0203	0.7626
b'CHR1:52642989:A'	b'M61SunitR2'	3	0.2432	0.0201	0.7626
b'CHR1:52642989:A'	b'M61SunitR3'	3	0.2549	0.0249	0.7626
b'CHR1:52642989:A'	b'M61SunitR4'	3	0.2446	0.0200	0.7626
b'CHR1:52988103:T'	b'M61SunitR1'	3	0.2560	0.0203	0.8496
b'CHR1:52988103:T'	b'M61SunitR2'	3	0.2432	0.0201	0.8496
b'CHR1:52988103:T'	b'M61SunitR3'	3	0.2549	0.0249	0.8496
b'CHR1:52988103:T'	b'M61SunitR4'	3	0.2446	0.0200	0.8496
b'CHR1:8957259:A'	b'M61SunitR1'	3	0.2560	0.0203	0.9950
b'CHR1:8957259:A'	b'M61SunitR2'	3	0.2432	0.0201	0.9950
b'CHR1:8957259:A'	b'M61SunitR3'	3	0.2549	0.0249	0.9950
b'CHR1:8957259:A'	b'M61SunitR4'	3	0.2446	0.0200	0.9950
b'CHR20:21328621:A'	b'M61SunitR1'	3	0.2560	0.0203	0.7849
b'CHR20:21328621:A'	b'M61SunitR2'	3	0.2432	0.0201	0.7849
b'CHR20:21328621:A'	b'M61SunitR3'	3	0.2549	0.0249	0.7849
b'CHR20:21328621:A'	b'M61SunitR4'	3	0.2446	0.0200	0.7849
b'CHR2:107859472:T'	b'M61SunitR1'	3	0.2560	0.0203	0.8949
b'CHR2:107859472:T'	b'M61SunitR2'	3	0.2432	0.0201	0.8949
b'CHR2:107859472:T'	b'M61SunitR3'	3	0.2549	0.0249	0.8949
b'CHR2:107859472:T'	b'M61SunitR4'	3	0.2446	0.0200	0.8949
b'CHR2:124865392:A'	b'M61SunitR1'	3	0.2560	0.0203	0.7332
b'CHR2:124865392:A'	b'M61SunitR2'	3	0.2432	0.0201	0.7332
b'CHR2:124865392:A'	b'M61SunitR3'	3	0.2549	0.0249	0.7332
b'CHR2:124865392:A'	b'M61SunitR4'	3	0.2446	0.0200	0.7332
b'CHR2:156549720:T'	b'M61SunitR1'	3	0.2560	0.0203	0.9917
b'CHR2:156549720:T'	b'M61SunitR2'	3	0.2432	0.0201	0.9917
b'CHR2:156549720:T'	b'M61SunitR3'	3	0.2549	0.0249	0.9917
b'CHR2:156549720:T'	b'M61SunitR4'	3	0.2446	0.0200	0.9917
b'CHR2:170847706:T'	b'M61SunitR1'	3	0.2560	0.0203	0.9797
b'CHR2:170847706:T'	b'M61SunitR2'	3	0.2432	0.0201	0.9797
b'CHR2:170847706:T'	b'M61SunitR3'	3	0.2549	0.0249	0.9797
b'CHR2:170847706:T'	b'M61SunitR4'	3	0.2446	0.0200	0.9797
b'CHR2:201493458:A'	b'M61SunitR1'	3	0.2560	0.0203	0.6050
b'CHR2:201493458:A'	b'M61SunitR2'	3	0.2432	0.0201	0.6050
b'CHR2:201493458:A'	b'M61SunitR3'	3	0.2549	0.0249	0.6050
b'CHR2:201493458:A'	b'M61SunitR4'	3	0.2446	0.0200	0.6050
b'CHR2:218474766:G'	b'M61SunitR1'	3	0.2560	0.0203	0.7569
b'CHR2:218474766:G'	b'M61SunitR2'	3	0.2432	0.0201	0.7569
b'CHR2:218474766:G'	b'M61SunitR3'	3	0.2549	0.0249	0.7569
b'CHR2:218474766:G'	b'M61SunitR4'	3	0.2446	0.0200	0.7569
b'CHR2:71364013:T'	b'M61SunitR1'	3	0.2560	0.0203	0.9269
b'CHR2:71364013:T'	b'M61SunitR2'	3	0.2432	0.0201	0.9269
b'CHR2:71364013:T'	b'M61SunitR3'	3	0.2549	0.0249	0.9269
b'CHR2:71364013:T'	b'M61SunitR4'	3	0.2446	0.0200	0.9269
b'CHR2:85663826:A'	b'M61SunitR1'	3	0.2560	0.0203	0.9327
b'CHR2:85663826:A'	b'M61SunitR2'	3	0.2432	0.0201	0.9327
b'CHR2:85663826:A'	b'M61SunitR3'	3	0.2549	0.0249	0.9327
b'CHR2:85663826:A'	b'M61SunitR4'	3	0.2446	0.0200	0.9327
b'CHR3:50320148:G'	b'M61SunitR1'	3	0.2560	0.0203	0.9464
b'CHR3:50320148:G'	b'M61SunitR2'	3	0.2432	0.0201	0.9464
b'CHR3:50320148:G'	b'M61SunitR3'	3	0.2549	0.0249	0.9464
b'CHR3:50320148:G'	b'M61SunitR4'	3	0.2446	0.0200	0.9464
b'CHR3:55073793:A'	b'M61SunitR1'	3	0.2560	0.0203	0.9610
b'CHR3:55073793:A'	b'M61SunitR2'	3	0.2432	0.0201	0.9610
b'CHR3:55073793:A'	b'M61SunitR3'	3	0.2549	0.0249	0.9610
b'CHR3:55073793:A'	b'M61SunitR4'	3	0.2446	0.0200	0.9610
b'CHR3:78600261:T'	b'M61SunitR1'	3	0.2560	0.0203	0.9201
b'CHR3:78600261:T'	b'M61SunitR2'	3	0.2432	0.0201	0.9201
b'CHR3:78600261:T'	b'M61SunitR3'	3	0.2549	0.0249	0.9201
b'CHR3:78600261:T'	b'M61SunitR4'	3	0.2446	0.0200	0.9201
b'CHR3:9950005:A'	b'M61SunitR1'	3	0.2560	0.0203	0.9998
b'CHR3:9950005:A'	b'M61SunitR2'	3	0.2432	0.0201	0.9998
b'CHR3:9950005:A'	b'M61SunitR3'	3	0.2549	0.0249	0.9998
b'CHR3:9950005:A'	b'M61SunitR4'	3	0.2446	0.0200	0.9998
b'CHR4:125317234:A'	b'M61SunitR1'	3	0.2560	0.0203	0.9989
b'CHR4:125317234:A'	b'M61SunitR2'	3	0.2432	0.0201	0.9989
b'CHR4:125317234:A'	b'M61SunitR3'	3	0.2549	0.0249	0.9989
b'CHR4:125317234:A'	b'M61SunitR4'	3	0.2446	0.0200	0.9989
b'CHR4:147673062:T'	b'M61SunitR1'	3	0.2560	0.0203	0.6620
b'CHR4:147673062:T'	b'M61SunitR2'	3	0.2432	0.0201	0.6620
b'CHR4:147673062:T'	b'M61SunitR3'	3	0.2549	0.0249	0.6620
b'CHR4:147673062:T'	b'M61SunitR4'	3	0.2446	0.0200	0.6620
b'CHR4:185656724:G'	b'M61SunitR1'	3	0.2560	0.0203	0.7734
b'CHR4:185656724:G'	b'M61SunitR2'	3	0.2432	0.0201	0.7734
b'CHR4:185656724:G'	b'M61SunitR3'	3	0.2549	0.0249	0.7734
b'CHR4:185656724:G'	b'M61SunitR4'	3	0.2446	0.0200	0.7734
b'CHR4:186663325:A'	b'M61SunitR1'	3	0.2560	0.0203	0.7957
b'CHR4:186663325:A'	b'M61SunitR2'	3	0.2432	0.0201	0.7957
b'CHR4:186663325:A'	b'M61SunitR3'	3	0.2549	0.0249	0.7957
b'CHR4:186663325:A'	b'M61SunitR4'	3	0.2446	0.0200	0.7957
b'CHR5:139682878:T'	b'M61SunitR1'	3	0.2560	0.0203	0.5015
b'CHR5:139682878:T'	b'M61SunitR2'	3	0.2432	0.0201	0.5015
b'CHR5:139682878:T'	b'M61SunitR3'	3	0.2549	0.0249	0.5015
b'CHR5:139682878:T'	b'M61SunitR4'	3	0.2446	0.0200	0.5015
b'CHR5:139682880:A'	b'M61SunitR1'	3	0.2560	0.0203	0.5015
b'CHR5:139682880:A'	b'M61SunitR2'	3	0.2432	0.0201	0.5015
b'CHR5:139682880:A'	b'M61SunitR3'	3	0.2549	0.0249	0.5015
b'CHR5:139682880:A'	b'M61SunitR4'	3	0.2446	0.0200	0.5015
b'CHR5:141123573:T'	b'M61SunitR1'	3	0.2560	0.0203	0.9517
b'CHR5:141123573:T'	b'M61SunitR2'	3	0.2432	0.0201	0.9517
b'CHR5:141123573:T'	b'M61SunitR3'	3	0.2549	0.0249	0.9517
b'CHR5:141123573:T'	b'M61SunitR4'	3	0.2446	0.0200	0.9517
b'CHR5:141394009:T'	b'M61SunitR1'	3	0.2560	0.0203	0.9264
b'CHR5:141394009:T'	b'M61SunitR2'	3	0.2432	0.0201	0.9264
b'CHR5:141394009:T'	b'M61SunitR3'	3	0.2549	0.0249	0.9264
b'CHR5:141394009:T'	b'M61SunitR4'	3	0.2446	0.0200	0.9264
b'CHR5:157651252:C'	b'M61SunitR1'	3	0.2560	0.0203	0.9184
b'CHR5:157651252:C'	b'M61SunitR2'	3	0.2432	0.0201	0.9184
b'CHR5:157651252:C'	b'M61SunitR3'	3	0.2549	0.0249	0.9184
b'CHR5:157651252:C'	b'M61SunitR4'	3	0.2446	0.0200	0.9184
b'CHR5:168669936:A'	b'M61SunitR1'	3	0.2560	0.0203	0.9065
b'CHR5:168669936:A'	b'M61SunitR2'	3	0.2432	0.0201	0.9065
b'CHR5:168669936:A'	b'M61SunitR3'	3	0.2549	0.0249	0.9065
b'CHR5:168669936:A'	b'M61SunitR4'	3	0.2446	0.0200	0.9065
b'CHR5:74634923:T'	b'M61SunitR1'	3	0.2560	0.0203	0.9359
b'CHR5:74634923:T'	b'M61SunitR2'	3	0.2432	0.0201	0.9359
b'CHR5:74634923:T'	b'M61SunitR3'	3	0.2549	0.0249	0.9359
b'CHR5:74634923:T'	b'M61SunitR4'	3	0.2446	0.0200	0.9359
b'CHR6:10687513:T'	b'M61SunitR1'	3	0.2560	0.0203	0.9990
b'CHR6:10687513:T'	b'M61SunitR2'	3	0.2432	0.0201	0.9990
b'CHR6:10687513:T'	b'M61SunitR3'	3	0.2549	0.0249	0.9990
b'CHR6:10687513:T'	b'M61SunitR4'	3	0.2446	0.0200	0.9990
b'CHR6:11193627:A'	b'M61SunitR1'	3	0.2560	0.0203	0.9971
b'CHR6:11193627:A'	b'M61SunitR2'	3	0.2432	0.0201	0.9971
b'CHR6:11193627:A'	b'M61SunitR3'	3	0.2549	0.0249	0.9971
b'CHR6:11193627:A'	b'M61SunitR4'	3	0.2446	0.0200	0.9971
b'CHR6:12120212:G'	b'M61SunitR1'	3	0.2560	0.0203	0.9996
b'CHR6:12120212:G'	b'M61SunitR2'	3	0.2432	0.0201	0.9996
b'CHR6:12120212:G'	b'M61SunitR3'	3	0.2549	0.0249	0.9996
b'CHR6:12120212:G'	b'M61SunitR4'	3	0.2446	0.0200	0.9996
b'CHR6:160243652:T'	b'M61SunitR1'	3	0.2560	0.0203	0.7066
b'CHR6:160243652:T'	b'M61SunitR2'	3	0.2432	0.0201	0.7066
b'CHR6:160243652:T'	b'M61SunitR3'	3	0.2549	0.0249	0.7066
b'CHR6:160243652:T'	b'M61SunitR4'	3	0.2446	0.0200	0.7066
b'CHR6:73409315:G'	b'M61SunitR1'	3	0.2560	0.0203	0.7604
b'CHR6:73409315:G'	b'M61SunitR2'	3	0.2432	0.0201	0.7604
b'CHR6:73409315:G'	b'M61SunitR3'	3	0.2549	0.0249	0.7604
b'CHR6:73409315:G'	b'M61SunitR4'	3	0.2446	0.0200	0.7604
b'CHR6:7393219:T'	b'M61SunitR1'	3	0.2560	0.0203	0.9996
b'CHR6:7393219:T'	b'M61SunitR2'	3	0.2432	0.0201	0.9996
b'CHR6:7393219:T'	b'M61SunitR3'	3	0.2549	0.0249	0.9996
b'CHR6:7393219:T'	b'M61SunitR4'	3	0.2446	0.0200	0.9996
b'CHR6:7581403:A'	b'M61SunitR1'	3	0.2560	0.0203	0.9909
b'CHR6:7581403:A'	b'M61SunitR2'	3	0.2432	0.0201	0.9909
b'CHR6:7581403:A'	b'M61SunitR3'	3	0.2549	0.0249	0.9909
b'CHR6:7581403:A'	b'M61SunitR4'	3	0.2446	0.0200	0.9909
b'CHR6:7601487:T'	b'M61SunitR1'	3	0.2560	0.0203	0.9479
b'CHR6:7601487:T'	b'M61SunitR2'	3	0.2432	0.0201	0.9479
b'CHR6:7601487:T'	b'M61SunitR3'	3	0.2549	0.0249	0.9479
b'CHR6:7601487:T'	b'M61SunitR4'	3	0.2446	0.0200	0.9479
b'CHR6:9775825:A'	b'M61SunitR1'	3	0.2560	0.0203	0.9805
b'CHR6:9775825:A'	b'M61SunitR2'	3	0.2432	0.0201	0.9805
b'CHR6:9775825:A'	b'M61SunitR3'	3	0.2549	0.0249	0.9805
b'CHR6:9775825:A'	b'M61SunitR4'	3	0.2446	0.0200	0.9805
b'CHR7:103523460:A'	b'M61SunitR1'	3	0.2560	0.0203	0.7037
b'CHR7:103523460:A'	b'M61SunitR2'	3	0.2432	0.0201	0.7037
b'CHR7:103523460:A'	b'M61SunitR3'	3	0.2549	0.0249	0.7037
b'CHR7:103523460:A'	b'M61SunitR4'	3	0.2446	0.0200	0.7037
b'CHR7:39085988:C'	b'M61SunitR1'	3	0.2560	0.0203	0.9755
b'CHR7:39085988:C'	b'M61SunitR2'	3	0.2432	0.0201	0.9755
b'CHR7:39085988:C'	b'M61SunitR3'	3	0.2549	0.0249	0.9755
b'CHR7:39085988:C'	b'M61SunitR4'	3	0.2446	0.0200	0.9755
b'CHR7:39085990:C'	b'M61SunitR1'	3	0.2560	0.0203	0.9755
b'CHR7:39085990:C'	b'M61SunitR2'	3	0.2432	0.0201	0.9755
b'CHR7:39085990:C'	b'M61SunitR3'	3	0.2549	0.0249	0.9755
b'CHR7:39085990:C'	b'M61SunitR4'	3	0.2446	0.0200	0.9755
b'CHR7:44539245:T'	b'M61SunitR1'	3	0.2560	0.0203	0.5511
b'CHR7:44539245:T'	b'M61SunitR2'	3	0.2432	0.0201	0.5511
b'CHR7:44539245:T'	b'M61SunitR3'	3	0.2549	0.0249	0.5511
b'CHR7:44539245:T'	b'M61SunitR4'	3	0.2446	0.0200	0.5511
b'CHR8:143925249:T'	b'M61SunitR1'	3	0.2560	0.0203	0.4473
b'CHR8:143925249:T'	b'M61SunitR2'	3	0.2432	0.0201	0.4473
b'CHR8:143925249:T'	b'M61SunitR3'	3	0.2549	0.0249	0.4473
b'CHR8:143925249:T'	b'M61SunitR4'	3	0.2446	0.0200	0.4473
b'CHR8:144040433:T'	b'M61SunitR1'	3	0.2560	0.0203	0.7098
b'CHR8:144040433:T'	b'M61SunitR2'	3	0.2432	0.0201	0.7098
b'CHR8:144040433:T'	b'M61SunitR3'	3	0.2549	0.0249	0.7098
b'CHR8:144040433:T'	b'M61SunitR4'	3	0.2446	0.0200	0.7098
b'CHR8:54459829:A'	b'M61SunitR1'	3	0.2560	0.0203	0.9077
b'CHR8:54459829:A'	b'M61SunitR2'	3	0.2432	0.0201	0.9077
b'CHR8:54459829:A'	b'M61SunitR3'	3	0.2549	0.0249	0.9077
b'CHR8:54459829:A'	b'M61SunitR4'	3	0.2446	0.0200	0.9077
b'CHR9:123381818:C'	b'M61SunitR1'	3	0.2560	0.0203	0.8428
b'CHR9:123381818:C'	b'M61SunitR2'	3	0.2432	0.0201	0.8428
b'CHR9:123381818:C'	b'M61SunitR3'	3	0.2549	0.0249	0.8428
b'CHR9:123381818:C'	b'M61SunitR4'	3	0.2446	0.0200	0.8428
b'CHR9:125326478:G'	b'M61SunitR1'	3	0.2560	0.0203	0.9606
b'CHR9:125326478:G'	b'M61SunitR2'	3	0.2432	0.0201	0.9606
b'CHR9:125326478:G'	b'M61SunitR3'	3	0.2549	0.0249	0.9606
b'CHR9:125326478:G'	b'M61SunitR4'	3	0.2446	0.0200	0.9606
b'CHR9:127034499:A'	b'M61SunitR1'	3	0.2560	0.0203	0.7815
b'CHR9:127034499:A'	b'M61SunitR2'	3	0.2432	0.0201	0.7815
b'CHR9:127034499:A'	b'M61SunitR3'	3	0.2549	0.0249	0.7815
b'CHR9:127034499:A'	b'M61SunitR4'	3	0.2446	0.0200	0.7815
b'CHR9:134727314:A'	b'M61SunitR1'	3	0.2560	0.0203	0.8423
b'CHR9:134727314:A'	b'M61SunitR2'	3	0.2432	0.0201	0.8423
b'CHR9:134727314:A'	b'M61SunitR3'	3	0.2549	0.0249	0.8423
b'CHR9:134727314:A'	b'M61SunitR4'	3	0.2446	0.0200	0.8423
b'CHR9:34371863:A'	b'M61SunitR1'	3	0.2560	0.0203	0.9268
b'CHR9:34371863:A'	b'M61SunitR2'	3	0.2432	0.0201	0.9268
b'CHR9:34371863:A'	b'M61SunitR3'	3	0.2549	0.0249	0.9268
b'CHR9:34371863:A'	b'M61SunitR4'	3	0.2446	0.0200	0.9268
b'CHR9:34726205:G'	b'M61SunitR1'	3	0.2560	0.0203	0.8692
b'CHR9:34726205:G'	b'M61SunitR2'	3	0.2432	0.0201	0.8692
b'CHR9:34726205:G'	b'M61SunitR3'	3	0.2549	0.0249	0.8692
b'CHR9:34726205:G'	b'M61SunitR4'	3	0.2446	0.0200	0.8692
b'CHR9:34726207:A'	b'M61SunitR1'	3	0.2560	0.0203	0.8692
b'CHR9:34726207:A'	b'M61SunitR2'	3	0.2432	0.0201	0.8692
b'CHR9:34726207:A'	b'M61SunitR3'	3	0.2549	0.0249	0.8692
b'CHR9:34726207:A'	b'M61SunitR4'	3	0.2446	0.0200	0.8692
b'CHR9:78328164:G'	b'M61SunitR1'	3	0.2560	0.0203	0.6066
b'CHR9:78328164:G'	b'M61SunitR2'	3	0.2432	0.0201	0.6066
b'CHR9:78328164:G'	b'M61SunitR3'	3	0.2549	0.0249	0.6066
b'CHR9:78328164:G'	b'M61SunitR4'	3	0.2446	0.0200	0.6066
b'CHR9:95881156:A'	b'M61SunitR1'	3	0.2560	0.0203	0.8752
b'CHR9:95881156:A'	b'M61SunitR2'	3	0.2432	0.0201	0.8752
b'CHR9:95881156:A'	b'M61SunitR3'	3	0.2549	0.0249	0.8752
b'CHR9:95881156:A'	b'M61SunitR4'	3	0.2446	0.0200	0.8752
