mutation_id	sample_id	cluster_id	cellular_prevalence	cellular_prevalence_std	cluster_assignment_prob
b'CHR10:128101279:T'	b'M61SunitR1'	0	0.7164	0.0325	0.8925
b'CHR10:128101279:T'	b'M61SunitR2'	0	0.7847	0.0328	0.8925
b'CHR10:128101279:T'	b'M61SunitR3'	0	0.7369	0.0335	0.8925
b'CHR10:128101279:T'	b'M61SunitR4'	0	0.7536	0.0327	0.8925
b'CHR10:92240093:G'	b'M61SunitR1'	0	0.7164	0.0325	0.4972
b'CHR10:92240093:G'	b'M61SunitR2'	0	0.7847	0.0328	0.4972
b'CHR10:92240093:G'	b'M61SunitR3'	0	0.7369	0.0335	0.4972
b'CHR10:92240093:G'	b'M61SunitR4'	0	0.7536	0.0327	0.4972
b'CHR14:31178233:C'	b'M61SunitR1'	0	0.7164	0.0325	0.8981
b'CHR14:31178233:C'	b'M61SunitR2'	0	0.7847	0.0328	0.8981
b'CHR14:31178233:C'	b'M61SunitR3'	0	0.7369	0.0335	0.8981
b'CHR14:31178233:C'	b'M61SunitR4'	0	0.7536	0.0327	0.8981
b'CHR15:68432031:T'	b'M61SunitR1'	0	0.7164	0.0325	0.8236
b'CHR15:68432031:T'	b'M61SunitR2'	0	0.7847	0.0328	0.8236
b'CHR15:68432031:T'	b'M61SunitR3'	0	0.7369	0.0335	0.8236
b'CHR15:68432031:T'	b'M61SunitR4'	0	0.7536	0.0327	0.8236
b'CHR16:1241453:A'	b'M61SunitR1'	0	0.7164	0.0325	0.9547
b'CHR16:1241453:A'	b'M61SunitR2'	0	0.7847	0.0328	0.9547
b'CHR16:1241453:A'	b'M61SunitR3'	0	0.7369	0.0335	0.9547
b'CHR16:1241453:A'	b'M61SunitR4'	0	0.7536	0.0327	0.9547
b'CHR19:1049270:A'	b'M61SunitR1'	0	0.7164	0.0325	1.0000
b'CHR19:1049270:A'	b'M61SunitR2'	0	0.7847	0.0328	1.0000
b'CHR19:1049270:A'	b'M61SunitR3'	0	0.7369	0.0335	1.0000
b'CHR19:1049270:A'	b'M61SunitR4'	0	0.7536	0.0327	1.0000
b'CHR19:52881597:A'	b'M61SunitR1'	0	0.7164	0.0325	0.7046
b'CHR19:52881597:A'	b'M61SunitR2'	0	0.7847	0.0328	0.7046
b'CHR19:52881597:A'	b'M61SunitR3'	0	0.7369	0.0335	0.7046
b'CHR19:52881597:A'	b'M61SunitR4'	0	0.7536	0.0327	0.7046
b'CHR1:111242317:G'	b'M61SunitR1'	0	0.7164	0.0325	0.9665
b'CHR1:111242317:G'	b'M61SunitR2'	0	0.7847	0.0328	0.9665
b'CHR1:111242317:G'	b'M61SunitR3'	0	0.7369	0.0335	0.9665
b'CHR1:111242317:G'	b'M61SunitR4'	0	0.7536	0.0327	0.9665
b'CHR1:11706367:T'	b'M61SunitR1'	0	0.7164	0.0325	0.9800
b'CHR1:11706367:T'	b'M61SunitR2'	0	0.7847	0.0328	0.9800
b'CHR1:11706367:T'	b'M61SunitR3'	0	0.7369	0.0335	0.9800
b'CHR1:11706367:T'	b'M61SunitR4'	0	0.7536	0.0327	0.9800
b'CHR1:11779915:A'	b'M61SunitR1'	0	0.7164	0.0325	0.8294
b'CHR1:11779915:A'	b'M61SunitR2'	0	0.7847	0.0328	0.8294
b'CHR1:11779915:A'	b'M61SunitR3'	0	0.7369	0.0335	0.8294
b'CHR1:11779915:A'	b'M61SunitR4'	0	0.7536	0.0327	0.8294
b'CHR1:13343011:A'	b'M61SunitR1'	0	0.7164	0.0325	0.9999
b'CHR1:13343011:A'	b'M61SunitR2'	0	0.7847	0.0328	0.9999
b'CHR1:13343011:A'	b'M61SunitR3'	0	0.7369	0.0335	0.9999
b'CHR1:13343011:A'	b'M61SunitR4'	0	0.7536	0.0327	0.9999
b'CHR1:13782619:G'	b'M61SunitR1'	0	0.7164	0.0325	0.9290
b'CHR1:13782619:G'	b'M61SunitR2'	0	0.7847	0.0328	0.9290
b'CHR1:13782619:G'	b'M61SunitR3'	0	0.7369	0.0335	0.9290
b'CHR1:13782619:G'	b'M61SunitR4'	0	0.7536	0.0327	0.9290
b'CHR1:155054385:T'	b'M61SunitR1'	0	0.7164	0.0325	0.7853
b'CHR1:155054385:T'	b'M61SunitR2'	0	0.7847	0.0328	0.7853
b'CHR1:155054385:T'	b'M61SunitR3'	0	0.7369	0.0335	0.7853
b'CHR1:155054385:T'	b'M61SunitR4'	0	0.7536	0.0327	0.7853
b'CHR1:15939409:A'	b'M61SunitR1'	0	0.7164	0.0325	0.9999
b'CHR1:15939409:A'	b'M61SunitR2'	0	0.7847	0.0328	0.9999
b'CHR1:15939409:A'	b'M61SunitR3'	0	0.7369	0.0335	0.9999
b'CHR1:15939409:A'	b'M61SunitR4'	0	0.7536	0.0327	0.9999
b'CHR1:16409637:C'	b'M61SunitR1'	0	0.7164	0.0325	0.9982
b'CHR1:16409637:C'	b'M61SunitR2'	0	0.7847	0.0328	0.9982
b'CHR1:16409637:C'	b'M61SunitR3'	0	0.7369	0.0335	0.9982
b'CHR1:16409637:C'	b'M61SunitR4'	0	0.7536	0.0327	0.9982
b'CHR1:17070097:A'	b'M61SunitR1'	0	0.7164	0.0325	0.9581
b'CHR1:17070097:A'	b'M61SunitR2'	0	0.7847	0.0328	0.9581
b'CHR1:17070097:A'	b'M61SunitR3'	0	0.7369	0.0335	0.9581
b'CHR1:17070097:A'	b'M61SunitR4'	0	0.7536	0.0327	0.9581
b'CHR1:17079314:A'	b'M61SunitR1'	0	0.7164	0.0325	0.9386
b'CHR1:17079314:A'	b'M61SunitR2'	0	0.7847	0.0328	0.9386
b'CHR1:17079314:A'	b'M61SunitR3'	0	0.7369	0.0335	0.9386
b'CHR1:17079314:A'	b'M61SunitR4'	0	0.7536	0.0327	0.9386
b'CHR1:17084646:G'	b'M61SunitR1'	0	0.7164	0.0325	0.9904
b'CHR1:17084646:G'	b'M61SunitR2'	0	0.7847	0.0328	0.9904
b'CHR1:17084646:G'	b'M61SunitR3'	0	0.7369	0.0335	0.9904
b'CHR1:17084646:G'	b'M61SunitR4'	0	0.7536	0.0327	0.9904
b'CHR1:18481971:A'	b'M61SunitR1'	0	0.7164	0.0325	0.9317
b'CHR1:18481971:A'	b'M61SunitR2'	0	0.7847	0.0328	0.9317
b'CHR1:18481971:A'	b'M61SunitR3'	0	0.7369	0.0335	0.9317
b'CHR1:18481971:A'	b'M61SunitR4'	0	0.7536	0.0327	0.9317
b'CHR1:18877503:G'	b'M61SunitR1'	0	0.7164	0.0325	0.9739
b'CHR1:18877503:G'	b'M61SunitR2'	0	0.7847	0.0328	0.9739
b'CHR1:18877503:G'	b'M61SunitR3'	0	0.7369	0.0335	0.9739
b'CHR1:18877503:G'	b'M61SunitR4'	0	0.7536	0.0327	0.9739
b'CHR1:19282760:C'	b'M61SunitR1'	0	0.7164	0.0325	0.9994
b'CHR1:19282760:C'	b'M61SunitR2'	0	0.7847	0.0328	0.9994
b'CHR1:19282760:C'	b'M61SunitR3'	0	0.7369	0.0335	0.9994
b'CHR1:19282760:C'	b'M61SunitR4'	0	0.7536	0.0327	0.9994
b'CHR1:19623568:C'	b'M61SunitR1'	0	0.7164	0.0325	0.4988
b'CHR1:19623568:C'	b'M61SunitR2'	0	0.7847	0.0328	0.4988
b'CHR1:19623568:C'	b'M61SunitR3'	0	0.7369	0.0335	0.4988
b'CHR1:19623568:C'	b'M61SunitR4'	0	0.7536	0.0327	0.4988
b'CHR1:20084839:T'	b'M61SunitR1'	0	0.7164	0.0325	0.8287
b'CHR1:20084839:T'	b'M61SunitR2'	0	0.7847	0.0328	0.8287
b'CHR1:20084839:T'	b'M61SunitR3'	0	0.7369	0.0335	0.8287
b'CHR1:20084839:T'	b'M61SunitR4'	0	0.7536	0.0327	0.8287
b'CHR1:202160698:C'	b'M61SunitR1'	0	0.7164	0.0325	0.7859
b'CHR1:202160698:C'	b'M61SunitR2'	0	0.7847	0.0328	0.7859
b'CHR1:202160698:C'	b'M61SunitR3'	0	0.7369	0.0335	0.7859
b'CHR1:202160698:C'	b'M61SunitR4'	0	0.7536	0.0327	0.7859
b'CHR1:215567710:G'	b'M61SunitR1'	0	0.7164	0.0325	0.9968
b'CHR1:215567710:G'	b'M61SunitR2'	0	0.7847	0.0328	0.9968
b'CHR1:215567710:G'	b'M61SunitR3'	0	0.7369	0.0335	0.9968
b'CHR1:215567710:G'	b'M61SunitR4'	0	0.7536	0.0327	0.9968
b'CHR1:21874505:T'	b'M61SunitR1'	0	0.7164	0.0325	0.8724
b'CHR1:21874505:T'	b'M61SunitR2'	0	0.7847	0.0328	0.8724
b'CHR1:21874505:T'	b'M61SunitR3'	0	0.7369	0.0335	0.8724
b'CHR1:21874505:T'	b'M61SunitR4'	0	0.7536	0.0327	0.8724
b'CHR1:22526222:C'	b'M61SunitR1'	0	0.7164	0.0325	0.9888
b'CHR1:22526222:C'	b'M61SunitR2'	0	0.7847	0.0328	0.9888
b'CHR1:22526222:C'	b'M61SunitR3'	0	0.7369	0.0335	0.9888
b'CHR1:22526222:C'	b'M61SunitR4'	0	0.7536	0.0327	0.9888
b'CHR1:230921501:T'	b'M61SunitR1'	0	0.7164	0.0325	0.9932
b'CHR1:230921501:T'	b'M61SunitR2'	0	0.7847	0.0328	0.9932
b'CHR1:230921501:T'	b'M61SunitR3'	0	0.7369	0.0335	0.9932
b'CHR1:230921501:T'	b'M61SunitR4'	0	0.7536	0.0327	0.9932
b'CHR1:25243590:C'	b'M61SunitR1'	0	0.7164	0.0325	0.9690
b'CHR1:25243590:C'	b'M61SunitR2'	0	0.7847	0.0328	0.9690
b'CHR1:25243590:C'	b'M61SunitR3'	0	0.7369	0.0335	0.9690
b'CHR1:25243590:C'	b'M61SunitR4'	0	0.7536	0.0327	0.9690
b'CHR1:26344118:T'	b'M61SunitR1'	0	0.7164	0.0325	0.9785
b'CHR1:26344118:T'	b'M61SunitR2'	0	0.7847	0.0328	0.9785
b'CHR1:26344118:T'	b'M61SunitR3'	0	0.7369	0.0335	0.9785
b'CHR1:26344118:T'	b'M61SunitR4'	0	0.7536	0.0327	0.9785
b'CHR1:26952030:A'	b'M61SunitR1'	0	0.7164	0.0325	0.9831
b'CHR1:26952030:A'	b'M61SunitR2'	0	0.7847	0.0328	0.9831
b'CHR1:26952030:A'	b'M61SunitR3'	0	0.7369	0.0335	0.9831
b'CHR1:26952030:A'	b'M61SunitR4'	0	0.7536	0.0327	0.9831
b'CHR1:27360975:T'	b'M61SunitR1'	0	0.7164	0.0325	0.9944
b'CHR1:27360975:T'	b'M61SunitR2'	0	0.7847	0.0328	0.9944
b'CHR1:27360975:T'	b'M61SunitR3'	0	0.7369	0.0335	0.9944
b'CHR1:27360975:T'	b'M61SunitR4'	0	0.7536	0.0327	0.9944
b'CHR1:31630664:G'	b'M61SunitR1'	0	0.7164	0.0325	0.9946
b'CHR1:31630664:G'	b'M61SunitR2'	0	0.7847	0.0328	0.9946
b'CHR1:31630664:G'	b'M61SunitR3'	0	0.7369	0.0335	0.9946
b'CHR1:31630664:G'	b'M61SunitR4'	0	0.7536	0.0327	0.9946
b'CHR1:31698605:G'	b'M61SunitR1'	0	0.7164	0.0325	0.6495
b'CHR1:31698605:G'	b'M61SunitR2'	0	0.7847	0.0328	0.6495
b'CHR1:31698605:G'	b'M61SunitR3'	0	0.7369	0.0335	0.6495
b'CHR1:31698605:G'	b'M61SunitR4'	0	0.7536	0.0327	0.6495
b'CHR1:32770050:G'	b'M61SunitR1'	0	0.7164	0.0325	0.9999
b'CHR1:32770050:G'	b'M61SunitR2'	0	0.7847	0.0328	0.9999
b'CHR1:32770050:G'	b'M61SunitR3'	0	0.7369	0.0335	0.9999
b'CHR1:32770050:G'	b'M61SunitR4'	0	0.7536	0.0327	0.9999
b'CHR1:33494462:G'	b'M61SunitR1'	0	0.7164	0.0325	0.9999
b'CHR1:33494462:G'	b'M61SunitR2'	0	0.7847	0.0328	0.9999
b'CHR1:33494462:G'	b'M61SunitR3'	0	0.7369	0.0335	0.9999
b'CHR1:33494462:G'	b'M61SunitR4'	0	0.7536	0.0327	0.9999
b'CHR1:3478610:A'	b'M61SunitR1'	0	0.7164	0.0325	0.9967
b'CHR1:3478610:A'	b'M61SunitR2'	0	0.7847	0.0328	0.9967
b'CHR1:3478610:A'	b'M61SunitR3'	0	0.7369	0.0335	0.9967
b'CHR1:3478610:A'	b'M61SunitR4'	0	0.7536	0.0327	0.9967
b'CHR1:3763211:T'	b'M61SunitR1'	0	0.7164	0.0325	0.8006
b'CHR1:3763211:T'	b'M61SunitR2'	0	0.7847	0.0328	0.8006
b'CHR1:3763211:T'	b'M61SunitR3'	0	0.7369	0.0335	0.8006
b'CHR1:3763211:T'	b'M61SunitR4'	0	0.7536	0.0327	0.8006
b'CHR1:51840355:A'	b'M61SunitR1'	0	0.7164	0.0325	0.9964
b'CHR1:51840355:A'	b'M61SunitR2'	0	0.7847	0.0328	0.9964
b'CHR1:51840355:A'	b'M61SunitR3'	0	0.7369	0.0335	0.9964
b'CHR1:51840355:A'	b'M61SunitR4'	0	0.7536	0.0327	0.9964
b'CHR1:53247055:T'	b'M61SunitR1'	0	0.7164	0.0325	0.9997
b'CHR1:53247055:T'	b'M61SunitR2'	0	0.7847	0.0328	0.9997
b'CHR1:53247055:T'	b'M61SunitR3'	0	0.7369	0.0335	0.9997
b'CHR1:53247055:T'	b'M61SunitR4'	0	0.7536	0.0327	0.9997
b'CHR1:53250744:A'	b'M61SunitR1'	0	0.7164	0.0325	0.9986
b'CHR1:53250744:A'	b'M61SunitR2'	0	0.7847	0.0328	0.9986
b'CHR1:53250744:A'	b'M61SunitR3'	0	0.7369	0.0335	0.9986
b'CHR1:53250744:A'	b'M61SunitR4'	0	0.7536	0.0327	0.9986
b'CHR1:53594343:C'	b'M61SunitR1'	0	0.7164	0.0325	0.9887
b'CHR1:53594343:C'	b'M61SunitR2'	0	0.7847	0.0328	0.9887
b'CHR1:53594343:C'	b'M61SunitR3'	0	0.7369	0.0335	0.9887
b'CHR1:53594343:C'	b'M61SunitR4'	0	0.7536	0.0327	0.9887
b'CHR1:53594575:C'	b'M61SunitR1'	0	0.7164	0.0325	0.9923
b'CHR1:53594575:C'	b'M61SunitR2'	0	0.7847	0.0328	0.9923
b'CHR1:53594575:C'	b'M61SunitR3'	0	0.7369	0.0335	0.9923
b'CHR1:53594575:C'	b'M61SunitR4'	0	0.7536	0.0327	0.9923
b'CHR1:63323280:A'	b'M61SunitR1'	0	0.7164	0.0325	0.8883
b'CHR1:63323280:A'	b'M61SunitR2'	0	0.7847	0.0328	0.8883
b'CHR1:63323280:A'	b'M61SunitR3'	0	0.7369	0.0335	0.8883
b'CHR1:63323280:A'	b'M61SunitR4'	0	0.7536	0.0327	0.8883
b'CHR1:63415881:T'	b'M61SunitR1'	0	0.7164	0.0325	0.9850
b'CHR1:63415881:T'	b'M61SunitR2'	0	0.7847	0.0328	0.9850
b'CHR1:63415881:T'	b'M61SunitR3'	0	0.7369	0.0335	0.9850
b'CHR1:63415881:T'	b'M61SunitR4'	0	0.7536	0.0327	0.9850
b'CHR1:64844806:C'	b'M61SunitR1'	0	0.7164	0.0325	0.9849
b'CHR1:64844806:C'	b'M61SunitR2'	0	0.7847	0.0328	0.9849
b'CHR1:64844806:C'	b'M61SunitR3'	0	0.7369	0.0335	0.9849
b'CHR1:64844806:C'	b'M61SunitR4'	0	0.7536	0.0327	0.9849
b'CHR1:7827188:A'	b'M61SunitR1'	0	0.7164	0.0325	0.9989
b'CHR1:7827188:A'	b'M61SunitR2'	0	0.7847	0.0328	0.9989
b'CHR1:7827188:A'	b'M61SunitR3'	0	0.7369	0.0335	0.9989
b'CHR1:7827188:A'	b'M61SunitR4'	0	0.7536	0.0327	0.9989
b'CHR22:37066106:C'	b'M61SunitR1'	0	0.7164	0.0325	0.9195
b'CHR22:37066106:C'	b'M61SunitR2'	0	0.7847	0.0328	0.9195
b'CHR22:37066106:C'	b'M61SunitR3'	0	0.7369	0.0335	0.9195
b'CHR22:37066106:C'	b'M61SunitR4'	0	0.7536	0.0327	0.9195
b'CHR2:219451248:A'	b'M61SunitR1'	0	0.7164	0.0325	0.9952
b'CHR2:219451248:A'	b'M61SunitR2'	0	0.7847	0.0328	0.9952
b'CHR2:219451248:A'	b'M61SunitR3'	0	0.7369	0.0335	0.9952
b'CHR2:219451248:A'	b'M61SunitR4'	0	0.7536	0.0327	0.9952
b'CHR2:232564321:T'	b'M61SunitR1'	0	0.7164	0.0325	0.6879
b'CHR2:232564321:T'	b'M61SunitR2'	0	0.7847	0.0328	0.6879
b'CHR2:232564321:T'	b'M61SunitR3'	0	0.7369	0.0335	0.6879
b'CHR2:232564321:T'	b'M61SunitR4'	0	0.7536	0.0327	0.6879
b'CHR2:73291715:T'	b'M61SunitR1'	0	0.7164	0.0325	0.9651
b'CHR2:73291715:T'	b'M61SunitR2'	0	0.7847	0.0328	0.9651
b'CHR2:73291715:T'	b'M61SunitR3'	0	0.7369	0.0335	0.9651
b'CHR2:73291715:T'	b'M61SunitR4'	0	0.7536	0.0327	0.9651
b'CHR3:41800280:T'	b'M61SunitR1'	0	0.7164	0.0325	0.8202
b'CHR3:41800280:T'	b'M61SunitR2'	0	0.7847	0.0328	0.8202
b'CHR3:41800280:T'	b'M61SunitR3'	0	0.7369	0.0335	0.8202
b'CHR3:41800280:T'	b'M61SunitR4'	0	0.7536	0.0327	0.8202
b'CHR4:85942222:C'	b'M61SunitR1'	0	0.7164	0.0325	0.5639
b'CHR4:85942222:C'	b'M61SunitR2'	0	0.7847	0.0328	0.5639
b'CHR4:85942222:C'	b'M61SunitR3'	0	0.7369	0.0335	0.5639
b'CHR4:85942222:C'	b'M61SunitR4'	0	0.7536	0.0327	0.5639
b'CHR5:150540177:C'	b'M61SunitR1'	0	0.7164	0.0325	0.8955
b'CHR5:150540177:C'	b'M61SunitR2'	0	0.7847	0.0328	0.8955
b'CHR5:150540177:C'	b'M61SunitR3'	0	0.7369	0.0335	0.8955
b'CHR5:150540177:C'	b'M61SunitR4'	0	0.7536	0.0327	0.8955
b'CHR6:3154637:C'	b'M61SunitR1'	0	0.7164	0.0325	0.5845
b'CHR6:3154637:C'	b'M61SunitR2'	0	0.7847	0.0328	0.5845
b'CHR6:3154637:C'	b'M61SunitR3'	0	0.7369	0.0335	0.5845
b'CHR6:3154637:C'	b'M61SunitR4'	0	0.7536	0.0327	0.5845
b'CHR7:72942166:T'	b'M61SunitR1'	0	0.7164	0.0325	0.5286
b'CHR7:72942166:T'	b'M61SunitR2'	0	0.7847	0.0328	0.5286
b'CHR7:72942166:T'	b'M61SunitR3'	0	0.7369	0.0335	0.5286
b'CHR7:72942166:T'	b'M61SunitR4'	0	0.7536	0.0327	0.5286
b'CHR8:143925249:T'	b'M61SunitR1'	0	0.7164	0.0325	0.4213
b'CHR8:143925249:T'	b'M61SunitR2'	0	0.7847	0.0328	0.4213
b'CHR8:143925249:T'	b'M61SunitR3'	0	0.7369	0.0335	0.4213
b'CHR8:143925249:T'	b'M61SunitR4'	0	0.7536	0.0327	0.4213
b'CHR1:13421192:T'	b'M61SunitR1'	1	0.5075	0.0466	0.9376
b'CHR1:13421192:T'	b'M61SunitR2'	1	0.4788	0.0441	0.9376
b'CHR1:13421192:T'	b'M61SunitR3'	1	0.4871	0.0487	0.9376
b'CHR1:13421192:T'	b'M61SunitR4'	1	0.4704	0.0470	0.9376
b'CHR1:13773141:T'	b'M61SunitR1'	1	0.5075	0.0466	0.5183
b'CHR1:13773141:T'	b'M61SunitR2'	1	0.4788	0.0441	0.5183
b'CHR1:13773141:T'	b'M61SunitR3'	1	0.4871	0.0487	0.5183
b'CHR1:13773141:T'	b'M61SunitR4'	1	0.4704	0.0470	0.5183
b'CHR1:16759300:T'	b'M61SunitR1'	1	0.5075	0.0466	0.9897
b'CHR1:16759300:T'	b'M61SunitR2'	1	0.4788	0.0441	0.9897
b'CHR1:16759300:T'	b'M61SunitR3'	1	0.4871	0.0487	0.9897
b'CHR1:16759300:T'	b'M61SunitR4'	1	0.4704	0.0470	0.9897
b'CHR1:247423969:T'	b'M61SunitR1'	1	0.5075	0.0466	0.9914
b'CHR1:247423969:T'	b'M61SunitR2'	1	0.4788	0.0441	0.9914
b'CHR1:247423969:T'	b'M61SunitR3'	1	0.4871	0.0487	0.9914
b'CHR1:247423969:T'	b'M61SunitR4'	1	0.4704	0.0470	0.9914
b'CHR1:942934:C'	b'M61SunitR1'	1	0.5075	0.0466	0.9693
b'CHR1:942934:C'	b'M61SunitR2'	1	0.4788	0.0441	0.9693
b'CHR1:942934:C'	b'M61SunitR3'	1	0.4871	0.0487	0.9693
b'CHR1:942934:C'	b'M61SunitR4'	1	0.4704	0.0470	0.9693
b'CHR2:170847706:T'	b'M61SunitR1'	1	0.5075	0.0466	0.4999
b'CHR2:170847706:T'	b'M61SunitR2'	1	0.4788	0.0441	0.4999
b'CHR2:170847706:T'	b'M61SunitR3'	1	0.4871	0.0487	0.4999
b'CHR2:170847706:T'	b'M61SunitR4'	1	0.4704	0.0470	0.4999
b'CHR3:48447042:C'	b'M61SunitR1'	1	0.5075	0.0466	0.7701
b'CHR3:48447042:C'	b'M61SunitR2'	1	0.4788	0.0441	0.7701
b'CHR3:48447042:C'	b'M61SunitR3'	1	0.4871	0.0487	0.7701
b'CHR3:48447042:C'	b'M61SunitR4'	1	0.4704	0.0470	0.7701
b'CHR7:151066568:A'	b'M61SunitR1'	1	0.5075	0.0466	0.5587
b'CHR7:151066568:A'	b'M61SunitR2'	1	0.4788	0.0441	0.5587
b'CHR7:151066568:A'	b'M61SunitR3'	1	0.4871	0.0487	0.5587
b'CHR7:151066568:A'	b'M61SunitR4'	1	0.4704	0.0470	0.5587
b'CHR9:26928213:T'	b'M61SunitR1'	1	0.5075	0.0466	0.9903
b'CHR9:26928213:T'	b'M61SunitR2'	1	0.4788	0.0441	0.9903
b'CHR9:26928213:T'	b'M61SunitR3'	1	0.4871	0.0487	0.9903
b'CHR9:26928213:T'	b'M61SunitR4'	1	0.4704	0.0470	0.9903
b'CHR12:40481156:A'	b'M61SunitR1'	2	0.0680	0.0187	0.9919
b'CHR12:40481156:A'	b'M61SunitR2'	2	0.0672	0.0272	0.9919
b'CHR12:40481156:A'	b'M61SunitR3'	2	0.4127	0.1921	0.9919
b'CHR12:40481156:A'	b'M61SunitR4'	2	0.0836	0.0198	0.9919
b'CHR12:40481157:G'	b'M61SunitR1'	2	0.0680	0.0187	0.9911
b'CHR12:40481157:G'	b'M61SunitR2'	2	0.0672	0.0272	0.9911
b'CHR12:40481157:G'	b'M61SunitR3'	2	0.4127	0.1921	0.9911
b'CHR12:40481157:G'	b'M61SunitR4'	2	0.0836	0.0198	0.9911
b'CHR12:40482641:G'	b'M61SunitR1'	2	0.0680	0.0187	0.9951
b'CHR12:40482641:G'	b'M61SunitR2'	2	0.0672	0.0272	0.9951
b'CHR12:40482641:G'	b'M61SunitR3'	2	0.4127	0.1921	0.9951
b'CHR12:40482641:G'	b'M61SunitR4'	2	0.0836	0.0198	0.9951
b'CHR19:14765687:T'	b'M61SunitR1'	2	0.0680	0.0187	1.0000
b'CHR19:14765687:T'	b'M61SunitR2'	2	0.0672	0.0272	1.0000
b'CHR19:14765687:T'	b'M61SunitR3'	2	0.4127	0.1921	1.0000
b'CHR19:14765687:T'	b'M61SunitR4'	2	0.0836	0.0198	1.0000
b'CHR19:43081182:G'	b'M61SunitR1'	2	0.0680	0.0187	0.9433
b'CHR19:43081182:G'	b'M61SunitR2'	2	0.0672	0.0272	0.9433
b'CHR19:43081182:G'	b'M61SunitR3'	2	0.4127	0.1921	0.9433
b'CHR19:43081182:G'	b'M61SunitR4'	2	0.0836	0.0198	0.9433
b'CHR8:143871184:T'	b'M61SunitR1'	2	0.0680	0.0187	0.5618
b'CHR8:143871184:T'	b'M61SunitR2'	2	0.0672	0.0272	0.5618
b'CHR8:143871184:T'	b'M61SunitR3'	2	0.4127	0.1921	0.5618
b'CHR8:143871184:T'	b'M61SunitR4'	2	0.0836	0.0198	0.5618
b'CHR10:16928249:A'	b'M61SunitR1'	3	0.2387	0.0203	0.9419
b'CHR10:16928249:A'	b'M61SunitR2'	3	0.2189	0.0202	0.9419
b'CHR10:16928249:A'	b'M61SunitR3'	3	0.2447	0.0257	0.9419
b'CHR10:16928249:A'	b'M61SunitR4'	3	0.2158	0.0191	0.9419
b'CHR10:27994928:C'	b'M61SunitR1'	3	0.2387	0.0203	0.5993
b'CHR10:27994928:C'	b'M61SunitR2'	3	0.2189	0.0202	0.5993
b'CHR10:27994928:C'	b'M61SunitR3'	3	0.2447	0.0257	0.5993
b'CHR10:27994928:C'	b'M61SunitR4'	3	0.2158	0.0191	0.5993
b'CHR10:37153617:T'	b'M61SunitR1'	3	0.2387	0.0203	0.9495
b'CHR10:37153617:T'	b'M61SunitR2'	3	0.2189	0.0202	0.9495
b'CHR10:37153617:T'	b'M61SunitR3'	3	0.2447	0.0257	0.9495
b'CHR10:37153617:T'	b'M61SunitR4'	3	0.2158	0.0191	0.9495
b'CHR11:117917207:C'	b'M61SunitR1'	3	0.2387	0.0203	0.9892
b'CHR11:117917207:C'	b'M61SunitR2'	3	0.2189	0.0202	0.9892
b'CHR11:117917207:C'	b'M61SunitR3'	3	0.2447	0.0257	0.9892
b'CHR11:117917207:C'	b'M61SunitR4'	3	0.2158	0.0191	0.9892
b'CHR11:120128675:T'	b'M61SunitR1'	3	0.2387	0.0203	0.9998
b'CHR11:120128675:T'	b'M61SunitR2'	3	0.2189	0.0202	0.9998
b'CHR11:120128675:T'	b'M61SunitR3'	3	0.2447	0.0257	0.9998
b'CHR11:120128675:T'	b'M61SunitR4'	3	0.2158	0.0191	0.9998
b'CHR11:6002291:G'	b'M61SunitR1'	3	0.2387	0.0203	0.4754
b'CHR11:6002291:G'	b'M61SunitR2'	3	0.2189	0.0202	0.4754
b'CHR11:6002291:G'	b'M61SunitR3'	3	0.2447	0.0257	0.4754
b'CHR11:6002291:G'	b'M61SunitR4'	3	0.2158	0.0191	0.4754
b'CHR11:63904940:C'	b'M61SunitR1'	3	0.2387	0.0203	0.3855
b'CHR11:63904940:C'	b'M61SunitR2'	3	0.2189	0.0202	0.3855
b'CHR11:63904940:C'	b'M61SunitR3'	3	0.2447	0.0257	0.3855
b'CHR11:63904940:C'	b'M61SunitR4'	3	0.2158	0.0191	0.3855
b'CHR11:63904942:A'	b'M61SunitR1'	3	0.2387	0.0203	0.3855
b'CHR11:63904942:A'	b'M61SunitR2'	3	0.2189	0.0202	0.3855
b'CHR11:63904942:A'	b'M61SunitR3'	3	0.2447	0.0257	0.3855
b'CHR11:63904942:A'	b'M61SunitR4'	3	0.2158	0.0191	0.3855
b'CHR11:65778836:A'	b'M61SunitR1'	3	0.2387	0.0203	0.9551
b'CHR11:65778836:A'	b'M61SunitR2'	3	0.2189	0.0202	0.9551
b'CHR11:65778836:A'	b'M61SunitR3'	3	0.2447	0.0257	0.9551
b'CHR11:65778836:A'	b'M61SunitR4'	3	0.2158	0.0191	0.9551
b'CHR11:73975073:A'	b'M61SunitR1'	3	0.2387	0.0203	0.9531
b'CHR11:73975073:A'	b'M61SunitR2'	3	0.2189	0.0202	0.9531
b'CHR11:73975073:A'	b'M61SunitR3'	3	0.2447	0.0257	0.9531
b'CHR11:73975073:A'	b'M61SunitR4'	3	0.2158	0.0191	0.9531
b'CHR12:108518570:T'	b'M61SunitR1'	3	0.2387	0.0203	0.9838
b'CHR12:108518570:T'	b'M61SunitR2'	3	0.2189	0.0202	0.9838
b'CHR12:108518570:T'	b'M61SunitR3'	3	0.2447	0.0257	0.9838
b'CHR12:108518570:T'	b'M61SunitR4'	3	0.2158	0.0191	0.9838
b'CHR12:25144543:A'	b'M61SunitR1'	3	0.2387	0.0203	0.7966
b'CHR12:25144543:A'	b'M61SunitR2'	3	0.2189	0.0202	0.7966
b'CHR12:25144543:A'	b'M61SunitR3'	3	0.2447	0.0257	0.7966
b'CHR12:25144543:A'	b'M61SunitR4'	3	0.2158	0.0191	0.7966
b'CHR12:51699632:A'	b'M61SunitR1'	3	0.2387	0.0203	0.6089
b'CHR12:51699632:A'	b'M61SunitR2'	3	0.2189	0.0202	0.6089
b'CHR12:51699632:A'	b'M61SunitR3'	3	0.2447	0.0257	0.6089
b'CHR12:51699632:A'	b'M61SunitR4'	3	0.2158	0.0191	0.6089
b'CHR12:55027042:G'	b'M61SunitR1'	3	0.2387	0.0203	0.8804
b'CHR12:55027042:G'	b'M61SunitR2'	3	0.2189	0.0202	0.8804
b'CHR12:55027042:G'	b'M61SunitR3'	3	0.2447	0.0257	0.8804
b'CHR12:55027042:G'	b'M61SunitR4'	3	0.2158	0.0191	0.8804
b'CHR12:56267413:A'	b'M61SunitR1'	3	0.2387	0.0203	0.9851
b'CHR12:56267413:A'	b'M61SunitR2'	3	0.2189	0.0202	0.9851
b'CHR12:56267413:A'	b'M61SunitR3'	3	0.2447	0.0257	0.9851
b'CHR12:56267413:A'	b'M61SunitR4'	3	0.2158	0.0191	0.9851
b'CHR12:57629873:G'	b'M61SunitR1'	3	0.2387	0.0203	0.9374
b'CHR12:57629873:G'	b'M61SunitR2'	3	0.2189	0.0202	0.9374
b'CHR12:57629873:G'	b'M61SunitR3'	3	0.2447	0.0257	0.9374
b'CHR12:57629873:G'	b'M61SunitR4'	3	0.2158	0.0191	0.9374
b'CHR12:85046079:A'	b'M61SunitR1'	3	0.2387	0.0203	0.8356
b'CHR12:85046079:A'	b'M61SunitR2'	3	0.2189	0.0202	0.8356
b'CHR12:85046079:A'	b'M61SunitR3'	3	0.2447	0.0257	0.8356
b'CHR12:85046079:A'	b'M61SunitR4'	3	0.2158	0.0191	0.8356
b'CHR14:36725655:A'	b'M61SunitR1'	3	0.2387	0.0203	0.7765
b'CHR14:36725655:A'	b'M61SunitR2'	3	0.2189	0.0202	0.7765
b'CHR14:36725655:A'	b'M61SunitR3'	3	0.2447	0.0257	0.7765
b'CHR14:36725655:A'	b'M61SunitR4'	3	0.2158	0.0191	0.7765
b'CHR15:23566598:A'	b'M61SunitR1'	3	0.2387	0.0203	0.9921
b'CHR15:23566598:A'	b'M61SunitR2'	3	0.2189	0.0202	0.9921
b'CHR15:23566598:A'	b'M61SunitR3'	3	0.2447	0.0257	0.9921
b'CHR15:23566598:A'	b'M61SunitR4'	3	0.2158	0.0191	0.9921
b'CHR15:33826673:A'	b'M61SunitR1'	3	0.2387	0.0203	0.6581
b'CHR15:33826673:A'	b'M61SunitR2'	3	0.2189	0.0202	0.6581
b'CHR15:33826673:A'	b'M61SunitR3'	3	0.2447	0.0257	0.6581
b'CHR15:33826673:A'	b'M61SunitR4'	3	0.2158	0.0191	0.6581
b'CHR15:41572531:T'	b'M61SunitR1'	3	0.2387	0.0203	0.9594
b'CHR15:41572531:T'	b'M61SunitR2'	3	0.2189	0.0202	0.9594
b'CHR15:41572531:T'	b'M61SunitR3'	3	0.2447	0.0257	0.9594
b'CHR15:41572531:T'	b'M61SunitR4'	3	0.2158	0.0191	0.9594
b'CHR17:10511933:A'	b'M61SunitR1'	3	0.2387	0.0203	0.7617
b'CHR17:10511933:A'	b'M61SunitR2'	3	0.2189	0.0202	0.7617
b'CHR17:10511933:A'	b'M61SunitR3'	3	0.2447	0.0257	0.7617
b'CHR17:10511933:A'	b'M61SunitR4'	3	0.2158	0.0191	0.7617
b'CHR17:10539354:G'	b'M61SunitR1'	3	0.2387	0.0203	0.7883
b'CHR17:10539354:G'	b'M61SunitR2'	3	0.2189	0.0202	0.7883
b'CHR17:10539354:G'	b'M61SunitR3'	3	0.2447	0.0257	0.7883
b'CHR17:10539354:G'	b'M61SunitR4'	3	0.2158	0.0191	0.7883
b'CHR17:20204775:G'	b'M61SunitR1'	3	0.2387	0.0203	0.9113
b'CHR17:20204775:G'	b'M61SunitR2'	3	0.2189	0.0202	0.9113
b'CHR17:20204775:G'	b'M61SunitR3'	3	0.2447	0.0257	0.9113
b'CHR17:20204775:G'	b'M61SunitR4'	3	0.2158	0.0191	0.9113
b'CHR19:1495334:T'	b'M61SunitR1'	3	0.2387	0.0203	0.9243
b'CHR19:1495334:T'	b'M61SunitR2'	3	0.2189	0.0202	0.9243
b'CHR19:1495334:T'	b'M61SunitR3'	3	0.2447	0.0257	0.9243
b'CHR19:1495334:T'	b'M61SunitR4'	3	0.2158	0.0191	0.9243
b'CHR19:18870062:C'	b'M61SunitR1'	3	0.2387	0.0203	0.9332
b'CHR19:18870062:C'	b'M61SunitR2'	3	0.2189	0.0202	0.9332
b'CHR19:18870062:C'	b'M61SunitR3'	3	0.2447	0.0257	0.9332
b'CHR19:18870062:C'	b'M61SunitR4'	3	0.2158	0.0191	0.9332
b'CHR19:20545051:T'	b'M61SunitR1'	3	0.2387	0.0203	0.8723
b'CHR19:20545051:T'	b'M61SunitR2'	3	0.2189	0.0202	0.8723
b'CHR19:20545051:T'	b'M61SunitR3'	3	0.2447	0.0257	0.8723
b'CHR19:20545051:T'	b'M61SunitR4'	3	0.2158	0.0191	0.8723
b'CHR19:36915827:T'	b'M61SunitR1'	3	0.2387	0.0203	0.9993
b'CHR19:36915827:T'	b'M61SunitR2'	3	0.2189	0.0202	0.9993
b'CHR19:36915827:T'	b'M61SunitR3'	3	0.2447	0.0257	0.9993
b'CHR19:36915827:T'	b'M61SunitR4'	3	0.2158	0.0191	0.9993
b'CHR19:45591702:A'	b'M61SunitR1'	3	0.2387	0.0203	0.9238
b'CHR19:45591702:A'	b'M61SunitR2'	3	0.2189	0.0202	0.9238
b'CHR19:45591702:A'	b'M61SunitR3'	3	0.2447	0.0257	0.9238
b'CHR19:45591702:A'	b'M61SunitR4'	3	0.2158	0.0191	0.9238
b'CHR19:47042860:A'	b'M61SunitR1'	3	0.2387	0.0203	0.8724
b'CHR19:47042860:A'	b'M61SunitR2'	3	0.2189	0.0202	0.8724
b'CHR19:47042860:A'	b'M61SunitR3'	3	0.2447	0.0257	0.8724
b'CHR19:47042860:A'	b'M61SunitR4'	3	0.2158	0.0191	0.8724
b'CHR19:4714132:A'	b'M61SunitR1'	3	0.2387	0.0203	0.8570
b'CHR19:4714132:A'	b'M61SunitR2'	3	0.2189	0.0202	0.8570
b'CHR19:4714132:A'	b'M61SunitR3'	3	0.2447	0.0257	0.8570
b'CHR19:4714132:A'	b'M61SunitR4'	3	0.2158	0.0191	0.8570
b'CHR19:52705931:T'	b'M61SunitR1'	3	0.2387	0.0203	0.9981
b'CHR19:52705931:T'	b'M61SunitR2'	3	0.2189	0.0202	0.9981
b'CHR19:52705931:T'	b'M61SunitR3'	3	0.2447	0.0257	0.9981
b'CHR19:52705931:T'	b'M61SunitR4'	3	0.2158	0.0191	0.9981
b'CHR1:1046687:A'	b'M61SunitR1'	3	0.2387	0.0203	0.9872
b'CHR1:1046687:A'	b'M61SunitR2'	3	0.2189	0.0202	0.9872
b'CHR1:1046687:A'	b'M61SunitR3'	3	0.2447	0.0257	0.9872
b'CHR1:1046687:A'	b'M61SunitR4'	3	0.2158	0.0191	0.9872
b'CHR1:108718880:A'	b'M61SunitR1'	3	0.2387	0.0203	0.9480
b'CHR1:108718880:A'	b'M61SunitR2'	3	0.2189	0.0202	0.9480
b'CHR1:108718880:A'	b'M61SunitR3'	3	0.2447	0.0257	0.9480
b'CHR1:108718880:A'	b'M61SunitR4'	3	0.2158	0.0191	0.9480
b'CHR1:113981341:T'	b'M61SunitR1'	3	0.2387	0.0203	0.9707
b'CHR1:113981341:T'	b'M61SunitR2'	3	0.2189	0.0202	0.9707
b'CHR1:113981341:T'	b'M61SunitR3'	3	0.2447	0.0257	0.9707
b'CHR1:113981341:T'	b'M61SunitR4'	3	0.2158	0.0191	0.9707
b'CHR1:1495915:C'	b'M61SunitR1'	3	0.2387	0.0203	0.8366
b'CHR1:1495915:C'	b'M61SunitR2'	3	0.2189	0.0202	0.8366
b'CHR1:1495915:C'	b'M61SunitR3'	3	0.2447	0.0257	0.8366
b'CHR1:1495915:C'	b'M61SunitR4'	3	0.2158	0.0191	0.8366
b'CHR1:152812643:C'	b'M61SunitR1'	3	0.2387	0.0203	0.9072
b'CHR1:152812643:C'	b'M61SunitR2'	3	0.2189	0.0202	0.9072
b'CHR1:152812643:C'	b'M61SunitR3'	3	0.2447	0.0257	0.9072
b'CHR1:152812643:C'	b'M61SunitR4'	3	0.2158	0.0191	0.9072
b'CHR1:157586429:T'	b'M61SunitR1'	3	0.2387	0.0203	0.9648
b'CHR1:157586429:T'	b'M61SunitR2'	3	0.2189	0.0202	0.9648
b'CHR1:157586429:T'	b'M61SunitR3'	3	0.2447	0.0257	0.9648
b'CHR1:157586429:T'	b'M61SunitR4'	3	0.2158	0.0191	0.9648
b'CHR1:236571361:A'	b'M61SunitR1'	3	0.2387	0.0203	0.6158
b'CHR1:236571361:A'	b'M61SunitR2'	3	0.2189	0.0202	0.6158
b'CHR1:236571361:A'	b'M61SunitR3'	3	0.2447	0.0257	0.6158
b'CHR1:236571361:A'	b'M61SunitR4'	3	0.2158	0.0191	0.6158
b'CHR1:248273507:A'	b'M61SunitR1'	3	0.2387	0.0203	0.6158
b'CHR1:248273507:A'	b'M61SunitR2'	3	0.2189	0.0202	0.6158
b'CHR1:248273507:A'	b'M61SunitR3'	3	0.2447	0.0257	0.6158
b'CHR1:248273507:A'	b'M61SunitR4'	3	0.2158	0.0191	0.6158
b'CHR1:248273509:C'	b'M61SunitR1'	3	0.2387	0.0203	0.6158
b'CHR1:248273509:C'	b'M61SunitR2'	3	0.2189	0.0202	0.6158
b'CHR1:248273509:C'	b'M61SunitR3'	3	0.2447	0.0257	0.6158
b'CHR1:248273509:C'	b'M61SunitR4'	3	0.2158	0.0191	0.6158
b'CHR1:41037530:G'	b'M61SunitR1'	3	0.2387	0.0203	0.5705
b'CHR1:41037530:G'	b'M61SunitR2'	3	0.2189	0.0202	0.5705
b'CHR1:41037530:G'	b'M61SunitR3'	3	0.2447	0.0257	0.5705
b'CHR1:41037530:G'	b'M61SunitR4'	3	0.2158	0.0191	0.5705
b'CHR1:44805530:A'	b'M61SunitR1'	3	0.2387	0.0203	0.8778
b'CHR1:44805530:A'	b'M61SunitR2'	3	0.2189	0.0202	0.8778
b'CHR1:44805530:A'	b'M61SunitR3'	3	0.2447	0.0257	0.8778
b'CHR1:44805530:A'	b'M61SunitR4'	3	0.2158	0.0191	0.8778
b'CHR1:52642989:A'	b'M61SunitR1'	3	0.2387	0.0203	0.7390
b'CHR1:52642989:A'	b'M61SunitR2'	3	0.2189	0.0202	0.7390
b'CHR1:52642989:A'	b'M61SunitR3'	3	0.2447	0.0257	0.7390
b'CHR1:52642989:A'	b'M61SunitR4'	3	0.2158	0.0191	0.7390
b'CHR1:52988103:T'	b'M61SunitR1'	3	0.2387	0.0203	0.7957
b'CHR1:52988103:T'	b'M61SunitR2'	3	0.2189	0.0202	0.7957
b'CHR1:52988103:T'	b'M61SunitR3'	3	0.2447	0.0257	0.7957
b'CHR1:52988103:T'	b'M61SunitR4'	3	0.2158	0.0191	0.7957
b'CHR1:8957259:A'	b'M61SunitR1'	3	0.2387	0.0203	0.9879
b'CHR1:8957259:A'	b'M61SunitR2'	3	0.2189	0.0202	0.9879
b'CHR1:8957259:A'	b'M61SunitR3'	3	0.2447	0.0257	0.9879
b'CHR1:8957259:A'	b'M61SunitR4'	3	0.2158	0.0191	0.9879
b'CHR20:21328621:A'	b'M61SunitR1'	3	0.2387	0.0203	0.7570
b'CHR20:21328621:A'	b'M61SunitR2'	3	0.2189	0.0202	0.7570
b'CHR20:21328621:A'	b'M61SunitR3'	3	0.2447	0.0257	0.7570
b'CHR20:21328621:A'	b'M61SunitR4'	3	0.2158	0.0191	0.7570
b'CHR2:107859472:T'	b'M61SunitR1'	3	0.2387	0.0203	0.9195
b'CHR2:107859472:T'	b'M61SunitR2'	3	0.2189	0.0202	0.9195
b'CHR2:107859472:T'	b'M61SunitR3'	3	0.2447	0.0257	0.9195
b'CHR2:107859472:T'	b'M61SunitR4'	3	0.2158	0.0191	0.9195
b'CHR2:124865392:A'	b'M61SunitR1'	3	0.2387	0.0203	0.6928
b'CHR2:124865392:A'	b'M61SunitR2'	3	0.2189	0.0202	0.6928
b'CHR2:124865392:A'	b'M61SunitR3'	3	0.2447	0.0257	0.6928
b'CHR2:124865392:A'	b'M61SunitR4'	3	0.2158	0.0191	0.6928
b'CHR2:156549720:T'	b'M61SunitR1'	3	0.2387	0.0203	0.9916
b'CHR2:156549720:T'	b'M61SunitR2'	3	0.2189	0.0202	0.9916
b'CHR2:156549720:T'	b'M61SunitR3'	3	0.2447	0.0257	0.9916
b'CHR2:156549720:T'	b'M61SunitR4'	3	0.2158	0.0191	0.9916
b'CHR2:201493458:A'	b'M61SunitR1'	3	0.2387	0.0203	0.5182
b'CHR2:201493458:A'	b'M61SunitR2'	3	0.2189	0.0202	0.5182
b'CHR2:201493458:A'	b'M61SunitR3'	3	0.2447	0.0257	0.5182
b'CHR2:201493458:A'	b'M61SunitR4'	3	0.2158	0.0191	0.5182
b'CHR2:218474766:G'	b'M61SunitR1'	3	0.2387	0.0203	0.8190
b'CHR2:218474766:G'	b'M61SunitR2'	3	0.2189	0.0202	0.8190
b'CHR2:218474766:G'	b'M61SunitR3'	3	0.2447	0.0257	0.8190
b'CHR2:218474766:G'	b'M61SunitR4'	3	0.2158	0.0191	0.8190
b'CHR2:232381539:G'	b'M61SunitR1'	3	0.2387	0.0203	0.6074
b'CHR2:232381539:G'	b'M61SunitR2'	3	0.2189	0.0202	0.6074
b'CHR2:232381539:G'	b'M61SunitR3'	3	0.2447	0.0257	0.6074
b'CHR2:232381539:G'	b'M61SunitR4'	3	0.2158	0.0191	0.6074
b'CHR2:240682800:T'	b'M61SunitR1'	3	0.2387	0.0203	0.5337
b'CHR2:240682800:T'	b'M61SunitR2'	3	0.2189	0.0202	0.5337
b'CHR2:240682800:T'	b'M61SunitR3'	3	0.2447	0.0257	0.5337
b'CHR2:240682800:T'	b'M61SunitR4'	3	0.2158	0.0191	0.5337
b'CHR2:71364013:T'	b'M61SunitR1'	3	0.2387	0.0203	0.8570
b'CHR2:71364013:T'	b'M61SunitR2'	3	0.2189	0.0202	0.8570
b'CHR2:71364013:T'	b'M61SunitR3'	3	0.2447	0.0257	0.8570
b'CHR2:71364013:T'	b'M61SunitR4'	3	0.2158	0.0191	0.8570
b'CHR2:85663826:A'	b'M61SunitR1'	3	0.2387	0.0203	0.8724
b'CHR2:85663826:A'	b'M61SunitR2'	3	0.2189	0.0202	0.8724
b'CHR2:85663826:A'	b'M61SunitR3'	3	0.2447	0.0257	0.8724
b'CHR2:85663826:A'	b'M61SunitR4'	3	0.2158	0.0191	0.8724
b'CHR3:48656801:A'	b'M61SunitR1'	3	0.2387	0.0203	0.6762
b'CHR3:48656801:A'	b'M61SunitR2'	3	0.2189	0.0202	0.6762
b'CHR3:48656801:A'	b'M61SunitR3'	3	0.2447	0.0257	0.6762
b'CHR3:48656801:A'	b'M61SunitR4'	3	0.2158	0.0191	0.6762
b'CHR3:50320148:G'	b'M61SunitR1'	3	0.2387	0.0203	0.9036
b'CHR3:50320148:G'	b'M61SunitR2'	3	0.2189	0.0202	0.9036
b'CHR3:50320148:G'	b'M61SunitR3'	3	0.2447	0.0257	0.9036
b'CHR3:50320148:G'	b'M61SunitR4'	3	0.2158	0.0191	0.9036
b'CHR3:55073793:A'	b'M61SunitR1'	3	0.2387	0.0203	0.9081
b'CHR3:55073793:A'	b'M61SunitR2'	3	0.2189	0.0202	0.9081
b'CHR3:55073793:A'	b'M61SunitR3'	3	0.2447	0.0257	0.9081
b'CHR3:55073793:A'	b'M61SunitR4'	3	0.2158	0.0191	0.9081
b'CHR3:78600261:T'	b'M61SunitR1'	3	0.2387	0.0203	0.9591
b'CHR3:78600261:T'	b'M61SunitR2'	3	0.2189	0.0202	0.9591
b'CHR3:78600261:T'	b'M61SunitR3'	3	0.2447	0.0257	0.9591
b'CHR3:78600261:T'	b'M61SunitR4'	3	0.2158	0.0191	0.9591
b'CHR3:9950005:A'	b'M61SunitR1'	3	0.2387	0.0203	1.0000
b'CHR3:9950005:A'	b'M61SunitR2'	3	0.2189	0.0202	1.0000
b'CHR3:9950005:A'	b'M61SunitR3'	3	0.2447	0.0257	1.0000
b'CHR3:9950005:A'	b'M61SunitR4'	3	0.2158	0.0191	1.0000
b'CHR4:125317234:A'	b'M61SunitR1'	3	0.2387	0.0203	0.9996
b'CHR4:125317234:A'	b'M61SunitR2'	3	0.2189	0.0202	0.9996
b'CHR4:125317234:A'	b'M61SunitR3'	3	0.2447	0.0257	0.9996
b'CHR4:125317234:A'	b'M61SunitR4'	3	0.2158	0.0191	0.9996
b'CHR4:147673062:T'	b'M61SunitR1'	3	0.2387	0.0203	0.5900
b'CHR4:147673062:T'	b'M61SunitR2'	3	0.2189	0.0202	0.5900
b'CHR4:147673062:T'	b'M61SunitR3'	3	0.2447	0.0257	0.5900
b'CHR4:147673062:T'	b'M61SunitR4'	3	0.2158	0.0191	0.5900
b'CHR4:185656724:G'	b'M61SunitR1'	3	0.2387	0.0203	0.7645
b'CHR4:185656724:G'	b'M61SunitR2'	3	0.2189	0.0202	0.7645
b'CHR4:185656724:G'	b'M61SunitR3'	3	0.2447	0.0257	0.7645
b'CHR4:185656724:G'	b'M61SunitR4'	3	0.2158	0.0191	0.7645
b'CHR4:186663325:A'	b'M61SunitR1'	3	0.2387	0.0203	0.7303
b'CHR4:186663325:A'	b'M61SunitR2'	3	0.2189	0.0202	0.7303
b'CHR4:186663325:A'	b'M61SunitR3'	3	0.2447	0.0257	0.7303
b'CHR4:186663325:A'	b'M61SunitR4'	3	0.2158	0.0191	0.7303
b'CHR5:139682878:T'	b'M61SunitR1'	3	0.2387	0.0203	0.4422
b'CHR5:139682878:T'	b'M61SunitR2'	3	0.2189	0.0202	0.4422
b'CHR5:139682878:T'	b'M61SunitR3'	3	0.2447	0.0257	0.4422
b'CHR5:139682878:T'	b'M61SunitR4'	3	0.2158	0.0191	0.4422
b'CHR5:139682880:A'	b'M61SunitR1'	3	0.2387	0.0203	0.4422
b'CHR5:139682880:A'	b'M61SunitR2'	3	0.2189	0.0202	0.4422
b'CHR5:139682880:A'	b'M61SunitR3'	3	0.2447	0.0257	0.4422
b'CHR5:139682880:A'	b'M61SunitR4'	3	0.2158	0.0191	0.4422
b'CHR5:141123573:T'	b'M61SunitR1'	3	0.2387	0.0203	0.9585
b'CHR5:141123573:T'	b'M61SunitR2'	3	0.2189	0.0202	0.9585
b'CHR5:141123573:T'	b'M61SunitR3'	3	0.2447	0.0257	0.9585
b'CHR5:141123573:T'	b'M61SunitR4'	3	0.2158	0.0191	0.9585
b'CHR5:141394009:T'	b'M61SunitR1'	3	0.2387	0.0203	0.9523
b'CHR5:141394009:T'	b'M61SunitR2'	3	0.2189	0.0202	0.9523
b'CHR5:141394009:T'	b'M61SunitR3'	3	0.2447	0.0257	0.9523
b'CHR5:141394009:T'	b'M61SunitR4'	3	0.2158	0.0191	0.9523
b'CHR5:157651252:C'	b'M61SunitR1'	3	0.2387	0.0203	0.8389
b'CHR5:157651252:C'	b'M61SunitR2'	3	0.2189	0.0202	0.8389
b'CHR5:157651252:C'	b'M61SunitR3'	3	0.2447	0.0257	0.8389
b'CHR5:157651252:C'	b'M61SunitR4'	3	0.2158	0.0191	0.8389
b'CHR5:168669936:A'	b'M61SunitR1'	3	0.2387	0.0203	0.8174
b'CHR5:168669936:A'	b'M61SunitR2'	3	0.2189	0.0202	0.8174
b'CHR5:168669936:A'	b'M61SunitR3'	3	0.2447	0.0257	0.8174
b'CHR5:168669936:A'	b'M61SunitR4'	3	0.2158	0.0191	0.8174
b'CHR5:74634923:T'	b'M61SunitR1'	3	0.2387	0.0203	0.8943
b'CHR5:74634923:T'	b'M61SunitR2'	3	0.2189	0.0202	0.8943
b'CHR5:74634923:T'	b'M61SunitR3'	3	0.2447	0.0257	0.8943
b'CHR5:74634923:T'	b'M61SunitR4'	3	0.2158	0.0191	0.8943
b'CHR6:10687513:T'	b'M61SunitR1'	3	0.2387	0.0203	0.9990
b'CHR6:10687513:T'	b'M61SunitR2'	3	0.2189	0.0202	0.9990
b'CHR6:10687513:T'	b'M61SunitR3'	3	0.2447	0.0257	0.9990
b'CHR6:10687513:T'	b'M61SunitR4'	3	0.2158	0.0191	0.9990
b'CHR6:11193627:A'	b'M61SunitR1'	3	0.2387	0.0203	0.9988
b'CHR6:11193627:A'	b'M61SunitR2'	3	0.2189	0.0202	0.9988
b'CHR6:11193627:A'	b'M61SunitR3'	3	0.2447	0.0257	0.9988
b'CHR6:11193627:A'	b'M61SunitR4'	3	0.2158	0.0191	0.9988
b'CHR6:12120212:G'	b'M61SunitR1'	3	0.2387	0.0203	0.7926
b'CHR6:12120212:G'	b'M61SunitR2'	3	0.2189	0.0202	0.7926
b'CHR6:12120212:G'	b'M61SunitR3'	3	0.2447	0.0257	0.7926
b'CHR6:12120212:G'	b'M61SunitR4'	3	0.2158	0.0191	0.7926
b'CHR6:160243652:T'	b'M61SunitR1'	3	0.2387	0.0203	0.6618
b'CHR6:160243652:T'	b'M61SunitR2'	3	0.2189	0.0202	0.6618
b'CHR6:160243652:T'	b'M61SunitR3'	3	0.2447	0.0257	0.6618
b'CHR6:160243652:T'	b'M61SunitR4'	3	0.2158	0.0191	0.6618
b'CHR6:73409315:G'	b'M61SunitR1'	3	0.2387	0.0203	0.7267
b'CHR6:73409315:G'	b'M61SunitR2'	3	0.2189	0.0202	0.7267
b'CHR6:73409315:G'	b'M61SunitR3'	3	0.2447	0.0257	0.7267
b'CHR6:73409315:G'	b'M61SunitR4'	3	0.2158	0.0191	0.7267
b'CHR6:7393219:T'	b'M61SunitR1'	3	0.2387	0.0203	0.8326
b'CHR6:7393219:T'	b'M61SunitR2'	3	0.2189	0.0202	0.8326
b'CHR6:7393219:T'	b'M61SunitR3'	3	0.2447	0.0257	0.8326
b'CHR6:7393219:T'	b'M61SunitR4'	3	0.2158	0.0191	0.8326
b'CHR6:7581403:A'	b'M61SunitR1'	3	0.2387	0.0203	0.9817
b'CHR6:7581403:A'	b'M61SunitR2'	3	0.2189	0.0202	0.9817
b'CHR6:7581403:A'	b'M61SunitR3'	3	0.2447	0.0257	0.9817
b'CHR6:7581403:A'	b'M61SunitR4'	3	0.2158	0.0191	0.9817
b'CHR6:7601487:T'	b'M61SunitR1'	3	0.2387	0.0203	0.5751
b'CHR6:7601487:T'	b'M61SunitR2'	3	0.2189	0.0202	0.5751
b'CHR6:7601487:T'	b'M61SunitR3'	3	0.2447	0.0257	0.5751
b'CHR6:7601487:T'	b'M61SunitR4'	3	0.2158	0.0191	0.5751
b'CHR6:9775825:A'	b'M61SunitR1'	3	0.2387	0.0203	0.5052
b'CHR6:9775825:A'	b'M61SunitR2'	3	0.2189	0.0202	0.5052
b'CHR6:9775825:A'	b'M61SunitR3'	3	0.2447	0.0257	0.5052
b'CHR6:9775825:A'	b'M61SunitR4'	3	0.2158	0.0191	0.5052
b'CHR7:103523460:A'	b'M61SunitR1'	3	0.2387	0.0203	0.6588
b'CHR7:103523460:A'	b'M61SunitR2'	3	0.2189	0.0202	0.6588
b'CHR7:103523460:A'	b'M61SunitR3'	3	0.2447	0.0257	0.6588
b'CHR7:103523460:A'	b'M61SunitR4'	3	0.2158	0.0191	0.6588
b'CHR7:39085988:C'	b'M61SunitR1'	3	0.2387	0.0203	0.8365
b'CHR7:39085988:C'	b'M61SunitR2'	3	0.2189	0.0202	0.8365
b'CHR7:39085988:C'	b'M61SunitR3'	3	0.2447	0.0257	0.8365
b'CHR7:39085988:C'	b'M61SunitR4'	3	0.2158	0.0191	0.8365
b'CHR7:39085990:C'	b'M61SunitR1'	3	0.2387	0.0203	0.8365
b'CHR7:39085990:C'	b'M61SunitR2'	3	0.2189	0.0202	0.8365
b'CHR7:39085990:C'	b'M61SunitR3'	3	0.2447	0.0257	0.8365
b'CHR7:39085990:C'	b'M61SunitR4'	3	0.2158	0.0191	0.8365
b'CHR7:44539245:T'	b'M61SunitR1'	3	0.2387	0.0203	0.7079
b'CHR7:44539245:T'	b'M61SunitR2'	3	0.2189	0.0202	0.7079
b'CHR7:44539245:T'	b'M61SunitR3'	3	0.2447	0.0257	0.7079
b'CHR7:44539245:T'	b'M61SunitR4'	3	0.2158	0.0191	0.7079
b'CHR8:144040433:T'	b'M61SunitR1'	3	0.2387	0.0203	0.6941
b'CHR8:144040433:T'	b'M61SunitR2'	3	0.2189	0.0202	0.6941
b'CHR8:144040433:T'	b'M61SunitR3'	3	0.2447	0.0257	0.6941
b'CHR8:144040433:T'	b'M61SunitR4'	3	0.2158	0.0191	0.6941
b'CHR8:54459829:A'	b'M61SunitR1'	3	0.2387	0.0203	0.9925
b'CHR8:54459829:A'	b'M61SunitR2'	3	0.2189	0.0202	0.9925
b'CHR8:54459829:A'	b'M61SunitR3'	3	0.2447	0.0257	0.9925
b'CHR8:54459829:A'	b'M61SunitR4'	3	0.2158	0.0191	0.9925
b'CHR9:123381818:C'	b'M61SunitR1'	3	0.2387	0.0203	0.8957
b'CHR9:123381818:C'	b'M61SunitR2'	3	0.2189	0.0202	0.8957
b'CHR9:123381818:C'	b'M61SunitR3'	3	0.2447	0.0257	0.8957
b'CHR9:123381818:C'	b'M61SunitR4'	3	0.2158	0.0191	0.8957
b'CHR9:125326478:G'	b'M61SunitR1'	3	0.2387	0.0203	0.9660
b'CHR9:125326478:G'	b'M61SunitR2'	3	0.2189	0.0202	0.9660
b'CHR9:125326478:G'	b'M61SunitR3'	3	0.2447	0.0257	0.9660
b'CHR9:125326478:G'	b'M61SunitR4'	3	0.2158	0.0191	0.9660
b'CHR9:127034499:A'	b'M61SunitR1'	3	0.2387	0.0203	0.7642
b'CHR9:127034499:A'	b'M61SunitR2'	3	0.2189	0.0202	0.7642
b'CHR9:127034499:A'	b'M61SunitR3'	3	0.2447	0.0257	0.7642
b'CHR9:127034499:A'	b'M61SunitR4'	3	0.2158	0.0191	0.7642
b'CHR9:134727314:A'	b'M61SunitR1'	3	0.2387	0.0203	0.7283
b'CHR9:134727314:A'	b'M61SunitR2'	3	0.2189	0.0202	0.7283
b'CHR9:134727314:A'	b'M61SunitR3'	3	0.2447	0.0257	0.7283
b'CHR9:134727314:A'	b'M61SunitR4'	3	0.2158	0.0191	0.7283
b'CHR9:34371863:A'	b'M61SunitR1'	3	0.2387	0.0203	0.9983
b'CHR9:34371863:A'	b'M61SunitR2'	3	0.2189	0.0202	0.9983
b'CHR9:34371863:A'	b'M61SunitR3'	3	0.2447	0.0257	0.9983
b'CHR9:34371863:A'	b'M61SunitR4'	3	0.2158	0.0191	0.9983
b'CHR9:34726205:G'	b'M61SunitR1'	3	0.2387	0.0203	0.9116
b'CHR9:34726205:G'	b'M61SunitR2'	3	0.2189	0.0202	0.9116
b'CHR9:34726205:G'	b'M61SunitR3'	3	0.2447	0.0257	0.9116
b'CHR9:34726205:G'	b'M61SunitR4'	3	0.2158	0.0191	0.9116
b'CHR9:34726207:A'	b'M61SunitR1'	3	0.2387	0.0203	0.9116
b'CHR9:34726207:A'	b'M61SunitR2'	3	0.2189	0.0202	0.9116
b'CHR9:34726207:A'	b'M61SunitR3'	3	0.2447	0.0257	0.9116
b'CHR9:34726207:A'	b'M61SunitR4'	3	0.2158	0.0191	0.9116
b'CHR9:78328164:G'	b'M61SunitR1'	3	0.2387	0.0203	0.5319
b'CHR9:78328164:G'	b'M61SunitR2'	3	0.2189	0.0202	0.5319
b'CHR9:78328164:G'	b'M61SunitR3'	3	0.2447	0.0257	0.5319
b'CHR9:78328164:G'	b'M61SunitR4'	3	0.2158	0.0191	0.5319
b'CHR9:95881156:A'	b'M61SunitR1'	3	0.2387	0.0203	0.7870
b'CHR9:95881156:A'	b'M61SunitR2'	3	0.2189	0.0202	0.7870
b'CHR9:95881156:A'	b'M61SunitR3'	3	0.2447	0.0257	0.7870
b'CHR9:95881156:A'	b'M61SunitR4'	3	0.2158	0.0191	0.7870
