mutation_id	sample_id	cluster_id	cellular_prevalence	cellular_prevalence_std	cluster_assignment_prob
b'CHR10:16928249:A'	b'M61SunitR1'	0	0.2396	0.0203	0.8968
b'CHR10:16928249:A'	b'M61SunitR2'	0	0.2198	0.0202	0.8968
b'CHR10:16928249:A'	b'M61SunitR3'	0	0.2462	0.0259	0.8968
b'CHR10:16928249:A'	b'M61SunitR4'	0	0.2174	0.0192	0.8968
b'CHR10:27994928:C'	b'M61SunitR1'	0	0.2396	0.0203	0.6224
b'CHR10:27994928:C'	b'M61SunitR2'	0	0.2198	0.0202	0.6224
b'CHR10:27994928:C'	b'M61SunitR3'	0	0.2462	0.0259	0.6224
b'CHR10:27994928:C'	b'M61SunitR4'	0	0.2174	0.0192	0.6224
b'CHR10:37153617:T'	b'M61SunitR1'	0	0.2396	0.0203	0.9498
b'CHR10:37153617:T'	b'M61SunitR2'	0	0.2198	0.0202	0.9498
b'CHR10:37153617:T'	b'M61SunitR3'	0	0.2462	0.0259	0.9498
b'CHR10:37153617:T'	b'M61SunitR4'	0	0.2174	0.0192	0.9498
b'CHR11:117917207:C'	b'M61SunitR1'	0	0.2396	0.0203	0.9611
b'CHR11:117917207:C'	b'M61SunitR2'	0	0.2198	0.0202	0.9611
b'CHR11:117917207:C'	b'M61SunitR3'	0	0.2462	0.0259	0.9611
b'CHR11:117917207:C'	b'M61SunitR4'	0	0.2174	0.0192	0.9611
b'CHR11:120128675:T'	b'M61SunitR1'	0	0.2396	0.0203	0.9997
b'CHR11:120128675:T'	b'M61SunitR2'	0	0.2198	0.0202	0.9997
b'CHR11:120128675:T'	b'M61SunitR3'	0	0.2462	0.0259	0.9997
b'CHR11:120128675:T'	b'M61SunitR4'	0	0.2174	0.0192	0.9997
b'CHR11:6002291:G'	b'M61SunitR1'	0	0.2396	0.0203	0.5008
b'CHR11:6002291:G'	b'M61SunitR2'	0	0.2198	0.0202	0.5008
b'CHR11:6002291:G'	b'M61SunitR3'	0	0.2462	0.0259	0.5008
b'CHR11:6002291:G'	b'M61SunitR4'	0	0.2174	0.0192	0.5008
b'CHR11:63904940:C'	b'M61SunitR1'	0	0.2396	0.0203	0.4109
b'CHR11:63904940:C'	b'M61SunitR2'	0	0.2198	0.0202	0.4109
b'CHR11:63904940:C'	b'M61SunitR3'	0	0.2462	0.0259	0.4109
b'CHR11:63904940:C'	b'M61SunitR4'	0	0.2174	0.0192	0.4109
b'CHR11:63904942:A'	b'M61SunitR1'	0	0.2396	0.0203	0.4109
b'CHR11:63904942:A'	b'M61SunitR2'	0	0.2198	0.0202	0.4109
b'CHR11:63904942:A'	b'M61SunitR3'	0	0.2462	0.0259	0.4109
b'CHR11:63904942:A'	b'M61SunitR4'	0	0.2174	0.0192	0.4109
b'CHR11:65778836:A'	b'M61SunitR1'	0	0.2396	0.0203	0.9561
b'CHR11:65778836:A'	b'M61SunitR2'	0	0.2198	0.0202	0.9561
b'CHR11:65778836:A'	b'M61SunitR3'	0	0.2462	0.0259	0.9561
b'CHR11:65778836:A'	b'M61SunitR4'	0	0.2174	0.0192	0.9561
b'CHR11:73975073:A'	b'M61SunitR1'	0	0.2396	0.0203	0.9490
b'CHR11:73975073:A'	b'M61SunitR2'	0	0.2198	0.0202	0.9490
b'CHR11:73975073:A'	b'M61SunitR3'	0	0.2462	0.0259	0.9490
b'CHR11:73975073:A'	b'M61SunitR4'	0	0.2174	0.0192	0.9490
b'CHR12:108518570:T'	b'M61SunitR1'	0	0.2396	0.0203	0.9533
b'CHR12:108518570:T'	b'M61SunitR2'	0	0.2198	0.0202	0.9533
b'CHR12:108518570:T'	b'M61SunitR3'	0	0.2462	0.0259	0.9533
b'CHR12:108518570:T'	b'M61SunitR4'	0	0.2174	0.0192	0.9533
b'CHR12:25144543:A'	b'M61SunitR1'	0	0.2396	0.0203	0.8113
b'CHR12:25144543:A'	b'M61SunitR2'	0	0.2198	0.0202	0.8113
b'CHR12:25144543:A'	b'M61SunitR3'	0	0.2462	0.0259	0.8113
b'CHR12:25144543:A'	b'M61SunitR4'	0	0.2174	0.0192	0.8113
b'CHR12:51699632:A'	b'M61SunitR1'	0	0.2396	0.0203	0.6419
b'CHR12:51699632:A'	b'M61SunitR2'	0	0.2198	0.0202	0.6419
b'CHR12:51699632:A'	b'M61SunitR3'	0	0.2462	0.0259	0.6419
b'CHR12:51699632:A'	b'M61SunitR4'	0	0.2174	0.0192	0.6419
b'CHR12:55027042:G'	b'M61SunitR1'	0	0.2396	0.0203	0.8874
b'CHR12:55027042:G'	b'M61SunitR2'	0	0.2198	0.0202	0.8874
b'CHR12:55027042:G'	b'M61SunitR3'	0	0.2462	0.0259	0.8874
b'CHR12:55027042:G'	b'M61SunitR4'	0	0.2174	0.0192	0.8874
b'CHR12:56267413:A'	b'M61SunitR1'	0	0.2396	0.0203	0.9833
b'CHR12:56267413:A'	b'M61SunitR2'	0	0.2198	0.0202	0.9833
b'CHR12:56267413:A'	b'M61SunitR3'	0	0.2462	0.0259	0.9833
b'CHR12:56267413:A'	b'M61SunitR4'	0	0.2174	0.0192	0.9833
b'CHR12:57629873:G'	b'M61SunitR1'	0	0.2396	0.0203	0.9407
b'CHR12:57629873:G'	b'M61SunitR2'	0	0.2198	0.0202	0.9407
b'CHR12:57629873:G'	b'M61SunitR3'	0	0.2462	0.0259	0.9407
b'CHR12:57629873:G'	b'M61SunitR4'	0	0.2174	0.0192	0.9407
b'CHR12:85046079:A'	b'M61SunitR1'	0	0.2396	0.0203	0.8432
b'CHR12:85046079:A'	b'M61SunitR2'	0	0.2198	0.0202	0.8432
b'CHR12:85046079:A'	b'M61SunitR3'	0	0.2462	0.0259	0.8432
b'CHR12:85046079:A'	b'M61SunitR4'	0	0.2174	0.0192	0.8432
b'CHR14:36725655:A'	b'M61SunitR1'	0	0.2396	0.0203	0.7996
b'CHR14:36725655:A'	b'M61SunitR2'	0	0.2198	0.0202	0.7996
b'CHR14:36725655:A'	b'M61SunitR3'	0	0.2462	0.0259	0.7996
b'CHR14:36725655:A'	b'M61SunitR4'	0	0.2174	0.0192	0.7996
b'CHR15:23566598:A'	b'M61SunitR1'	0	0.2396	0.0203	0.9892
b'CHR15:23566598:A'	b'M61SunitR2'	0	0.2198	0.0202	0.9892
b'CHR15:23566598:A'	b'M61SunitR3'	0	0.2462	0.0259	0.9892
b'CHR15:23566598:A'	b'M61SunitR4'	0	0.2174	0.0192	0.9892
b'CHR15:33826673:A'	b'M61SunitR1'	0	0.2396	0.0203	0.6703
b'CHR15:33826673:A'	b'M61SunitR2'	0	0.2198	0.0202	0.6703
b'CHR15:33826673:A'	b'M61SunitR3'	0	0.2462	0.0259	0.6703
b'CHR15:33826673:A'	b'M61SunitR4'	0	0.2174	0.0192	0.6703
b'CHR15:41572531:T'	b'M61SunitR1'	0	0.2396	0.0203	0.9255
b'CHR15:41572531:T'	b'M61SunitR2'	0	0.2198	0.0202	0.9255
b'CHR15:41572531:T'	b'M61SunitR3'	0	0.2462	0.0259	0.9255
b'CHR15:41572531:T'	b'M61SunitR4'	0	0.2174	0.0192	0.9255
b'CHR17:10511933:A'	b'M61SunitR1'	0	0.2396	0.0203	0.7638
b'CHR17:10511933:A'	b'M61SunitR2'	0	0.2198	0.0202	0.7638
b'CHR17:10511933:A'	b'M61SunitR3'	0	0.2462	0.0259	0.7638
b'CHR17:10511933:A'	b'M61SunitR4'	0	0.2174	0.0192	0.7638
b'CHR17:10539354:G'	b'M61SunitR1'	0	0.2396	0.0203	0.8073
b'CHR17:10539354:G'	b'M61SunitR2'	0	0.2198	0.0202	0.8073
b'CHR17:10539354:G'	b'M61SunitR3'	0	0.2462	0.0259	0.8073
b'CHR17:10539354:G'	b'M61SunitR4'	0	0.2174	0.0192	0.8073
b'CHR17:20204775:G'	b'M61SunitR1'	0	0.2396	0.0203	0.9051
b'CHR17:20204775:G'	b'M61SunitR2'	0	0.2198	0.0202	0.9051
b'CHR17:20204775:G'	b'M61SunitR3'	0	0.2462	0.0259	0.9051
b'CHR17:20204775:G'	b'M61SunitR4'	0	0.2174	0.0192	0.9051
b'CHR19:1495334:T'	b'M61SunitR1'	0	0.2396	0.0203	0.9174
b'CHR19:1495334:T'	b'M61SunitR2'	0	0.2198	0.0202	0.9174
b'CHR19:1495334:T'	b'M61SunitR3'	0	0.2462	0.0259	0.9174
b'CHR19:1495334:T'	b'M61SunitR4'	0	0.2174	0.0192	0.9174
b'CHR19:18870062:C'	b'M61SunitR1'	0	0.2396	0.0203	0.9283
b'CHR19:18870062:C'	b'M61SunitR2'	0	0.2198	0.0202	0.9283
b'CHR19:18870062:C'	b'M61SunitR3'	0	0.2462	0.0259	0.9283
b'CHR19:18870062:C'	b'M61SunitR4'	0	0.2174	0.0192	0.9283
b'CHR19:20545051:T'	b'M61SunitR1'	0	0.2396	0.0203	0.8563
b'CHR19:20545051:T'	b'M61SunitR2'	0	0.2198	0.0202	0.8563
b'CHR19:20545051:T'	b'M61SunitR3'	0	0.2462	0.0259	0.8563
b'CHR19:20545051:T'	b'M61SunitR4'	0	0.2174	0.0192	0.8563
b'CHR19:36915827:T'	b'M61SunitR1'	0	0.2396	0.0203	0.9992
b'CHR19:36915827:T'	b'M61SunitR2'	0	0.2198	0.0202	0.9992
b'CHR19:36915827:T'	b'M61SunitR3'	0	0.2462	0.0259	0.9992
b'CHR19:36915827:T'	b'M61SunitR4'	0	0.2174	0.0192	0.9992
b'CHR19:45591702:A'	b'M61SunitR1'	0	0.2396	0.0203	0.9126
b'CHR19:45591702:A'	b'M61SunitR2'	0	0.2198	0.0202	0.9126
b'CHR19:45591702:A'	b'M61SunitR3'	0	0.2462	0.0259	0.9126
b'CHR19:45591702:A'	b'M61SunitR4'	0	0.2174	0.0192	0.9126
b'CHR19:47042860:A'	b'M61SunitR1'	0	0.2396	0.0203	0.8840
b'CHR19:47042860:A'	b'M61SunitR2'	0	0.2198	0.0202	0.8840
b'CHR19:47042860:A'	b'M61SunitR3'	0	0.2462	0.0259	0.8840
b'CHR19:47042860:A'	b'M61SunitR4'	0	0.2174	0.0192	0.8840
b'CHR19:4714132:A'	b'M61SunitR1'	0	0.2396	0.0203	0.8709
b'CHR19:4714132:A'	b'M61SunitR2'	0	0.2198	0.0202	0.8709
b'CHR19:4714132:A'	b'M61SunitR3'	0	0.2462	0.0259	0.8709
b'CHR19:4714132:A'	b'M61SunitR4'	0	0.2174	0.0192	0.8709
b'CHR19:52705931:T'	b'M61SunitR1'	0	0.2396	0.0203	0.9894
b'CHR19:52705931:T'	b'M61SunitR2'	0	0.2198	0.0202	0.9894
b'CHR19:52705931:T'	b'M61SunitR3'	0	0.2462	0.0259	0.9894
b'CHR19:52705931:T'	b'M61SunitR4'	0	0.2174	0.0192	0.9894
b'CHR1:1046687:A'	b'M61SunitR1'	0	0.2396	0.0203	0.9848
b'CHR1:1046687:A'	b'M61SunitR2'	0	0.2198	0.0202	0.9848
b'CHR1:1046687:A'	b'M61SunitR3'	0	0.2462	0.0259	0.9848
b'CHR1:1046687:A'	b'M61SunitR4'	0	0.2174	0.0192	0.9848
b'CHR1:108718880:A'	b'M61SunitR1'	0	0.2396	0.0203	0.9459
b'CHR1:108718880:A'	b'M61SunitR2'	0	0.2198	0.0202	0.9459
b'CHR1:108718880:A'	b'M61SunitR3'	0	0.2462	0.0259	0.9459
b'CHR1:108718880:A'	b'M61SunitR4'	0	0.2174	0.0192	0.9459
b'CHR1:113981341:T'	b'M61SunitR1'	0	0.2396	0.0203	0.9715
b'CHR1:113981341:T'	b'M61SunitR2'	0	0.2198	0.0202	0.9715
b'CHR1:113981341:T'	b'M61SunitR3'	0	0.2462	0.0259	0.9715
b'CHR1:113981341:T'	b'M61SunitR4'	0	0.2174	0.0192	0.9715
b'CHR1:1495915:C'	b'M61SunitR1'	0	0.2396	0.0203	0.8452
b'CHR1:1495915:C'	b'M61SunitR2'	0	0.2198	0.0202	0.8452
b'CHR1:1495915:C'	b'M61SunitR3'	0	0.2462	0.0259	0.8452
b'CHR1:1495915:C'	b'M61SunitR4'	0	0.2174	0.0192	0.8452
b'CHR1:152812643:C'	b'M61SunitR1'	0	0.2396	0.0203	0.9136
b'CHR1:152812643:C'	b'M61SunitR2'	0	0.2198	0.0202	0.9136
b'CHR1:152812643:C'	b'M61SunitR3'	0	0.2462	0.0259	0.9136
b'CHR1:152812643:C'	b'M61SunitR4'	0	0.2174	0.0192	0.9136
b'CHR1:157586429:T'	b'M61SunitR1'	0	0.2396	0.0203	0.9625
b'CHR1:157586429:T'	b'M61SunitR2'	0	0.2198	0.0202	0.9625
b'CHR1:157586429:T'	b'M61SunitR3'	0	0.2462	0.0259	0.9625
b'CHR1:157586429:T'	b'M61SunitR4'	0	0.2174	0.0192	0.9625
b'CHR1:236571361:A'	b'M61SunitR1'	0	0.2396	0.0203	0.6305
b'CHR1:236571361:A'	b'M61SunitR2'	0	0.2198	0.0202	0.6305
b'CHR1:236571361:A'	b'M61SunitR3'	0	0.2462	0.0259	0.6305
b'CHR1:236571361:A'	b'M61SunitR4'	0	0.2174	0.0192	0.6305
b'CHR1:248273507:A'	b'M61SunitR1'	0	0.2396	0.0203	0.6305
b'CHR1:248273507:A'	b'M61SunitR2'	0	0.2198	0.0202	0.6305
b'CHR1:248273507:A'	b'M61SunitR3'	0	0.2462	0.0259	0.6305
b'CHR1:248273507:A'	b'M61SunitR4'	0	0.2174	0.0192	0.6305
b'CHR1:248273509:C'	b'M61SunitR1'	0	0.2396	0.0203	0.6305
b'CHR1:248273509:C'	b'M61SunitR2'	0	0.2198	0.0202	0.6305
b'CHR1:248273509:C'	b'M61SunitR3'	0	0.2462	0.0259	0.6305
b'CHR1:248273509:C'	b'M61SunitR4'	0	0.2174	0.0192	0.6305
b'CHR1:41037530:G'	b'M61SunitR1'	0	0.2396	0.0203	0.5970
b'CHR1:41037530:G'	b'M61SunitR2'	0	0.2198	0.0202	0.5970
b'CHR1:41037530:G'	b'M61SunitR3'	0	0.2462	0.0259	0.5970
b'CHR1:41037530:G'	b'M61SunitR4'	0	0.2174	0.0192	0.5970
b'CHR1:44805530:A'	b'M61SunitR1'	0	0.2396	0.0203	0.8682
b'CHR1:44805530:A'	b'M61SunitR2'	0	0.2198	0.0202	0.8682
b'CHR1:44805530:A'	b'M61SunitR3'	0	0.2462	0.0259	0.8682
b'CHR1:44805530:A'	b'M61SunitR4'	0	0.2174	0.0192	0.8682
b'CHR1:52642989:A'	b'M61SunitR1'	0	0.2396	0.0203	0.7622
b'CHR1:52642989:A'	b'M61SunitR2'	0	0.2198	0.0202	0.7622
b'CHR1:52642989:A'	b'M61SunitR3'	0	0.2462	0.0259	0.7622
b'CHR1:52642989:A'	b'M61SunitR4'	0	0.2174	0.0192	0.7622
b'CHR1:52988103:T'	b'M61SunitR1'	0	0.2396	0.0203	0.8130
b'CHR1:52988103:T'	b'M61SunitR2'	0	0.2198	0.0202	0.8130
b'CHR1:52988103:T'	b'M61SunitR3'	0	0.2462	0.0259	0.8130
b'CHR1:52988103:T'	b'M61SunitR4'	0	0.2174	0.0192	0.8130
b'CHR1:8957259:A'	b'M61SunitR1'	0	0.2396	0.0203	0.9878
b'CHR1:8957259:A'	b'M61SunitR2'	0	0.2198	0.0202	0.9878
b'CHR1:8957259:A'	b'M61SunitR3'	0	0.2462	0.0259	0.9878
b'CHR1:8957259:A'	b'M61SunitR4'	0	0.2174	0.0192	0.9878
b'CHR20:21328621:A'	b'M61SunitR1'	0	0.2396	0.0203	0.7731
b'CHR20:21328621:A'	b'M61SunitR2'	0	0.2198	0.0202	0.7731
b'CHR20:21328621:A'	b'M61SunitR3'	0	0.2462	0.0259	0.7731
b'CHR20:21328621:A'	b'M61SunitR4'	0	0.2174	0.0192	0.7731
b'CHR2:107859472:T'	b'M61SunitR1'	0	0.2396	0.0203	0.8848
b'CHR2:107859472:T'	b'M61SunitR2'	0	0.2198	0.0202	0.8848
b'CHR2:107859472:T'	b'M61SunitR3'	0	0.2462	0.0259	0.8848
b'CHR2:107859472:T'	b'M61SunitR4'	0	0.2174	0.0192	0.8848
b'CHR2:124865392:A'	b'M61SunitR1'	0	0.2396	0.0203	0.7125
b'CHR2:124865392:A'	b'M61SunitR2'	0	0.2198	0.0202	0.7125
b'CHR2:124865392:A'	b'M61SunitR3'	0	0.2462	0.0259	0.7125
b'CHR2:124865392:A'	b'M61SunitR4'	0	0.2174	0.0192	0.7125
b'CHR2:156549720:T'	b'M61SunitR1'	0	0.2396	0.0203	0.9911
b'CHR2:156549720:T'	b'M61SunitR2'	0	0.2198	0.0202	0.9911
b'CHR2:156549720:T'	b'M61SunitR3'	0	0.2462	0.0259	0.9911
b'CHR2:156549720:T'	b'M61SunitR4'	0	0.2174	0.0192	0.9911
b'CHR2:170847706:T'	b'M61SunitR1'	0	0.2396	0.0203	0.4985
b'CHR2:170847706:T'	b'M61SunitR2'	0	0.2198	0.0202	0.4985
b'CHR2:170847706:T'	b'M61SunitR3'	0	0.2462	0.0259	0.4985
b'CHR2:170847706:T'	b'M61SunitR4'	0	0.2174	0.0192	0.4985
b'CHR2:201493458:A'	b'M61SunitR1'	0	0.2396	0.0203	0.5527
b'CHR2:201493458:A'	b'M61SunitR2'	0	0.2198	0.0202	0.5527
b'CHR2:201493458:A'	b'M61SunitR3'	0	0.2462	0.0259	0.5527
b'CHR2:201493458:A'	b'M61SunitR4'	0	0.2174	0.0192	0.5527
b'CHR2:218474766:G'	b'M61SunitR1'	0	0.2396	0.0203	0.8136
b'CHR2:218474766:G'	b'M61SunitR2'	0	0.2198	0.0202	0.8136
b'CHR2:218474766:G'	b'M61SunitR3'	0	0.2462	0.0259	0.8136
b'CHR2:218474766:G'	b'M61SunitR4'	0	0.2174	0.0192	0.8136
b'CHR2:232381539:G'	b'M61SunitR1'	0	0.2396	0.0203	0.5790
b'CHR2:232381539:G'	b'M61SunitR2'	0	0.2198	0.0202	0.5790
b'CHR2:232381539:G'	b'M61SunitR3'	0	0.2462	0.0259	0.5790
b'CHR2:232381539:G'	b'M61SunitR4'	0	0.2174	0.0192	0.5790
b'CHR2:240682800:T'	b'M61SunitR1'	0	0.2396	0.0203	0.5056
b'CHR2:240682800:T'	b'M61SunitR2'	0	0.2198	0.0202	0.5056
b'CHR2:240682800:T'	b'M61SunitR3'	0	0.2462	0.0259	0.5056
b'CHR2:240682800:T'	b'M61SunitR4'	0	0.2174	0.0192	0.5056
b'CHR2:71364013:T'	b'M61SunitR1'	0	0.2396	0.0203	0.8709
b'CHR2:71364013:T'	b'M61SunitR2'	0	0.2198	0.0202	0.8709
b'CHR2:71364013:T'	b'M61SunitR3'	0	0.2462	0.0259	0.8709
b'CHR2:71364013:T'	b'M61SunitR4'	0	0.2174	0.0192	0.8709
b'CHR2:85663826:A'	b'M61SunitR1'	0	0.2396	0.0203	0.8840
b'CHR2:85663826:A'	b'M61SunitR2'	0	0.2198	0.0202	0.8840
b'CHR2:85663826:A'	b'M61SunitR3'	0	0.2462	0.0259	0.8840
b'CHR2:85663826:A'	b'M61SunitR4'	0	0.2174	0.0192	0.8840
b'CHR3:48656801:A'	b'M61SunitR1'	0	0.2396	0.0203	0.6448
b'CHR3:48656801:A'	b'M61SunitR2'	0	0.2198	0.0202	0.6448
b'CHR3:48656801:A'	b'M61SunitR3'	0	0.2462	0.0259	0.6448
b'CHR3:48656801:A'	b'M61SunitR4'	0	0.2174	0.0192	0.6448
b'CHR3:50320148:G'	b'M61SunitR1'	0	0.2396	0.0203	0.9090
b'CHR3:50320148:G'	b'M61SunitR2'	0	0.2198	0.0202	0.9090
b'CHR3:50320148:G'	b'M61SunitR3'	0	0.2462	0.0259	0.9090
b'CHR3:50320148:G'	b'M61SunitR4'	0	0.2174	0.0192	0.9090
b'CHR3:55073793:A'	b'M61SunitR1'	0	0.2396	0.0203	0.9145
b'CHR3:55073793:A'	b'M61SunitR2'	0	0.2198	0.0202	0.9145
b'CHR3:55073793:A'	b'M61SunitR3'	0	0.2462	0.0259	0.9145
b'CHR3:55073793:A'	b'M61SunitR4'	0	0.2174	0.0192	0.9145
b'CHR3:78600261:T'	b'M61SunitR1'	0	0.2396	0.0203	0.9534
b'CHR3:78600261:T'	b'M61SunitR2'	0	0.2198	0.0202	0.9534
b'CHR3:78600261:T'	b'M61SunitR3'	0	0.2462	0.0259	0.9534
b'CHR3:78600261:T'	b'M61SunitR4'	0	0.2174	0.0192	0.9534
b'CHR3:9950005:A'	b'M61SunitR1'	0	0.2396	0.0203	1.0000
b'CHR3:9950005:A'	b'M61SunitR2'	0	0.2198	0.0202	1.0000
b'CHR3:9950005:A'	b'M61SunitR3'	0	0.2462	0.0259	1.0000
b'CHR3:9950005:A'	b'M61SunitR4'	0	0.2174	0.0192	1.0000
b'CHR4:125317234:A'	b'M61SunitR1'	0	0.2396	0.0203	0.9995
b'CHR4:125317234:A'	b'M61SunitR2'	0	0.2198	0.0202	0.9995
b'CHR4:125317234:A'	b'M61SunitR3'	0	0.2462	0.0259	0.9995
b'CHR4:125317234:A'	b'M61SunitR4'	0	0.2174	0.0192	0.9995
b'CHR4:147673062:T'	b'M61SunitR1'	0	0.2396	0.0203	0.5994
b'CHR4:147673062:T'	b'M61SunitR2'	0	0.2198	0.0202	0.5994
b'CHR4:147673062:T'	b'M61SunitR3'	0	0.2462	0.0259	0.5994
b'CHR4:147673062:T'	b'M61SunitR4'	0	0.2174	0.0192	0.5994
b'CHR4:185656724:G'	b'M61SunitR1'	0	0.2396	0.0203	0.7870
b'CHR4:185656724:G'	b'M61SunitR2'	0	0.2198	0.0202	0.7870
b'CHR4:185656724:G'	b'M61SunitR3'	0	0.2462	0.0259	0.7870
b'CHR4:185656724:G'	b'M61SunitR4'	0	0.2174	0.0192	0.7870
b'CHR4:186663325:A'	b'M61SunitR1'	0	0.2396	0.0203	0.7507
b'CHR4:186663325:A'	b'M61SunitR2'	0	0.2198	0.0202	0.7507
b'CHR4:186663325:A'	b'M61SunitR3'	0	0.2462	0.0259	0.7507
b'CHR4:186663325:A'	b'M61SunitR4'	0	0.2174	0.0192	0.7507
b'CHR5:139682878:T'	b'M61SunitR1'	0	0.2396	0.0203	0.4684
b'CHR5:139682878:T'	b'M61SunitR2'	0	0.2198	0.0202	0.4684
b'CHR5:139682878:T'	b'M61SunitR3'	0	0.2462	0.0259	0.4684
b'CHR5:139682878:T'	b'M61SunitR4'	0	0.2174	0.0192	0.4684
b'CHR5:139682880:A'	b'M61SunitR1'	0	0.2396	0.0203	0.4684
b'CHR5:139682880:A'	b'M61SunitR2'	0	0.2198	0.0202	0.4684
b'CHR5:139682880:A'	b'M61SunitR3'	0	0.2462	0.0259	0.4684
b'CHR5:139682880:A'	b'M61SunitR4'	0	0.2174	0.0192	0.4684
b'CHR5:141123573:T'	b'M61SunitR1'	0	0.2396	0.0203	0.9569
b'CHR5:141123573:T'	b'M61SunitR2'	0	0.2198	0.0202	0.9569
b'CHR5:141123573:T'	b'M61SunitR3'	0	0.2462	0.0259	0.9569
b'CHR5:141123573:T'	b'M61SunitR4'	0	0.2174	0.0192	0.9569
b'CHR5:141394009:T'	b'M61SunitR1'	0	0.2396	0.0203	0.9477
b'CHR5:141394009:T'	b'M61SunitR2'	0	0.2198	0.0202	0.9477
b'CHR5:141394009:T'	b'M61SunitR3'	0	0.2462	0.0259	0.9477
b'CHR5:141394009:T'	b'M61SunitR4'	0	0.2174	0.0192	0.9477
b'CHR5:157651252:C'	b'M61SunitR1'	0	0.2396	0.0203	0.8552
b'CHR5:157651252:C'	b'M61SunitR2'	0	0.2198	0.0202	0.8552
b'CHR5:157651252:C'	b'M61SunitR3'	0	0.2462	0.0259	0.8552
b'CHR5:157651252:C'	b'M61SunitR4'	0	0.2174	0.0192	0.8552
b'CHR5:168669936:A'	b'M61SunitR1'	0	0.2396	0.0203	0.8363
b'CHR5:168669936:A'	b'M61SunitR2'	0	0.2198	0.0202	0.8363
b'CHR5:168669936:A'	b'M61SunitR3'	0	0.2462	0.0259	0.8363
b'CHR5:168669936:A'	b'M61SunitR4'	0	0.2174	0.0192	0.8363
b'CHR5:74634923:T'	b'M61SunitR1'	0	0.2396	0.0203	0.9014
b'CHR5:74634923:T'	b'M61SunitR2'	0	0.2198	0.0202	0.9014
b'CHR5:74634923:T'	b'M61SunitR3'	0	0.2462	0.0259	0.9014
b'CHR5:74634923:T'	b'M61SunitR4'	0	0.2174	0.0192	0.9014
b'CHR6:10687513:T'	b'M61SunitR1'	0	0.2396	0.0203	0.9989
b'CHR6:10687513:T'	b'M61SunitR2'	0	0.2198	0.0202	0.9989
b'CHR6:10687513:T'	b'M61SunitR3'	0	0.2462	0.0259	0.9989
b'CHR6:10687513:T'	b'M61SunitR4'	0	0.2174	0.0192	0.9989
b'CHR6:11193627:A'	b'M61SunitR1'	0	0.2396	0.0203	0.9985
b'CHR6:11193627:A'	b'M61SunitR2'	0	0.2198	0.0202	0.9985
b'CHR6:11193627:A'	b'M61SunitR3'	0	0.2462	0.0259	0.9985
b'CHR6:11193627:A'	b'M61SunitR4'	0	0.2174	0.0192	0.9985
b'CHR6:12120212:G'	b'M61SunitR1'	0	0.2396	0.0203	0.7981
b'CHR6:12120212:G'	b'M61SunitR2'	0	0.2198	0.0202	0.7981
b'CHR6:12120212:G'	b'M61SunitR3'	0	0.2462	0.0259	0.7981
b'CHR6:12120212:G'	b'M61SunitR4'	0	0.2174	0.0192	0.7981
b'CHR6:160243652:T'	b'M61SunitR1'	0	0.2396	0.0203	0.6860
b'CHR6:160243652:T'	b'M61SunitR2'	0	0.2198	0.0202	0.6860
b'CHR6:160243652:T'	b'M61SunitR3'	0	0.2462	0.0259	0.6860
b'CHR6:160243652:T'	b'M61SunitR4'	0	0.2174	0.0192	0.6860
b'CHR6:73409315:G'	b'M61SunitR1'	0	0.2396	0.0203	0.7446
b'CHR6:73409315:G'	b'M61SunitR2'	0	0.2198	0.0202	0.7446
b'CHR6:73409315:G'	b'M61SunitR3'	0	0.2462	0.0259	0.7446
b'CHR6:73409315:G'	b'M61SunitR4'	0	0.2174	0.0192	0.7446
b'CHR6:7393219:T'	b'M61SunitR1'	0	0.2396	0.0203	0.8356
b'CHR6:7393219:T'	b'M61SunitR2'	0	0.2198	0.0202	0.8356
b'CHR6:7393219:T'	b'M61SunitR3'	0	0.2462	0.0259	0.8356
b'CHR6:7393219:T'	b'M61SunitR4'	0	0.2174	0.0192	0.8356
b'CHR6:7581403:A'	b'M61SunitR1'	0	0.2396	0.0203	0.9810
b'CHR6:7581403:A'	b'M61SunitR2'	0	0.2198	0.0202	0.9810
b'CHR6:7581403:A'	b'M61SunitR3'	0	0.2462	0.0259	0.9810
b'CHR6:7581403:A'	b'M61SunitR4'	0	0.2174	0.0192	0.9810
b'CHR6:7601487:T'	b'M61SunitR1'	0	0.2396	0.0203	0.5772
b'CHR6:7601487:T'	b'M61SunitR2'	0	0.2198	0.0202	0.5772
b'CHR6:7601487:T'	b'M61SunitR3'	0	0.2462	0.0259	0.5772
b'CHR6:7601487:T'	b'M61SunitR4'	0	0.2174	0.0192	0.5772
b'CHR6:9775825:A'	b'M61SunitR1'	0	0.2396	0.0203	0.5106
b'CHR6:9775825:A'	b'M61SunitR2'	0	0.2198	0.0202	0.5106
b'CHR6:9775825:A'	b'M61SunitR3'	0	0.2462	0.0259	0.5106
b'CHR6:9775825:A'	b'M61SunitR4'	0	0.2174	0.0192	0.5106
b'CHR7:103523460:A'	b'M61SunitR1'	0	0.2396	0.0203	0.6695
b'CHR7:103523460:A'	b'M61SunitR2'	0	0.2198	0.0202	0.6695
b'CHR7:103523460:A'	b'M61SunitR3'	0	0.2462	0.0259	0.6695
b'CHR7:103523460:A'	b'M61SunitR4'	0	0.2174	0.0192	0.6695
b'CHR7:39085988:C'	b'M61SunitR1'	0	0.2396	0.0203	0.8405
b'CHR7:39085988:C'	b'M61SunitR2'	0	0.2198	0.0202	0.8405
b'CHR7:39085988:C'	b'M61SunitR3'	0	0.2462	0.0259	0.8405
b'CHR7:39085988:C'	b'M61SunitR4'	0	0.2174	0.0192	0.8405
b'CHR7:39085990:C'	b'M61SunitR1'	0	0.2396	0.0203	0.8405
b'CHR7:39085990:C'	b'M61SunitR2'	0	0.2198	0.0202	0.8405
b'CHR7:39085990:C'	b'M61SunitR3'	0	0.2462	0.0259	0.8405
b'CHR7:39085990:C'	b'M61SunitR4'	0	0.2174	0.0192	0.8405
b'CHR7:44539245:T'	b'M61SunitR1'	0	0.2396	0.0203	0.6855
b'CHR7:44539245:T'	b'M61SunitR2'	0	0.2198	0.0202	0.6855
b'CHR7:44539245:T'	b'M61SunitR3'	0	0.2462	0.0259	0.6855
b'CHR7:44539245:T'	b'M61SunitR4'	0	0.2174	0.0192	0.6855
b'CHR8:144040433:T'	b'M61SunitR1'	0	0.2396	0.0203	0.7186
b'CHR8:144040433:T'	b'M61SunitR2'	0	0.2198	0.0202	0.7186
b'CHR8:144040433:T'	b'M61SunitR3'	0	0.2462	0.0259	0.7186
b'CHR8:144040433:T'	b'M61SunitR4'	0	0.2174	0.0192	0.7186
b'CHR8:54459829:A'	b'M61SunitR1'	0	0.2396	0.0203	0.9604
b'CHR8:54459829:A'	b'M61SunitR2'	0	0.2198	0.0202	0.9604
b'CHR8:54459829:A'	b'M61SunitR3'	0	0.2462	0.0259	0.9604
b'CHR8:54459829:A'	b'M61SunitR4'	0	0.2174	0.0192	0.9604
b'CHR9:123381818:C'	b'M61SunitR1'	0	0.2396	0.0203	0.8874
b'CHR9:123381818:C'	b'M61SunitR2'	0	0.2198	0.0202	0.8874
b'CHR9:123381818:C'	b'M61SunitR3'	0	0.2462	0.0259	0.8874
b'CHR9:123381818:C'	b'M61SunitR4'	0	0.2174	0.0192	0.8874
b'CHR9:125326478:G'	b'M61SunitR1'	0	0.2396	0.0203	0.9651
b'CHR9:125326478:G'	b'M61SunitR2'	0	0.2198	0.0202	0.9651
b'CHR9:125326478:G'	b'M61SunitR3'	0	0.2462	0.0259	0.9651
b'CHR9:125326478:G'	b'M61SunitR4'	0	0.2174	0.0192	0.9651
b'CHR9:127034499:A'	b'M61SunitR1'	0	0.2396	0.0203	0.7614
b'CHR9:127034499:A'	b'M61SunitR2'	0	0.2198	0.0202	0.7614
b'CHR9:127034499:A'	b'M61SunitR3'	0	0.2462	0.0259	0.7614
b'CHR9:127034499:A'	b'M61SunitR4'	0	0.2174	0.0192	0.7614
b'CHR9:134727314:A'	b'M61SunitR1'	0	0.2396	0.0203	0.7550
b'CHR9:134727314:A'	b'M61SunitR2'	0	0.2198	0.0202	0.7550
b'CHR9:134727314:A'	b'M61SunitR3'	0	0.2462	0.0259	0.7550
b'CHR9:134727314:A'	b'M61SunitR4'	0	0.2174	0.0192	0.7550
b'CHR9:34371863:A'	b'M61SunitR1'	0	0.2396	0.0203	0.9818
b'CHR9:34371863:A'	b'M61SunitR2'	0	0.2198	0.0202	0.9818
b'CHR9:34371863:A'	b'M61SunitR3'	0	0.2462	0.0259	0.9818
b'CHR9:34371863:A'	b'M61SunitR4'	0	0.2174	0.0192	0.9818
b'CHR9:34726205:G'	b'M61SunitR1'	0	0.2396	0.0203	0.8842
b'CHR9:34726205:G'	b'M61SunitR2'	0	0.2198	0.0202	0.8842
b'CHR9:34726205:G'	b'M61SunitR3'	0	0.2462	0.0259	0.8842
b'CHR9:34726205:G'	b'M61SunitR4'	0	0.2174	0.0192	0.8842
b'CHR9:34726207:A'	b'M61SunitR1'	0	0.2396	0.0203	0.8842
b'CHR9:34726207:A'	b'M61SunitR2'	0	0.2198	0.0202	0.8842
b'CHR9:34726207:A'	b'M61SunitR3'	0	0.2462	0.0259	0.8842
b'CHR9:34726207:A'	b'M61SunitR4'	0	0.2174	0.0192	0.8842
b'CHR9:78328164:G'	b'M61SunitR1'	0	0.2396	0.0203	0.5585
b'CHR9:78328164:G'	b'M61SunitR2'	0	0.2198	0.0202	0.5585
b'CHR9:78328164:G'	b'M61SunitR3'	0	0.2462	0.0259	0.5585
b'CHR9:78328164:G'	b'M61SunitR4'	0	0.2174	0.0192	0.5585
b'CHR9:95881156:A'	b'M61SunitR1'	0	0.2396	0.0203	0.7891
b'CHR9:95881156:A'	b'M61SunitR2'	0	0.2198	0.0202	0.7891
b'CHR9:95881156:A'	b'M61SunitR3'	0	0.2462	0.0259	0.7891
b'CHR9:95881156:A'	b'M61SunitR4'	0	0.2174	0.0192	0.7891
b'CHR1:13421192:T'	b'M61SunitR1'	1	0.5074	0.0465	0.9377
b'CHR1:13421192:T'	b'M61SunitR2'	1	0.4795	0.0440	0.9377
b'CHR1:13421192:T'	b'M61SunitR3'	1	0.4880	0.0487	0.9377
b'CHR1:13421192:T'	b'M61SunitR4'	1	0.4699	0.0469	0.9377
b'CHR1:13773141:T'	b'M61SunitR1'	1	0.5074	0.0465	0.5285
b'CHR1:13773141:T'	b'M61SunitR2'	1	0.4795	0.0440	0.5285
b'CHR1:13773141:T'	b'M61SunitR3'	1	0.4880	0.0487	0.5285
b'CHR1:13773141:T'	b'M61SunitR4'	1	0.4699	0.0469	0.5285
b'CHR1:16759300:T'	b'M61SunitR1'	1	0.5074	0.0465	0.9886
b'CHR1:16759300:T'	b'M61SunitR2'	1	0.4795	0.0440	0.9886
b'CHR1:16759300:T'	b'M61SunitR3'	1	0.4880	0.0487	0.9886
b'CHR1:16759300:T'	b'M61SunitR4'	1	0.4699	0.0469	0.9886
b'CHR1:247423969:T'	b'M61SunitR1'	1	0.5074	0.0465	0.9913
b'CHR1:247423969:T'	b'M61SunitR2'	1	0.4795	0.0440	0.9913
b'CHR1:247423969:T'	b'M61SunitR3'	1	0.4880	0.0487	0.9913
b'CHR1:247423969:T'	b'M61SunitR4'	1	0.4699	0.0469	0.9913
b'CHR1:942934:C'	b'M61SunitR1'	1	0.5074	0.0465	0.9697
b'CHR1:942934:C'	b'M61SunitR2'	1	0.4795	0.0440	0.9697
b'CHR1:942934:C'	b'M61SunitR3'	1	0.4880	0.0487	0.9697
b'CHR1:942934:C'	b'M61SunitR4'	1	0.4699	0.0469	0.9697
b'CHR3:48447042:C'	b'M61SunitR1'	1	0.5074	0.0465	0.7746
b'CHR3:48447042:C'	b'M61SunitR2'	1	0.4795	0.0440	0.7746
b'CHR3:48447042:C'	b'M61SunitR3'	1	0.4880	0.0487	0.7746
b'CHR3:48447042:C'	b'M61SunitR4'	1	0.4699	0.0469	0.7746
b'CHR7:151066568:A'	b'M61SunitR1'	1	0.5074	0.0465	0.5654
b'CHR7:151066568:A'	b'M61SunitR2'	1	0.4795	0.0440	0.5654
b'CHR7:151066568:A'	b'M61SunitR3'	1	0.4880	0.0487	0.5654
b'CHR7:151066568:A'	b'M61SunitR4'	1	0.4699	0.0469	0.5654
b'CHR9:26928213:T'	b'M61SunitR1'	1	0.5074	0.0465	0.9902
b'CHR9:26928213:T'	b'M61SunitR2'	1	0.4795	0.0440	0.9902
b'CHR9:26928213:T'	b'M61SunitR3'	1	0.4880	0.0487	0.9902
b'CHR9:26928213:T'	b'M61SunitR4'	1	0.4699	0.0469	0.9902
b'CHR12:40481156:A'	b'M61SunitR1'	2	0.0688	0.0187	0.9931
b'CHR12:40481156:A'	b'M61SunitR2'	2	0.0692	0.0271	0.9931
b'CHR12:40481156:A'	b'M61SunitR3'	2	0.3181	0.1285	0.9931
b'CHR12:40481156:A'	b'M61SunitR4'	2	0.0839	0.0197	0.9931
b'CHR12:40481157:G'	b'M61SunitR1'	2	0.0688	0.0187	0.9924
b'CHR12:40481157:G'	b'M61SunitR2'	2	0.0692	0.0271	0.9924
b'CHR12:40481157:G'	b'M61SunitR3'	2	0.3181	0.1285	0.9924
b'CHR12:40481157:G'	b'M61SunitR4'	2	0.0839	0.0197	0.9924
b'CHR12:40482641:G'	b'M61SunitR1'	2	0.0688	0.0187	0.9956
b'CHR12:40482641:G'	b'M61SunitR2'	2	0.0692	0.0271	0.9956
b'CHR12:40482641:G'	b'M61SunitR3'	2	0.3181	0.1285	0.9956
b'CHR12:40482641:G'	b'M61SunitR4'	2	0.0839	0.0197	0.9956
b'CHR19:14765687:T'	b'M61SunitR1'	2	0.0688	0.0187	1.0000
b'CHR19:14765687:T'	b'M61SunitR2'	2	0.0692	0.0271	1.0000
b'CHR19:14765687:T'	b'M61SunitR3'	2	0.3181	0.1285	1.0000
b'CHR19:14765687:T'	b'M61SunitR4'	2	0.0839	0.0197	1.0000
b'CHR19:43081182:G'	b'M61SunitR1'	2	0.0688	0.0187	0.9503
b'CHR19:43081182:G'	b'M61SunitR2'	2	0.0692	0.0271	0.9503
b'CHR19:43081182:G'	b'M61SunitR3'	2	0.3181	0.1285	0.9503
b'CHR19:43081182:G'	b'M61SunitR4'	2	0.0839	0.0197	0.9503
b'CHR8:143871184:T'	b'M61SunitR1'	2	0.0688	0.0187	0.5883
b'CHR8:143871184:T'	b'M61SunitR2'	2	0.0692	0.0271	0.5883
b'CHR8:143871184:T'	b'M61SunitR3'	2	0.3181	0.1285	0.5883
b'CHR8:143871184:T'	b'M61SunitR4'	2	0.0839	0.0197	0.5883
b'CHR10:128101279:T'	b'M61SunitR1'	3	0.7162	0.0325	0.8909
b'CHR10:128101279:T'	b'M61SunitR2'	3	0.7844	0.0328	0.8909
b'CHR10:128101279:T'	b'M61SunitR3'	3	0.7367	0.0334	0.8909
b'CHR10:128101279:T'	b'M61SunitR4'	3	0.7537	0.0327	0.8909
b'CHR10:92240093:G'	b'M61SunitR1'	3	0.7162	0.0325	0.5230
b'CHR10:92240093:G'	b'M61SunitR2'	3	0.7844	0.0328	0.5230
b'CHR10:92240093:G'	b'M61SunitR3'	3	0.7367	0.0334	0.5230
b'CHR10:92240093:G'	b'M61SunitR4'	3	0.7537	0.0327	0.5230
b'CHR14:31178233:C'	b'M61SunitR1'	3	0.7162	0.0325	0.8974
b'CHR14:31178233:C'	b'M61SunitR2'	3	0.7844	0.0328	0.8974
b'CHR14:31178233:C'	b'M61SunitR3'	3	0.7367	0.0334	0.8974
b'CHR14:31178233:C'	b'M61SunitR4'	3	0.7537	0.0327	0.8974
b'CHR15:68432031:T'	b'M61SunitR1'	3	0.7162	0.0325	0.8333
b'CHR15:68432031:T'	b'M61SunitR2'	3	0.7844	0.0328	0.8333
b'CHR15:68432031:T'	b'M61SunitR3'	3	0.7367	0.0334	0.8333
b'CHR15:68432031:T'	b'M61SunitR4'	3	0.7537	0.0327	0.8333
b'CHR16:1241453:A'	b'M61SunitR1'	3	0.7162	0.0325	0.9549
b'CHR16:1241453:A'	b'M61SunitR2'	3	0.7844	0.0328	0.9549
b'CHR16:1241453:A'	b'M61SunitR3'	3	0.7367	0.0334	0.9549
b'CHR16:1241453:A'	b'M61SunitR4'	3	0.7537	0.0327	0.9549
b'CHR19:1049270:A'	b'M61SunitR1'	3	0.7162	0.0325	1.0000
b'CHR19:1049270:A'	b'M61SunitR2'	3	0.7844	0.0328	1.0000
b'CHR19:1049270:A'	b'M61SunitR3'	3	0.7367	0.0334	1.0000
b'CHR19:1049270:A'	b'M61SunitR4'	3	0.7537	0.0327	1.0000
b'CHR19:52881597:A'	b'M61SunitR1'	3	0.7162	0.0325	0.7039
b'CHR19:52881597:A'	b'M61SunitR2'	3	0.7844	0.0328	0.7039
b'CHR19:52881597:A'	b'M61SunitR3'	3	0.7367	0.0334	0.7039
b'CHR19:52881597:A'	b'M61SunitR4'	3	0.7537	0.0327	0.7039
b'CHR1:111242317:G'	b'M61SunitR1'	3	0.7162	0.0325	0.9663
b'CHR1:111242317:G'	b'M61SunitR2'	3	0.7844	0.0328	0.9663
b'CHR1:111242317:G'	b'M61SunitR3'	3	0.7367	0.0334	0.9663
b'CHR1:111242317:G'	b'M61SunitR4'	3	0.7537	0.0327	0.9663
b'CHR1:11706367:T'	b'M61SunitR1'	3	0.7162	0.0325	0.9797
b'CHR1:11706367:T'	b'M61SunitR2'	3	0.7844	0.0328	0.9797
b'CHR1:11706367:T'	b'M61SunitR3'	3	0.7367	0.0334	0.9797
b'CHR1:11706367:T'	b'M61SunitR4'	3	0.7537	0.0327	0.9797
b'CHR1:11779915:A'	b'M61SunitR1'	3	0.7162	0.0325	0.8395
b'CHR1:11779915:A'	b'M61SunitR2'	3	0.7844	0.0328	0.8395
b'CHR1:11779915:A'	b'M61SunitR3'	3	0.7367	0.0334	0.8395
b'CHR1:11779915:A'	b'M61SunitR4'	3	0.7537	0.0327	0.8395
b'CHR1:13343011:A'	b'M61SunitR1'	3	0.7162	0.0325	0.9999
b'CHR1:13343011:A'	b'M61SunitR2'	3	0.7844	0.0328	0.9999
b'CHR1:13343011:A'	b'M61SunitR3'	3	0.7367	0.0334	0.9999
b'CHR1:13343011:A'	b'M61SunitR4'	3	0.7537	0.0327	0.9999
b'CHR1:13782619:G'	b'M61SunitR1'	3	0.7162	0.0325	0.9281
b'CHR1:13782619:G'	b'M61SunitR2'	3	0.7844	0.0328	0.9281
b'CHR1:13782619:G'	b'M61SunitR3'	3	0.7367	0.0334	0.9281
b'CHR1:13782619:G'	b'M61SunitR4'	3	0.7537	0.0327	0.9281
b'CHR1:155054385:T'	b'M61SunitR1'	3	0.7162	0.0325	0.7809
b'CHR1:155054385:T'	b'M61SunitR2'	3	0.7844	0.0328	0.7809
b'CHR1:155054385:T'	b'M61SunitR3'	3	0.7367	0.0334	0.7809
b'CHR1:155054385:T'	b'M61SunitR4'	3	0.7537	0.0327	0.7809
b'CHR1:15939409:A'	b'M61SunitR1'	3	0.7162	0.0325	0.9999
b'CHR1:15939409:A'	b'M61SunitR2'	3	0.7844	0.0328	0.9999
b'CHR1:15939409:A'	b'M61SunitR3'	3	0.7367	0.0334	0.9999
b'CHR1:15939409:A'	b'M61SunitR4'	3	0.7537	0.0327	0.9999
b'CHR1:16409637:C'	b'M61SunitR1'	3	0.7162	0.0325	0.9982
b'CHR1:16409637:C'	b'M61SunitR2'	3	0.7844	0.0328	0.9982
b'CHR1:16409637:C'	b'M61SunitR3'	3	0.7367	0.0334	0.9982
b'CHR1:16409637:C'	b'M61SunitR4'	3	0.7537	0.0327	0.9982
b'CHR1:17070097:A'	b'M61SunitR1'	3	0.7162	0.0325	0.9575
b'CHR1:17070097:A'	b'M61SunitR2'	3	0.7844	0.0328	0.9575
b'CHR1:17070097:A'	b'M61SunitR3'	3	0.7367	0.0334	0.9575
b'CHR1:17070097:A'	b'M61SunitR4'	3	0.7537	0.0327	0.9575
b'CHR1:17079314:A'	b'M61SunitR1'	3	0.7162	0.0325	0.9449
b'CHR1:17079314:A'	b'M61SunitR2'	3	0.7844	0.0328	0.9449
b'CHR1:17079314:A'	b'M61SunitR3'	3	0.7367	0.0334	0.9449
b'CHR1:17079314:A'	b'M61SunitR4'	3	0.7537	0.0327	0.9449
b'CHR1:17084646:G'	b'M61SunitR1'	3	0.7162	0.0325	0.9903
b'CHR1:17084646:G'	b'M61SunitR2'	3	0.7844	0.0328	0.9903
b'CHR1:17084646:G'	b'M61SunitR3'	3	0.7367	0.0334	0.9903
b'CHR1:17084646:G'	b'M61SunitR4'	3	0.7537	0.0327	0.9903
b'CHR1:18481971:A'	b'M61SunitR1'	3	0.7162	0.0325	0.9375
b'CHR1:18481971:A'	b'M61SunitR2'	3	0.7844	0.0328	0.9375
b'CHR1:18481971:A'	b'M61SunitR3'	3	0.7367	0.0334	0.9375
b'CHR1:18481971:A'	b'M61SunitR4'	3	0.7537	0.0327	0.9375
b'CHR1:18877503:G'	b'M61SunitR1'	3	0.7162	0.0325	0.9733
b'CHR1:18877503:G'	b'M61SunitR2'	3	0.7844	0.0328	0.9733
b'CHR1:18877503:G'	b'M61SunitR3'	3	0.7367	0.0334	0.9733
b'CHR1:18877503:G'	b'M61SunitR4'	3	0.7537	0.0327	0.9733
b'CHR1:19282760:C'	b'M61SunitR1'	3	0.7162	0.0325	0.9994
b'CHR1:19282760:C'	b'M61SunitR2'	3	0.7844	0.0328	0.9994
b'CHR1:19282760:C'	b'M61SunitR3'	3	0.7367	0.0334	0.9994
b'CHR1:19282760:C'	b'M61SunitR4'	3	0.7537	0.0327	0.9994
b'CHR1:19623568:C'	b'M61SunitR1'	3	0.7162	0.0325	0.5023
b'CHR1:19623568:C'	b'M61SunitR2'	3	0.7844	0.0328	0.5023
b'CHR1:19623568:C'	b'M61SunitR3'	3	0.7367	0.0334	0.5023
b'CHR1:19623568:C'	b'M61SunitR4'	3	0.7537	0.0327	0.5023
b'CHR1:20084839:T'	b'M61SunitR1'	3	0.7162	0.0325	0.8246
b'CHR1:20084839:T'	b'M61SunitR2'	3	0.7844	0.0328	0.8246
b'CHR1:20084839:T'	b'M61SunitR3'	3	0.7367	0.0334	0.8246
b'CHR1:20084839:T'	b'M61SunitR4'	3	0.7537	0.0327	0.8246
b'CHR1:202160698:C'	b'M61SunitR1'	3	0.7162	0.0325	0.7825
b'CHR1:202160698:C'	b'M61SunitR2'	3	0.7844	0.0328	0.7825
b'CHR1:202160698:C'	b'M61SunitR3'	3	0.7367	0.0334	0.7825
b'CHR1:202160698:C'	b'M61SunitR4'	3	0.7537	0.0327	0.7825
b'CHR1:215567710:G'	b'M61SunitR1'	3	0.7162	0.0325	0.9967
b'CHR1:215567710:G'	b'M61SunitR2'	3	0.7844	0.0328	0.9967
b'CHR1:215567710:G'	b'M61SunitR3'	3	0.7367	0.0334	0.9967
b'CHR1:215567710:G'	b'M61SunitR4'	3	0.7537	0.0327	0.9967
b'CHR1:21874505:T'	b'M61SunitR1'	3	0.7162	0.0325	0.8724
b'CHR1:21874505:T'	b'M61SunitR2'	3	0.7844	0.0328	0.8724
b'CHR1:21874505:T'	b'M61SunitR3'	3	0.7367	0.0334	0.8724
b'CHR1:21874505:T'	b'M61SunitR4'	3	0.7537	0.0327	0.8724
b'CHR1:22526222:C'	b'M61SunitR1'	3	0.7162	0.0325	0.9883
b'CHR1:22526222:C'	b'M61SunitR2'	3	0.7844	0.0328	0.9883
b'CHR1:22526222:C'	b'M61SunitR3'	3	0.7367	0.0334	0.9883
b'CHR1:22526222:C'	b'M61SunitR4'	3	0.7537	0.0327	0.9883
b'CHR1:230921501:T'	b'M61SunitR1'	3	0.7162	0.0325	0.9931
b'CHR1:230921501:T'	b'M61SunitR2'	3	0.7844	0.0328	0.9931
b'CHR1:230921501:T'	b'M61SunitR3'	3	0.7367	0.0334	0.9931
b'CHR1:230921501:T'	b'M61SunitR4'	3	0.7537	0.0327	0.9931
b'CHR1:25243590:C'	b'M61SunitR1'	3	0.7162	0.0325	0.9681
b'CHR1:25243590:C'	b'M61SunitR2'	3	0.7844	0.0328	0.9681
b'CHR1:25243590:C'	b'M61SunitR3'	3	0.7367	0.0334	0.9681
b'CHR1:25243590:C'	b'M61SunitR4'	3	0.7537	0.0327	0.9681
b'CHR1:26344118:T'	b'M61SunitR1'	3	0.7162	0.0325	0.9781
b'CHR1:26344118:T'	b'M61SunitR2'	3	0.7844	0.0328	0.9781
b'CHR1:26344118:T'	b'M61SunitR3'	3	0.7367	0.0334	0.9781
b'CHR1:26344118:T'	b'M61SunitR4'	3	0.7537	0.0327	0.9781
b'CHR1:26952030:A'	b'M61SunitR1'	3	0.7162	0.0325	0.9829
b'CHR1:26952030:A'	b'M61SunitR2'	3	0.7844	0.0328	0.9829
b'CHR1:26952030:A'	b'M61SunitR3'	3	0.7367	0.0334	0.9829
b'CHR1:26952030:A'	b'M61SunitR4'	3	0.7537	0.0327	0.9829
b'CHR1:27360975:T'	b'M61SunitR1'	3	0.7162	0.0325	0.9943
b'CHR1:27360975:T'	b'M61SunitR2'	3	0.7844	0.0328	0.9943
b'CHR1:27360975:T'	b'M61SunitR3'	3	0.7367	0.0334	0.9943
b'CHR1:27360975:T'	b'M61SunitR4'	3	0.7537	0.0327	0.9943
b'CHR1:31630664:G'	b'M61SunitR1'	3	0.7162	0.0325	0.9945
b'CHR1:31630664:G'	b'M61SunitR2'	3	0.7844	0.0328	0.9945
b'CHR1:31630664:G'	b'M61SunitR3'	3	0.7367	0.0334	0.9945
b'CHR1:31630664:G'	b'M61SunitR4'	3	0.7537	0.0327	0.9945
b'CHR1:31698605:G'	b'M61SunitR1'	3	0.7162	0.0325	0.6505
b'CHR1:31698605:G'	b'M61SunitR2'	3	0.7844	0.0328	0.6505
b'CHR1:31698605:G'	b'M61SunitR3'	3	0.7367	0.0334	0.6505
b'CHR1:31698605:G'	b'M61SunitR4'	3	0.7537	0.0327	0.6505
b'CHR1:32770050:G'	b'M61SunitR1'	3	0.7162	0.0325	0.9998
b'CHR1:32770050:G'	b'M61SunitR2'	3	0.7844	0.0328	0.9998
b'CHR1:32770050:G'	b'M61SunitR3'	3	0.7367	0.0334	0.9998
b'CHR1:32770050:G'	b'M61SunitR4'	3	0.7537	0.0327	0.9998
b'CHR1:33494462:G'	b'M61SunitR1'	3	0.7162	0.0325	0.9999
b'CHR1:33494462:G'	b'M61SunitR2'	3	0.7844	0.0328	0.9999
b'CHR1:33494462:G'	b'M61SunitR3'	3	0.7367	0.0334	0.9999
b'CHR1:33494462:G'	b'M61SunitR4'	3	0.7537	0.0327	0.9999
b'CHR1:3478610:A'	b'M61SunitR1'	3	0.7162	0.0325	0.9966
b'CHR1:3478610:A'	b'M61SunitR2'	3	0.7844	0.0328	0.9966
b'CHR1:3478610:A'	b'M61SunitR3'	3	0.7367	0.0334	0.9966
b'CHR1:3478610:A'	b'M61SunitR4'	3	0.7537	0.0327	0.9966
b'CHR1:3763211:T'	b'M61SunitR1'	3	0.7162	0.0325	0.7975
b'CHR1:3763211:T'	b'M61SunitR2'	3	0.7844	0.0328	0.7975
b'CHR1:3763211:T'	b'M61SunitR3'	3	0.7367	0.0334	0.7975
b'CHR1:3763211:T'	b'M61SunitR4'	3	0.7537	0.0327	0.7975
b'CHR1:51840355:A'	b'M61SunitR1'	3	0.7162	0.0325	0.9962
b'CHR1:51840355:A'	b'M61SunitR2'	3	0.7844	0.0328	0.9962
b'CHR1:51840355:A'	b'M61SunitR3'	3	0.7367	0.0334	0.9962
b'CHR1:51840355:A'	b'M61SunitR4'	3	0.7537	0.0327	0.9962
b'CHR1:53247055:T'	b'M61SunitR1'	3	0.7162	0.0325	0.9997
b'CHR1:53247055:T'	b'M61SunitR2'	3	0.7844	0.0328	0.9997
b'CHR1:53247055:T'	b'M61SunitR3'	3	0.7367	0.0334	0.9997
b'CHR1:53247055:T'	b'M61SunitR4'	3	0.7537	0.0327	0.9997
b'CHR1:53250744:A'	b'M61SunitR1'	3	0.7162	0.0325	0.9985
b'CHR1:53250744:A'	b'M61SunitR2'	3	0.7844	0.0328	0.9985
b'CHR1:53250744:A'	b'M61SunitR3'	3	0.7367	0.0334	0.9985
b'CHR1:53250744:A'	b'M61SunitR4'	3	0.7537	0.0327	0.9985
b'CHR1:53594343:C'	b'M61SunitR1'	3	0.7162	0.0325	0.9887
b'CHR1:53594343:C'	b'M61SunitR2'	3	0.7844	0.0328	0.9887
b'CHR1:53594343:C'	b'M61SunitR3'	3	0.7367	0.0334	0.9887
b'CHR1:53594343:C'	b'M61SunitR4'	3	0.7537	0.0327	0.9887
b'CHR1:53594575:C'	b'M61SunitR1'	3	0.7162	0.0325	0.9924
b'CHR1:53594575:C'	b'M61SunitR2'	3	0.7844	0.0328	0.9924
b'CHR1:53594575:C'	b'M61SunitR3'	3	0.7367	0.0334	0.9924
b'CHR1:53594575:C'	b'M61SunitR4'	3	0.7537	0.0327	0.9924
b'CHR1:63323280:A'	b'M61SunitR1'	3	0.7162	0.0325	0.8869
b'CHR1:63323280:A'	b'M61SunitR2'	3	0.7844	0.0328	0.8869
b'CHR1:63323280:A'	b'M61SunitR3'	3	0.7367	0.0334	0.8869
b'CHR1:63323280:A'	b'M61SunitR4'	3	0.7537	0.0327	0.8869
b'CHR1:63415881:T'	b'M61SunitR1'	3	0.7162	0.0325	0.9847
b'CHR1:63415881:T'	b'M61SunitR2'	3	0.7844	0.0328	0.9847
b'CHR1:63415881:T'	b'M61SunitR3'	3	0.7367	0.0334	0.9847
b'CHR1:63415881:T'	b'M61SunitR4'	3	0.7537	0.0327	0.9847
b'CHR1:64844806:C'	b'M61SunitR1'	3	0.7162	0.0325	0.9848
b'CHR1:64844806:C'	b'M61SunitR2'	3	0.7844	0.0328	0.9848
b'CHR1:64844806:C'	b'M61SunitR3'	3	0.7367	0.0334	0.9848
b'CHR1:64844806:C'	b'M61SunitR4'	3	0.7537	0.0327	0.9848
b'CHR1:7827188:A'	b'M61SunitR1'	3	0.7162	0.0325	0.9988
b'CHR1:7827188:A'	b'M61SunitR2'	3	0.7844	0.0328	0.9988
b'CHR1:7827188:A'	b'M61SunitR3'	3	0.7367	0.0334	0.9988
b'CHR1:7827188:A'	b'M61SunitR4'	3	0.7537	0.0327	0.9988
b'CHR22:37066106:C'	b'M61SunitR1'	3	0.7162	0.0325	0.9195
b'CHR22:37066106:C'	b'M61SunitR2'	3	0.7844	0.0328	0.9195
b'CHR22:37066106:C'	b'M61SunitR3'	3	0.7367	0.0334	0.9195
b'CHR22:37066106:C'	b'M61SunitR4'	3	0.7537	0.0327	0.9195
b'CHR2:219451248:A'	b'M61SunitR1'	3	0.7162	0.0325	0.9951
b'CHR2:219451248:A'	b'M61SunitR2'	3	0.7844	0.0328	0.9951
b'CHR2:219451248:A'	b'M61SunitR3'	3	0.7367	0.0334	0.9951
b'CHR2:219451248:A'	b'M61SunitR4'	3	0.7537	0.0327	0.9951
b'CHR2:232564321:T'	b'M61SunitR1'	3	0.7162	0.0325	0.7025
b'CHR2:232564321:T'	b'M61SunitR2'	3	0.7844	0.0328	0.7025
b'CHR2:232564321:T'	b'M61SunitR3'	3	0.7367	0.0334	0.7025
b'CHR2:232564321:T'	b'M61SunitR4'	3	0.7537	0.0327	0.7025
b'CHR2:73291715:T'	b'M61SunitR1'	3	0.7162	0.0325	0.9645
b'CHR2:73291715:T'	b'M61SunitR2'	3	0.7844	0.0328	0.9645
b'CHR2:73291715:T'	b'M61SunitR3'	3	0.7367	0.0334	0.9645
b'CHR2:73291715:T'	b'M61SunitR4'	3	0.7537	0.0327	0.9645
b'CHR3:41800280:T'	b'M61SunitR1'	3	0.7162	0.0325	0.8455
b'CHR3:41800280:T'	b'M61SunitR2'	3	0.7844	0.0328	0.8455
b'CHR3:41800280:T'	b'M61SunitR3'	3	0.7367	0.0334	0.8455
b'CHR3:41800280:T'	b'M61SunitR4'	3	0.7537	0.0327	0.8455
b'CHR4:85942222:C'	b'M61SunitR1'	3	0.7162	0.0325	0.5916
b'CHR4:85942222:C'	b'M61SunitR2'	3	0.7844	0.0328	0.5916
b'CHR4:85942222:C'	b'M61SunitR3'	3	0.7367	0.0334	0.5916
b'CHR4:85942222:C'	b'M61SunitR4'	3	0.7537	0.0327	0.5916
b'CHR5:150540177:C'	b'M61SunitR1'	3	0.7162	0.0325	0.8933
b'CHR5:150540177:C'	b'M61SunitR2'	3	0.7844	0.0328	0.8933
b'CHR5:150540177:C'	b'M61SunitR3'	3	0.7367	0.0334	0.8933
b'CHR5:150540177:C'	b'M61SunitR4'	3	0.7537	0.0327	0.8933
b'CHR6:3154637:C'	b'M61SunitR1'	3	0.7162	0.0325	0.6122
b'CHR6:3154637:C'	b'M61SunitR2'	3	0.7844	0.0328	0.6122
b'CHR6:3154637:C'	b'M61SunitR3'	3	0.7367	0.0334	0.6122
b'CHR6:3154637:C'	b'M61SunitR4'	3	0.7537	0.0327	0.6122
b'CHR7:72942166:T'	b'M61SunitR1'	3	0.7162	0.0325	0.5597
b'CHR7:72942166:T'	b'M61SunitR2'	3	0.7844	0.0328	0.5597
b'CHR7:72942166:T'	b'M61SunitR3'	3	0.7367	0.0334	0.5597
b'CHR7:72942166:T'	b'M61SunitR4'	3	0.7537	0.0327	0.5597
b'CHR8:143925249:T'	b'M61SunitR1'	3	0.7162	0.0325	0.4442
b'CHR8:143925249:T'	b'M61SunitR2'	3	0.7844	0.0328	0.4442
b'CHR8:143925249:T'	b'M61SunitR3'	3	0.7367	0.0334	0.4442
b'CHR8:143925249:T'	b'M61SunitR4'	3	0.7537	0.0327	0.4442
