mut1: SNA:CHR1:13343011:A, SNA:CHR1:19282760:C, SNA:CHR1:21874505:T, SNA:CHR1:31630664:G, SNA:CHR1:51840355:A, SNA:CHR1:64844806:C, SNA:CHR1:230921501:T, SNA:CHR3:171082335:T, SNA:CHR5:150540177:C, SNA:CHR10:128101279:T, SNA:CHR19:1049270:A, R:CHR19:6270578:21808706_dup
mut2: SNA:CHR1:8957259:A, SNA:CHR1:13421192:T, SNA:CHR3:9950005:A, SNA:CHR6:10687513:T, SNA:CHR6:12120212:G, SNA:CHR6:3154637:C, SNA:CHR11:65778836:A, SNA:CHR11:120128675:T, SNA:CHR12:56267413:A, SNA:CHR16:1241453:A, R:CHR8:150500:80519528_del
mut3: SNA:CHR6:7581403:A, SNA:CHR6:11193627:A, SNA:CHR7:39085988:C, SNA:CHR7:39085990:C, SNA:CHR12:40481157:G, SNA:CHR15:23566598:A, SNA:CHR17:80213874:A, SNA:CHR17:81937211:G, SNA:CHR19:36915827:T
mut4: SNA:CHR2:156549720:T, R:CHR12:75495576:124911970_del, R:CHR19:6270578:21808706_del, R:CHR19:55085840:58572632_LOH
mut5: SNA:CHR1:11706367:T, SNA:CHR1:15939409:A, SNA:CHR1:22526222:C, SNA:CHR1:25243590:C, SNA:CHR1:26952030:A, SNA:CHR1:33494462:G, SNA:CHR1:53250744:A, SNA:CHR1:53594343:C, SNA:CHR1:63415881:T, SNA:CHR1:155054385:T, SNA:CHR1:215567710:G, SNA:CHR1:247423969:T, SNA:CHR3:123092379:A, SNA:CHR19:14765687:T, R:CHR6:28515656:33621692_del, R:CHR6:34872312:43246160_del, R:CHR12:75495576:124911970_del, R:CHR19:6270578:21808706_del
mut6: SNA:CHR1:11779915:A, SNA:CHR12:85046079:A, SNA:CHR19:43081182:G, SNA:CHR19:52705931:T, SNA:CHR20:44750813:C, R:CHR8:150500:80519528_del, R:CHR12:75495576:124911970_dup, R:CHR19:55085840:58572632_LOH
mut7: SNA:CHR1:942934:C, SNA:CHR1:3478610:A, SNA:CHR1:7827188:A, SNA:CHR1:13782619:G, SNA:CHR1:16759300:T, SNA:CHR1:20084839:T, SNA:CHR1:27360975:T, SNA:CHR1:31698605:G, SNA:CHR1:32770050:G, SNA:CHR1:53247055:T, SNA:CHR1:63323280:A, SNA:CHR1:111242317:G, SNA:CHR2:170847706:T, SNA:CHR2:219451248:A, SNA:CHR9:95881156:A, SNA:CHR19:52881597:A, R:CHR18:163307:80247348_del, R:CHR19:6270578:21808706_del
mut8: SNA:CHR1:202160698:C, SNA:CHR1:1046687:A, SNA:CHR4:125317234:A, SNA:CHR6:7601487:T, SNA:CHR8:144040433:T, SNA:CHR14:31178233:C, R:CHR6:34872312:43246160_dup, R:CHR12:75495576:124911970_del, R:CHR21:5432754:22887373_LOH
mut9: SNA:CHR1:3763211:T, SNA:CHR1:16409637:C, SNA:CHR1:18877503:G, SNA:CHR1:19623568:C, SNA:CHR1:26344118:T, SNA:CHR1:17070097:A, SNA:CHR2:73291715:T, SNA:CHR3:48447042:C, SNA:CHR6:9775825:A, SNA:CHR6:7393219:T, SNA:CHR7:151066568:A, SNA:CHR9:26928213:T, SNA:CHR12:40481156:A, SNA:CHR19:45591702:A, SNA:CHR22:37066106:C, R:CHR8:150500:80519528_del, R:CHR9:14806:43392111_del, R:CHR10:47056:39312478_del, R:CHR14:47218695:56805456_LOH
