mutation_id	sample_id	cluster_id	cellular_prevalence	cellular_prevalence_std	cluster_assignment_prob
b'CHR11:18729503:A'	b'M55CtrlR1'	0	0.2683	0.0290	0.3513
b'CHR11:18729503:A'	b'M55CtrlR2'	0	0.2966	0.0298	0.3513
b'CHR11:18729503:A'	b'M55CtrlR3'	0	0.4029	0.0355	0.3513
b'CHR11:18729503:A'	b'M55CtrlR4'	0	0.2819	0.0356	0.3513
b'CHR12:129700067:A'	b'M55CtrlR1'	0	0.2683	0.0290	0.4106
b'CHR12:129700067:A'	b'M55CtrlR2'	0	0.2966	0.0298	0.4106
b'CHR12:129700067:A'	b'M55CtrlR3'	0	0.4029	0.0355	0.4106
b'CHR12:129700067:A'	b'M55CtrlR4'	0	0.2819	0.0356	0.4106
b'CHR13:33016802:A'	b'M55CtrlR1'	0	0.2683	0.0290	0.3984
b'CHR13:33016802:A'	b'M55CtrlR2'	0	0.2966	0.0298	0.3984
b'CHR13:33016802:A'	b'M55CtrlR3'	0	0.4029	0.0355	0.3984
b'CHR13:33016802:A'	b'M55CtrlR4'	0	0.2819	0.0356	0.3984
b'CHR15:23566598:A'	b'M55CtrlR1'	0	0.2683	0.0290	0.5218
b'CHR15:23566598:A'	b'M55CtrlR2'	0	0.2966	0.0298	0.5218
b'CHR15:23566598:A'	b'M55CtrlR3'	0	0.4029	0.0355	0.5218
b'CHR15:23566598:A'	b'M55CtrlR4'	0	0.2819	0.0356	0.5218
b'CHR17:10539354:G'	b'M55CtrlR1'	0	0.2683	0.0290	0.7507
b'CHR17:10539354:G'	b'M55CtrlR2'	0	0.2966	0.0298	0.7507
b'CHR17:10539354:G'	b'M55CtrlR3'	0	0.4029	0.0355	0.7507
b'CHR17:10539354:G'	b'M55CtrlR4'	0	0.2819	0.0356	0.7507
b'CHR17:81937211:G'	b'M55CtrlR1'	0	0.2683	0.0290	0.3626
b'CHR17:81937211:G'	b'M55CtrlR2'	0	0.2966	0.0298	0.3626
b'CHR17:81937211:G'	b'M55CtrlR3'	0	0.4029	0.0355	0.3626
b'CHR17:81937211:G'	b'M55CtrlR4'	0	0.2819	0.0356	0.3626
b'CHR1:111242317:G'	b'M55CtrlR1'	0	0.2683	0.0290	0.4252
b'CHR1:111242317:G'	b'M55CtrlR2'	0	0.2966	0.0298	0.4252
b'CHR1:111242317:G'	b'M55CtrlR3'	0	0.4029	0.0355	0.4252
b'CHR1:111242317:G'	b'M55CtrlR4'	0	0.2819	0.0356	0.4252
b'CHR1:157586429:T'	b'M55CtrlR1'	0	0.2683	0.0290	0.8825
b'CHR1:157586429:T'	b'M55CtrlR2'	0	0.2966	0.0298	0.8825
b'CHR1:157586429:T'	b'M55CtrlR3'	0	0.4029	0.0355	0.8825
b'CHR1:157586429:T'	b'M55CtrlR4'	0	0.2819	0.0356	0.8825
b'CHR1:16759300:T'	b'M55CtrlR1'	0	0.2683	0.0290	0.9961
b'CHR1:16759300:T'	b'M55CtrlR2'	0	0.2966	0.0298	0.9961
b'CHR1:16759300:T'	b'M55CtrlR3'	0	0.4029	0.0355	0.9961
b'CHR1:16759300:T'	b'M55CtrlR4'	0	0.2819	0.0356	0.9961
b'CHR1:247423969:T'	b'M55CtrlR1'	0	0.2683	0.0290	0.9896
b'CHR1:247423969:T'	b'M55CtrlR2'	0	0.2966	0.0298	0.9896
b'CHR1:247423969:T'	b'M55CtrlR3'	0	0.4029	0.0355	0.9896
b'CHR1:247423969:T'	b'M55CtrlR4'	0	0.2819	0.0356	0.9896
b'CHR1:248273507:A'	b'M55CtrlR1'	0	0.2683	0.0290	0.5127
b'CHR1:248273507:A'	b'M55CtrlR2'	0	0.2966	0.0298	0.5127
b'CHR1:248273507:A'	b'M55CtrlR3'	0	0.4029	0.0355	0.5127
b'CHR1:248273507:A'	b'M55CtrlR4'	0	0.2819	0.0356	0.5127
b'CHR1:248273509:C'	b'M55CtrlR1'	0	0.2683	0.0290	0.5127
b'CHR1:248273509:C'	b'M55CtrlR2'	0	0.2966	0.0298	0.5127
b'CHR1:248273509:C'	b'M55CtrlR3'	0	0.4029	0.0355	0.5127
b'CHR1:248273509:C'	b'M55CtrlR4'	0	0.2819	0.0356	0.5127
b'CHR1:66893260:C'	b'M55CtrlR1'	0	0.2683	0.0290	0.3673
b'CHR1:66893260:C'	b'M55CtrlR2'	0	0.2966	0.0298	0.3673
b'CHR1:66893260:C'	b'M55CtrlR3'	0	0.4029	0.0355	0.3673
b'CHR1:66893260:C'	b'M55CtrlR4'	0	0.2819	0.0356	0.3673
b'CHR1:70039224:A'	b'M55CtrlR1'	0	0.2683	0.0290	0.5162
b'CHR1:70039224:A'	b'M55CtrlR2'	0	0.2966	0.0298	0.5162
b'CHR1:70039224:A'	b'M55CtrlR3'	0	0.4029	0.0355	0.5162
b'CHR1:70039224:A'	b'M55CtrlR4'	0	0.2819	0.0356	0.5162
b'CHR21:44591443:C'	b'M55CtrlR1'	0	0.2683	0.0290	0.7007
b'CHR21:44591443:C'	b'M55CtrlR2'	0	0.2966	0.0298	0.7007
b'CHR21:44591443:C'	b'M55CtrlR3'	0	0.4029	0.0355	0.7007
b'CHR21:44591443:C'	b'M55CtrlR4'	0	0.2819	0.0356	0.7007
b'CHR22:37018347:A'	b'M55CtrlR1'	0	0.2683	0.0290	0.4416
b'CHR22:37018347:A'	b'M55CtrlR2'	0	0.2966	0.0298	0.4416
b'CHR22:37018347:A'	b'M55CtrlR3'	0	0.4029	0.0355	0.4416
b'CHR22:37018347:A'	b'M55CtrlR4'	0	0.2819	0.0356	0.4416
b'CHR2:186838999:G'	b'M55CtrlR1'	0	0.2683	0.0290	0.4058
b'CHR2:186838999:G'	b'M55CtrlR2'	0	0.2966	0.0298	0.4058
b'CHR2:186838999:G'	b'M55CtrlR3'	0	0.4029	0.0355	0.4058
b'CHR2:186838999:G'	b'M55CtrlR4'	0	0.2819	0.0356	0.4058
b'CHR3:55073793:A'	b'M55CtrlR1'	0	0.2683	0.0290	0.5534
b'CHR3:55073793:A'	b'M55CtrlR2'	0	0.2966	0.0298	0.5534
b'CHR3:55073793:A'	b'M55CtrlR3'	0	0.4029	0.0355	0.5534
b'CHR3:55073793:A'	b'M55CtrlR4'	0	0.2819	0.0356	0.5534
b'CHR4:105942405:T'	b'M55CtrlR1'	0	0.2683	0.0290	0.5312
b'CHR4:105942405:T'	b'M55CtrlR2'	0	0.2966	0.0298	0.5312
b'CHR4:105942405:T'	b'M55CtrlR3'	0	0.4029	0.0355	0.5312
b'CHR4:105942405:T'	b'M55CtrlR4'	0	0.2819	0.0356	0.5312
b'CHR4:157333318:G'	b'M55CtrlR1'	0	0.2683	0.0290	0.4776
b'CHR4:157333318:G'	b'M55CtrlR2'	0	0.2966	0.0298	0.4776
b'CHR4:157333318:G'	b'M55CtrlR3'	0	0.4029	0.0355	0.4776
b'CHR4:157333318:G'	b'M55CtrlR4'	0	0.2819	0.0356	0.4776
b'CHR5:35807207:A'	b'M55CtrlR1'	0	0.2683	0.0290	0.4695
b'CHR5:35807207:A'	b'M55CtrlR2'	0	0.2966	0.0298	0.4695
b'CHR5:35807207:A'	b'M55CtrlR3'	0	0.4029	0.0355	0.4695
b'CHR5:35807207:A'	b'M55CtrlR4'	0	0.2819	0.0356	0.4695
b'CHR6:10687513:T'	b'M55CtrlR1'	0	0.2683	0.0290	0.8711
b'CHR6:10687513:T'	b'M55CtrlR2'	0	0.2966	0.0298	0.8711
b'CHR6:10687513:T'	b'M55CtrlR3'	0	0.4029	0.0355	0.8711
b'CHR6:10687513:T'	b'M55CtrlR4'	0	0.2819	0.0356	0.8711
b'CHR6:11193627:A'	b'M55CtrlR1'	0	0.2683	0.0290	0.9959
b'CHR6:11193627:A'	b'M55CtrlR2'	0	0.2966	0.0298	0.9959
b'CHR6:11193627:A'	b'M55CtrlR3'	0	0.4029	0.0355	0.9959
b'CHR6:11193627:A'	b'M55CtrlR4'	0	0.2819	0.0356	0.9959
b'CHR6:12120212:G'	b'M55CtrlR1'	0	0.2683	0.0290	0.9207
b'CHR6:12120212:G'	b'M55CtrlR2'	0	0.2966	0.0298	0.9207
b'CHR6:12120212:G'	b'M55CtrlR3'	0	0.4029	0.0355	0.9207
b'CHR6:12120212:G'	b'M55CtrlR4'	0	0.2819	0.0356	0.9207
b'CHR6:154832130:T'	b'M55CtrlR1'	0	0.2683	0.0290	0.4836
b'CHR6:154832130:T'	b'M55CtrlR2'	0	0.2966	0.0298	0.4836
b'CHR6:154832130:T'	b'M55CtrlR3'	0	0.4029	0.0355	0.4836
b'CHR6:154832130:T'	b'M55CtrlR4'	0	0.2819	0.0356	0.4836
b'CHR6:2749147:T'	b'M55CtrlR1'	0	0.2683	0.0290	0.7470
b'CHR6:2749147:T'	b'M55CtrlR2'	0	0.2966	0.0298	0.7470
b'CHR6:2749147:T'	b'M55CtrlR3'	0	0.4029	0.0355	0.7470
b'CHR6:2749147:T'	b'M55CtrlR4'	0	0.2819	0.0356	0.7470
b'CHR6:7393219:T'	b'M55CtrlR1'	0	0.2683	0.0290	0.6999
b'CHR6:7393219:T'	b'M55CtrlR2'	0	0.2966	0.0298	0.6999
b'CHR6:7393219:T'	b'M55CtrlR3'	0	0.4029	0.0355	0.6999
b'CHR6:7393219:T'	b'M55CtrlR4'	0	0.2819	0.0356	0.6999
b'CHR6:7581403:A'	b'M55CtrlR1'	0	0.2683	0.0290	0.8148
b'CHR6:7581403:A'	b'M55CtrlR2'	0	0.2966	0.0298	0.8148
b'CHR6:7581403:A'	b'M55CtrlR3'	0	0.4029	0.0355	0.8148
b'CHR6:7581403:A'	b'M55CtrlR4'	0	0.2819	0.0356	0.8148
b'CHR6:9775825:A'	b'M55CtrlR1'	0	0.2683	0.0290	0.7708
b'CHR6:9775825:A'	b'M55CtrlR2'	0	0.2966	0.0298	0.7708
b'CHR6:9775825:A'	b'M55CtrlR3'	0	0.4029	0.0355	0.7708
b'CHR6:9775825:A'	b'M55CtrlR4'	0	0.2819	0.0356	0.7708
b'CHR7:39085988:C'	b'M55CtrlR1'	0	0.2683	0.0290	0.3075
b'CHR7:39085988:C'	b'M55CtrlR2'	0	0.2966	0.0298	0.3075
b'CHR7:39085988:C'	b'M55CtrlR3'	0	0.4029	0.0355	0.3075
b'CHR7:39085988:C'	b'M55CtrlR4'	0	0.2819	0.0356	0.3075
b'CHR7:55747834:A'	b'M55CtrlR1'	0	0.2683	0.0290	0.3673
b'CHR7:55747834:A'	b'M55CtrlR2'	0	0.2966	0.0298	0.3673
b'CHR7:55747834:A'	b'M55CtrlR3'	0	0.4029	0.0355	0.3673
b'CHR7:55747834:A'	b'M55CtrlR4'	0	0.2819	0.0356	0.3673
b'CHR9:95881156:A'	b'M55CtrlR1'	0	0.2683	0.0290	0.5508
b'CHR9:95881156:A'	b'M55CtrlR2'	0	0.2966	0.0298	0.5508
b'CHR9:95881156:A'	b'M55CtrlR3'	0	0.4029	0.0355	0.5508
b'CHR9:95881156:A'	b'M55CtrlR4'	0	0.2819	0.0356	0.5508
b'CHR10:102381157:T'	b'M55CtrlR1'	1	0.1751	0.0193	0.7690
b'CHR10:102381157:T'	b'M55CtrlR2'	1	0.1981	0.0212	0.7690
b'CHR10:102381157:T'	b'M55CtrlR3'	1	0.1799	0.0186	0.7690
b'CHR10:102381157:T'	b'M55CtrlR4'	1	0.1657	0.0198	0.7690
b'CHR10:133084811:T'	b'M55CtrlR1'	1	0.1751	0.0193	0.3533
b'CHR10:133084811:T'	b'M55CtrlR2'	1	0.1981	0.0212	0.3533
b'CHR10:133084811:T'	b'M55CtrlR3'	1	0.1799	0.0186	0.3533
b'CHR10:133084811:T'	b'M55CtrlR4'	1	0.1657	0.0198	0.3533
b'CHR10:37153617:T'	b'M55CtrlR1'	1	0.1751	0.0193	0.7826
b'CHR10:37153617:T'	b'M55CtrlR2'	1	0.1981	0.0212	0.7826
b'CHR10:37153617:T'	b'M55CtrlR3'	1	0.1799	0.0186	0.7826
b'CHR10:37153617:T'	b'M55CtrlR4'	1	0.1657	0.0198	0.7826
b'CHR10:73751113:G'	b'M55CtrlR1'	1	0.1751	0.0193	0.8264
b'CHR10:73751113:G'	b'M55CtrlR2'	1	0.1981	0.0212	0.8264
b'CHR10:73751113:G'	b'M55CtrlR3'	1	0.1799	0.0186	0.8264
b'CHR10:73751113:G'	b'M55CtrlR4'	1	0.1657	0.0198	0.8264
b'CHR11:103245294:A'	b'M55CtrlR1'	1	0.1751	0.0193	0.6619
b'CHR11:103245294:A'	b'M55CtrlR2'	1	0.1981	0.0212	0.6619
b'CHR11:103245294:A'	b'M55CtrlR3'	1	0.1799	0.0186	0.6619
b'CHR11:103245294:A'	b'M55CtrlR4'	1	0.1657	0.0198	0.6619
b'CHR11:123806117:C'	b'M55CtrlR1'	1	0.1751	0.0193	0.7099
b'CHR11:123806117:C'	b'M55CtrlR2'	1	0.1981	0.0212	0.7099
b'CHR11:123806117:C'	b'M55CtrlR3'	1	0.1799	0.0186	0.7099
b'CHR11:123806117:C'	b'M55CtrlR4'	1	0.1657	0.0198	0.7099
b'CHR11:56490737:A'	b'M55CtrlR1'	1	0.1751	0.0193	0.4976
b'CHR11:56490737:A'	b'M55CtrlR2'	1	0.1981	0.0212	0.4976
b'CHR11:56490737:A'	b'M55CtrlR3'	1	0.1799	0.0186	0.4976
b'CHR11:56490737:A'	b'M55CtrlR4'	1	0.1657	0.0198	0.4976
b'CHR11:6270799:T'	b'M55CtrlR1'	1	0.1751	0.0193	0.9551
b'CHR11:6270799:T'	b'M55CtrlR2'	1	0.1981	0.0212	0.9551
b'CHR11:6270799:T'	b'M55CtrlR3'	1	0.1799	0.0186	0.9551
b'CHR11:6270799:T'	b'M55CtrlR4'	1	0.1657	0.0198	0.9551
b'CHR11:72136010:A'	b'M55CtrlR1'	1	0.1751	0.0193	0.7838
b'CHR11:72136010:A'	b'M55CtrlR2'	1	0.1981	0.0212	0.7838
b'CHR11:72136010:A'	b'M55CtrlR3'	1	0.1799	0.0186	0.7838
b'CHR11:72136010:A'	b'M55CtrlR4'	1	0.1657	0.0198	0.7838
b'CHR11:73975073:A'	b'M55CtrlR1'	1	0.1751	0.0193	0.4524
b'CHR11:73975073:A'	b'M55CtrlR2'	1	0.1981	0.0212	0.4524
b'CHR11:73975073:A'	b'M55CtrlR3'	1	0.1799	0.0186	0.4524
b'CHR11:73975073:A'	b'M55CtrlR4'	1	0.1657	0.0198	0.4524
b'CHR11:77685130:T'	b'M55CtrlR1'	1	0.1751	0.0193	0.6592
b'CHR11:77685130:T'	b'M55CtrlR2'	1	0.1981	0.0212	0.6592
b'CHR11:77685130:T'	b'M55CtrlR3'	1	0.1799	0.0186	0.6592
b'CHR11:77685130:T'	b'M55CtrlR4'	1	0.1657	0.0198	0.6592
b'CHR12:108518570:T'	b'M55CtrlR1'	1	0.1751	0.0193	0.9985
b'CHR12:108518570:T'	b'M55CtrlR2'	1	0.1981	0.0212	0.9985
b'CHR12:108518570:T'	b'M55CtrlR3'	1	0.1799	0.0186	0.9985
b'CHR12:108518570:T'	b'M55CtrlR4'	1	0.1657	0.0198	0.9985
b'CHR12:112477653:T'	b'M55CtrlR1'	1	0.1751	0.0193	0.4194
b'CHR12:112477653:T'	b'M55CtrlR2'	1	0.1981	0.0212	0.4194
b'CHR12:112477653:T'	b'M55CtrlR3'	1	0.1799	0.0186	0.4194
b'CHR12:112477653:T'	b'M55CtrlR4'	1	0.1657	0.0198	0.4194
b'CHR12:40481156:A'	b'M55CtrlR1'	1	0.1751	0.0193	0.9644
b'CHR12:40481156:A'	b'M55CtrlR2'	1	0.1981	0.0212	0.9644
b'CHR12:40481156:A'	b'M55CtrlR3'	1	0.1799	0.0186	0.9644
b'CHR12:40481156:A'	b'M55CtrlR4'	1	0.1657	0.0198	0.9644
b'CHR12:40481157:G'	b'M55CtrlR1'	1	0.1751	0.0193	0.9644
b'CHR12:40481157:G'	b'M55CtrlR2'	1	0.1981	0.0212	0.9644
b'CHR12:40481157:G'	b'M55CtrlR3'	1	0.1799	0.0186	0.9644
b'CHR12:40481157:G'	b'M55CtrlR4'	1	0.1657	0.0198	0.9644
b'CHR12:55027042:G'	b'M55CtrlR1'	1	0.1751	0.0193	0.6012
b'CHR12:55027042:G'	b'M55CtrlR2'	1	0.1981	0.0212	0.6012
b'CHR12:55027042:G'	b'M55CtrlR3'	1	0.1799	0.0186	0.6012
b'CHR12:55027042:G'	b'M55CtrlR4'	1	0.1657	0.0198	0.6012
b'CHR12:7929771:C'	b'M55CtrlR1'	1	0.1751	0.0193	0.4276
b'CHR12:7929771:C'	b'M55CtrlR2'	1	0.1981	0.0212	0.4276
b'CHR12:7929771:C'	b'M55CtrlR3'	1	0.1799	0.0186	0.4276
b'CHR12:7929771:C'	b'M55CtrlR4'	1	0.1657	0.0198	0.4276
b'CHR12:85046079:A'	b'M55CtrlR1'	1	0.1751	0.0193	0.5099
b'CHR12:85046079:A'	b'M55CtrlR2'	1	0.1981	0.0212	0.5099
b'CHR12:85046079:A'	b'M55CtrlR3'	1	0.1799	0.0186	0.5099
b'CHR12:85046079:A'	b'M55CtrlR4'	1	0.1657	0.0198	0.5099
b'CHR13:95234663:A'	b'M55CtrlR1'	1	0.1751	0.0193	0.6449
b'CHR13:95234663:A'	b'M55CtrlR2'	1	0.1981	0.0212	0.6449
b'CHR13:95234663:A'	b'M55CtrlR3'	1	0.1799	0.0186	0.6449
b'CHR13:95234663:A'	b'M55CtrlR4'	1	0.1657	0.0198	0.6449
b'CHR14:20144218:A'	b'M55CtrlR1'	1	0.1751	0.0193	0.8160
b'CHR14:20144218:A'	b'M55CtrlR2'	1	0.1981	0.0212	0.8160
b'CHR14:20144218:A'	b'M55CtrlR3'	1	0.1799	0.0186	0.8160
b'CHR14:20144218:A'	b'M55CtrlR4'	1	0.1657	0.0198	0.8160
b'CHR14:20144219:A'	b'M55CtrlR1'	1	0.1751	0.0193	0.8160
b'CHR14:20144219:A'	b'M55CtrlR2'	1	0.1981	0.0212	0.8160
b'CHR14:20144219:A'	b'M55CtrlR3'	1	0.1799	0.0186	0.8160
b'CHR14:20144219:A'	b'M55CtrlR4'	1	0.1657	0.0198	0.8160
b'CHR14:52042283:A'	b'M55CtrlR1'	1	0.1751	0.0193	0.9492
b'CHR14:52042283:A'	b'M55CtrlR2'	1	0.1981	0.0212	0.9492
b'CHR14:52042283:A'	b'M55CtrlR3'	1	0.1799	0.0186	0.9492
b'CHR14:52042283:A'	b'M55CtrlR4'	1	0.1657	0.0198	0.9492
b'CHR15:33826673:A'	b'M55CtrlR1'	1	0.1751	0.0193	0.5094
b'CHR15:33826673:A'	b'M55CtrlR2'	1	0.1981	0.0212	0.5094
b'CHR15:33826673:A'	b'M55CtrlR3'	1	0.1799	0.0186	0.5094
b'CHR15:33826673:A'	b'M55CtrlR4'	1	0.1657	0.0198	0.5094
b'CHR15:41572531:T'	b'M55CtrlR1'	1	0.1751	0.0193	0.9095
b'CHR15:41572531:T'	b'M55CtrlR2'	1	0.1981	0.0212	0.9095
b'CHR15:41572531:T'	b'M55CtrlR3'	1	0.1799	0.0186	0.9095
b'CHR15:41572531:T'	b'M55CtrlR4'	1	0.1657	0.0198	0.9095
b'CHR15:45095849:C'	b'M55CtrlR1'	1	0.1751	0.0193	0.8213
b'CHR15:45095849:C'	b'M55CtrlR2'	1	0.1981	0.0212	0.8213
b'CHR15:45095849:C'	b'M55CtrlR3'	1	0.1799	0.0186	0.8213
b'CHR15:45095849:C'	b'M55CtrlR4'	1	0.1657	0.0198	0.8213
b'CHR16:1257049:T'	b'M55CtrlR1'	1	0.1751	0.0193	0.6586
b'CHR16:1257049:T'	b'M55CtrlR2'	1	0.1981	0.0212	0.6586
b'CHR16:1257049:T'	b'M55CtrlR3'	1	0.1799	0.0186	0.6586
b'CHR16:1257049:T'	b'M55CtrlR4'	1	0.1657	0.0198	0.6586
b'CHR16:87904819:T'	b'M55CtrlR1'	1	0.1751	0.0193	0.7402
b'CHR16:87904819:T'	b'M55CtrlR2'	1	0.1981	0.0212	0.7402
b'CHR16:87904819:T'	b'M55CtrlR3'	1	0.1799	0.0186	0.7402
b'CHR16:87904819:T'	b'M55CtrlR4'	1	0.1657	0.0198	0.7402
b'CHR17:10409139:T'	b'M55CtrlR1'	1	0.1751	0.0193	0.5218
b'CHR17:10409139:T'	b'M55CtrlR2'	1	0.1981	0.0212	0.5218
b'CHR17:10409139:T'	b'M55CtrlR3'	1	0.1799	0.0186	0.5218
b'CHR17:10409139:T'	b'M55CtrlR4'	1	0.1657	0.0198	0.5218
b'CHR17:18971139:A'	b'M55CtrlR1'	1	0.1751	0.0193	0.9950
b'CHR17:18971139:A'	b'M55CtrlR2'	1	0.1981	0.0212	0.9950
b'CHR17:18971139:A'	b'M55CtrlR3'	1	0.1799	0.0186	0.9950
b'CHR17:18971139:A'	b'M55CtrlR4'	1	0.1657	0.0198	0.9950
b'CHR17:48852548:T'	b'M55CtrlR1'	1	0.1751	0.0193	0.9749
b'CHR17:48852548:T'	b'M55CtrlR2'	1	0.1981	0.0212	0.9749
b'CHR17:48852548:T'	b'M55CtrlR3'	1	0.1799	0.0186	0.9749
b'CHR17:48852548:T'	b'M55CtrlR4'	1	0.1657	0.0198	0.9749
b'CHR17:63931346:T'	b'M55CtrlR1'	1	0.1751	0.0193	0.9902
b'CHR17:63931346:T'	b'M55CtrlR2'	1	0.1981	0.0212	0.9902
b'CHR17:63931346:T'	b'M55CtrlR3'	1	0.1799	0.0186	0.9902
b'CHR17:63931346:T'	b'M55CtrlR4'	1	0.1657	0.0198	0.9902
b'CHR17:80010681:A'	b'M55CtrlR1'	1	0.1751	0.0193	0.7053
b'CHR17:80010681:A'	b'M55CtrlR2'	1	0.1981	0.0212	0.7053
b'CHR17:80010681:A'	b'M55CtrlR3'	1	0.1799	0.0186	0.7053
b'CHR17:80010681:A'	b'M55CtrlR4'	1	0.1657	0.0198	0.7053
b'CHR17:80213874:A'	b'M55CtrlR1'	1	0.1751	0.0193	0.5290
b'CHR17:80213874:A'	b'M55CtrlR2'	1	0.1981	0.0212	0.5290
b'CHR17:80213874:A'	b'M55CtrlR3'	1	0.1799	0.0186	0.5290
b'CHR17:80213874:A'	b'M55CtrlR4'	1	0.1657	0.0198	0.5290
b'CHR19:1036180:T'	b'M55CtrlR1'	1	0.1751	0.0193	0.3628
b'CHR19:1036180:T'	b'M55CtrlR2'	1	0.1981	0.0212	0.3628
b'CHR19:1036180:T'	b'M55CtrlR3'	1	0.1799	0.0186	0.3628
b'CHR19:1036180:T'	b'M55CtrlR4'	1	0.1657	0.0198	0.3628
b'CHR19:14765687:T'	b'M55CtrlR1'	1	0.1751	0.0193	0.9955
b'CHR19:14765687:T'	b'M55CtrlR2'	1	0.1981	0.0212	0.9955
b'CHR19:14765687:T'	b'M55CtrlR3'	1	0.1799	0.0186	0.9955
b'CHR19:14765687:T'	b'M55CtrlR4'	1	0.1657	0.0198	0.9955
b'CHR19:20545051:T'	b'M55CtrlR1'	1	0.1751	0.0193	0.9945
b'CHR19:20545051:T'	b'M55CtrlR2'	1	0.1981	0.0212	0.9945
b'CHR19:20545051:T'	b'M55CtrlR3'	1	0.1799	0.0186	0.9945
b'CHR19:20545051:T'	b'M55CtrlR4'	1	0.1657	0.0198	0.9945
b'CHR19:37888408:A'	b'M55CtrlR1'	1	0.1751	0.0193	0.8159
b'CHR19:37888408:A'	b'M55CtrlR2'	1	0.1981	0.0212	0.8159
b'CHR19:37888408:A'	b'M55CtrlR3'	1	0.1799	0.0186	0.8159
b'CHR19:37888408:A'	b'M55CtrlR4'	1	0.1657	0.0198	0.8159
b'CHR19:44908594:T'	b'M55CtrlR1'	1	0.1751	0.0193	0.9424
b'CHR19:44908594:T'	b'M55CtrlR2'	1	0.1981	0.0212	0.9424
b'CHR19:44908594:T'	b'M55CtrlR3'	1	0.1799	0.0186	0.9424
b'CHR19:44908594:T'	b'M55CtrlR4'	1	0.1657	0.0198	0.9424
b'CHR19:45591702:A'	b'M55CtrlR1'	1	0.1751	0.0193	0.8554
b'CHR19:45591702:A'	b'M55CtrlR2'	1	0.1981	0.0212	0.8554
b'CHR19:45591702:A'	b'M55CtrlR3'	1	0.1799	0.0186	0.8554
b'CHR19:45591702:A'	b'M55CtrlR4'	1	0.1657	0.0198	0.8554
b'CHR19:52705931:T'	b'M55CtrlR1'	1	0.1751	0.0193	0.9403
b'CHR19:52705931:T'	b'M55CtrlR2'	1	0.1981	0.0212	0.9403
b'CHR19:52705931:T'	b'M55CtrlR3'	1	0.1799	0.0186	0.9403
b'CHR19:52705931:T'	b'M55CtrlR4'	1	0.1657	0.0198	0.9403
b'CHR19:53873532:T'	b'M55CtrlR1'	1	0.1751	0.0193	0.9241
b'CHR19:53873532:T'	b'M55CtrlR2'	1	0.1981	0.0212	0.9241
b'CHR19:53873532:T'	b'M55CtrlR3'	1	0.1799	0.0186	0.9241
b'CHR19:53873532:T'	b'M55CtrlR4'	1	0.1657	0.0198	0.9241
b'CHR1:1046687:A'	b'M55CtrlR1'	1	0.1751	0.0193	0.6014
b'CHR1:1046687:A'	b'M55CtrlR2'	1	0.1981	0.0212	0.6014
b'CHR1:1046687:A'	b'M55CtrlR3'	1	0.1799	0.0186	0.6014
b'CHR1:1046687:A'	b'M55CtrlR4'	1	0.1657	0.0198	0.6014
b'CHR1:113981341:T'	b'M55CtrlR1'	1	0.1751	0.0193	0.7390
b'CHR1:113981341:T'	b'M55CtrlR2'	1	0.1981	0.0212	0.7390
b'CHR1:113981341:T'	b'M55CtrlR3'	1	0.1799	0.0186	0.7390
b'CHR1:113981341:T'	b'M55CtrlR4'	1	0.1657	0.0198	0.7390
b'CHR1:119922269:T'	b'M55CtrlR1'	1	0.1751	0.0193	0.4221
b'CHR1:119922269:T'	b'M55CtrlR2'	1	0.1981	0.0212	0.4221
b'CHR1:119922269:T'	b'M55CtrlR3'	1	0.1799	0.0186	0.4221
b'CHR1:119922269:T'	b'M55CtrlR4'	1	0.1657	0.0198	0.4221
b'CHR1:1495915:C'	b'M55CtrlR1'	1	0.1751	0.0193	0.7947
b'CHR1:1495915:C'	b'M55CtrlR2'	1	0.1981	0.0212	0.7947
b'CHR1:1495915:C'	b'M55CtrlR3'	1	0.1799	0.0186	0.7947
b'CHR1:1495915:C'	b'M55CtrlR4'	1	0.1657	0.0198	0.7947
b'CHR1:15104181:A'	b'M55CtrlR1'	1	0.1751	0.0193	0.3628
b'CHR1:15104181:A'	b'M55CtrlR2'	1	0.1981	0.0212	0.3628
b'CHR1:15104181:A'	b'M55CtrlR3'	1	0.1799	0.0186	0.3628
b'CHR1:15104181:A'	b'M55CtrlR4'	1	0.1657	0.0198	0.3628
b'CHR1:152219804:C'	b'M55CtrlR1'	1	0.1751	0.0193	0.9980
b'CHR1:152219804:C'	b'M55CtrlR2'	1	0.1981	0.0212	0.9980
b'CHR1:152219804:C'	b'M55CtrlR3'	1	0.1799	0.0186	0.9980
b'CHR1:152219804:C'	b'M55CtrlR4'	1	0.1657	0.0198	0.9980
b'CHR1:153938962:T'	b'M55CtrlR1'	1	0.1751	0.0193	0.4068
b'CHR1:153938962:T'	b'M55CtrlR2'	1	0.1981	0.0212	0.4068
b'CHR1:153938962:T'	b'M55CtrlR3'	1	0.1799	0.0186	0.4068
b'CHR1:153938962:T'	b'M55CtrlR4'	1	0.1657	0.0198	0.4068
b'CHR1:161526114:T'	b'M55CtrlR1'	1	0.1751	0.0193	0.9974
b'CHR1:161526114:T'	b'M55CtrlR2'	1	0.1981	0.0212	0.9974
b'CHR1:161526114:T'	b'M55CtrlR3'	1	0.1799	0.0186	0.9974
b'CHR1:161526114:T'	b'M55CtrlR4'	1	0.1657	0.0198	0.9974
b'CHR1:21483257:C'	b'M55CtrlR1'	1	0.1751	0.0193	0.6080
b'CHR1:21483257:C'	b'M55CtrlR2'	1	0.1981	0.0212	0.6080
b'CHR1:21483257:C'	b'M55CtrlR3'	1	0.1799	0.0186	0.6080
b'CHR1:21483257:C'	b'M55CtrlR4'	1	0.1657	0.0198	0.6080
b'CHR1:246850629:T'	b'M55CtrlR1'	1	0.1751	0.0193	0.9635
b'CHR1:246850629:T'	b'M55CtrlR2'	1	0.1981	0.0212	0.9635
b'CHR1:246850629:T'	b'M55CtrlR3'	1	0.1799	0.0186	0.9635
b'CHR1:246850629:T'	b'M55CtrlR4'	1	0.1657	0.0198	0.9635
b'CHR1:8957259:A'	b'M55CtrlR1'	1	0.1751	0.0193	0.5261
b'CHR1:8957259:A'	b'M55CtrlR2'	1	0.1981	0.0212	0.5261
b'CHR1:8957259:A'	b'M55CtrlR3'	1	0.1799	0.0186	0.5261
b'CHR1:8957259:A'	b'M55CtrlR4'	1	0.1657	0.0198	0.5261
b'CHR20:21328621:A'	b'M55CtrlR1'	1	0.1751	0.0193	0.5722
b'CHR20:21328621:A'	b'M55CtrlR2'	1	0.1981	0.0212	0.5722
b'CHR20:21328621:A'	b'M55CtrlR3'	1	0.1799	0.0186	0.5722
b'CHR20:21328621:A'	b'M55CtrlR4'	1	0.1657	0.0198	0.5722
b'CHR2:130075025:T'	b'M55CtrlR1'	1	0.1751	0.0193	0.6252
b'CHR2:130075025:T'	b'M55CtrlR2'	1	0.1981	0.0212	0.6252
b'CHR2:130075025:T'	b'M55CtrlR3'	1	0.1799	0.0186	0.6252
b'CHR2:130075025:T'	b'M55CtrlR4'	1	0.1657	0.0198	0.6252
b'CHR2:151667906:A'	b'M55CtrlR1'	1	0.1751	0.0193	0.6253
b'CHR2:151667906:A'	b'M55CtrlR2'	1	0.1981	0.0212	0.6253
b'CHR2:151667906:A'	b'M55CtrlR3'	1	0.1799	0.0186	0.6253
b'CHR2:151667906:A'	b'M55CtrlR4'	1	0.1657	0.0198	0.6253
b'CHR2:170847706:T'	b'M55CtrlR1'	1	0.1751	0.0193	0.4161
b'CHR2:170847706:T'	b'M55CtrlR2'	1	0.1981	0.0212	0.4161
b'CHR2:170847706:T'	b'M55CtrlR3'	1	0.1799	0.0186	0.4161
b'CHR2:170847706:T'	b'M55CtrlR4'	1	0.1657	0.0198	0.4161
b'CHR2:232381776:G'	b'M55CtrlR1'	1	0.1751	0.0193	0.4276
b'CHR2:232381776:G'	b'M55CtrlR2'	1	0.1981	0.0212	0.4276
b'CHR2:232381776:G'	b'M55CtrlR3'	1	0.1799	0.0186	0.4276
b'CHR2:232381776:G'	b'M55CtrlR4'	1	0.1657	0.0198	0.4276
b'CHR3:50320148:G'	b'M55CtrlR1'	1	0.1751	0.0193	0.9591
b'CHR3:50320148:G'	b'M55CtrlR2'	1	0.1981	0.0212	0.9591
b'CHR3:50320148:G'	b'M55CtrlR3'	1	0.1799	0.0186	0.9591
b'CHR3:50320148:G'	b'M55CtrlR4'	1	0.1657	0.0198	0.9591
b'CHR3:9950005:A'	b'M55CtrlR1'	1	0.1751	0.0193	0.9620
b'CHR3:9950005:A'	b'M55CtrlR2'	1	0.1981	0.0212	0.9620
b'CHR3:9950005:A'	b'M55CtrlR3'	1	0.1799	0.0186	0.9620
b'CHR3:9950005:A'	b'M55CtrlR4'	1	0.1657	0.0198	0.9620
b'CHR4:125317234:A'	b'M55CtrlR1'	1	0.1751	0.0193	0.8816
b'CHR4:125317234:A'	b'M55CtrlR2'	1	0.1981	0.0212	0.8816
b'CHR4:125317234:A'	b'M55CtrlR3'	1	0.1799	0.0186	0.8816
b'CHR4:125317234:A'	b'M55CtrlR4'	1	0.1657	0.0198	0.8816
b'CHR4:147673062:T'	b'M55CtrlR1'	1	0.1751	0.0193	0.6403
b'CHR4:147673062:T'	b'M55CtrlR2'	1	0.1981	0.0212	0.6403
b'CHR4:147673062:T'	b'M55CtrlR3'	1	0.1799	0.0186	0.6403
b'CHR4:147673062:T'	b'M55CtrlR4'	1	0.1657	0.0198	0.6403
b'CHR4:70644514:G'	b'M55CtrlR1'	1	0.1751	0.0193	0.6801
b'CHR4:70644514:G'	b'M55CtrlR2'	1	0.1981	0.0212	0.6801
b'CHR4:70644514:G'	b'M55CtrlR3'	1	0.1799	0.0186	0.6801
b'CHR4:70644514:G'	b'M55CtrlR4'	1	0.1657	0.0198	0.6801
b'CHR5:141491438:A'	b'M55CtrlR1'	1	0.1751	0.0193	0.9950
b'CHR5:141491438:A'	b'M55CtrlR2'	1	0.1981	0.0212	0.9950
b'CHR5:141491438:A'	b'M55CtrlR3'	1	0.1799	0.0186	0.9950
b'CHR5:141491438:A'	b'M55CtrlR4'	1	0.1657	0.0198	0.9950
b'CHR5:51389819:T'	b'M55CtrlR1'	1	0.1751	0.0193	0.4344
b'CHR5:51389819:T'	b'M55CtrlR2'	1	0.1981	0.0212	0.4344
b'CHR5:51389819:T'	b'M55CtrlR3'	1	0.1799	0.0186	0.4344
b'CHR5:51389819:T'	b'M55CtrlR4'	1	0.1657	0.0198	0.4344
b'CHR6:13711047:G'	b'M55CtrlR1'	1	0.1751	0.0193	0.5574
b'CHR6:13711047:G'	b'M55CtrlR2'	1	0.1981	0.0212	0.5574
b'CHR6:13711047:G'	b'M55CtrlR3'	1	0.1799	0.0186	0.5574
b'CHR6:13711047:G'	b'M55CtrlR4'	1	0.1657	0.0198	0.5574
b'CHR6:16326648:A'	b'M55CtrlR1'	1	0.1751	0.0193	0.6309
b'CHR6:16326648:A'	b'M55CtrlR2'	1	0.1981	0.0212	0.6309
b'CHR6:16326648:A'	b'M55CtrlR3'	1	0.1799	0.0186	0.6309
b'CHR6:16326648:A'	b'M55CtrlR4'	1	0.1657	0.0198	0.6309
b'CHR6:3264292:T'	b'M55CtrlR1'	1	0.1751	0.0193	0.7110
b'CHR6:3264292:T'	b'M55CtrlR2'	1	0.1981	0.0212	0.7110
b'CHR6:3264292:T'	b'M55CtrlR3'	1	0.1799	0.0186	0.7110
b'CHR6:3264292:T'	b'M55CtrlR4'	1	0.1657	0.0198	0.7110
b'CHR6:3264293:C'	b'M55CtrlR1'	1	0.1751	0.0193	0.7110
b'CHR6:3264293:C'	b'M55CtrlR2'	1	0.1981	0.0212	0.7110
b'CHR6:3264293:C'	b'M55CtrlR3'	1	0.1799	0.0186	0.7110
b'CHR6:3264293:C'	b'M55CtrlR4'	1	0.1657	0.0198	0.7110
b'CHR6:57174231:A'	b'M55CtrlR1'	1	0.1751	0.0193	0.6362
b'CHR6:57174231:A'	b'M55CtrlR2'	1	0.1981	0.0212	0.6362
b'CHR6:57174231:A'	b'M55CtrlR3'	1	0.1799	0.0186	0.6362
b'CHR6:57174231:A'	b'M55CtrlR4'	1	0.1657	0.0198	0.6362
b'CHR6:7601487:T'	b'M55CtrlR1'	1	0.1751	0.0193	0.5927
b'CHR6:7601487:T'	b'M55CtrlR2'	1	0.1981	0.0212	0.5927
b'CHR6:7601487:T'	b'M55CtrlR3'	1	0.1799	0.0186	0.5927
b'CHR6:7601487:T'	b'M55CtrlR4'	1	0.1657	0.0198	0.5927
b'CHR7:44539245:T'	b'M55CtrlR1'	1	0.1751	0.0193	0.5541
b'CHR7:44539245:T'	b'M55CtrlR2'	1	0.1981	0.0212	0.5541
b'CHR7:44539245:T'	b'M55CtrlR3'	1	0.1799	0.0186	0.5541
b'CHR7:44539245:T'	b'M55CtrlR4'	1	0.1657	0.0198	0.5541
b'CHR9:125326478:G'	b'M55CtrlR1'	1	0.1751	0.0193	0.9797
b'CHR9:125326478:G'	b'M55CtrlR2'	1	0.1981	0.0212	0.9797
b'CHR9:125326478:G'	b'M55CtrlR3'	1	0.1799	0.0186	0.9797
b'CHR9:125326478:G'	b'M55CtrlR4'	1	0.1657	0.0198	0.9797
b'CHR9:125337434:T'	b'M55CtrlR1'	1	0.1751	0.0193	0.6467
b'CHR9:125337434:T'	b'M55CtrlR2'	1	0.1981	0.0212	0.6467
b'CHR9:125337434:T'	b'M55CtrlR3'	1	0.1799	0.0186	0.6467
b'CHR9:125337434:T'	b'M55CtrlR4'	1	0.1657	0.0198	0.6467
b'CHR9:129068201:C'	b'M55CtrlR1'	1	0.1751	0.0193	0.8600
b'CHR9:129068201:C'	b'M55CtrlR2'	1	0.1981	0.0212	0.8600
b'CHR9:129068201:C'	b'M55CtrlR3'	1	0.1799	0.0186	0.8600
b'CHR9:129068201:C'	b'M55CtrlR4'	1	0.1657	0.0198	0.8600
b'CHR9:93952939:A'	b'M55CtrlR1'	1	0.1751	0.0193	0.8592
b'CHR9:93952939:A'	b'M55CtrlR2'	1	0.1981	0.0212	0.8592
b'CHR9:93952939:A'	b'M55CtrlR3'	1	0.1799	0.0186	0.8592
b'CHR9:93952939:A'	b'M55CtrlR4'	1	0.1657	0.0198	0.8592
b'CHR9:95086149:A'	b'M55CtrlR1'	1	0.1751	0.0193	0.6047
b'CHR9:95086149:A'	b'M55CtrlR2'	1	0.1981	0.0212	0.6047
b'CHR9:95086149:A'	b'M55CtrlR3'	1	0.1799	0.0186	0.6047
b'CHR9:95086149:A'	b'M55CtrlR4'	1	0.1657	0.0198	0.6047
b'CHR10:128101279:T'	b'M55CtrlR1'	2	0.9131	0.0395	0.9968
b'CHR10:128101279:T'	b'M55CtrlR2'	2	0.8648	0.0395	0.9968
b'CHR10:128101279:T'	b'M55CtrlR3'	2	0.8494	0.0396	0.9968
b'CHR10:128101279:T'	b'M55CtrlR4'	2	0.7288	0.0398	0.9968
b'CHR10:92240093:G'	b'M55CtrlR1'	2	0.9131	0.0395	0.3328
b'CHR10:92240093:G'	b'M55CtrlR2'	2	0.8648	0.0395	0.3328
b'CHR10:92240093:G'	b'M55CtrlR3'	2	0.8494	0.0396	0.3328
b'CHR10:92240093:G'	b'M55CtrlR4'	2	0.7288	0.0398	0.3328
b'CHR14:31178233:C'	b'M55CtrlR1'	2	0.9131	0.0395	0.9985
b'CHR14:31178233:C'	b'M55CtrlR2'	2	0.8648	0.0395	0.9985
b'CHR14:31178233:C'	b'M55CtrlR3'	2	0.8494	0.0396	0.9985
b'CHR14:31178233:C'	b'M55CtrlR4'	2	0.7288	0.0398	0.9985
b'CHR16:1241453:A'	b'M55CtrlR1'	2	0.9131	0.0395	0.6661
b'CHR16:1241453:A'	b'M55CtrlR2'	2	0.8648	0.0395	0.6661
b'CHR16:1241453:A'	b'M55CtrlR3'	2	0.8494	0.0396	0.6661
b'CHR16:1241453:A'	b'M55CtrlR4'	2	0.7288	0.0398	0.6661
b'CHR16:28342968:A'	b'M55CtrlR1'	2	0.9131	0.0395	0.3870
b'CHR16:28342968:A'	b'M55CtrlR2'	2	0.8648	0.0395	0.3870
b'CHR16:28342968:A'	b'M55CtrlR3'	2	0.8494	0.0396	0.3870
b'CHR16:28342968:A'	b'M55CtrlR4'	2	0.7288	0.0398	0.3870
b'CHR19:1049270:A'	b'M55CtrlR1'	2	0.9131	0.0395	0.9667
b'CHR19:1049270:A'	b'M55CtrlR2'	2	0.8648	0.0395	0.9667
b'CHR19:1049270:A'	b'M55CtrlR3'	2	0.8494	0.0396	0.9667
b'CHR19:1049270:A'	b'M55CtrlR4'	2	0.7288	0.0398	0.9667
b'CHR1:11706367:T'	b'M55CtrlR1'	2	0.9131	0.0395	0.9490
b'CHR1:11706367:T'	b'M55CtrlR2'	2	0.8648	0.0395	0.9490
b'CHR1:11706367:T'	b'M55CtrlR3'	2	0.8494	0.0396	0.9490
b'CHR1:11706367:T'	b'M55CtrlR4'	2	0.7288	0.0398	0.9490
b'CHR1:11779915:A'	b'M55CtrlR1'	2	0.9131	0.0395	0.9313
b'CHR1:11779915:A'	b'M55CtrlR2'	2	0.8648	0.0395	0.9313
b'CHR1:11779915:A'	b'M55CtrlR3'	2	0.8494	0.0396	0.9313
b'CHR1:11779915:A'	b'M55CtrlR4'	2	0.7288	0.0398	0.9313
b'CHR1:13343011:A'	b'M55CtrlR1'	2	0.9131	0.0395	0.9748
b'CHR1:13343011:A'	b'M55CtrlR2'	2	0.8648	0.0395	0.9748
b'CHR1:13343011:A'	b'M55CtrlR3'	2	0.8494	0.0396	0.9748
b'CHR1:13343011:A'	b'M55CtrlR4'	2	0.7288	0.0398	0.9748
b'CHR1:13421192:T'	b'M55CtrlR1'	2	0.9131	0.0395	0.9640
b'CHR1:13421192:T'	b'M55CtrlR2'	2	0.8648	0.0395	0.9640
b'CHR1:13421192:T'	b'M55CtrlR3'	2	0.8494	0.0396	0.9640
b'CHR1:13421192:T'	b'M55CtrlR4'	2	0.7288	0.0398	0.9640
b'CHR1:13782619:G'	b'M55CtrlR1'	2	0.9131	0.0395	0.9874
b'CHR1:13782619:G'	b'M55CtrlR2'	2	0.8648	0.0395	0.9874
b'CHR1:13782619:G'	b'M55CtrlR3'	2	0.8494	0.0396	0.9874
b'CHR1:13782619:G'	b'M55CtrlR4'	2	0.7288	0.0398	0.9874
b'CHR1:15939409:A'	b'M55CtrlR1'	2	0.9131	0.0395	0.9996
b'CHR1:15939409:A'	b'M55CtrlR2'	2	0.8648	0.0395	0.9996
b'CHR1:15939409:A'	b'M55CtrlR3'	2	0.8494	0.0396	0.9996
b'CHR1:15939409:A'	b'M55CtrlR4'	2	0.7288	0.0398	0.9996
b'CHR1:160155085:A'	b'M55CtrlR1'	2	0.9131	0.0395	0.4888
b'CHR1:160155085:A'	b'M55CtrlR2'	2	0.8648	0.0395	0.4888
b'CHR1:160155085:A'	b'M55CtrlR3'	2	0.8494	0.0396	0.4888
b'CHR1:160155085:A'	b'M55CtrlR4'	2	0.7288	0.0398	0.4888
b'CHR1:17079314:A'	b'M55CtrlR1'	2	0.9131	0.0395	0.9736
b'CHR1:17079314:A'	b'M55CtrlR2'	2	0.8648	0.0395	0.9736
b'CHR1:17079314:A'	b'M55CtrlR3'	2	0.8494	0.0396	0.9736
b'CHR1:17079314:A'	b'M55CtrlR4'	2	0.7288	0.0398	0.9736
b'CHR1:17084646:G'	b'M55CtrlR1'	2	0.9131	0.0395	0.5455
b'CHR1:17084646:G'	b'M55CtrlR2'	2	0.8648	0.0395	0.5455
b'CHR1:17084646:G'	b'M55CtrlR3'	2	0.8494	0.0396	0.5455
b'CHR1:17084646:G'	b'M55CtrlR4'	2	0.7288	0.0398	0.5455
b'CHR1:18854521:C'	b'M55CtrlR1'	2	0.9131	0.0395	0.4319
b'CHR1:18854521:C'	b'M55CtrlR2'	2	0.8648	0.0395	0.4319
b'CHR1:18854521:C'	b'M55CtrlR3'	2	0.8494	0.0396	0.4319
b'CHR1:18854521:C'	b'M55CtrlR4'	2	0.7288	0.0398	0.4319
b'CHR1:18854588:C'	b'M55CtrlR1'	2	0.9131	0.0395	0.4096
b'CHR1:18854588:C'	b'M55CtrlR2'	2	0.8648	0.0395	0.4096
b'CHR1:18854588:C'	b'M55CtrlR3'	2	0.8494	0.0396	0.4096
b'CHR1:18854588:C'	b'M55CtrlR4'	2	0.7288	0.0398	0.4096
b'CHR1:18877503:G'	b'M55CtrlR1'	2	0.9131	0.0395	0.7178
b'CHR1:18877503:G'	b'M55CtrlR2'	2	0.8648	0.0395	0.7178
b'CHR1:18877503:G'	b'M55CtrlR3'	2	0.8494	0.0396	0.7178
b'CHR1:18877503:G'	b'M55CtrlR4'	2	0.7288	0.0398	0.7178
b'CHR1:19282760:C'	b'M55CtrlR1'	2	0.9131	0.0395	0.9950
b'CHR1:19282760:C'	b'M55CtrlR2'	2	0.8648	0.0395	0.9950
b'CHR1:19282760:C'	b'M55CtrlR3'	2	0.8494	0.0396	0.9950
b'CHR1:19282760:C'	b'M55CtrlR4'	2	0.7288	0.0398	0.9950
b'CHR1:19623568:C'	b'M55CtrlR1'	2	0.9131	0.0395	0.9341
b'CHR1:19623568:C'	b'M55CtrlR2'	2	0.8648	0.0395	0.9341
b'CHR1:19623568:C'	b'M55CtrlR3'	2	0.8494	0.0396	0.9341
b'CHR1:19623568:C'	b'M55CtrlR4'	2	0.7288	0.0398	0.9341
b'CHR1:20084839:T'	b'M55CtrlR1'	2	0.9131	0.0395	0.9659
b'CHR1:20084839:T'	b'M55CtrlR2'	2	0.8648	0.0395	0.9659
b'CHR1:20084839:T'	b'M55CtrlR3'	2	0.8494	0.0396	0.9659
b'CHR1:20084839:T'	b'M55CtrlR4'	2	0.7288	0.0398	0.9659
b'CHR1:21874505:T'	b'M55CtrlR1'	2	0.9131	0.0395	0.6002
b'CHR1:21874505:T'	b'M55CtrlR2'	2	0.8648	0.0395	0.6002
b'CHR1:21874505:T'	b'M55CtrlR3'	2	0.8494	0.0396	0.6002
b'CHR1:21874505:T'	b'M55CtrlR4'	2	0.7288	0.0398	0.6002
b'CHR1:22526222:C'	b'M55CtrlR1'	2	0.9131	0.0395	0.9580
b'CHR1:22526222:C'	b'M55CtrlR2'	2	0.8648	0.0395	0.9580
b'CHR1:22526222:C'	b'M55CtrlR3'	2	0.8494	0.0396	0.9580
b'CHR1:22526222:C'	b'M55CtrlR4'	2	0.7288	0.0398	0.9580
b'CHR1:26344118:T'	b'M55CtrlR1'	2	0.9131	0.0395	0.9420
b'CHR1:26344118:T'	b'M55CtrlR2'	2	0.8648	0.0395	0.9420
b'CHR1:26344118:T'	b'M55CtrlR3'	2	0.8494	0.0396	0.9420
b'CHR1:26344118:T'	b'M55CtrlR4'	2	0.7288	0.0398	0.9420
b'CHR1:27360975:T'	b'M55CtrlR1'	2	0.9131	0.0395	0.7235
b'CHR1:27360975:T'	b'M55CtrlR2'	2	0.8648	0.0395	0.7235
b'CHR1:27360975:T'	b'M55CtrlR3'	2	0.8494	0.0396	0.7235
b'CHR1:27360975:T'	b'M55CtrlR4'	2	0.7288	0.0398	0.7235
b'CHR1:31630664:G'	b'M55CtrlR1'	2	0.9131	0.0395	0.9951
b'CHR1:31630664:G'	b'M55CtrlR2'	2	0.8648	0.0395	0.9951
b'CHR1:31630664:G'	b'M55CtrlR3'	2	0.8494	0.0396	0.9951
b'CHR1:31630664:G'	b'M55CtrlR4'	2	0.7288	0.0398	0.9951
b'CHR1:33494462:G'	b'M55CtrlR1'	2	0.9131	0.0395	0.9531
b'CHR1:33494462:G'	b'M55CtrlR2'	2	0.8648	0.0395	0.9531
b'CHR1:33494462:G'	b'M55CtrlR3'	2	0.8494	0.0396	0.9531
b'CHR1:33494462:G'	b'M55CtrlR4'	2	0.7288	0.0398	0.9531
b'CHR1:3478610:A'	b'M55CtrlR1'	2	0.9131	0.0395	0.9263
b'CHR1:3478610:A'	b'M55CtrlR2'	2	0.8648	0.0395	0.9263
b'CHR1:3478610:A'	b'M55CtrlR3'	2	0.8494	0.0396	0.9263
b'CHR1:3478610:A'	b'M55CtrlR4'	2	0.7288	0.0398	0.9263
b'CHR1:51840355:A'	b'M55CtrlR1'	2	0.9131	0.0395	0.9547
b'CHR1:51840355:A'	b'M55CtrlR2'	2	0.8648	0.0395	0.9547
b'CHR1:51840355:A'	b'M55CtrlR3'	2	0.8494	0.0396	0.9547
b'CHR1:51840355:A'	b'M55CtrlR4'	2	0.7288	0.0398	0.9547
b'CHR1:53247055:T'	b'M55CtrlR1'	2	0.9131	0.0395	0.9459
b'CHR1:53247055:T'	b'M55CtrlR2'	2	0.8648	0.0395	0.9459
b'CHR1:53247055:T'	b'M55CtrlR3'	2	0.8494	0.0396	0.9459
b'CHR1:53247055:T'	b'M55CtrlR4'	2	0.7288	0.0398	0.9459
b'CHR1:53250744:A'	b'M55CtrlR1'	2	0.9131	0.0395	0.5901
b'CHR1:53250744:A'	b'M55CtrlR2'	2	0.8648	0.0395	0.5901
b'CHR1:53250744:A'	b'M55CtrlR3'	2	0.8494	0.0396	0.5901
b'CHR1:53250744:A'	b'M55CtrlR4'	2	0.7288	0.0398	0.5901
b'CHR1:53594575:C'	b'M55CtrlR1'	2	0.9131	0.0395	0.7193
b'CHR1:53594575:C'	b'M55CtrlR2'	2	0.8648	0.0395	0.7193
b'CHR1:53594575:C'	b'M55CtrlR3'	2	0.8494	0.0396	0.7193
b'CHR1:53594575:C'	b'M55CtrlR4'	2	0.7288	0.0398	0.7193
b'CHR1:63323280:A'	b'M55CtrlR1'	2	0.9131	0.0395	0.9797
b'CHR1:63323280:A'	b'M55CtrlR2'	2	0.8648	0.0395	0.9797
b'CHR1:63323280:A'	b'M55CtrlR3'	2	0.8494	0.0396	0.9797
b'CHR1:63323280:A'	b'M55CtrlR4'	2	0.7288	0.0398	0.9797
b'CHR1:63415881:T'	b'M55CtrlR1'	2	0.9131	0.0395	0.4623
b'CHR1:63415881:T'	b'M55CtrlR2'	2	0.8648	0.0395	0.4623
b'CHR1:63415881:T'	b'M55CtrlR3'	2	0.8494	0.0396	0.4623
b'CHR1:63415881:T'	b'M55CtrlR4'	2	0.7288	0.0398	0.4623
b'CHR1:64844806:C'	b'M55CtrlR1'	2	0.9131	0.0395	0.5710
b'CHR1:64844806:C'	b'M55CtrlR2'	2	0.8648	0.0395	0.5710
b'CHR1:64844806:C'	b'M55CtrlR3'	2	0.8494	0.0396	0.5710
b'CHR1:64844806:C'	b'M55CtrlR4'	2	0.7288	0.0398	0.5710
b'CHR1:7827188:A'	b'M55CtrlR1'	2	0.9131	0.0395	0.9741
b'CHR1:7827188:A'	b'M55CtrlR2'	2	0.8648	0.0395	0.9741
b'CHR1:7827188:A'	b'M55CtrlR3'	2	0.8494	0.0396	0.9741
b'CHR1:7827188:A'	b'M55CtrlR4'	2	0.7288	0.0398	0.9741
b'CHR1:942934:C'	b'M55CtrlR1'	2	0.9131	0.0395	0.9287
b'CHR1:942934:C'	b'M55CtrlR2'	2	0.8648	0.0395	0.9287
b'CHR1:942934:C'	b'M55CtrlR3'	2	0.8494	0.0396	0.9287
b'CHR1:942934:C'	b'M55CtrlR4'	2	0.7288	0.0398	0.9287
b'CHR2:73291715:T'	b'M55CtrlR1'	2	0.9131	0.0395	0.5771
b'CHR2:73291715:T'	b'M55CtrlR2'	2	0.8648	0.0395	0.5771
b'CHR2:73291715:T'	b'M55CtrlR3'	2	0.8494	0.0396	0.5771
b'CHR2:73291715:T'	b'M55CtrlR4'	2	0.7288	0.0398	0.5771
b'CHR7:151066568:A'	b'M55CtrlR1'	2	0.9131	0.0395	0.5371
b'CHR7:151066568:A'	b'M55CtrlR2'	2	0.8648	0.0395	0.5371
b'CHR7:151066568:A'	b'M55CtrlR3'	2	0.8494	0.0396	0.5371
b'CHR7:151066568:A'	b'M55CtrlR4'	2	0.7288	0.0398	0.5371
b'CHR3:41800280:T'	b'M55CtrlR1'	3	0.7943	0.1127	0.7208
b'CHR3:41800280:T'	b'M55CtrlR2'	3	0.3038	0.0728	0.7208
b'CHR3:41800280:T'	b'M55CtrlR3'	3	0.7781	0.1275	0.7208
b'CHR3:41800280:T'	b'M55CtrlR4'	3	0.5027	0.0974	0.7208
b'CHR9:26928213:T'	b'M55CtrlR1'	3	0.7943	0.1127	0.9992
b'CHR9:26928213:T'	b'M55CtrlR2'	3	0.3038	0.0728	0.9992
b'CHR9:26928213:T'	b'M55CtrlR3'	3	0.7781	0.1275	0.9992
b'CHR9:26928213:T'	b'M55CtrlR4'	3	0.5027	0.0974	0.9992
b'CHR11:120128675:T'	b'M55CtrlR1'	4	0.4304	0.0358	0.9894
b'CHR11:120128675:T'	b'M55CtrlR2'	4	0.7736	0.0536	0.9894
b'CHR11:120128675:T'	b'M55CtrlR3'	4	0.7742	0.0471	0.9894
b'CHR11:120128675:T'	b'M55CtrlR4'	4	0.7315	0.0534	0.9894
b'CHR13:110715518:T'	b'M55CtrlR1'	4	0.4304	0.0358	0.3254
b'CHR13:110715518:T'	b'M55CtrlR2'	4	0.7736	0.0536	0.3254
b'CHR13:110715518:T'	b'M55CtrlR3'	4	0.7742	0.0471	0.3254
b'CHR13:110715518:T'	b'M55CtrlR4'	4	0.7315	0.0534	0.3254
b'CHR14:70060875:T'	b'M55CtrlR1'	4	0.4304	0.0358	0.3344
b'CHR14:70060875:T'	b'M55CtrlR2'	4	0.7736	0.0536	0.3344
b'CHR14:70060875:T'	b'M55CtrlR3'	4	0.7742	0.0471	0.3344
b'CHR14:70060875:T'	b'M55CtrlR4'	4	0.7315	0.0534	0.3344
b'CHR19:13209361:T'	b'M55CtrlR1'	4	0.4304	0.0358	0.4939
b'CHR19:13209361:T'	b'M55CtrlR2'	4	0.7736	0.0536	0.4939
b'CHR19:13209361:T'	b'M55CtrlR3'	4	0.7742	0.0471	0.4939
b'CHR19:13209361:T'	b'M55CtrlR4'	4	0.7315	0.0534	0.4939
b'CHR19:52881597:A'	b'M55CtrlR1'	4	0.4304	0.0358	0.9996
b'CHR19:52881597:A'	b'M55CtrlR2'	4	0.7736	0.0536	0.9996
b'CHR19:52881597:A'	b'M55CtrlR3'	4	0.7742	0.0471	0.9996
b'CHR19:52881597:A'	b'M55CtrlR4'	4	0.7315	0.0534	0.9996
b'CHR1:155054385:T'	b'M55CtrlR1'	4	0.4304	0.0358	0.8736
b'CHR1:155054385:T'	b'M55CtrlR2'	4	0.7736	0.0536	0.8736
b'CHR1:155054385:T'	b'M55CtrlR3'	4	0.7742	0.0471	0.8736
b'CHR1:155054385:T'	b'M55CtrlR4'	4	0.7315	0.0534	0.8736
b'CHR1:16409637:C'	b'M55CtrlR1'	4	0.4304	0.0358	0.6687
b'CHR1:16409637:C'	b'M55CtrlR2'	4	0.7736	0.0536	0.6687
b'CHR1:16409637:C'	b'M55CtrlR3'	4	0.7742	0.0471	0.6687
b'CHR1:16409637:C'	b'M55CtrlR4'	4	0.7315	0.0534	0.6687
b'CHR1:17070097:A'	b'M55CtrlR1'	4	0.4304	0.0358	0.7610
b'CHR1:17070097:A'	b'M55CtrlR2'	4	0.7736	0.0536	0.7610
b'CHR1:17070097:A'	b'M55CtrlR3'	4	0.7742	0.0471	0.7610
b'CHR1:17070097:A'	b'M55CtrlR4'	4	0.7315	0.0534	0.7610
b'CHR1:202160698:C'	b'M55CtrlR1'	4	0.4304	0.0358	0.8221
b'CHR1:202160698:C'	b'M55CtrlR2'	4	0.7736	0.0536	0.8221
b'CHR1:202160698:C'	b'M55CtrlR3'	4	0.7742	0.0471	0.8221
b'CHR1:202160698:C'	b'M55CtrlR4'	4	0.7315	0.0534	0.8221
b'CHR1:215567710:G'	b'M55CtrlR1'	4	0.4304	0.0358	0.9561
b'CHR1:215567710:G'	b'M55CtrlR2'	4	0.7736	0.0536	0.9561
b'CHR1:215567710:G'	b'M55CtrlR3'	4	0.7742	0.0471	0.9561
b'CHR1:215567710:G'	b'M55CtrlR4'	4	0.7315	0.0534	0.9561
b'CHR1:230921501:T'	b'M55CtrlR1'	4	0.4304	0.0358	0.8050
b'CHR1:230921501:T'	b'M55CtrlR2'	4	0.7736	0.0536	0.8050
b'CHR1:230921501:T'	b'M55CtrlR3'	4	0.7742	0.0471	0.8050
b'CHR1:230921501:T'	b'M55CtrlR4'	4	0.7315	0.0534	0.8050
b'CHR1:25243590:C'	b'M55CtrlR1'	4	0.4304	0.0358	0.8658
b'CHR1:25243590:C'	b'M55CtrlR2'	4	0.7736	0.0536	0.8658
b'CHR1:25243590:C'	b'M55CtrlR3'	4	0.7742	0.0471	0.8658
b'CHR1:25243590:C'	b'M55CtrlR4'	4	0.7315	0.0534	0.8658
b'CHR1:26952030:A'	b'M55CtrlR1'	4	0.4304	0.0358	0.6686
b'CHR1:26952030:A'	b'M55CtrlR2'	4	0.7736	0.0536	0.6686
b'CHR1:26952030:A'	b'M55CtrlR3'	4	0.7742	0.0471	0.6686
b'CHR1:26952030:A'	b'M55CtrlR4'	4	0.7315	0.0534	0.6686
b'CHR1:31698605:G'	b'M55CtrlR1'	4	0.4304	0.0358	0.8147
b'CHR1:31698605:G'	b'M55CtrlR2'	4	0.7736	0.0536	0.8147
b'CHR1:31698605:G'	b'M55CtrlR3'	4	0.7742	0.0471	0.8147
b'CHR1:31698605:G'	b'M55CtrlR4'	4	0.7315	0.0534	0.8147
b'CHR1:32770050:G'	b'M55CtrlR1'	4	0.4304	0.0358	0.5006
b'CHR1:32770050:G'	b'M55CtrlR2'	4	0.7736	0.0536	0.5006
b'CHR1:32770050:G'	b'M55CtrlR3'	4	0.7742	0.0471	0.5006
b'CHR1:32770050:G'	b'M55CtrlR4'	4	0.7315	0.0534	0.5006
b'CHR1:3763211:T'	b'M55CtrlR1'	4	0.4304	0.0358	0.9624
b'CHR1:3763211:T'	b'M55CtrlR2'	4	0.7736	0.0536	0.9624
b'CHR1:3763211:T'	b'M55CtrlR3'	4	0.7742	0.0471	0.9624
b'CHR1:3763211:T'	b'M55CtrlR4'	4	0.7315	0.0534	0.9624
b'CHR1:53594343:C'	b'M55CtrlR1'	4	0.4304	0.0358	0.7040
b'CHR1:53594343:C'	b'M55CtrlR2'	4	0.7736	0.0536	0.7040
b'CHR1:53594343:C'	b'M55CtrlR3'	4	0.7742	0.0471	0.7040
b'CHR1:53594343:C'	b'M55CtrlR4'	4	0.7315	0.0534	0.7040
b'CHR2:107859472:T'	b'M55CtrlR1'	4	0.4304	0.0358	0.8395
b'CHR2:107859472:T'	b'M55CtrlR2'	4	0.7736	0.0536	0.8395
b'CHR2:107859472:T'	b'M55CtrlR3'	4	0.7742	0.0471	0.8395
b'CHR2:107859472:T'	b'M55CtrlR4'	4	0.7315	0.0534	0.8395
b'CHR2:219451248:A'	b'M55CtrlR1'	4	0.4304	0.0358	0.9125
b'CHR2:219451248:A'	b'M55CtrlR2'	4	0.7736	0.0536	0.9125
b'CHR2:219451248:A'	b'M55CtrlR3'	4	0.7742	0.0471	0.9125
b'CHR2:219451248:A'	b'M55CtrlR4'	4	0.7315	0.0534	0.9125
b'CHR3:48447042:C'	b'M55CtrlR1'	4	0.4304	0.0358	0.9493
b'CHR3:48447042:C'	b'M55CtrlR2'	4	0.7736	0.0536	0.9493
b'CHR3:48447042:C'	b'M55CtrlR3'	4	0.7742	0.0471	0.9493
b'CHR3:48447042:C'	b'M55CtrlR4'	4	0.7315	0.0534	0.9493
b'CHR5:150540177:C'	b'M55CtrlR1'	4	0.4304	0.0358	0.6036
b'CHR5:150540177:C'	b'M55CtrlR2'	4	0.7736	0.0536	0.6036
b'CHR5:150540177:C'	b'M55CtrlR3'	4	0.7742	0.0471	0.6036
b'CHR5:150540177:C'	b'M55CtrlR4'	4	0.7315	0.0534	0.6036
b'CHR6:7577027:T'	b'M55CtrlR1'	4	0.4304	0.0358	0.7824
b'CHR6:7577027:T'	b'M55CtrlR2'	4	0.7736	0.0536	0.7824
b'CHR6:7577027:T'	b'M55CtrlR3'	4	0.7742	0.0471	0.7824
b'CHR6:7577027:T'	b'M55CtrlR4'	4	0.7315	0.0534	0.7824
b'CHR7:39085990:C'	b'M55CtrlR1'	4	0.4304	0.0358	0.3062
b'CHR7:39085990:C'	b'M55CtrlR2'	4	0.7736	0.0536	0.3062
b'CHR7:39085990:C'	b'M55CtrlR3'	4	0.7742	0.0471	0.3062
b'CHR7:39085990:C'	b'M55CtrlR4'	4	0.7315	0.0534	0.3062
