mutation_id	sample_id	cluster_id	cellular_prevalence	cellular_prevalence_std	cluster_assignment_prob
b'CHR11:18729503:A'	b'M55CtrlR1'	0	0.2691	0.0300	0.3162
b'CHR11:18729503:A'	b'M55CtrlR2'	0	0.2999	0.0309	0.3162
b'CHR11:18729503:A'	b'M55CtrlR3'	0	0.4088	0.0367	0.3162
b'CHR11:18729503:A'	b'M55CtrlR4'	0	0.2840	0.0368	0.3162
b'CHR13:33016802:A'	b'M55CtrlR1'	0	0.2691	0.0300	0.3676
b'CHR13:33016802:A'	b'M55CtrlR2'	0	0.2999	0.0309	0.3676
b'CHR13:33016802:A'	b'M55CtrlR3'	0	0.4088	0.0367	0.3676
b'CHR13:33016802:A'	b'M55CtrlR4'	0	0.2840	0.0368	0.3676
b'CHR15:23566598:A'	b'M55CtrlR1'	0	0.2691	0.0300	0.4828
b'CHR15:23566598:A'	b'M55CtrlR2'	0	0.2999	0.0309	0.4828
b'CHR15:23566598:A'	b'M55CtrlR3'	0	0.4088	0.0367	0.4828
b'CHR15:23566598:A'	b'M55CtrlR4'	0	0.2840	0.0368	0.4828
b'CHR17:10539354:G'	b'M55CtrlR1'	0	0.2691	0.0300	0.7121
b'CHR17:10539354:G'	b'M55CtrlR2'	0	0.2999	0.0309	0.7121
b'CHR17:10539354:G'	b'M55CtrlR3'	0	0.4088	0.0367	0.7121
b'CHR17:10539354:G'	b'M55CtrlR4'	0	0.2840	0.0368	0.7121
b'CHR17:81937211:G'	b'M55CtrlR1'	0	0.2691	0.0300	0.3367
b'CHR17:81937211:G'	b'M55CtrlR2'	0	0.2999	0.0309	0.3367
b'CHR17:81937211:G'	b'M55CtrlR3'	0	0.4088	0.0367	0.3367
b'CHR17:81937211:G'	b'M55CtrlR4'	0	0.2840	0.0368	0.3367
b'CHR1:111242317:G'	b'M55CtrlR1'	0	0.2691	0.0300	0.4218
b'CHR1:111242317:G'	b'M55CtrlR2'	0	0.2999	0.0309	0.4218
b'CHR1:111242317:G'	b'M55CtrlR3'	0	0.4088	0.0367	0.4218
b'CHR1:111242317:G'	b'M55CtrlR4'	0	0.2840	0.0368	0.4218
b'CHR1:157586429:T'	b'M55CtrlR1'	0	0.2691	0.0300	0.8509
b'CHR1:157586429:T'	b'M55CtrlR2'	0	0.2999	0.0309	0.8509
b'CHR1:157586429:T'	b'M55CtrlR3'	0	0.4088	0.0367	0.8509
b'CHR1:157586429:T'	b'M55CtrlR4'	0	0.2840	0.0368	0.8509
b'CHR1:16759300:T'	b'M55CtrlR1'	0	0.2691	0.0300	0.9955
b'CHR1:16759300:T'	b'M55CtrlR2'	0	0.2999	0.0309	0.9955
b'CHR1:16759300:T'	b'M55CtrlR3'	0	0.4088	0.0367	0.9955
b'CHR1:16759300:T'	b'M55CtrlR4'	0	0.2840	0.0368	0.9955
b'CHR1:247423969:T'	b'M55CtrlR1'	0	0.2691	0.0300	0.9874
b'CHR1:247423969:T'	b'M55CtrlR2'	0	0.2999	0.0309	0.9874
b'CHR1:247423969:T'	b'M55CtrlR3'	0	0.4088	0.0367	0.9874
b'CHR1:247423969:T'	b'M55CtrlR4'	0	0.2840	0.0368	0.9874
b'CHR1:66893260:C'	b'M55CtrlR1'	0	0.2691	0.0300	0.3311
b'CHR1:66893260:C'	b'M55CtrlR2'	0	0.2999	0.0309	0.3311
b'CHR1:66893260:C'	b'M55CtrlR3'	0	0.4088	0.0367	0.3311
b'CHR1:66893260:C'	b'M55CtrlR4'	0	0.2840	0.0368	0.3311
b'CHR21:44591443:C'	b'M55CtrlR1'	0	0.2691	0.0300	0.6505
b'CHR21:44591443:C'	b'M55CtrlR2'	0	0.2999	0.0309	0.6505
b'CHR21:44591443:C'	b'M55CtrlR3'	0	0.4088	0.0367	0.6505
b'CHR21:44591443:C'	b'M55CtrlR4'	0	0.2840	0.0368	0.6505
b'CHR22:37018347:A'	b'M55CtrlR1'	0	0.2691	0.0300	0.3937
b'CHR22:37018347:A'	b'M55CtrlR2'	0	0.2999	0.0309	0.3937
b'CHR22:37018347:A'	b'M55CtrlR3'	0	0.4088	0.0367	0.3937
b'CHR22:37018347:A'	b'M55CtrlR4'	0	0.2840	0.0368	0.3937
b'CHR2:186838999:G'	b'M55CtrlR1'	0	0.2691	0.0300	0.3725
b'CHR2:186838999:G'	b'M55CtrlR2'	0	0.2999	0.0309	0.3725
b'CHR2:186838999:G'	b'M55CtrlR3'	0	0.4088	0.0367	0.3725
b'CHR2:186838999:G'	b'M55CtrlR4'	0	0.2840	0.0368	0.3725
b'CHR3:55073793:A'	b'M55CtrlR1'	0	0.2691	0.0300	0.5072
b'CHR3:55073793:A'	b'M55CtrlR2'	0	0.2999	0.0309	0.5072
b'CHR3:55073793:A'	b'M55CtrlR3'	0	0.4088	0.0367	0.5072
b'CHR3:55073793:A'	b'M55CtrlR4'	0	0.2840	0.0368	0.5072
b'CHR4:105942405:T'	b'M55CtrlR1'	0	0.2691	0.0300	0.4778
b'CHR4:105942405:T'	b'M55CtrlR2'	0	0.2999	0.0309	0.4778
b'CHR4:105942405:T'	b'M55CtrlR3'	0	0.4088	0.0367	0.4778
b'CHR4:105942405:T'	b'M55CtrlR4'	0	0.2840	0.0368	0.4778
b'CHR5:35807207:A'	b'M55CtrlR1'	0	0.2691	0.0300	0.4446
b'CHR5:35807207:A'	b'M55CtrlR2'	0	0.2999	0.0309	0.4446
b'CHR5:35807207:A'	b'M55CtrlR3'	0	0.4088	0.0367	0.4446
b'CHR5:35807207:A'	b'M55CtrlR4'	0	0.2840	0.0368	0.4446
b'CHR6:10687513:T'	b'M55CtrlR1'	0	0.2691	0.0300	0.8438
b'CHR6:10687513:T'	b'M55CtrlR2'	0	0.2999	0.0309	0.8438
b'CHR6:10687513:T'	b'M55CtrlR3'	0	0.4088	0.0367	0.8438
b'CHR6:10687513:T'	b'M55CtrlR4'	0	0.2840	0.0368	0.8438
b'CHR6:11193627:A'	b'M55CtrlR1'	0	0.2691	0.0300	0.9947
b'CHR6:11193627:A'	b'M55CtrlR2'	0	0.2999	0.0309	0.9947
b'CHR6:11193627:A'	b'M55CtrlR3'	0	0.4088	0.0367	0.9947
b'CHR6:11193627:A'	b'M55CtrlR4'	0	0.2840	0.0368	0.9947
b'CHR6:12120212:G'	b'M55CtrlR1'	0	0.2691	0.0300	0.8972
b'CHR6:12120212:G'	b'M55CtrlR2'	0	0.2999	0.0309	0.8972
b'CHR6:12120212:G'	b'M55CtrlR3'	0	0.4088	0.0367	0.8972
b'CHR6:12120212:G'	b'M55CtrlR4'	0	0.2840	0.0368	0.8972
b'CHR6:2749147:T'	b'M55CtrlR1'	0	0.2691	0.0300	0.7121
b'CHR6:2749147:T'	b'M55CtrlR2'	0	0.2999	0.0309	0.7121
b'CHR6:2749147:T'	b'M55CtrlR3'	0	0.4088	0.0367	0.7121
b'CHR6:2749147:T'	b'M55CtrlR4'	0	0.2840	0.0368	0.7121
b'CHR6:7393219:T'	b'M55CtrlR1'	0	0.2691	0.0300	0.6585
b'CHR6:7393219:T'	b'M55CtrlR2'	0	0.2999	0.0309	0.6585
b'CHR6:7393219:T'	b'M55CtrlR3'	0	0.4088	0.0367	0.6585
b'CHR6:7393219:T'	b'M55CtrlR4'	0	0.2840	0.0368	0.6585
b'CHR6:7581403:A'	b'M55CtrlR1'	0	0.2691	0.0300	0.7768
b'CHR6:7581403:A'	b'M55CtrlR2'	0	0.2999	0.0309	0.7768
b'CHR6:7581403:A'	b'M55CtrlR3'	0	0.4088	0.0367	0.7768
b'CHR6:7581403:A'	b'M55CtrlR4'	0	0.2840	0.0368	0.7768
b'CHR6:9775825:A'	b'M55CtrlR1'	0	0.2691	0.0300	0.7411
b'CHR6:9775825:A'	b'M55CtrlR2'	0	0.2999	0.0309	0.7411
b'CHR6:9775825:A'	b'M55CtrlR3'	0	0.4088	0.0367	0.7411
b'CHR6:9775825:A'	b'M55CtrlR4'	0	0.2840	0.0368	0.7411
b'CHR7:39085988:C'	b'M55CtrlR1'	0	0.2691	0.0300	0.2800
b'CHR7:39085988:C'	b'M55CtrlR2'	0	0.2999	0.0309	0.2800
b'CHR7:39085988:C'	b'M55CtrlR3'	0	0.4088	0.0367	0.2800
b'CHR7:39085988:C'	b'M55CtrlR4'	0	0.2840	0.0368	0.2800
b'CHR7:55747834:A'	b'M55CtrlR1'	0	0.2691	0.0300	0.3311
b'CHR7:55747834:A'	b'M55CtrlR2'	0	0.2999	0.0309	0.3311
b'CHR7:55747834:A'	b'M55CtrlR3'	0	0.4088	0.0367	0.3311
b'CHR7:55747834:A'	b'M55CtrlR4'	0	0.2840	0.0368	0.3311
b'CHR10:102381157:T'	b'M55CtrlR1'	1	0.1771	0.0190	0.7852
b'CHR10:102381157:T'	b'M55CtrlR2'	1	0.1989	0.0208	0.7852
b'CHR10:102381157:T'	b'M55CtrlR3'	1	0.1825	0.0185	0.7852
b'CHR10:102381157:T'	b'M55CtrlR4'	1	0.1677	0.0196	0.7852
b'CHR10:133084811:T'	b'M55CtrlR1'	1	0.1771	0.0190	0.3588
b'CHR10:133084811:T'	b'M55CtrlR2'	1	0.1989	0.0208	0.3588
b'CHR10:133084811:T'	b'M55CtrlR3'	1	0.1825	0.0185	0.3588
b'CHR10:133084811:T'	b'M55CtrlR4'	1	0.1677	0.0196	0.3588
b'CHR10:37153617:T'	b'M55CtrlR1'	1	0.1771	0.0190	0.8157
b'CHR10:37153617:T'	b'M55CtrlR2'	1	0.1989	0.0208	0.8157
b'CHR10:37153617:T'	b'M55CtrlR3'	1	0.1825	0.0185	0.8157
b'CHR10:37153617:T'	b'M55CtrlR4'	1	0.1677	0.0196	0.8157
b'CHR10:73751113:G'	b'M55CtrlR1'	1	0.1771	0.0190	0.8488
b'CHR10:73751113:G'	b'M55CtrlR2'	1	0.1989	0.0208	0.8488
b'CHR10:73751113:G'	b'M55CtrlR3'	1	0.1825	0.0185	0.8488
b'CHR10:73751113:G'	b'M55CtrlR4'	1	0.1677	0.0196	0.8488
b'CHR11:103245294:A'	b'M55CtrlR1'	1	0.1771	0.0190	0.6978
b'CHR11:103245294:A'	b'M55CtrlR2'	1	0.1989	0.0208	0.6978
b'CHR11:103245294:A'	b'M55CtrlR3'	1	0.1825	0.0185	0.6978
b'CHR11:103245294:A'	b'M55CtrlR4'	1	0.1677	0.0196	0.6978
b'CHR11:123806117:C'	b'M55CtrlR1'	1	0.1771	0.0190	0.7376
b'CHR11:123806117:C'	b'M55CtrlR2'	1	0.1989	0.0208	0.7376
b'CHR11:123806117:C'	b'M55CtrlR3'	1	0.1825	0.0185	0.7376
b'CHR11:123806117:C'	b'M55CtrlR4'	1	0.1677	0.0196	0.7376
b'CHR11:56490737:A'	b'M55CtrlR1'	1	0.1771	0.0190	0.5163
b'CHR11:56490737:A'	b'M55CtrlR2'	1	0.1989	0.0208	0.5163
b'CHR11:56490737:A'	b'M55CtrlR3'	1	0.1825	0.0185	0.5163
b'CHR11:56490737:A'	b'M55CtrlR4'	1	0.1677	0.0196	0.5163
b'CHR11:6270799:T'	b'M55CtrlR1'	1	0.1771	0.0190	0.9636
b'CHR11:6270799:T'	b'M55CtrlR2'	1	0.1989	0.0208	0.9636
b'CHR11:6270799:T'	b'M55CtrlR3'	1	0.1825	0.0185	0.9636
b'CHR11:6270799:T'	b'M55CtrlR4'	1	0.1677	0.0196	0.9636
b'CHR11:72136010:A'	b'M55CtrlR1'	1	0.1771	0.0190	0.8160
b'CHR11:72136010:A'	b'M55CtrlR2'	1	0.1989	0.0208	0.8160
b'CHR11:72136010:A'	b'M55CtrlR3'	1	0.1825	0.0185	0.8160
b'CHR11:72136010:A'	b'M55CtrlR4'	1	0.1677	0.0196	0.8160
b'CHR11:73975073:A'	b'M55CtrlR1'	1	0.1771	0.0190	0.4772
b'CHR11:73975073:A'	b'M55CtrlR2'	1	0.1989	0.0208	0.4772
b'CHR11:73975073:A'	b'M55CtrlR3'	1	0.1825	0.0185	0.4772
b'CHR11:73975073:A'	b'M55CtrlR4'	1	0.1677	0.0196	0.4772
b'CHR11:77685130:T'	b'M55CtrlR1'	1	0.1771	0.0190	0.6874
b'CHR11:77685130:T'	b'M55CtrlR2'	1	0.1989	0.0208	0.6874
b'CHR11:77685130:T'	b'M55CtrlR3'	1	0.1825	0.0185	0.6874
b'CHR11:77685130:T'	b'M55CtrlR4'	1	0.1677	0.0196	0.6874
b'CHR12:108518570:T'	b'M55CtrlR1'	1	0.1771	0.0190	0.9989
b'CHR12:108518570:T'	b'M55CtrlR2'	1	0.1989	0.0208	0.9989
b'CHR12:108518570:T'	b'M55CtrlR3'	1	0.1825	0.0185	0.9989
b'CHR12:108518570:T'	b'M55CtrlR4'	1	0.1677	0.0196	0.9989
b'CHR12:112477653:T'	b'M55CtrlR1'	1	0.1771	0.0190	0.4202
b'CHR12:112477653:T'	b'M55CtrlR2'	1	0.1989	0.0208	0.4202
b'CHR12:112477653:T'	b'M55CtrlR3'	1	0.1825	0.0185	0.4202
b'CHR12:112477653:T'	b'M55CtrlR4'	1	0.1677	0.0196	0.4202
b'CHR12:129700067:A'	b'M55CtrlR1'	1	0.1771	0.0190	0.4116
b'CHR12:129700067:A'	b'M55CtrlR2'	1	0.1989	0.0208	0.4116
b'CHR12:129700067:A'	b'M55CtrlR3'	1	0.1825	0.0185	0.4116
b'CHR12:129700067:A'	b'M55CtrlR4'	1	0.1677	0.0196	0.4116
b'CHR12:40481156:A'	b'M55CtrlR1'	1	0.1771	0.0190	0.9698
b'CHR12:40481156:A'	b'M55CtrlR2'	1	0.1989	0.0208	0.9698
b'CHR12:40481156:A'	b'M55CtrlR3'	1	0.1825	0.0185	0.9698
b'CHR12:40481156:A'	b'M55CtrlR4'	1	0.1677	0.0196	0.9698
b'CHR12:40481157:G'	b'M55CtrlR1'	1	0.1771	0.0190	0.9698
b'CHR12:40481157:G'	b'M55CtrlR2'	1	0.1989	0.0208	0.9698
b'CHR12:40481157:G'	b'M55CtrlR3'	1	0.1825	0.0185	0.9698
b'CHR12:40481157:G'	b'M55CtrlR4'	1	0.1677	0.0196	0.9698
b'CHR12:55027042:G'	b'M55CtrlR1'	1	0.1771	0.0190	0.6351
b'CHR12:55027042:G'	b'M55CtrlR2'	1	0.1989	0.0208	0.6351
b'CHR12:55027042:G'	b'M55CtrlR3'	1	0.1825	0.0185	0.6351
b'CHR12:55027042:G'	b'M55CtrlR4'	1	0.1677	0.0196	0.6351
b'CHR12:7929771:C'	b'M55CtrlR1'	1	0.1771	0.0190	0.4460
b'CHR12:7929771:C'	b'M55CtrlR2'	1	0.1989	0.0208	0.4460
b'CHR12:7929771:C'	b'M55CtrlR3'	1	0.1825	0.0185	0.4460
b'CHR12:7929771:C'	b'M55CtrlR4'	1	0.1677	0.0196	0.4460
b'CHR12:85046079:A'	b'M55CtrlR1'	1	0.1771	0.0190	0.5241
b'CHR12:85046079:A'	b'M55CtrlR2'	1	0.1989	0.0208	0.5241
b'CHR12:85046079:A'	b'M55CtrlR3'	1	0.1825	0.0185	0.5241
b'CHR12:85046079:A'	b'M55CtrlR4'	1	0.1677	0.0196	0.5241
b'CHR13:95234663:A'	b'M55CtrlR1'	1	0.1771	0.0190	0.6748
b'CHR13:95234663:A'	b'M55CtrlR2'	1	0.1989	0.0208	0.6748
b'CHR13:95234663:A'	b'M55CtrlR3'	1	0.1825	0.0185	0.6748
b'CHR13:95234663:A'	b'M55CtrlR4'	1	0.1677	0.0196	0.6748
b'CHR14:20144218:A'	b'M55CtrlR1'	1	0.1771	0.0190	0.8334
b'CHR14:20144218:A'	b'M55CtrlR2'	1	0.1989	0.0208	0.8334
b'CHR14:20144218:A'	b'M55CtrlR3'	1	0.1825	0.0185	0.8334
b'CHR14:20144218:A'	b'M55CtrlR4'	1	0.1677	0.0196	0.8334
b'CHR14:20144219:A'	b'M55CtrlR1'	1	0.1771	0.0190	0.8334
b'CHR14:20144219:A'	b'M55CtrlR2'	1	0.1989	0.0208	0.8334
b'CHR14:20144219:A'	b'M55CtrlR3'	1	0.1825	0.0185	0.8334
b'CHR14:20144219:A'	b'M55CtrlR4'	1	0.1677	0.0196	0.8334
b'CHR14:52042283:A'	b'M55CtrlR1'	1	0.1771	0.0190	0.9559
b'CHR14:52042283:A'	b'M55CtrlR2'	1	0.1989	0.0208	0.9559
b'CHR14:52042283:A'	b'M55CtrlR3'	1	0.1825	0.0185	0.9559
b'CHR14:52042283:A'	b'M55CtrlR4'	1	0.1677	0.0196	0.9559
b'CHR15:33826673:A'	b'M55CtrlR1'	1	0.1771	0.0190	0.5305
b'CHR15:33826673:A'	b'M55CtrlR2'	1	0.1989	0.0208	0.5305
b'CHR15:33826673:A'	b'M55CtrlR3'	1	0.1825	0.0185	0.5305
b'CHR15:33826673:A'	b'M55CtrlR4'	1	0.1677	0.0196	0.5305
b'CHR15:41572531:T'	b'M55CtrlR1'	1	0.1771	0.0190	0.9286
b'CHR15:41572531:T'	b'M55CtrlR2'	1	0.1989	0.0208	0.9286
b'CHR15:41572531:T'	b'M55CtrlR3'	1	0.1825	0.0185	0.9286
b'CHR15:41572531:T'	b'M55CtrlR4'	1	0.1677	0.0196	0.9286
b'CHR15:45095849:C'	b'M55CtrlR1'	1	0.1771	0.0190	0.8429
b'CHR15:45095849:C'	b'M55CtrlR2'	1	0.1989	0.0208	0.8429
b'CHR15:45095849:C'	b'M55CtrlR3'	1	0.1825	0.0185	0.8429
b'CHR15:45095849:C'	b'M55CtrlR4'	1	0.1677	0.0196	0.8429
b'CHR16:1257049:T'	b'M55CtrlR1'	1	0.1771	0.0190	0.6849
b'CHR16:1257049:T'	b'M55CtrlR2'	1	0.1989	0.0208	0.6849
b'CHR16:1257049:T'	b'M55CtrlR3'	1	0.1825	0.0185	0.6849
b'CHR16:1257049:T'	b'M55CtrlR4'	1	0.1677	0.0196	0.6849
b'CHR16:87904819:T'	b'M55CtrlR1'	1	0.1771	0.0190	0.7679
b'CHR16:87904819:T'	b'M55CtrlR2'	1	0.1989	0.0208	0.7679
b'CHR16:87904819:T'	b'M55CtrlR3'	1	0.1825	0.0185	0.7679
b'CHR16:87904819:T'	b'M55CtrlR4'	1	0.1677	0.0196	0.7679
b'CHR17:10409139:T'	b'M55CtrlR1'	1	0.1771	0.0190	0.5391
b'CHR17:10409139:T'	b'M55CtrlR2'	1	0.1989	0.0208	0.5391
b'CHR17:10409139:T'	b'M55CtrlR3'	1	0.1825	0.0185	0.5391
b'CHR17:10409139:T'	b'M55CtrlR4'	1	0.1677	0.0196	0.5391
b'CHR17:18971139:A'	b'M55CtrlR1'	1	0.1771	0.0190	0.9961
b'CHR17:18971139:A'	b'M55CtrlR2'	1	0.1989	0.0208	0.9961
b'CHR17:18971139:A'	b'M55CtrlR3'	1	0.1825	0.0185	0.9961
b'CHR17:18971139:A'	b'M55CtrlR4'	1	0.1677	0.0196	0.9961
b'CHR17:48852548:T'	b'M55CtrlR1'	1	0.1771	0.0190	0.9802
b'CHR17:48852548:T'	b'M55CtrlR2'	1	0.1989	0.0208	0.9802
b'CHR17:48852548:T'	b'M55CtrlR3'	1	0.1825	0.0185	0.9802
b'CHR17:48852548:T'	b'M55CtrlR4'	1	0.1677	0.0196	0.9802
b'CHR17:63931346:T'	b'M55CtrlR1'	1	0.1771	0.0190	0.9926
b'CHR17:63931346:T'	b'M55CtrlR2'	1	0.1989	0.0208	0.9926
b'CHR17:63931346:T'	b'M55CtrlR3'	1	0.1825	0.0185	0.9926
b'CHR17:63931346:T'	b'M55CtrlR4'	1	0.1677	0.0196	0.9926
b'CHR17:80010681:A'	b'M55CtrlR1'	1	0.1771	0.0190	0.7316
b'CHR17:80010681:A'	b'M55CtrlR2'	1	0.1989	0.0208	0.7316
b'CHR17:80010681:A'	b'M55CtrlR3'	1	0.1825	0.0185	0.7316
b'CHR17:80010681:A'	b'M55CtrlR4'	1	0.1677	0.0196	0.7316
b'CHR17:80213874:A'	b'M55CtrlR1'	1	0.1771	0.0190	0.5558
b'CHR17:80213874:A'	b'M55CtrlR2'	1	0.1989	0.0208	0.5558
b'CHR17:80213874:A'	b'M55CtrlR3'	1	0.1825	0.0185	0.5558
b'CHR17:80213874:A'	b'M55CtrlR4'	1	0.1677	0.0196	0.5558
b'CHR19:1036180:T'	b'M55CtrlR1'	1	0.1771	0.0190	0.3766
b'CHR19:1036180:T'	b'M55CtrlR2'	1	0.1989	0.0208	0.3766
b'CHR19:1036180:T'	b'M55CtrlR3'	1	0.1825	0.0185	0.3766
b'CHR19:1036180:T'	b'M55CtrlR4'	1	0.1677	0.0196	0.3766
b'CHR19:14765687:T'	b'M55CtrlR1'	1	0.1771	0.0190	0.9958
b'CHR19:14765687:T'	b'M55CtrlR2'	1	0.1989	0.0208	0.9958
b'CHR19:14765687:T'	b'M55CtrlR3'	1	0.1825	0.0185	0.9958
b'CHR19:14765687:T'	b'M55CtrlR4'	1	0.1677	0.0196	0.9958
b'CHR19:20545051:T'	b'M55CtrlR1'	1	0.1771	0.0190	0.9959
b'CHR19:20545051:T'	b'M55CtrlR2'	1	0.1989	0.0208	0.9959
b'CHR19:20545051:T'	b'M55CtrlR3'	1	0.1825	0.0185	0.9959
b'CHR19:20545051:T'	b'M55CtrlR4'	1	0.1677	0.0196	0.9959
b'CHR19:37888408:A'	b'M55CtrlR1'	1	0.1771	0.0190	0.8339
b'CHR19:37888408:A'	b'M55CtrlR2'	1	0.1989	0.0208	0.8339
b'CHR19:37888408:A'	b'M55CtrlR3'	1	0.1825	0.0185	0.8339
b'CHR19:37888408:A'	b'M55CtrlR4'	1	0.1677	0.0196	0.8339
b'CHR19:44908594:T'	b'M55CtrlR1'	1	0.1771	0.0190	0.9506
b'CHR19:44908594:T'	b'M55CtrlR2'	1	0.1989	0.0208	0.9506
b'CHR19:44908594:T'	b'M55CtrlR3'	1	0.1825	0.0185	0.9506
b'CHR19:44908594:T'	b'M55CtrlR4'	1	0.1677	0.0196	0.9506
b'CHR19:45591702:A'	b'M55CtrlR1'	1	0.1771	0.0190	0.8772
b'CHR19:45591702:A'	b'M55CtrlR2'	1	0.1989	0.0208	0.8772
b'CHR19:45591702:A'	b'M55CtrlR3'	1	0.1825	0.0185	0.8772
b'CHR19:45591702:A'	b'M55CtrlR4'	1	0.1677	0.0196	0.8772
b'CHR19:52705931:T'	b'M55CtrlR1'	1	0.1771	0.0190	0.9500
b'CHR19:52705931:T'	b'M55CtrlR2'	1	0.1989	0.0208	0.9500
b'CHR19:52705931:T'	b'M55CtrlR3'	1	0.1825	0.0185	0.9500
b'CHR19:52705931:T'	b'M55CtrlR4'	1	0.1677	0.0196	0.9500
b'CHR19:53873532:T'	b'M55CtrlR1'	1	0.1771	0.0190	0.9313
b'CHR19:53873532:T'	b'M55CtrlR2'	1	0.1989	0.0208	0.9313
b'CHR19:53873532:T'	b'M55CtrlR3'	1	0.1825	0.0185	0.9313
b'CHR19:53873532:T'	b'M55CtrlR4'	1	0.1677	0.0196	0.9313
b'CHR1:1046687:A'	b'M55CtrlR1'	1	0.1771	0.0190	0.6372
b'CHR1:1046687:A'	b'M55CtrlR2'	1	0.1989	0.0208	0.6372
b'CHR1:1046687:A'	b'M55CtrlR3'	1	0.1825	0.0185	0.6372
b'CHR1:1046687:A'	b'M55CtrlR4'	1	0.1677	0.0196	0.6372
b'CHR1:113981341:T'	b'M55CtrlR1'	1	0.1771	0.0190	0.7757
b'CHR1:113981341:T'	b'M55CtrlR2'	1	0.1989	0.0208	0.7757
b'CHR1:113981341:T'	b'M55CtrlR3'	1	0.1825	0.0185	0.7757
b'CHR1:113981341:T'	b'M55CtrlR4'	1	0.1677	0.0196	0.7757
b'CHR1:119922269:T'	b'M55CtrlR1'	1	0.1771	0.0190	0.4239
b'CHR1:119922269:T'	b'M55CtrlR2'	1	0.1989	0.0208	0.4239
b'CHR1:119922269:T'	b'M55CtrlR3'	1	0.1825	0.0185	0.4239
b'CHR1:119922269:T'	b'M55CtrlR4'	1	0.1677	0.0196	0.4239
b'CHR1:1495915:C'	b'M55CtrlR1'	1	0.1771	0.0190	0.8131
b'CHR1:1495915:C'	b'M55CtrlR2'	1	0.1989	0.0208	0.8131
b'CHR1:1495915:C'	b'M55CtrlR3'	1	0.1825	0.0185	0.8131
b'CHR1:1495915:C'	b'M55CtrlR4'	1	0.1677	0.0196	0.8131
b'CHR1:15104181:A'	b'M55CtrlR1'	1	0.1771	0.0190	0.3766
b'CHR1:15104181:A'	b'M55CtrlR2'	1	0.1989	0.0208	0.3766
b'CHR1:15104181:A'	b'M55CtrlR3'	1	0.1825	0.0185	0.3766
b'CHR1:15104181:A'	b'M55CtrlR4'	1	0.1677	0.0196	0.3766
b'CHR1:152219804:C'	b'M55CtrlR1'	1	0.1771	0.0190	0.9984
b'CHR1:152219804:C'	b'M55CtrlR2'	1	0.1989	0.0208	0.9984
b'CHR1:152219804:C'	b'M55CtrlR3'	1	0.1825	0.0185	0.9984
b'CHR1:152219804:C'	b'M55CtrlR4'	1	0.1677	0.0196	0.9984
b'CHR1:153938962:T'	b'M55CtrlR1'	1	0.1771	0.0190	0.4237
b'CHR1:153938962:T'	b'M55CtrlR2'	1	0.1989	0.0208	0.4237
b'CHR1:153938962:T'	b'M55CtrlR3'	1	0.1825	0.0185	0.4237
b'CHR1:153938962:T'	b'M55CtrlR4'	1	0.1677	0.0196	0.4237
b'CHR1:161526114:T'	b'M55CtrlR1'	1	0.1771	0.0190	0.9981
b'CHR1:161526114:T'	b'M55CtrlR2'	1	0.1989	0.0208	0.9981
b'CHR1:161526114:T'	b'M55CtrlR3'	1	0.1825	0.0185	0.9981
b'CHR1:161526114:T'	b'M55CtrlR4'	1	0.1677	0.0196	0.9981
b'CHR1:21483257:C'	b'M55CtrlR1'	1	0.1771	0.0190	0.6652
b'CHR1:21483257:C'	b'M55CtrlR2'	1	0.1989	0.0208	0.6652
b'CHR1:21483257:C'	b'M55CtrlR3'	1	0.1825	0.0185	0.6652
b'CHR1:21483257:C'	b'M55CtrlR4'	1	0.1677	0.0196	0.6652
b'CHR1:246850629:T'	b'M55CtrlR1'	1	0.1771	0.0190	0.9704
b'CHR1:246850629:T'	b'M55CtrlR2'	1	0.1989	0.0208	0.9704
b'CHR1:246850629:T'	b'M55CtrlR3'	1	0.1825	0.0185	0.9704
b'CHR1:246850629:T'	b'M55CtrlR4'	1	0.1677	0.0196	0.9704
b'CHR1:248273507:A'	b'M55CtrlR1'	1	0.1771	0.0190	0.5044
b'CHR1:248273507:A'	b'M55CtrlR2'	1	0.1989	0.0208	0.5044
b'CHR1:248273507:A'	b'M55CtrlR3'	1	0.1825	0.0185	0.5044
b'CHR1:248273507:A'	b'M55CtrlR4'	1	0.1677	0.0196	0.5044
b'CHR1:248273509:C'	b'M55CtrlR1'	1	0.1771	0.0190	0.5044
b'CHR1:248273509:C'	b'M55CtrlR2'	1	0.1989	0.0208	0.5044
b'CHR1:248273509:C'	b'M55CtrlR3'	1	0.1825	0.0185	0.5044
b'CHR1:248273509:C'	b'M55CtrlR4'	1	0.1677	0.0196	0.5044
b'CHR1:70039224:A'	b'M55CtrlR1'	1	0.1771	0.0190	0.4989
b'CHR1:70039224:A'	b'M55CtrlR2'	1	0.1989	0.0208	0.4989
b'CHR1:70039224:A'	b'M55CtrlR3'	1	0.1825	0.0185	0.4989
b'CHR1:70039224:A'	b'M55CtrlR4'	1	0.1677	0.0196	0.4989
b'CHR1:8957259:A'	b'M55CtrlR1'	1	0.1771	0.0190	0.5720
b'CHR1:8957259:A'	b'M55CtrlR2'	1	0.1989	0.0208	0.5720
b'CHR1:8957259:A'	b'M55CtrlR3'	1	0.1825	0.0185	0.5720
b'CHR1:8957259:A'	b'M55CtrlR4'	1	0.1677	0.0196	0.5720
b'CHR20:21328621:A'	b'M55CtrlR1'	1	0.1771	0.0190	0.5967
b'CHR20:21328621:A'	b'M55CtrlR2'	1	0.1989	0.0208	0.5967
b'CHR20:21328621:A'	b'M55CtrlR3'	1	0.1825	0.0185	0.5967
b'CHR20:21328621:A'	b'M55CtrlR4'	1	0.1677	0.0196	0.5967
b'CHR2:130075025:T'	b'M55CtrlR1'	1	0.1771	0.0190	0.6527
b'CHR2:130075025:T'	b'M55CtrlR2'	1	0.1989	0.0208	0.6527
b'CHR2:130075025:T'	b'M55CtrlR3'	1	0.1825	0.0185	0.6527
b'CHR2:130075025:T'	b'M55CtrlR4'	1	0.1677	0.0196	0.6527
b'CHR2:151667906:A'	b'M55CtrlR1'	1	0.1771	0.0190	0.6466
b'CHR2:151667906:A'	b'M55CtrlR2'	1	0.1989	0.0208	0.6466
b'CHR2:151667906:A'	b'M55CtrlR3'	1	0.1825	0.0185	0.6466
b'CHR2:151667906:A'	b'M55CtrlR4'	1	0.1677	0.0196	0.6466
b'CHR2:170847706:T'	b'M55CtrlR1'	1	0.1771	0.0190	0.4391
b'CHR2:170847706:T'	b'M55CtrlR2'	1	0.1989	0.0208	0.4391
b'CHR2:170847706:T'	b'M55CtrlR3'	1	0.1825	0.0185	0.4391
b'CHR2:170847706:T'	b'M55CtrlR4'	1	0.1677	0.0196	0.4391
b'CHR2:232381776:G'	b'M55CtrlR1'	1	0.1771	0.0190	0.4460
b'CHR2:232381776:G'	b'M55CtrlR2'	1	0.1989	0.0208	0.4460
b'CHR2:232381776:G'	b'M55CtrlR3'	1	0.1825	0.0185	0.4460
b'CHR2:232381776:G'	b'M55CtrlR4'	1	0.1677	0.0196	0.4460
b'CHR3:50320148:G'	b'M55CtrlR1'	1	0.1771	0.0190	0.9689
b'CHR3:50320148:G'	b'M55CtrlR2'	1	0.1989	0.0208	0.9689
b'CHR3:50320148:G'	b'M55CtrlR3'	1	0.1825	0.0185	0.9689
b'CHR3:50320148:G'	b'M55CtrlR4'	1	0.1677	0.0196	0.9689
b'CHR3:9950005:A'	b'M55CtrlR1'	1	0.1771	0.0190	0.9727
b'CHR3:9950005:A'	b'M55CtrlR2'	1	0.1989	0.0208	0.9727
b'CHR3:9950005:A'	b'M55CtrlR3'	1	0.1825	0.0185	0.9727
b'CHR3:9950005:A'	b'M55CtrlR4'	1	0.1677	0.0196	0.9727
b'CHR4:125317234:A'	b'M55CtrlR1'	1	0.1771	0.0190	0.8990
b'CHR4:125317234:A'	b'M55CtrlR2'	1	0.1989	0.0208	0.8990
b'CHR4:125317234:A'	b'M55CtrlR3'	1	0.1825	0.0185	0.8990
b'CHR4:125317234:A'	b'M55CtrlR4'	1	0.1677	0.0196	0.8990
b'CHR4:147673062:T'	b'M55CtrlR1'	1	0.1771	0.0190	0.6610
b'CHR4:147673062:T'	b'M55CtrlR2'	1	0.1989	0.0208	0.6610
b'CHR4:147673062:T'	b'M55CtrlR3'	1	0.1825	0.0185	0.6610
b'CHR4:147673062:T'	b'M55CtrlR4'	1	0.1677	0.0196	0.6610
b'CHR4:157333318:G'	b'M55CtrlR1'	1	0.1771	0.0190	0.4659
b'CHR4:157333318:G'	b'M55CtrlR2'	1	0.1989	0.0208	0.4659
b'CHR4:157333318:G'	b'M55CtrlR3'	1	0.1825	0.0185	0.4659
b'CHR4:157333318:G'	b'M55CtrlR4'	1	0.1677	0.0196	0.4659
b'CHR4:70644514:G'	b'M55CtrlR1'	1	0.1771	0.0190	0.7084
b'CHR4:70644514:G'	b'M55CtrlR2'	1	0.1989	0.0208	0.7084
b'CHR4:70644514:G'	b'M55CtrlR3'	1	0.1825	0.0185	0.7084
b'CHR4:70644514:G'	b'M55CtrlR4'	1	0.1677	0.0196	0.7084
b'CHR5:141491438:A'	b'M55CtrlR1'	1	0.1771	0.0190	0.9961
b'CHR5:141491438:A'	b'M55CtrlR2'	1	0.1989	0.0208	0.9961
b'CHR5:141491438:A'	b'M55CtrlR3'	1	0.1825	0.0185	0.9961
b'CHR5:141491438:A'	b'M55CtrlR4'	1	0.1677	0.0196	0.9961
b'CHR5:51389819:T'	b'M55CtrlR1'	1	0.1771	0.0190	0.4584
b'CHR5:51389819:T'	b'M55CtrlR2'	1	0.1989	0.0208	0.4584
b'CHR5:51389819:T'	b'M55CtrlR3'	1	0.1825	0.0185	0.4584
b'CHR5:51389819:T'	b'M55CtrlR4'	1	0.1677	0.0196	0.4584
b'CHR6:13711047:G'	b'M55CtrlR1'	1	0.1771	0.0190	0.5819
b'CHR6:13711047:G'	b'M55CtrlR2'	1	0.1989	0.0208	0.5819
b'CHR6:13711047:G'	b'M55CtrlR3'	1	0.1825	0.0185	0.5819
b'CHR6:13711047:G'	b'M55CtrlR4'	1	0.1677	0.0196	0.5819
b'CHR6:154832130:T'	b'M55CtrlR1'	1	0.1771	0.0190	0.4482
b'CHR6:154832130:T'	b'M55CtrlR2'	1	0.1989	0.0208	0.4482
b'CHR6:154832130:T'	b'M55CtrlR3'	1	0.1825	0.0185	0.4482
b'CHR6:154832130:T'	b'M55CtrlR4'	1	0.1677	0.0196	0.4482
b'CHR6:16326648:A'	b'M55CtrlR1'	1	0.1771	0.0190	0.6557
b'CHR6:16326648:A'	b'M55CtrlR2'	1	0.1989	0.0208	0.6557
b'CHR6:16326648:A'	b'M55CtrlR3'	1	0.1825	0.0185	0.6557
b'CHR6:16326648:A'	b'M55CtrlR4'	1	0.1677	0.0196	0.6557
b'CHR6:3264292:T'	b'M55CtrlR1'	1	0.1771	0.0190	0.7380
b'CHR6:3264292:T'	b'M55CtrlR2'	1	0.1989	0.0208	0.7380
b'CHR6:3264292:T'	b'M55CtrlR3'	1	0.1825	0.0185	0.7380
b'CHR6:3264292:T'	b'M55CtrlR4'	1	0.1677	0.0196	0.7380
b'CHR6:3264293:C'	b'M55CtrlR1'	1	0.1771	0.0190	0.7380
b'CHR6:3264293:C'	b'M55CtrlR2'	1	0.1989	0.0208	0.7380
b'CHR6:3264293:C'	b'M55CtrlR3'	1	0.1825	0.0185	0.7380
b'CHR6:3264293:C'	b'M55CtrlR4'	1	0.1677	0.0196	0.7380
b'CHR6:57174231:A'	b'M55CtrlR1'	1	0.1771	0.0190	0.6594
b'CHR6:57174231:A'	b'M55CtrlR2'	1	0.1989	0.0208	0.6594
b'CHR6:57174231:A'	b'M55CtrlR3'	1	0.1825	0.0185	0.6594
b'CHR6:57174231:A'	b'M55CtrlR4'	1	0.1677	0.0196	0.6594
b'CHR6:7601487:T'	b'M55CtrlR1'	1	0.1771	0.0190	0.6266
b'CHR6:7601487:T'	b'M55CtrlR2'	1	0.1989	0.0208	0.6266
b'CHR6:7601487:T'	b'M55CtrlR3'	1	0.1825	0.0185	0.6266
b'CHR6:7601487:T'	b'M55CtrlR4'	1	0.1677	0.0196	0.6266
b'CHR7:44539245:T'	b'M55CtrlR1'	1	0.1771	0.0190	0.5844
b'CHR7:44539245:T'	b'M55CtrlR2'	1	0.1989	0.0208	0.5844
b'CHR7:44539245:T'	b'M55CtrlR3'	1	0.1825	0.0185	0.5844
b'CHR7:44539245:T'	b'M55CtrlR4'	1	0.1677	0.0196	0.5844
b'CHR9:125326478:G'	b'M55CtrlR1'	1	0.1771	0.0190	0.9846
b'CHR9:125326478:G'	b'M55CtrlR2'	1	0.1989	0.0208	0.9846
b'CHR9:125326478:G'	b'M55CtrlR3'	1	0.1825	0.0185	0.9846
b'CHR9:125326478:G'	b'M55CtrlR4'	1	0.1677	0.0196	0.9846
b'CHR9:125337434:T'	b'M55CtrlR1'	1	0.1771	0.0190	0.6733
b'CHR9:125337434:T'	b'M55CtrlR2'	1	0.1989	0.0208	0.6733
b'CHR9:125337434:T'	b'M55CtrlR3'	1	0.1825	0.0185	0.6733
b'CHR9:125337434:T'	b'M55CtrlR4'	1	0.1677	0.0196	0.6733
b'CHR9:129068201:C'	b'M55CtrlR1'	1	0.1771	0.0190	0.8736
b'CHR9:129068201:C'	b'M55CtrlR2'	1	0.1989	0.0208	0.8736
b'CHR9:129068201:C'	b'M55CtrlR3'	1	0.1825	0.0185	0.8736
b'CHR9:129068201:C'	b'M55CtrlR4'	1	0.1677	0.0196	0.8736
b'CHR9:93952939:A'	b'M55CtrlR1'	1	0.1771	0.0190	0.8778
b'CHR9:93952939:A'	b'M55CtrlR2'	1	0.1989	0.0208	0.8778
b'CHR9:93952939:A'	b'M55CtrlR3'	1	0.1825	0.0185	0.8778
b'CHR9:93952939:A'	b'M55CtrlR4'	1	0.1677	0.0196	0.8778
b'CHR9:95086149:A'	b'M55CtrlR1'	1	0.1771	0.0190	0.6272
b'CHR9:95086149:A'	b'M55CtrlR2'	1	0.1989	0.0208	0.6272
b'CHR9:95086149:A'	b'M55CtrlR3'	1	0.1825	0.0185	0.6272
b'CHR9:95086149:A'	b'M55CtrlR4'	1	0.1677	0.0196	0.6272
b'CHR9:95881156:A'	b'M55CtrlR1'	1	0.1771	0.0190	0.5011
b'CHR9:95881156:A'	b'M55CtrlR2'	1	0.1989	0.0208	0.5011
b'CHR9:95881156:A'	b'M55CtrlR3'	1	0.1825	0.0185	0.5011
b'CHR9:95881156:A'	b'M55CtrlR4'	1	0.1677	0.0196	0.5011
b'CHR11:120128675:T'	b'M55CtrlR1'	2	0.4293	0.0360	0.9889
b'CHR11:120128675:T'	b'M55CtrlR2'	2	0.7750	0.0540	0.9889
b'CHR11:120128675:T'	b'M55CtrlR3'	2	0.7733	0.0473	0.9889
b'CHR11:120128675:T'	b'M55CtrlR4'	2	0.7321	0.0537	0.9889
b'CHR13:110715518:T'	b'M55CtrlR1'	2	0.4293	0.0360	0.3068
b'CHR13:110715518:T'	b'M55CtrlR2'	2	0.7750	0.0540	0.3068
b'CHR13:110715518:T'	b'M55CtrlR3'	2	0.7733	0.0473	0.3068
b'CHR13:110715518:T'	b'M55CtrlR4'	2	0.7321	0.0537	0.3068
b'CHR19:13209361:T'	b'M55CtrlR1'	2	0.4293	0.0360	0.4743
b'CHR19:13209361:T'	b'M55CtrlR2'	2	0.7750	0.0540	0.4743
b'CHR19:13209361:T'	b'M55CtrlR3'	2	0.7733	0.0473	0.4743
b'CHR19:13209361:T'	b'M55CtrlR4'	2	0.7321	0.0537	0.4743
b'CHR19:52881597:A'	b'M55CtrlR1'	2	0.4293	0.0360	0.9996
b'CHR19:52881597:A'	b'M55CtrlR2'	2	0.7750	0.0540	0.9996
b'CHR19:52881597:A'	b'M55CtrlR3'	2	0.7733	0.0473	0.9996
b'CHR19:52881597:A'	b'M55CtrlR4'	2	0.7321	0.0537	0.9996
b'CHR1:155054385:T'	b'M55CtrlR1'	2	0.4293	0.0360	0.8708
b'CHR1:155054385:T'	b'M55CtrlR2'	2	0.7750	0.0540	0.8708
b'CHR1:155054385:T'	b'M55CtrlR3'	2	0.7733	0.0473	0.8708
b'CHR1:155054385:T'	b'M55CtrlR4'	2	0.7321	0.0537	0.8708
b'CHR1:16409637:C'	b'M55CtrlR1'	2	0.4293	0.0360	0.6563
b'CHR1:16409637:C'	b'M55CtrlR2'	2	0.7750	0.0540	0.6563
b'CHR1:16409637:C'	b'M55CtrlR3'	2	0.7733	0.0473	0.6563
b'CHR1:16409637:C'	b'M55CtrlR4'	2	0.7321	0.0537	0.6563
b'CHR1:17070097:A'	b'M55CtrlR1'	2	0.4293	0.0360	0.7484
b'CHR1:17070097:A'	b'M55CtrlR2'	2	0.7750	0.0540	0.7484
b'CHR1:17070097:A'	b'M55CtrlR3'	2	0.7733	0.0473	0.7484
b'CHR1:17070097:A'	b'M55CtrlR4'	2	0.7321	0.0537	0.7484
b'CHR1:202160698:C'	b'M55CtrlR1'	2	0.4293	0.0360	0.8121
b'CHR1:202160698:C'	b'M55CtrlR2'	2	0.7750	0.0540	0.8121
b'CHR1:202160698:C'	b'M55CtrlR3'	2	0.7733	0.0473	0.8121
b'CHR1:202160698:C'	b'M55CtrlR4'	2	0.7321	0.0537	0.8121
b'CHR1:215567710:G'	b'M55CtrlR1'	2	0.4293	0.0360	0.9551
b'CHR1:215567710:G'	b'M55CtrlR2'	2	0.7750	0.0540	0.9551
b'CHR1:215567710:G'	b'M55CtrlR3'	2	0.7733	0.0473	0.9551
b'CHR1:215567710:G'	b'M55CtrlR4'	2	0.7321	0.0537	0.9551
b'CHR1:230921501:T'	b'M55CtrlR1'	2	0.4293	0.0360	0.7994
b'CHR1:230921501:T'	b'M55CtrlR2'	2	0.7750	0.0540	0.7994
b'CHR1:230921501:T'	b'M55CtrlR3'	2	0.7733	0.0473	0.7994
b'CHR1:230921501:T'	b'M55CtrlR4'	2	0.7321	0.0537	0.7994
b'CHR1:25243590:C'	b'M55CtrlR1'	2	0.4293	0.0360	0.8603
b'CHR1:25243590:C'	b'M55CtrlR2'	2	0.7750	0.0540	0.8603
b'CHR1:25243590:C'	b'M55CtrlR3'	2	0.7733	0.0473	0.8603
b'CHR1:25243590:C'	b'M55CtrlR4'	2	0.7321	0.0537	0.8603
b'CHR1:26952030:A'	b'M55CtrlR1'	2	0.4293	0.0360	0.6586
b'CHR1:26952030:A'	b'M55CtrlR2'	2	0.7750	0.0540	0.6586
b'CHR1:26952030:A'	b'M55CtrlR3'	2	0.7733	0.0473	0.6586
b'CHR1:26952030:A'	b'M55CtrlR4'	2	0.7321	0.0537	0.6586
b'CHR1:31698605:G'	b'M55CtrlR1'	2	0.4293	0.0360	0.8053
b'CHR1:31698605:G'	b'M55CtrlR2'	2	0.7750	0.0540	0.8053
b'CHR1:31698605:G'	b'M55CtrlR3'	2	0.7733	0.0473	0.8053
b'CHR1:31698605:G'	b'M55CtrlR4'	2	0.7321	0.0537	0.8053
b'CHR1:3763211:T'	b'M55CtrlR1'	2	0.4293	0.0360	0.9615
b'CHR1:3763211:T'	b'M55CtrlR2'	2	0.7750	0.0540	0.9615
b'CHR1:3763211:T'	b'M55CtrlR3'	2	0.7733	0.0473	0.9615
b'CHR1:3763211:T'	b'M55CtrlR4'	2	0.7321	0.0537	0.9615
b'CHR1:53594343:C'	b'M55CtrlR1'	2	0.4293	0.0360	0.6973
b'CHR1:53594343:C'	b'M55CtrlR2'	2	0.7750	0.0540	0.6973
b'CHR1:53594343:C'	b'M55CtrlR3'	2	0.7733	0.0473	0.6973
b'CHR1:53594343:C'	b'M55CtrlR4'	2	0.7321	0.0537	0.6973
b'CHR2:107859472:T'	b'M55CtrlR1'	2	0.4293	0.0360	0.8347
b'CHR2:107859472:T'	b'M55CtrlR2'	2	0.7750	0.0540	0.8347
b'CHR2:107859472:T'	b'M55CtrlR3'	2	0.7733	0.0473	0.8347
b'CHR2:107859472:T'	b'M55CtrlR4'	2	0.7321	0.0537	0.8347
b'CHR2:219451248:A'	b'M55CtrlR1'	2	0.4293	0.0360	0.9096
b'CHR2:219451248:A'	b'M55CtrlR2'	2	0.7750	0.0540	0.9096
b'CHR2:219451248:A'	b'M55CtrlR3'	2	0.7733	0.0473	0.9096
b'CHR2:219451248:A'	b'M55CtrlR4'	2	0.7321	0.0537	0.9096
b'CHR3:48447042:C'	b'M55CtrlR1'	2	0.4293	0.0360	0.9455
b'CHR3:48447042:C'	b'M55CtrlR2'	2	0.7750	0.0540	0.9455
b'CHR3:48447042:C'	b'M55CtrlR3'	2	0.7733	0.0473	0.9455
b'CHR3:48447042:C'	b'M55CtrlR4'	2	0.7321	0.0537	0.9455
b'CHR5:150540177:C'	b'M55CtrlR1'	2	0.4293	0.0360	0.5923
b'CHR5:150540177:C'	b'M55CtrlR2'	2	0.7750	0.0540	0.5923
b'CHR5:150540177:C'	b'M55CtrlR3'	2	0.7733	0.0473	0.5923
b'CHR5:150540177:C'	b'M55CtrlR4'	2	0.7321	0.0537	0.5923
b'CHR6:7577027:T'	b'M55CtrlR1'	2	0.4293	0.0360	0.7793
b'CHR6:7577027:T'	b'M55CtrlR2'	2	0.7750	0.0540	0.7793
b'CHR6:7577027:T'	b'M55CtrlR3'	2	0.7733	0.0473	0.7793
b'CHR6:7577027:T'	b'M55CtrlR4'	2	0.7321	0.0537	0.7793
b'CHR7:39085990:C'	b'M55CtrlR1'	2	0.4293	0.0360	0.2888
b'CHR7:39085990:C'	b'M55CtrlR2'	2	0.7750	0.0540	0.2888
b'CHR7:39085990:C'	b'M55CtrlR3'	2	0.7733	0.0473	0.2888
b'CHR7:39085990:C'	b'M55CtrlR4'	2	0.7321	0.0537	0.2888
b'CHR10:128101279:T'	b'M55CtrlR1'	3	0.9121	0.0395	0.9968
b'CHR10:128101279:T'	b'M55CtrlR2'	3	0.8649	0.0394	0.9968
b'CHR10:128101279:T'	b'M55CtrlR3'	3	0.8500	0.0396	0.9968
b'CHR10:128101279:T'	b'M55CtrlR4'	3	0.7291	0.0398	0.9968
b'CHR10:92240093:G'	b'M55CtrlR1'	3	0.9121	0.0395	0.3219
b'CHR10:92240093:G'	b'M55CtrlR2'	3	0.8649	0.0394	0.3219
b'CHR10:92240093:G'	b'M55CtrlR3'	3	0.8500	0.0396	0.3219
b'CHR10:92240093:G'	b'M55CtrlR4'	3	0.7291	0.0398	0.3219
b'CHR14:31178233:C'	b'M55CtrlR1'	3	0.9121	0.0395	0.9985
b'CHR14:31178233:C'	b'M55CtrlR2'	3	0.8649	0.0394	0.9985
b'CHR14:31178233:C'	b'M55CtrlR3'	3	0.8500	0.0396	0.9985
b'CHR14:31178233:C'	b'M55CtrlR4'	3	0.7291	0.0398	0.9985
b'CHR14:70060875:T'	b'M55CtrlR1'	3	0.9121	0.0395	0.3160
b'CHR14:70060875:T'	b'M55CtrlR2'	3	0.8649	0.0394	0.3160
b'CHR14:70060875:T'	b'M55CtrlR3'	3	0.8500	0.0396	0.3160
b'CHR14:70060875:T'	b'M55CtrlR4'	3	0.7291	0.0398	0.3160
b'CHR16:1241453:A'	b'M55CtrlR1'	3	0.9121	0.0395	0.6650
b'CHR16:1241453:A'	b'M55CtrlR2'	3	0.8649	0.0394	0.6650
b'CHR16:1241453:A'	b'M55CtrlR3'	3	0.8500	0.0396	0.6650
b'CHR16:1241453:A'	b'M55CtrlR4'	3	0.7291	0.0398	0.6650
b'CHR16:28342968:A'	b'M55CtrlR1'	3	0.9121	0.0395	0.3711
b'CHR16:28342968:A'	b'M55CtrlR2'	3	0.8649	0.0394	0.3711
b'CHR16:28342968:A'	b'M55CtrlR3'	3	0.8500	0.0396	0.3711
b'CHR16:28342968:A'	b'M55CtrlR4'	3	0.7291	0.0398	0.3711
b'CHR19:1049270:A'	b'M55CtrlR1'	3	0.9121	0.0395	0.9674
b'CHR19:1049270:A'	b'M55CtrlR2'	3	0.8649	0.0394	0.9674
b'CHR19:1049270:A'	b'M55CtrlR3'	3	0.8500	0.0396	0.9674
b'CHR19:1049270:A'	b'M55CtrlR4'	3	0.7291	0.0398	0.9674
b'CHR1:11706367:T'	b'M55CtrlR1'	3	0.9121	0.0395	0.9501
b'CHR1:11706367:T'	b'M55CtrlR2'	3	0.8649	0.0394	0.9501
b'CHR1:11706367:T'	b'M55CtrlR3'	3	0.8500	0.0396	0.9501
b'CHR1:11706367:T'	b'M55CtrlR4'	3	0.7291	0.0398	0.9501
b'CHR1:11779915:A'	b'M55CtrlR1'	3	0.9121	0.0395	0.9327
b'CHR1:11779915:A'	b'M55CtrlR2'	3	0.8649	0.0394	0.9327
b'CHR1:11779915:A'	b'M55CtrlR3'	3	0.8500	0.0396	0.9327
b'CHR1:11779915:A'	b'M55CtrlR4'	3	0.7291	0.0398	0.9327
b'CHR1:13343011:A'	b'M55CtrlR1'	3	0.9121	0.0395	0.9757
b'CHR1:13343011:A'	b'M55CtrlR2'	3	0.8649	0.0394	0.9757
b'CHR1:13343011:A'	b'M55CtrlR3'	3	0.8500	0.0396	0.9757
b'CHR1:13343011:A'	b'M55CtrlR4'	3	0.7291	0.0398	0.9757
b'CHR1:13421192:T'	b'M55CtrlR1'	3	0.9121	0.0395	0.9658
b'CHR1:13421192:T'	b'M55CtrlR2'	3	0.8649	0.0394	0.9658
b'CHR1:13421192:T'	b'M55CtrlR3'	3	0.8500	0.0396	0.9658
b'CHR1:13421192:T'	b'M55CtrlR4'	3	0.7291	0.0398	0.9658
b'CHR1:13782619:G'	b'M55CtrlR1'	3	0.9121	0.0395	0.9877
b'CHR1:13782619:G'	b'M55CtrlR2'	3	0.8649	0.0394	0.9877
b'CHR1:13782619:G'	b'M55CtrlR3'	3	0.8500	0.0396	0.9877
b'CHR1:13782619:G'	b'M55CtrlR4'	3	0.7291	0.0398	0.9877
b'CHR1:15939409:A'	b'M55CtrlR1'	3	0.9121	0.0395	0.9996
b'CHR1:15939409:A'	b'M55CtrlR2'	3	0.8649	0.0394	0.9996
b'CHR1:15939409:A'	b'M55CtrlR3'	3	0.8500	0.0396	0.9996
b'CHR1:15939409:A'	b'M55CtrlR4'	3	0.7291	0.0398	0.9996
b'CHR1:160155085:A'	b'M55CtrlR1'	3	0.9121	0.0395	0.4861
b'CHR1:160155085:A'	b'M55CtrlR2'	3	0.8649	0.0394	0.4861
b'CHR1:160155085:A'	b'M55CtrlR3'	3	0.8500	0.0396	0.4861
b'CHR1:160155085:A'	b'M55CtrlR4'	3	0.7291	0.0398	0.4861
b'CHR1:17079314:A'	b'M55CtrlR1'	3	0.9121	0.0395	0.9743
b'CHR1:17079314:A'	b'M55CtrlR2'	3	0.8649	0.0394	0.9743
b'CHR1:17079314:A'	b'M55CtrlR3'	3	0.8500	0.0396	0.9743
b'CHR1:17079314:A'	b'M55CtrlR4'	3	0.7291	0.0398	0.9743
b'CHR1:17084646:G'	b'M55CtrlR1'	3	0.9121	0.0395	0.5476
b'CHR1:17084646:G'	b'M55CtrlR2'	3	0.8649	0.0394	0.5476
b'CHR1:17084646:G'	b'M55CtrlR3'	3	0.8500	0.0396	0.5476
b'CHR1:17084646:G'	b'M55CtrlR4'	3	0.7291	0.0398	0.5476
b'CHR1:18854521:C'	b'M55CtrlR1'	3	0.9121	0.0395	0.4302
b'CHR1:18854521:C'	b'M55CtrlR2'	3	0.8649	0.0394	0.4302
b'CHR1:18854521:C'	b'M55CtrlR3'	3	0.8500	0.0396	0.4302
b'CHR1:18854521:C'	b'M55CtrlR4'	3	0.7291	0.0398	0.4302
b'CHR1:18854588:C'	b'M55CtrlR1'	3	0.9121	0.0395	0.4068
b'CHR1:18854588:C'	b'M55CtrlR2'	3	0.8649	0.0394	0.4068
b'CHR1:18854588:C'	b'M55CtrlR3'	3	0.8500	0.0396	0.4068
b'CHR1:18854588:C'	b'M55CtrlR4'	3	0.7291	0.0398	0.4068
b'CHR1:18877503:G'	b'M55CtrlR1'	3	0.9121	0.0395	0.7173
b'CHR1:18877503:G'	b'M55CtrlR2'	3	0.8649	0.0394	0.7173
b'CHR1:18877503:G'	b'M55CtrlR3'	3	0.8500	0.0396	0.7173
b'CHR1:18877503:G'	b'M55CtrlR4'	3	0.7291	0.0398	0.7173
b'CHR1:19282760:C'	b'M55CtrlR1'	3	0.9121	0.0395	0.9954
b'CHR1:19282760:C'	b'M55CtrlR2'	3	0.8649	0.0394	0.9954
b'CHR1:19282760:C'	b'M55CtrlR3'	3	0.8500	0.0396	0.9954
b'CHR1:19282760:C'	b'M55CtrlR4'	3	0.7291	0.0398	0.9954
b'CHR1:19623568:C'	b'M55CtrlR1'	3	0.9121	0.0395	0.9330
b'CHR1:19623568:C'	b'M55CtrlR2'	3	0.8649	0.0394	0.9330
b'CHR1:19623568:C'	b'M55CtrlR3'	3	0.8500	0.0396	0.9330
b'CHR1:19623568:C'	b'M55CtrlR4'	3	0.7291	0.0398	0.9330
b'CHR1:20084839:T'	b'M55CtrlR1'	3	0.9121	0.0395	0.9671
b'CHR1:20084839:T'	b'M55CtrlR2'	3	0.8649	0.0394	0.9671
b'CHR1:20084839:T'	b'M55CtrlR3'	3	0.8500	0.0396	0.9671
b'CHR1:20084839:T'	b'M55CtrlR4'	3	0.7291	0.0398	0.9671
b'CHR1:21874505:T'	b'M55CtrlR1'	3	0.9121	0.0395	0.6021
b'CHR1:21874505:T'	b'M55CtrlR2'	3	0.8649	0.0394	0.6021
b'CHR1:21874505:T'	b'M55CtrlR3'	3	0.8500	0.0396	0.6021
b'CHR1:21874505:T'	b'M55CtrlR4'	3	0.7291	0.0398	0.6021
b'CHR1:22526222:C'	b'M55CtrlR1'	3	0.9121	0.0395	0.9603
b'CHR1:22526222:C'	b'M55CtrlR2'	3	0.8649	0.0394	0.9603
b'CHR1:22526222:C'	b'M55CtrlR3'	3	0.8500	0.0396	0.9603
b'CHR1:22526222:C'	b'M55CtrlR4'	3	0.7291	0.0398	0.9603
b'CHR1:26344118:T'	b'M55CtrlR1'	3	0.9121	0.0395	0.9442
b'CHR1:26344118:T'	b'M55CtrlR2'	3	0.8649	0.0394	0.9442
b'CHR1:26344118:T'	b'M55CtrlR3'	3	0.8500	0.0396	0.9442
b'CHR1:26344118:T'	b'M55CtrlR4'	3	0.7291	0.0398	0.9442
b'CHR1:27360975:T'	b'M55CtrlR1'	3	0.9121	0.0395	0.7306
b'CHR1:27360975:T'	b'M55CtrlR2'	3	0.8649	0.0394	0.7306
b'CHR1:27360975:T'	b'M55CtrlR3'	3	0.8500	0.0396	0.7306
b'CHR1:27360975:T'	b'M55CtrlR4'	3	0.7291	0.0398	0.7306
b'CHR1:31630664:G'	b'M55CtrlR1'	3	0.9121	0.0395	0.9953
b'CHR1:31630664:G'	b'M55CtrlR2'	3	0.8649	0.0394	0.9953
b'CHR1:31630664:G'	b'M55CtrlR3'	3	0.8500	0.0396	0.9953
b'CHR1:31630664:G'	b'M55CtrlR4'	3	0.7291	0.0398	0.9953
b'CHR1:32770050:G'	b'M55CtrlR1'	3	0.9121	0.0395	0.5120
b'CHR1:32770050:G'	b'M55CtrlR2'	3	0.8649	0.0394	0.5120
b'CHR1:32770050:G'	b'M55CtrlR3'	3	0.8500	0.0396	0.5120
b'CHR1:32770050:G'	b'M55CtrlR4'	3	0.7291	0.0398	0.5120
b'CHR1:33494462:G'	b'M55CtrlR1'	3	0.9121	0.0395	0.9551
b'CHR1:33494462:G'	b'M55CtrlR2'	3	0.8649	0.0394	0.9551
b'CHR1:33494462:G'	b'M55CtrlR3'	3	0.8500	0.0396	0.9551
b'CHR1:33494462:G'	b'M55CtrlR4'	3	0.7291	0.0398	0.9551
b'CHR1:3478610:A'	b'M55CtrlR1'	3	0.9121	0.0395	0.9279
b'CHR1:3478610:A'	b'M55CtrlR2'	3	0.8649	0.0394	0.9279
b'CHR1:3478610:A'	b'M55CtrlR3'	3	0.8500	0.0396	0.9279
b'CHR1:3478610:A'	b'M55CtrlR4'	3	0.7291	0.0398	0.9279
b'CHR1:51840355:A'	b'M55CtrlR1'	3	0.9121	0.0395	0.9529
b'CHR1:51840355:A'	b'M55CtrlR2'	3	0.8649	0.0394	0.9529
b'CHR1:51840355:A'	b'M55CtrlR3'	3	0.8500	0.0396	0.9529
b'CHR1:51840355:A'	b'M55CtrlR4'	3	0.7291	0.0398	0.9529
b'CHR1:53247055:T'	b'M55CtrlR1'	3	0.9121	0.0395	0.9479
b'CHR1:53247055:T'	b'M55CtrlR2'	3	0.8649	0.0394	0.9479
b'CHR1:53247055:T'	b'M55CtrlR3'	3	0.8500	0.0396	0.9479
b'CHR1:53247055:T'	b'M55CtrlR4'	3	0.7291	0.0398	0.9479
b'CHR1:53250744:A'	b'M55CtrlR1'	3	0.9121	0.0395	0.6011
b'CHR1:53250744:A'	b'M55CtrlR2'	3	0.8649	0.0394	0.6011
b'CHR1:53250744:A'	b'M55CtrlR3'	3	0.8500	0.0396	0.6011
b'CHR1:53250744:A'	b'M55CtrlR4'	3	0.7291	0.0398	0.6011
b'CHR1:53594575:C'	b'M55CtrlR1'	3	0.9121	0.0395	0.7214
b'CHR1:53594575:C'	b'M55CtrlR2'	3	0.8649	0.0394	0.7214
b'CHR1:53594575:C'	b'M55CtrlR3'	3	0.8500	0.0396	0.7214
b'CHR1:53594575:C'	b'M55CtrlR4'	3	0.7291	0.0398	0.7214
b'CHR1:63323280:A'	b'M55CtrlR1'	3	0.9121	0.0395	0.9803
b'CHR1:63323280:A'	b'M55CtrlR2'	3	0.8649	0.0394	0.9803
b'CHR1:63323280:A'	b'M55CtrlR3'	3	0.8500	0.0396	0.9803
b'CHR1:63323280:A'	b'M55CtrlR4'	3	0.7291	0.0398	0.9803
b'CHR1:63415881:T'	b'M55CtrlR1'	3	0.9121	0.0395	0.4639
b'CHR1:63415881:T'	b'M55CtrlR2'	3	0.8649	0.0394	0.4639
b'CHR1:63415881:T'	b'M55CtrlR3'	3	0.8500	0.0396	0.4639
b'CHR1:63415881:T'	b'M55CtrlR4'	3	0.7291	0.0398	0.4639
b'CHR1:64844806:C'	b'M55CtrlR1'	3	0.9121	0.0395	0.5759
b'CHR1:64844806:C'	b'M55CtrlR2'	3	0.8649	0.0394	0.5759
b'CHR1:64844806:C'	b'M55CtrlR3'	3	0.8500	0.0396	0.5759
b'CHR1:64844806:C'	b'M55CtrlR4'	3	0.7291	0.0398	0.5759
b'CHR1:7827188:A'	b'M55CtrlR1'	3	0.9121	0.0395	0.9730
b'CHR1:7827188:A'	b'M55CtrlR2'	3	0.8649	0.0394	0.9730
b'CHR1:7827188:A'	b'M55CtrlR3'	3	0.8500	0.0396	0.9730
b'CHR1:7827188:A'	b'M55CtrlR4'	3	0.7291	0.0398	0.9730
b'CHR1:942934:C'	b'M55CtrlR1'	3	0.9121	0.0395	0.9308
b'CHR1:942934:C'	b'M55CtrlR2'	3	0.8649	0.0394	0.9308
b'CHR1:942934:C'	b'M55CtrlR3'	3	0.8500	0.0396	0.9308
b'CHR1:942934:C'	b'M55CtrlR4'	3	0.7291	0.0398	0.9308
b'CHR2:73291715:T'	b'M55CtrlR1'	3	0.9121	0.0395	0.5810
b'CHR2:73291715:T'	b'M55CtrlR2'	3	0.8649	0.0394	0.5810
b'CHR2:73291715:T'	b'M55CtrlR3'	3	0.8500	0.0396	0.5810
b'CHR2:73291715:T'	b'M55CtrlR4'	3	0.7291	0.0398	0.5810
b'CHR7:151066568:A'	b'M55CtrlR1'	3	0.9121	0.0395	0.5374
b'CHR7:151066568:A'	b'M55CtrlR2'	3	0.8649	0.0394	0.5374
b'CHR7:151066568:A'	b'M55CtrlR3'	3	0.8500	0.0396	0.5374
b'CHR7:151066568:A'	b'M55CtrlR4'	3	0.7291	0.0398	0.5374
b'CHR3:41800280:T'	b'M55CtrlR1'	4	0.7943	0.1123	0.7269
b'CHR3:41800280:T'	b'M55CtrlR2'	4	0.3053	0.0726	0.7269
b'CHR3:41800280:T'	b'M55CtrlR3'	4	0.7792	0.1268	0.7269
b'CHR3:41800280:T'	b'M55CtrlR4'	4	0.5025	0.0970	0.7269
b'CHR9:26928213:T'	b'M55CtrlR1'	4	0.7943	0.1123	0.9992
b'CHR9:26928213:T'	b'M55CtrlR2'	4	0.3053	0.0726	0.9992
b'CHR9:26928213:T'	b'M55CtrlR3'	4	0.7792	0.1268	0.9992
b'CHR9:26928213:T'	b'M55CtrlR4'	4	0.5025	0.0970	0.9992
