mutation_id	sample_id	cluster_id	cellular_prevalence	cellular_prevalence_std	cluster_assignment_prob
b'CHR10:94720464:A'	b'M62SunitR1'	0	0.3469	0.0334	0.6570
b'CHR10:94720464:A'	b'M62SunitR2'	0	0.4315	0.0413	0.6570
b'CHR10:94720464:A'	b'M62SunitR3'	0	0.3395	0.0315	0.6570
b'CHR10:94720464:A'	b'M62SunitR4'	0	0.4815	0.0402	0.6570
b'CHR11:120128675:T'	b'M62SunitR1'	0	0.3469	0.0334	0.9733
b'CHR11:120128675:T'	b'M62SunitR2'	0	0.4315	0.0413	0.9733
b'CHR11:120128675:T'	b'M62SunitR3'	0	0.3395	0.0315	0.9733
b'CHR11:120128675:T'	b'M62SunitR4'	0	0.4815	0.0402	0.9733
b'CHR19:52881597:A'	b'M62SunitR1'	0	0.3469	0.0334	0.8449
b'CHR19:52881597:A'	b'M62SunitR2'	0	0.4315	0.0413	0.8449
b'CHR19:52881597:A'	b'M62SunitR3'	0	0.3395	0.0315	0.8449
b'CHR19:52881597:A'	b'M62SunitR4'	0	0.4815	0.0402	0.8449
b'CHR1:11706367:T'	b'M62SunitR1'	0	0.3469	0.0334	0.5180
b'CHR1:11706367:T'	b'M62SunitR2'	0	0.4315	0.0413	0.5180
b'CHR1:11706367:T'	b'M62SunitR3'	0	0.3395	0.0315	0.5180
b'CHR1:11706367:T'	b'M62SunitR4'	0	0.4815	0.0402	0.5180
b'CHR1:155054385:T'	b'M62SunitR1'	0	0.3469	0.0334	0.8507
b'CHR1:155054385:T'	b'M62SunitR2'	0	0.4315	0.0413	0.8507
b'CHR1:155054385:T'	b'M62SunitR3'	0	0.3395	0.0315	0.8507
b'CHR1:155054385:T'	b'M62SunitR4'	0	0.4815	0.0402	0.8507
b'CHR1:16759300:T'	b'M62SunitR1'	0	0.3469	0.0334	0.9999
b'CHR1:16759300:T'	b'M62SunitR2'	0	0.4315	0.0413	0.9999
b'CHR1:16759300:T'	b'M62SunitR3'	0	0.3395	0.0315	0.9999
b'CHR1:16759300:T'	b'M62SunitR4'	0	0.4815	0.0402	0.9999
b'CHR1:18481971:A'	b'M62SunitR1'	0	0.3469	0.0334	0.3969
b'CHR1:18481971:A'	b'M62SunitR2'	0	0.4315	0.0413	0.3969
b'CHR1:18481971:A'	b'M62SunitR3'	0	0.3395	0.0315	0.3969
b'CHR1:18481971:A'	b'M62SunitR4'	0	0.4815	0.0402	0.3969
b'CHR1:239908407:T'	b'M62SunitR1'	0	0.3469	0.0334	0.3533
b'CHR1:239908407:T'	b'M62SunitR2'	0	0.4315	0.0413	0.3533
b'CHR1:239908407:T'	b'M62SunitR3'	0	0.3395	0.0315	0.3533
b'CHR1:239908407:T'	b'M62SunitR4'	0	0.4815	0.0402	0.3533
b'CHR4:145553807:T'	b'M62SunitR1'	0	0.3469	0.0334	0.4067
b'CHR4:145553807:T'	b'M62SunitR2'	0	0.4315	0.0413	0.4067
b'CHR4:145553807:T'	b'M62SunitR3'	0	0.3395	0.0315	0.4067
b'CHR4:145553807:T'	b'M62SunitR4'	0	0.4815	0.0402	0.4067
b'CHR6:10687513:T'	b'M62SunitR1'	0	0.3469	0.0334	0.7065
b'CHR6:10687513:T'	b'M62SunitR2'	0	0.4315	0.0413	0.7065
b'CHR6:10687513:T'	b'M62SunitR3'	0	0.3395	0.0315	0.7065
b'CHR6:10687513:T'	b'M62SunitR4'	0	0.4815	0.0402	0.7065
b'CHR6:111372976:C'	b'M62SunitR1'	0	0.3469	0.0334	0.4110
b'CHR6:111372976:C'	b'M62SunitR2'	0	0.4315	0.0413	0.4110
b'CHR6:111372976:C'	b'M62SunitR3'	0	0.3395	0.0315	0.4110
b'CHR6:111372976:C'	b'M62SunitR4'	0	0.4815	0.0402	0.4110
b'CHR6:11193627:A'	b'M62SunitR1'	0	0.3469	0.0334	0.9962
b'CHR6:11193627:A'	b'M62SunitR2'	0	0.4315	0.0413	0.9962
b'CHR6:11193627:A'	b'M62SunitR3'	0	0.3395	0.0315	0.9962
b'CHR6:11193627:A'	b'M62SunitR4'	0	0.4815	0.0402	0.9962
b'CHR6:2749147:T'	b'M62SunitR1'	0	0.3469	0.0334	0.4663
b'CHR6:2749147:T'	b'M62SunitR2'	0	0.4315	0.0413	0.4663
b'CHR6:2749147:T'	b'M62SunitR3'	0	0.3395	0.0315	0.4663
b'CHR6:2749147:T'	b'M62SunitR4'	0	0.4815	0.0402	0.4663
b'CHR6:7393219:T'	b'M62SunitR1'	0	0.3469	0.0334	0.9748
b'CHR6:7393219:T'	b'M62SunitR2'	0	0.4315	0.0413	0.9748
b'CHR6:7393219:T'	b'M62SunitR3'	0	0.3395	0.0315	0.9748
b'CHR6:7393219:T'	b'M62SunitR4'	0	0.4815	0.0402	0.9748
b'CHR6:7577027:T'	b'M62SunitR1'	0	0.3469	0.0334	0.5951
b'CHR6:7577027:T'	b'M62SunitR2'	0	0.4315	0.0413	0.5951
b'CHR6:7577027:T'	b'M62SunitR3'	0	0.3395	0.0315	0.5951
b'CHR6:7577027:T'	b'M62SunitR4'	0	0.4815	0.0402	0.5951
b'CHR6:7581403:A'	b'M62SunitR1'	0	0.3469	0.0334	0.9509
b'CHR6:7581403:A'	b'M62SunitR2'	0	0.4315	0.0413	0.9509
b'CHR6:7581403:A'	b'M62SunitR3'	0	0.3395	0.0315	0.9509
b'CHR6:7581403:A'	b'M62SunitR4'	0	0.4815	0.0402	0.9509
b'CHR6:7601487:T'	b'M62SunitR1'	0	0.3469	0.0334	0.5376
b'CHR6:7601487:T'	b'M62SunitR2'	0	0.4315	0.0413	0.5376
b'CHR6:7601487:T'	b'M62SunitR3'	0	0.3395	0.0315	0.5376
b'CHR6:7601487:T'	b'M62SunitR4'	0	0.4815	0.0402	0.5376
b'CHR7:72942166:T'	b'M62SunitR1'	0	0.3469	0.0334	0.6685
b'CHR7:72942166:T'	b'M62SunitR2'	0	0.4315	0.0413	0.6685
b'CHR7:72942166:T'	b'M62SunitR3'	0	0.3395	0.0315	0.6685
b'CHR7:72942166:T'	b'M62SunitR4'	0	0.4815	0.0402	0.6685
b'CHR8:31120316:A'	b'M62SunitR1'	0	0.3469	0.0334	0.3650
b'CHR8:31120316:A'	b'M62SunitR2'	0	0.4315	0.0413	0.3650
b'CHR8:31120316:A'	b'M62SunitR3'	0	0.3395	0.0315	0.3650
b'CHR8:31120316:A'	b'M62SunitR4'	0	0.4815	0.0402	0.3650
b'CHR9:125337434:T'	b'M62SunitR1'	0	0.3469	0.0334	0.7044
b'CHR9:125337434:T'	b'M62SunitR2'	0	0.4315	0.0413	0.7044
b'CHR9:125337434:T'	b'M62SunitR3'	0	0.3395	0.0315	0.7044
b'CHR9:125337434:T'	b'M62SunitR4'	0	0.4815	0.0402	0.7044
b'CHR9:26928213:T'	b'M62SunitR1'	0	0.3469	0.0334	0.9921
b'CHR9:26928213:T'	b'M62SunitR2'	0	0.4315	0.0413	0.9921
b'CHR9:26928213:T'	b'M62SunitR3'	0	0.3395	0.0315	0.9921
b'CHR9:26928213:T'	b'M62SunitR4'	0	0.4815	0.0402	0.9921
b'CHR9:95881156:A'	b'M62SunitR1'	0	0.3469	0.0334	0.9413
b'CHR9:95881156:A'	b'M62SunitR2'	0	0.4315	0.0413	0.9413
b'CHR9:95881156:A'	b'M62SunitR3'	0	0.3395	0.0315	0.9413
b'CHR9:95881156:A'	b'M62SunitR4'	0	0.4815	0.0402	0.9413
b'CHR10:70145794:T'	b'M62SunitR1'	1	0.2419	0.0324	0.8530
b'CHR10:70145794:T'	b'M62SunitR2'	1	0.2133	0.0257	0.8530
b'CHR10:70145794:T'	b'M62SunitR3'	1	0.1803	0.0194	0.8530
b'CHR10:70145794:T'	b'M62SunitR4'	1	0.1805	0.0225	0.8530
b'CHR10:73751113:G'	b'M62SunitR1'	1	0.2419	0.0324	0.4686
b'CHR10:73751113:G'	b'M62SunitR2'	1	0.2133	0.0257	0.4686
b'CHR10:73751113:G'	b'M62SunitR3'	1	0.1803	0.0194	0.4686
b'CHR10:73751113:G'	b'M62SunitR4'	1	0.1805	0.0225	0.4686
b'CHR11:119186606:T'	b'M62SunitR1'	1	0.2419	0.0324	0.9986
b'CHR11:119186606:T'	b'M62SunitR2'	1	0.2133	0.0257	0.9986
b'CHR11:119186606:T'	b'M62SunitR3'	1	0.1803	0.0194	0.9986
b'CHR11:119186606:T'	b'M62SunitR4'	1	0.1805	0.0225	0.9986
b'CHR11:124894022:C'	b'M62SunitR1'	1	0.2419	0.0324	0.3255
b'CHR11:124894022:C'	b'M62SunitR2'	1	0.2133	0.0257	0.3255
b'CHR11:124894022:C'	b'M62SunitR3'	1	0.1803	0.0194	0.3255
b'CHR11:124894022:C'	b'M62SunitR4'	1	0.1805	0.0225	0.3255
b'CHR11:59364822:A'	b'M62SunitR1'	1	0.2419	0.0324	0.8899
b'CHR11:59364822:A'	b'M62SunitR2'	1	0.2133	0.0257	0.8899
b'CHR11:59364822:A'	b'M62SunitR3'	1	0.1803	0.0194	0.8899
b'CHR11:59364822:A'	b'M62SunitR4'	1	0.1805	0.0225	0.8899
b'CHR11:64593580:A'	b'M62SunitR1'	1	0.2419	0.0324	0.9991
b'CHR11:64593580:A'	b'M62SunitR2'	1	0.2133	0.0257	0.9991
b'CHR11:64593580:A'	b'M62SunitR3'	1	0.1803	0.0194	0.9991
b'CHR11:64593580:A'	b'M62SunitR4'	1	0.1805	0.0225	0.9991
b'CHR11:65630575:T'	b'M62SunitR1'	1	0.2419	0.0324	0.6291
b'CHR11:65630575:T'	b'M62SunitR2'	1	0.2133	0.0257	0.6291
b'CHR11:65630575:T'	b'M62SunitR3'	1	0.1803	0.0194	0.6291
b'CHR11:65630575:T'	b'M62SunitR4'	1	0.1805	0.0225	0.6291
b'CHR11:83962885:A'	b'M62SunitR1'	1	0.2419	0.0324	0.6853
b'CHR11:83962885:A'	b'M62SunitR2'	1	0.2133	0.0257	0.6853
b'CHR11:83962885:A'	b'M62SunitR3'	1	0.1803	0.0194	0.6853
b'CHR11:83962885:A'	b'M62SunitR4'	1	0.1805	0.0225	0.6853
b'CHR12:108518570:T'	b'M62SunitR1'	1	0.2419	0.0324	0.9735
b'CHR12:108518570:T'	b'M62SunitR2'	1	0.2133	0.0257	0.9735
b'CHR12:108518570:T'	b'M62SunitR3'	1	0.1803	0.0194	0.9735
b'CHR12:108518570:T'	b'M62SunitR4'	1	0.1805	0.0225	0.9735
b'CHR12:122184703:T'	b'M62SunitR1'	1	0.2419	0.0324	0.9809
b'CHR12:122184703:T'	b'M62SunitR2'	1	0.2133	0.0257	0.9809
b'CHR12:122184703:T'	b'M62SunitR3'	1	0.1803	0.0194	0.9809
b'CHR12:122184703:T'	b'M62SunitR4'	1	0.1805	0.0225	0.9809
b'CHR12:40481156:A'	b'M62SunitR1'	1	0.2419	0.0324	0.9997
b'CHR12:40481156:A'	b'M62SunitR2'	1	0.2133	0.0257	0.9997
b'CHR12:40481156:A'	b'M62SunitR3'	1	0.1803	0.0194	0.9997
b'CHR12:40481156:A'	b'M62SunitR4'	1	0.1805	0.0225	0.9997
b'CHR12:40481157:G'	b'M62SunitR1'	1	0.2419	0.0324	0.9997
b'CHR12:40481157:G'	b'M62SunitR2'	1	0.2133	0.0257	0.9997
b'CHR12:40481157:G'	b'M62SunitR3'	1	0.1803	0.0194	0.9997
b'CHR12:40481157:G'	b'M62SunitR4'	1	0.1805	0.0225	0.9997
b'CHR12:45927444:G'	b'M62SunitR1'	1	0.2419	0.0324	0.4154
b'CHR12:45927444:G'	b'M62SunitR2'	1	0.2133	0.0257	0.4154
b'CHR12:45927444:G'	b'M62SunitR3'	1	0.1803	0.0194	0.4154
b'CHR12:45927444:G'	b'M62SunitR4'	1	0.1805	0.0225	0.4154
b'CHR12:55027042:G'	b'M62SunitR1'	1	0.2419	0.0324	0.8984
b'CHR12:55027042:G'	b'M62SunitR2'	1	0.2133	0.0257	0.8984
b'CHR12:55027042:G'	b'M62SunitR3'	1	0.1803	0.0194	0.8984
b'CHR12:55027042:G'	b'M62SunitR4'	1	0.1805	0.0225	0.8984
b'CHR12:56267413:A'	b'M62SunitR1'	1	0.2419	0.0324	0.5193
b'CHR12:56267413:A'	b'M62SunitR2'	1	0.2133	0.0257	0.5193
b'CHR12:56267413:A'	b'M62SunitR3'	1	0.1803	0.0194	0.5193
b'CHR12:56267413:A'	b'M62SunitR4'	1	0.1805	0.0225	0.5193
b'CHR12:85046079:A'	b'M62SunitR1'	1	0.2419	0.0324	0.3237
b'CHR12:85046079:A'	b'M62SunitR2'	1	0.2133	0.0257	0.3237
b'CHR12:85046079:A'	b'M62SunitR3'	1	0.1803	0.0194	0.3237
b'CHR12:85046079:A'	b'M62SunitR4'	1	0.1805	0.0225	0.3237
b'CHR15:23566598:A'	b'M62SunitR1'	1	0.2419	0.0324	0.5571
b'CHR15:23566598:A'	b'M62SunitR2'	1	0.2133	0.0257	0.5571
b'CHR15:23566598:A'	b'M62SunitR3'	1	0.1803	0.0194	0.5571
b'CHR15:23566598:A'	b'M62SunitR4'	1	0.1805	0.0225	0.5571
b'CHR15:44328733:C'	b'M62SunitR1'	1	0.2419	0.0324	0.5872
b'CHR15:44328733:C'	b'M62SunitR2'	1	0.2133	0.0257	0.5872
b'CHR15:44328733:C'	b'M62SunitR3'	1	0.1803	0.0194	0.5872
b'CHR15:44328733:C'	b'M62SunitR4'	1	0.1805	0.0225	0.5872
b'CHR15:45095849:C'	b'M62SunitR1'	1	0.2419	0.0324	0.9942
b'CHR15:45095849:C'	b'M62SunitR2'	1	0.2133	0.0257	0.9942
b'CHR15:45095849:C'	b'M62SunitR3'	1	0.1803	0.0194	0.9942
b'CHR15:45095849:C'	b'M62SunitR4'	1	0.1805	0.0225	0.9942
b'CHR16:647835:T'	b'M62SunitR1'	1	0.2419	0.0324	0.6949
b'CHR16:647835:T'	b'M62SunitR2'	1	0.2133	0.0257	0.6949
b'CHR16:647835:T'	b'M62SunitR3'	1	0.1803	0.0194	0.6949
b'CHR16:647835:T'	b'M62SunitR4'	1	0.1805	0.0225	0.6949
b'CHR17:20204775:G'	b'M62SunitR1'	1	0.2419	0.0324	0.8113
b'CHR17:20204775:G'	b'M62SunitR2'	1	0.2133	0.0257	0.8113
b'CHR17:20204775:G'	b'M62SunitR3'	1	0.1803	0.0194	0.8113
b'CHR17:20204775:G'	b'M62SunitR4'	1	0.1805	0.0225	0.8113
b'CHR17:3843133:A'	b'M62SunitR1'	1	0.2419	0.0324	0.6878
b'CHR17:3843133:A'	b'M62SunitR2'	1	0.2133	0.0257	0.6878
b'CHR17:3843133:A'	b'M62SunitR3'	1	0.1803	0.0194	0.6878
b'CHR17:3843133:A'	b'M62SunitR4'	1	0.1805	0.0225	0.6878
b'CHR17:43209672:C'	b'M62SunitR1'	1	0.2419	0.0324	0.6512
b'CHR17:43209672:C'	b'M62SunitR2'	1	0.2133	0.0257	0.6512
b'CHR17:43209672:C'	b'M62SunitR3'	1	0.1803	0.0194	0.6512
b'CHR17:43209672:C'	b'M62SunitR4'	1	0.1805	0.0225	0.6512
b'CHR17:80436175:G'	b'M62SunitR1'	1	0.2419	0.0324	0.8055
b'CHR17:80436175:G'	b'M62SunitR2'	1	0.2133	0.0257	0.8055
b'CHR17:80436175:G'	b'M62SunitR3'	1	0.1803	0.0194	0.8055
b'CHR17:80436175:G'	b'M62SunitR4'	1	0.1805	0.0225	0.8055
b'CHR19:1495334:T'	b'M62SunitR1'	1	0.2419	0.0324	0.7984
b'CHR19:1495334:T'	b'M62SunitR2'	1	0.2133	0.0257	0.7984
b'CHR19:1495334:T'	b'M62SunitR3'	1	0.1803	0.0194	0.7984
b'CHR19:1495334:T'	b'M62SunitR4'	1	0.1805	0.0225	0.7984
b'CHR19:19147765:A'	b'M62SunitR1'	1	0.2419	0.0324	0.9088
b'CHR19:19147765:A'	b'M62SunitR2'	1	0.2133	0.0257	0.9088
b'CHR19:19147765:A'	b'M62SunitR3'	1	0.1803	0.0194	0.9088
b'CHR19:19147765:A'	b'M62SunitR4'	1	0.1805	0.0225	0.9088
b'CHR19:19273137:T'	b'M62SunitR1'	1	0.2419	0.0324	0.8536
b'CHR19:19273137:T'	b'M62SunitR2'	1	0.2133	0.0257	0.8536
b'CHR19:19273137:T'	b'M62SunitR3'	1	0.1803	0.0194	0.8536
b'CHR19:19273137:T'	b'M62SunitR4'	1	0.1805	0.0225	0.8536
b'CHR19:36915827:T'	b'M62SunitR1'	1	0.2419	0.0324	0.9851
b'CHR19:36915827:T'	b'M62SunitR2'	1	0.2133	0.0257	0.9851
b'CHR19:36915827:T'	b'M62SunitR3'	1	0.1803	0.0194	0.9851
b'CHR19:36915827:T'	b'M62SunitR4'	1	0.1805	0.0225	0.9851
b'CHR19:45591702:A'	b'M62SunitR1'	1	0.2419	0.0324	0.8337
b'CHR19:45591702:A'	b'M62SunitR2'	1	0.2133	0.0257	0.8337
b'CHR19:45591702:A'	b'M62SunitR3'	1	0.1803	0.0194	0.8337
b'CHR19:45591702:A'	b'M62SunitR4'	1	0.1805	0.0225	0.8337
b'CHR19:49022934:A'	b'M62SunitR1'	1	0.2419	0.0324	0.5485
b'CHR19:49022934:A'	b'M62SunitR2'	1	0.2133	0.0257	0.5485
b'CHR19:49022934:A'	b'M62SunitR3'	1	0.1803	0.0194	0.5485
b'CHR19:49022934:A'	b'M62SunitR4'	1	0.1805	0.0225	0.5485
b'CHR19:51627961:A'	b'M62SunitR1'	1	0.2419	0.0324	0.9378
b'CHR19:51627961:A'	b'M62SunitR2'	1	0.2133	0.0257	0.9378
b'CHR19:51627961:A'	b'M62SunitR3'	1	0.1803	0.0194	0.9378
b'CHR19:51627961:A'	b'M62SunitR4'	1	0.1805	0.0225	0.9378
b'CHR19:8980141:A'	b'M62SunitR1'	1	0.2419	0.0324	0.5021
b'CHR19:8980141:A'	b'M62SunitR2'	1	0.2133	0.0257	0.5021
b'CHR19:8980141:A'	b'M62SunitR3'	1	0.1803	0.0194	0.5021
b'CHR19:8980141:A'	b'M62SunitR4'	1	0.1805	0.0225	0.5021
b'CHR1:1046687:A'	b'M62SunitR1'	1	0.2419	0.0324	0.9350
b'CHR1:1046687:A'	b'M62SunitR2'	1	0.2133	0.0257	0.9350
b'CHR1:1046687:A'	b'M62SunitR3'	1	0.1803	0.0194	0.9350
b'CHR1:1046687:A'	b'M62SunitR4'	1	0.1805	0.0225	0.9350
b'CHR1:113981341:T'	b'M62SunitR1'	1	0.2419	0.0324	0.9947
b'CHR1:113981341:T'	b'M62SunitR2'	1	0.2133	0.0257	0.9947
b'CHR1:113981341:T'	b'M62SunitR3'	1	0.1803	0.0194	0.9947
b'CHR1:113981341:T'	b'M62SunitR4'	1	0.1805	0.0225	0.9947
b'CHR1:1495680:C'	b'M62SunitR1'	1	0.2419	0.0324	0.6793
b'CHR1:1495680:C'	b'M62SunitR2'	1	0.2133	0.0257	0.6793
b'CHR1:1495680:C'	b'M62SunitR3'	1	0.1803	0.0194	0.6793
b'CHR1:1495680:C'	b'M62SunitR4'	1	0.1805	0.0225	0.6793
b'CHR1:1495915:C'	b'M62SunitR1'	1	0.2419	0.0324	0.9865
b'CHR1:1495915:C'	b'M62SunitR2'	1	0.2133	0.0257	0.9865
b'CHR1:1495915:C'	b'M62SunitR3'	1	0.1803	0.0194	0.9865
b'CHR1:1495915:C'	b'M62SunitR4'	1	0.1805	0.0225	0.9865
b'CHR1:157586429:T'	b'M62SunitR1'	1	0.2419	0.0324	0.6810
b'CHR1:157586429:T'	b'M62SunitR2'	1	0.2133	0.0257	0.6810
b'CHR1:157586429:T'	b'M62SunitR3'	1	0.1803	0.0194	0.6810
b'CHR1:157586429:T'	b'M62SunitR4'	1	0.1805	0.0225	0.6810
b'CHR1:168308838:T'	b'M62SunitR1'	1	0.2419	0.0324	0.7232
b'CHR1:168308838:T'	b'M62SunitR2'	1	0.2133	0.0257	0.7232
b'CHR1:168308838:T'	b'M62SunitR3'	1	0.1803	0.0194	0.7232
b'CHR1:168308838:T'	b'M62SunitR4'	1	0.1805	0.0225	0.7232
b'CHR1:197103366:C'	b'M62SunitR1'	1	0.2419	0.0324	0.8746
b'CHR1:197103366:C'	b'M62SunitR2'	1	0.2133	0.0257	0.8746
b'CHR1:197103366:C'	b'M62SunitR3'	1	0.1803	0.0194	0.8746
b'CHR1:197103366:C'	b'M62SunitR4'	1	0.1805	0.0225	0.8746
b'CHR1:21611463:T'	b'M62SunitR1'	1	0.2419	0.0324	0.4002
b'CHR1:21611463:T'	b'M62SunitR2'	1	0.2133	0.0257	0.4002
b'CHR1:21611463:T'	b'M62SunitR3'	1	0.1803	0.0194	0.4002
b'CHR1:21611463:T'	b'M62SunitR4'	1	0.1805	0.0225	0.4002
b'CHR1:247423969:T'	b'M62SunitR1'	1	0.2419	0.0324	0.7582
b'CHR1:247423969:T'	b'M62SunitR2'	1	0.2133	0.0257	0.7582
b'CHR1:247423969:T'	b'M62SunitR3'	1	0.1803	0.0194	0.7582
b'CHR1:247423969:T'	b'M62SunitR4'	1	0.1805	0.0225	0.7582
b'CHR1:247814820:A'	b'M62SunitR1'	1	0.2419	0.0324	0.4264
b'CHR1:247814820:A'	b'M62SunitR2'	1	0.2133	0.0257	0.4264
b'CHR1:247814820:A'	b'M62SunitR3'	1	0.1803	0.0194	0.4264
b'CHR1:247814820:A'	b'M62SunitR4'	1	0.1805	0.0225	0.4264
b'CHR1:37886922:T'	b'M62SunitR1'	1	0.2419	0.0324	0.3310
b'CHR1:37886922:T'	b'M62SunitR2'	1	0.2133	0.0257	0.3310
b'CHR1:37886922:T'	b'M62SunitR3'	1	0.1803	0.0194	0.3310
b'CHR1:37886922:T'	b'M62SunitR4'	1	0.1805	0.0225	0.3310
b'CHR1:70039224:A'	b'M62SunitR1'	1	0.2419	0.0324	0.9275
b'CHR1:70039224:A'	b'M62SunitR2'	1	0.2133	0.0257	0.9275
b'CHR1:70039224:A'	b'M62SunitR3'	1	0.1803	0.0194	0.9275
b'CHR1:70039224:A'	b'M62SunitR4'	1	0.1805	0.0225	0.9275
b'CHR1:78629802:A'	b'M62SunitR1'	1	0.2419	0.0324	0.9733
b'CHR1:78629802:A'	b'M62SunitR2'	1	0.2133	0.0257	0.9733
b'CHR1:78629802:A'	b'M62SunitR3'	1	0.1803	0.0194	0.9733
b'CHR1:78629802:A'	b'M62SunitR4'	1	0.1805	0.0225	0.9733
b'CHR1:8957259:A'	b'M62SunitR1'	1	0.2419	0.0324	0.8535
b'CHR1:8957259:A'	b'M62SunitR2'	1	0.2133	0.0257	0.8535
b'CHR1:8957259:A'	b'M62SunitR3'	1	0.1803	0.0194	0.8535
b'CHR1:8957259:A'	b'M62SunitR4'	1	0.1805	0.0225	0.8535
b'CHR1:91319110:C'	b'M62SunitR1'	1	0.2419	0.0324	0.5911
b'CHR1:91319110:C'	b'M62SunitR2'	1	0.2133	0.0257	0.5911
b'CHR1:91319110:C'	b'M62SunitR3'	1	0.1803	0.0194	0.5911
b'CHR1:91319110:C'	b'M62SunitR4'	1	0.1805	0.0225	0.5911
b'CHR20:21328621:A'	b'M62SunitR1'	1	0.2419	0.0324	0.8958
b'CHR20:21328621:A'	b'M62SunitR2'	1	0.2133	0.0257	0.8958
b'CHR20:21328621:A'	b'M62SunitR3'	1	0.1803	0.0194	0.8958
b'CHR20:21328621:A'	b'M62SunitR4'	1	0.1805	0.0225	0.8958
b'CHR21:44551263:G'	b'M62SunitR1'	1	0.2419	0.0324	0.8842
b'CHR21:44551263:G'	b'M62SunitR2'	1	0.2133	0.0257	0.8842
b'CHR21:44551263:G'	b'M62SunitR3'	1	0.1803	0.0194	0.8842
b'CHR21:44551263:G'	b'M62SunitR4'	1	0.1805	0.0225	0.8842
b'CHR2:124865392:A'	b'M62SunitR1'	1	0.2419	0.0324	0.5779
b'CHR2:124865392:A'	b'M62SunitR2'	1	0.2133	0.0257	0.5779
b'CHR2:124865392:A'	b'M62SunitR3'	1	0.1803	0.0194	0.5779
b'CHR2:124865392:A'	b'M62SunitR4'	1	0.1805	0.0225	0.5779
b'CHR2:167249230:T'	b'M62SunitR1'	1	0.2419	0.0324	0.4785
b'CHR2:167249230:T'	b'M62SunitR2'	1	0.2133	0.0257	0.4785
b'CHR2:167249230:T'	b'M62SunitR3'	1	0.1803	0.0194	0.4785
b'CHR2:167249230:T'	b'M62SunitR4'	1	0.1805	0.0225	0.4785
b'CHR2:186838999:G'	b'M62SunitR1'	1	0.2419	0.0324	0.5669
b'CHR2:186838999:G'	b'M62SunitR2'	1	0.2133	0.0257	0.5669
b'CHR2:186838999:G'	b'M62SunitR3'	1	0.1803	0.0194	0.5669
b'CHR2:186838999:G'	b'M62SunitR4'	1	0.1805	0.0225	0.5669
b'CHR3:45093328:A'	b'M62SunitR1'	1	0.2419	0.0324	0.9818
b'CHR3:45093328:A'	b'M62SunitR2'	1	0.2133	0.0257	0.9818
b'CHR3:45093328:A'	b'M62SunitR3'	1	0.1803	0.0194	0.9818
b'CHR3:45093328:A'	b'M62SunitR4'	1	0.1805	0.0225	0.9818
b'CHR3:50320148:G'	b'M62SunitR1'	1	0.2419	0.0324	0.9933
b'CHR3:50320148:G'	b'M62SunitR2'	1	0.2133	0.0257	0.9933
b'CHR3:50320148:G'	b'M62SunitR3'	1	0.1803	0.0194	0.9933
b'CHR3:50320148:G'	b'M62SunitR4'	1	0.1805	0.0225	0.9933
b'CHR3:9950005:A'	b'M62SunitR1'	1	0.2419	0.0324	1.0000
b'CHR3:9950005:A'	b'M62SunitR2'	1	0.2133	0.0257	1.0000
b'CHR3:9950005:A'	b'M62SunitR3'	1	0.1803	0.0194	1.0000
b'CHR3:9950005:A'	b'M62SunitR4'	1	0.1805	0.0225	1.0000
b'CHR4:105942405:T'	b'M62SunitR1'	1	0.2419	0.0324	0.6625
b'CHR4:105942405:T'	b'M62SunitR2'	1	0.2133	0.0257	0.6625
b'CHR4:105942405:T'	b'M62SunitR3'	1	0.1803	0.0194	0.6625
b'CHR4:105942405:T'	b'M62SunitR4'	1	0.1805	0.0225	0.6625
b'CHR4:155711214:C'	b'M62SunitR1'	1	0.2419	0.0324	0.7082
b'CHR4:155711214:C'	b'M62SunitR2'	1	0.2133	0.0257	0.7082
b'CHR4:155711214:C'	b'M62SunitR3'	1	0.1803	0.0194	0.7082
b'CHR4:155711214:C'	b'M62SunitR4'	1	0.1805	0.0225	0.7082
b'CHR4:186619620:A'	b'M62SunitR1'	1	0.2419	0.0324	0.7108
b'CHR4:186619620:A'	b'M62SunitR2'	1	0.2133	0.0257	0.7108
b'CHR4:186619620:A'	b'M62SunitR3'	1	0.1803	0.0194	0.7108
b'CHR4:186619620:A'	b'M62SunitR4'	1	0.1805	0.0225	0.7108
b'CHR4:7006660:G'	b'M62SunitR1'	1	0.2419	0.0324	0.6206
b'CHR4:7006660:G'	b'M62SunitR2'	1	0.2133	0.0257	0.6206
b'CHR4:7006660:G'	b'M62SunitR3'	1	0.1803	0.0194	0.6206
b'CHR4:7006660:G'	b'M62SunitR4'	1	0.1805	0.0225	0.6206
b'CHR5:138930531:A'	b'M62SunitR1'	1	0.2419	0.0324	0.5751
b'CHR5:138930531:A'	b'M62SunitR2'	1	0.2133	0.0257	0.5751
b'CHR5:138930531:A'	b'M62SunitR3'	1	0.1803	0.0194	0.5751
b'CHR5:138930531:A'	b'M62SunitR4'	1	0.1805	0.0225	0.5751
b'CHR5:138930532:CCCACATGAACTA'	b'M62SunitR1'	1	0.2419	0.0324	0.5751
b'CHR5:138930532:CCCACATGAACTA'	b'M62SunitR2'	1	0.2133	0.0257	0.5751
b'CHR5:138930532:CCCACATGAACTA'	b'M62SunitR3'	1	0.1803	0.0194	0.5751
b'CHR5:138930532:CCCACATGAACTA'	b'M62SunitR4'	1	0.1805	0.0225	0.5751
b'CHR5:141431886:T'	b'M62SunitR1'	1	0.2419	0.0324	0.7533
b'CHR5:141431886:T'	b'M62SunitR2'	1	0.2133	0.0257	0.7533
b'CHR5:141431886:T'	b'M62SunitR3'	1	0.1803	0.0194	0.7533
b'CHR5:141431886:T'	b'M62SunitR4'	1	0.1805	0.0225	0.7533
b'CHR5:177403277:A'	b'M62SunitR1'	1	0.2419	0.0324	0.9984
b'CHR5:177403277:A'	b'M62SunitR2'	1	0.2133	0.0257	0.9984
b'CHR5:177403277:A'	b'M62SunitR3'	1	0.1803	0.0194	0.9984
b'CHR5:177403277:A'	b'M62SunitR4'	1	0.1805	0.0225	0.9984
b'CHR5:31409330:A'	b'M62SunitR1'	1	0.2419	0.0324	0.4383
b'CHR5:31409330:A'	b'M62SunitR2'	1	0.2133	0.0257	0.4383
b'CHR5:31409330:A'	b'M62SunitR3'	1	0.1803	0.0194	0.4383
b'CHR5:31409330:A'	b'M62SunitR4'	1	0.1805	0.0225	0.4383
b'CHR5:51389819:T'	b'M62SunitR1'	1	0.2419	0.0324	0.7391
b'CHR5:51389819:T'	b'M62SunitR2'	1	0.2133	0.0257	0.7391
b'CHR5:51389819:T'	b'M62SunitR3'	1	0.1803	0.0194	0.7391
b'CHR5:51389819:T'	b'M62SunitR4'	1	0.1805	0.0225	0.7391
b'CHR5:74634923:T'	b'M62SunitR1'	1	0.2419	0.0324	0.8533
b'CHR5:74634923:T'	b'M62SunitR2'	1	0.2133	0.0257	0.8533
b'CHR5:74634923:T'	b'M62SunitR3'	1	0.1803	0.0194	0.8533
b'CHR5:74634923:T'	b'M62SunitR4'	1	0.1805	0.0225	0.8533
b'CHR6:12120212:G'	b'M62SunitR1'	1	0.2419	0.0324	0.4722
b'CHR6:12120212:G'	b'M62SunitR2'	1	0.2133	0.0257	0.4722
b'CHR6:12120212:G'	b'M62SunitR3'	1	0.1803	0.0194	0.4722
b'CHR6:12120212:G'	b'M62SunitR4'	1	0.1805	0.0225	0.4722
b'CHR6:167136359:T'	b'M62SunitR1'	1	0.2419	0.0324	0.5275
b'CHR6:167136359:T'	b'M62SunitR2'	1	0.2133	0.0257	0.5275
b'CHR6:167136359:T'	b'M62SunitR3'	1	0.1803	0.0194	0.5275
b'CHR6:167136359:T'	b'M62SunitR4'	1	0.1805	0.0225	0.5275
b'CHR6:34871637:A'	b'M62SunitR1'	1	0.2419	0.0324	0.6612
b'CHR6:34871637:A'	b'M62SunitR2'	1	0.2133	0.0257	0.6612
b'CHR6:34871637:A'	b'M62SunitR3'	1	0.1803	0.0194	0.6612
b'CHR6:34871637:A'	b'M62SunitR4'	1	0.1805	0.0225	0.6612
b'CHR6:45422739:A'	b'M62SunitR1'	1	0.2419	0.0324	0.5485
b'CHR6:45422739:A'	b'M62SunitR2'	1	0.2133	0.0257	0.5485
b'CHR6:45422739:A'	b'M62SunitR3'	1	0.1803	0.0194	0.5485
b'CHR6:45422739:A'	b'M62SunitR4'	1	0.1805	0.0225	0.5485
b'CHR6:9775825:A'	b'M62SunitR1'	1	0.2419	0.0324	0.3776
b'CHR6:9775825:A'	b'M62SunitR2'	1	0.2133	0.0257	0.3776
b'CHR6:9775825:A'	b'M62SunitR3'	1	0.1803	0.0194	0.3776
b'CHR6:9775825:A'	b'M62SunitR4'	1	0.1805	0.0225	0.3776
b'CHR7:39085988:C'	b'M62SunitR1'	1	0.2419	0.0324	0.9143
b'CHR7:39085988:C'	b'M62SunitR2'	1	0.2133	0.0257	0.9143
b'CHR7:39085988:C'	b'M62SunitR3'	1	0.1803	0.0194	0.9143
b'CHR7:39085988:C'	b'M62SunitR4'	1	0.1805	0.0225	0.9143
b'CHR7:39085990:C'	b'M62SunitR1'	1	0.2419	0.0324	0.9143
b'CHR7:39085990:C'	b'M62SunitR2'	1	0.2133	0.0257	0.9143
b'CHR7:39085990:C'	b'M62SunitR3'	1	0.1803	0.0194	0.9143
b'CHR7:39085990:C'	b'M62SunitR4'	1	0.1805	0.0225	0.9143
b'CHR8:144040433:T'	b'M62SunitR1'	1	0.2419	0.0324	0.7936
b'CHR8:144040433:T'	b'M62SunitR2'	1	0.2133	0.0257	0.7936
b'CHR8:144040433:T'	b'M62SunitR3'	1	0.1803	0.0194	0.7936
b'CHR8:144040433:T'	b'M62SunitR4'	1	0.1805	0.0225	0.7936
b'CHR8:26583969:A'	b'M62SunitR1'	1	0.2419	0.0324	0.6251
b'CHR8:26583969:A'	b'M62SunitR2'	1	0.2133	0.0257	0.6251
b'CHR8:26583969:A'	b'M62SunitR3'	1	0.1803	0.0194	0.6251
b'CHR8:26583969:A'	b'M62SunitR4'	1	0.1805	0.0225	0.6251
b'CHR9:131598217:T'	b'M62SunitR1'	1	0.2419	0.0324	0.7894
b'CHR9:131598217:T'	b'M62SunitR2'	1	0.2133	0.0257	0.7894
b'CHR9:131598217:T'	b'M62SunitR3'	1	0.1803	0.0194	0.7894
b'CHR9:131598217:T'	b'M62SunitR4'	1	0.1805	0.0225	0.7894
b'CHR9:137024143:A'	b'M62SunitR1'	1	0.2419	0.0324	0.5754
b'CHR9:137024143:A'	b'M62SunitR2'	1	0.2133	0.0257	0.5754
b'CHR9:137024143:A'	b'M62SunitR3'	1	0.1803	0.0194	0.5754
b'CHR9:137024143:A'	b'M62SunitR4'	1	0.1805	0.0225	0.5754
b'CHR10:92240093:G'	b'M62SunitR1'	2	0.7353	0.0378	0.4749
b'CHR10:92240093:G'	b'M62SunitR2'	2	0.6266	0.0347	0.4749
b'CHR10:92240093:G'	b'M62SunitR3'	2	0.8311	0.0373	0.4749
b'CHR10:92240093:G'	b'M62SunitR4'	2	0.8097	0.0384	0.4749
b'CHR14:31178233:C'	b'M62SunitR1'	2	0.7353	0.0378	0.5321
b'CHR14:31178233:C'	b'M62SunitR2'	2	0.6266	0.0347	0.5321
b'CHR14:31178233:C'	b'M62SunitR3'	2	0.8311	0.0373	0.5321
b'CHR14:31178233:C'	b'M62SunitR4'	2	0.8097	0.0384	0.5321
b'CHR17:81937211:G'	b'M62SunitR1'	2	0.7353	0.0378	0.6609
b'CHR17:81937211:G'	b'M62SunitR2'	2	0.6266	0.0347	0.6609
b'CHR17:81937211:G'	b'M62SunitR3'	2	0.8311	0.0373	0.6609
b'CHR17:81937211:G'	b'M62SunitR4'	2	0.8097	0.0384	0.6609
b'CHR19:1049270:A'	b'M62SunitR1'	2	0.7353	0.0378	0.9784
b'CHR19:1049270:A'	b'M62SunitR2'	2	0.6266	0.0347	0.9784
b'CHR19:1049270:A'	b'M62SunitR3'	2	0.8311	0.0373	0.9784
b'CHR19:1049270:A'	b'M62SunitR4'	2	0.8097	0.0384	0.9784
b'CHR1:11779915:A'	b'M62SunitR1'	2	0.7353	0.0378	0.5718
b'CHR1:11779915:A'	b'M62SunitR2'	2	0.6266	0.0347	0.5718
b'CHR1:11779915:A'	b'M62SunitR3'	2	0.8311	0.0373	0.5718
b'CHR1:11779915:A'	b'M62SunitR4'	2	0.8097	0.0384	0.5718
b'CHR1:13343011:A'	b'M62SunitR1'	2	0.7353	0.0378	0.7991
b'CHR1:13343011:A'	b'M62SunitR2'	2	0.6266	0.0347	0.7991
b'CHR1:13343011:A'	b'M62SunitR3'	2	0.8311	0.0373	0.7991
b'CHR1:13343011:A'	b'M62SunitR4'	2	0.8097	0.0384	0.7991
b'CHR1:13421192:T'	b'M62SunitR1'	2	0.7353	0.0378	0.9909
b'CHR1:13421192:T'	b'M62SunitR2'	2	0.6266	0.0347	0.9909
b'CHR1:13421192:T'	b'M62SunitR3'	2	0.8311	0.0373	0.9909
b'CHR1:13421192:T'	b'M62SunitR4'	2	0.8097	0.0384	0.9909
b'CHR1:13782619:G'	b'M62SunitR1'	2	0.7353	0.0378	0.9840
b'CHR1:13782619:G'	b'M62SunitR2'	2	0.6266	0.0347	0.9840
b'CHR1:13782619:G'	b'M62SunitR3'	2	0.8311	0.0373	0.9840
b'CHR1:13782619:G'	b'M62SunitR4'	2	0.8097	0.0384	0.9840
b'CHR1:15939409:A'	b'M62SunitR1'	2	0.7353	0.0378	0.9983
b'CHR1:15939409:A'	b'M62SunitR2'	2	0.6266	0.0347	0.9983
b'CHR1:15939409:A'	b'M62SunitR3'	2	0.8311	0.0373	0.9983
b'CHR1:15939409:A'	b'M62SunitR4'	2	0.8097	0.0384	0.9983
b'CHR1:160155085:A'	b'M62SunitR1'	2	0.7353	0.0378	0.6234
b'CHR1:160155085:A'	b'M62SunitR2'	2	0.6266	0.0347	0.6234
b'CHR1:160155085:A'	b'M62SunitR3'	2	0.8311	0.0373	0.6234
b'CHR1:160155085:A'	b'M62SunitR4'	2	0.8097	0.0384	0.6234
b'CHR1:16409637:C'	b'M62SunitR1'	2	0.7353	0.0378	0.9987
b'CHR1:16409637:C'	b'M62SunitR2'	2	0.6266	0.0347	0.9987
b'CHR1:16409637:C'	b'M62SunitR3'	2	0.8311	0.0373	0.9987
b'CHR1:16409637:C'	b'M62SunitR4'	2	0.8097	0.0384	0.9987
b'CHR1:17070097:A'	b'M62SunitR1'	2	0.7353	0.0378	0.5637
b'CHR1:17070097:A'	b'M62SunitR2'	2	0.6266	0.0347	0.5637
b'CHR1:17070097:A'	b'M62SunitR3'	2	0.8311	0.0373	0.5637
b'CHR1:17070097:A'	b'M62SunitR4'	2	0.8097	0.0384	0.5637
b'CHR1:17079314:A'	b'M62SunitR1'	2	0.7353	0.0378	0.7530
b'CHR1:17079314:A'	b'M62SunitR2'	2	0.6266	0.0347	0.7530
b'CHR1:17079314:A'	b'M62SunitR3'	2	0.8311	0.0373	0.7530
b'CHR1:17079314:A'	b'M62SunitR4'	2	0.8097	0.0384	0.7530
b'CHR1:17084646:G'	b'M62SunitR1'	2	0.7353	0.0378	0.9721
b'CHR1:17084646:G'	b'M62SunitR2'	2	0.6266	0.0347	0.9721
b'CHR1:17084646:G'	b'M62SunitR3'	2	0.8311	0.0373	0.9721
b'CHR1:17084646:G'	b'M62SunitR4'	2	0.8097	0.0384	0.9721
b'CHR1:18877503:G'	b'M62SunitR1'	2	0.7353	0.0378	0.8615
b'CHR1:18877503:G'	b'M62SunitR2'	2	0.6266	0.0347	0.8615
b'CHR1:18877503:G'	b'M62SunitR3'	2	0.8311	0.0373	0.8615
b'CHR1:18877503:G'	b'M62SunitR4'	2	0.8097	0.0384	0.8615
b'CHR1:19282760:C'	b'M62SunitR1'	2	0.7353	0.0378	0.9996
b'CHR1:19282760:C'	b'M62SunitR2'	2	0.6266	0.0347	0.9996
b'CHR1:19282760:C'	b'M62SunitR3'	2	0.8311	0.0373	0.9996
b'CHR1:19282760:C'	b'M62SunitR4'	2	0.8097	0.0384	0.9996
b'CHR1:19623568:C'	b'M62SunitR1'	2	0.7353	0.0378	0.9499
b'CHR1:19623568:C'	b'M62SunitR2'	2	0.6266	0.0347	0.9499
b'CHR1:19623568:C'	b'M62SunitR3'	2	0.8311	0.0373	0.9499
b'CHR1:19623568:C'	b'M62SunitR4'	2	0.8097	0.0384	0.9499
b'CHR1:20084839:T'	b'M62SunitR1'	2	0.7353	0.0378	0.9585
b'CHR1:20084839:T'	b'M62SunitR2'	2	0.6266	0.0347	0.9585
b'CHR1:20084839:T'	b'M62SunitR3'	2	0.8311	0.0373	0.9585
b'CHR1:20084839:T'	b'M62SunitR4'	2	0.8097	0.0384	0.9585
b'CHR1:21483257:C'	b'M62SunitR1'	2	0.7353	0.0378	0.4081
b'CHR1:21483257:C'	b'M62SunitR2'	2	0.6266	0.0347	0.4081
b'CHR1:21483257:C'	b'M62SunitR3'	2	0.8311	0.0373	0.4081
b'CHR1:21483257:C'	b'M62SunitR4'	2	0.8097	0.0384	0.4081
b'CHR1:21874505:T'	b'M62SunitR1'	2	0.7353	0.0378	0.9933
b'CHR1:21874505:T'	b'M62SunitR2'	2	0.6266	0.0347	0.9933
b'CHR1:21874505:T'	b'M62SunitR3'	2	0.8311	0.0373	0.9933
b'CHR1:21874505:T'	b'M62SunitR4'	2	0.8097	0.0384	0.9933
b'CHR1:22526222:C'	b'M62SunitR1'	2	0.7353	0.0378	0.9998
b'CHR1:22526222:C'	b'M62SunitR2'	2	0.6266	0.0347	0.9998
b'CHR1:22526222:C'	b'M62SunitR3'	2	0.8311	0.0373	0.9998
b'CHR1:22526222:C'	b'M62SunitR4'	2	0.8097	0.0384	0.9998
b'CHR1:226223692:T'	b'M62SunitR1'	2	0.7353	0.0378	0.3375
b'CHR1:226223692:T'	b'M62SunitR2'	2	0.6266	0.0347	0.3375
b'CHR1:226223692:T'	b'M62SunitR3'	2	0.8311	0.0373	0.3375
b'CHR1:226223692:T'	b'M62SunitR4'	2	0.8097	0.0384	0.3375
b'CHR1:25243590:C'	b'M62SunitR1'	2	0.7353	0.0378	0.9186
b'CHR1:25243590:C'	b'M62SunitR2'	2	0.6266	0.0347	0.9186
b'CHR1:25243590:C'	b'M62SunitR3'	2	0.8311	0.0373	0.9186
b'CHR1:25243590:C'	b'M62SunitR4'	2	0.8097	0.0384	0.9186
b'CHR1:26344118:T'	b'M62SunitR1'	2	0.7353	0.0378	0.8367
b'CHR1:26344118:T'	b'M62SunitR2'	2	0.6266	0.0347	0.8367
b'CHR1:26344118:T'	b'M62SunitR3'	2	0.8311	0.0373	0.8367
b'CHR1:26344118:T'	b'M62SunitR4'	2	0.8097	0.0384	0.8367
b'CHR1:26952030:A'	b'M62SunitR1'	2	0.7353	0.0378	0.9992
b'CHR1:26952030:A'	b'M62SunitR2'	2	0.6266	0.0347	0.9992
b'CHR1:26952030:A'	b'M62SunitR3'	2	0.8311	0.0373	0.9992
b'CHR1:26952030:A'	b'M62SunitR4'	2	0.8097	0.0384	0.9992
b'CHR1:27360975:T'	b'M62SunitR1'	2	0.7353	0.0378	0.9118
b'CHR1:27360975:T'	b'M62SunitR2'	2	0.6266	0.0347	0.9118
b'CHR1:27360975:T'	b'M62SunitR3'	2	0.8311	0.0373	0.9118
b'CHR1:27360975:T'	b'M62SunitR4'	2	0.8097	0.0384	0.9118
b'CHR1:31630664:G'	b'M62SunitR1'	2	0.7353	0.0378	0.9589
b'CHR1:31630664:G'	b'M62SunitR2'	2	0.6266	0.0347	0.9589
b'CHR1:31630664:G'	b'M62SunitR3'	2	0.8311	0.0373	0.9589
b'CHR1:31630664:G'	b'M62SunitR4'	2	0.8097	0.0384	0.9589
b'CHR1:31698605:G'	b'M62SunitR1'	2	0.7353	0.0378	0.9307
b'CHR1:31698605:G'	b'M62SunitR2'	2	0.6266	0.0347	0.9307
b'CHR1:31698605:G'	b'M62SunitR3'	2	0.8311	0.0373	0.9307
b'CHR1:31698605:G'	b'M62SunitR4'	2	0.8097	0.0384	0.9307
b'CHR1:32770050:G'	b'M62SunitR1'	2	0.7353	0.0378	0.9967
b'CHR1:32770050:G'	b'M62SunitR2'	2	0.6266	0.0347	0.9967
b'CHR1:32770050:G'	b'M62SunitR3'	2	0.8311	0.0373	0.9967
b'CHR1:32770050:G'	b'M62SunitR4'	2	0.8097	0.0384	0.9967
b'CHR1:33494462:G'	b'M62SunitR1'	2	0.7353	0.0378	0.9993
b'CHR1:33494462:G'	b'M62SunitR2'	2	0.6266	0.0347	0.9993
b'CHR1:33494462:G'	b'M62SunitR3'	2	0.8311	0.0373	0.9993
b'CHR1:33494462:G'	b'M62SunitR4'	2	0.8097	0.0384	0.9993
b'CHR1:3478610:A'	b'M62SunitR1'	2	0.7353	0.0378	0.8117
b'CHR1:3478610:A'	b'M62SunitR2'	2	0.6266	0.0347	0.8117
b'CHR1:3478610:A'	b'M62SunitR3'	2	0.8311	0.0373	0.8117
b'CHR1:3478610:A'	b'M62SunitR4'	2	0.8097	0.0384	0.8117
b'CHR1:51840355:A'	b'M62SunitR1'	2	0.7353	0.0378	0.8722
b'CHR1:51840355:A'	b'M62SunitR2'	2	0.6266	0.0347	0.8722
b'CHR1:51840355:A'	b'M62SunitR3'	2	0.8311	0.0373	0.8722
b'CHR1:51840355:A'	b'M62SunitR4'	2	0.8097	0.0384	0.8722
b'CHR1:53247055:T'	b'M62SunitR1'	2	0.7353	0.0378	0.5275
b'CHR1:53247055:T'	b'M62SunitR2'	2	0.6266	0.0347	0.5275
b'CHR1:53247055:T'	b'M62SunitR3'	2	0.8311	0.0373	0.5275
b'CHR1:53247055:T'	b'M62SunitR4'	2	0.8097	0.0384	0.5275
b'CHR1:53250744:A'	b'M62SunitR1'	2	0.7353	0.0378	0.9798
b'CHR1:53250744:A'	b'M62SunitR2'	2	0.6266	0.0347	0.9798
b'CHR1:53250744:A'	b'M62SunitR3'	2	0.8311	0.0373	0.9798
b'CHR1:53250744:A'	b'M62SunitR4'	2	0.8097	0.0384	0.9798
b'CHR1:53594343:C'	b'M62SunitR1'	2	0.7353	0.0378	0.8569
b'CHR1:53594343:C'	b'M62SunitR2'	2	0.6266	0.0347	0.8569
b'CHR1:53594343:C'	b'M62SunitR3'	2	0.8311	0.0373	0.8569
b'CHR1:53594343:C'	b'M62SunitR4'	2	0.8097	0.0384	0.8569
b'CHR1:63415881:T'	b'M62SunitR1'	2	0.7353	0.0378	0.6956
b'CHR1:63415881:T'	b'M62SunitR2'	2	0.6266	0.0347	0.6956
b'CHR1:63415881:T'	b'M62SunitR3'	2	0.8311	0.0373	0.6956
b'CHR1:63415881:T'	b'M62SunitR4'	2	0.8097	0.0384	0.6956
b'CHR1:64844806:C'	b'M62SunitR1'	2	0.7353	0.0378	0.8740
b'CHR1:64844806:C'	b'M62SunitR2'	2	0.6266	0.0347	0.8740
b'CHR1:64844806:C'	b'M62SunitR3'	2	0.8311	0.0373	0.8740
b'CHR1:64844806:C'	b'M62SunitR4'	2	0.8097	0.0384	0.8740
b'CHR1:7827188:A'	b'M62SunitR1'	2	0.7353	0.0378	0.9973
b'CHR1:7827188:A'	b'M62SunitR2'	2	0.6266	0.0347	0.9973
b'CHR1:7827188:A'	b'M62SunitR3'	2	0.8311	0.0373	0.9973
b'CHR1:7827188:A'	b'M62SunitR4'	2	0.8097	0.0384	0.9973
b'CHR1:942934:C'	b'M62SunitR1'	2	0.7353	0.0378	0.9989
b'CHR1:942934:C'	b'M62SunitR2'	2	0.6266	0.0347	0.9989
b'CHR1:942934:C'	b'M62SunitR3'	2	0.8311	0.0373	0.9989
b'CHR1:942934:C'	b'M62SunitR4'	2	0.8097	0.0384	0.9989
b'CHR2:111856807:G'	b'M62SunitR1'	2	0.7353	0.0378	0.4938
b'CHR2:111856807:G'	b'M62SunitR2'	2	0.6266	0.0347	0.4938
b'CHR2:111856807:G'	b'M62SunitR3'	2	0.8311	0.0373	0.4938
b'CHR2:111856807:G'	b'M62SunitR4'	2	0.8097	0.0384	0.4938
b'CHR2:219451248:A'	b'M62SunitR1'	2	0.7353	0.0378	0.9907
b'CHR2:219451248:A'	b'M62SunitR2'	2	0.6266	0.0347	0.9907
b'CHR2:219451248:A'	b'M62SunitR3'	2	0.8311	0.0373	0.9907
b'CHR2:219451248:A'	b'M62SunitR4'	2	0.8097	0.0384	0.9907
b'CHR2:73291715:T'	b'M62SunitR1'	2	0.7353	0.0378	0.9925
b'CHR2:73291715:T'	b'M62SunitR2'	2	0.6266	0.0347	0.9925
b'CHR2:73291715:T'	b'M62SunitR3'	2	0.8311	0.0373	0.9925
b'CHR2:73291715:T'	b'M62SunitR4'	2	0.8097	0.0384	0.9925
b'CHR3:41800280:T'	b'M62SunitR1'	2	0.7353	0.0378	0.8163
b'CHR3:41800280:T'	b'M62SunitR2'	2	0.6266	0.0347	0.8163
b'CHR3:41800280:T'	b'M62SunitR3'	2	0.8311	0.0373	0.8163
b'CHR3:41800280:T'	b'M62SunitR4'	2	0.8097	0.0384	0.8163
b'CHR4:39510416:A'	b'M62SunitR1'	2	0.7353	0.0378	0.6205
b'CHR4:39510416:A'	b'M62SunitR2'	2	0.6266	0.0347	0.6205
b'CHR4:39510416:A'	b'M62SunitR3'	2	0.8311	0.0373	0.6205
b'CHR4:39510416:A'	b'M62SunitR4'	2	0.8097	0.0384	0.6205
b'CHR5:150540177:C'	b'M62SunitR1'	2	0.7353	0.0378	0.6211
b'CHR5:150540177:C'	b'M62SunitR2'	2	0.6266	0.0347	0.6211
b'CHR5:150540177:C'	b'M62SunitR3'	2	0.8311	0.0373	0.6211
b'CHR5:150540177:C'	b'M62SunitR4'	2	0.8097	0.0384	0.6211
b'CHR6:3154637:C'	b'M62SunitR1'	2	0.7353	0.0378	0.4944
b'CHR6:3154637:C'	b'M62SunitR2'	2	0.6266	0.0347	0.4944
b'CHR6:3154637:C'	b'M62SunitR3'	2	0.8311	0.0373	0.4944
b'CHR6:3154637:C'	b'M62SunitR4'	2	0.8097	0.0384	0.4944
b'CHR10:128101279:T'	b'M62SunitR1'	3	0.7260	0.0630	0.6219
b'CHR10:128101279:T'	b'M62SunitR2'	3	0.8938	0.0590	0.6219
b'CHR10:128101279:T'	b'M62SunitR3'	3	0.5111	0.0577	0.6219
b'CHR10:128101279:T'	b'M62SunitR4'	3	0.4900	0.0518	0.6219
b'CHR1:111242317:G'	b'M62SunitR1'	3	0.7260	0.0630	0.5886
b'CHR1:111242317:G'	b'M62SunitR2'	3	0.8938	0.0590	0.5886
b'CHR1:111242317:G'	b'M62SunitR3'	3	0.5111	0.0577	0.5886
b'CHR1:111242317:G'	b'M62SunitR4'	3	0.4900	0.0518	0.5886
b'CHR1:18854521:C'	b'M62SunitR1'	3	0.7260	0.0630	0.6541
b'CHR1:18854521:C'	b'M62SunitR2'	3	0.8938	0.0590	0.6541
b'CHR1:18854521:C'	b'M62SunitR3'	3	0.5111	0.0577	0.6541
b'CHR1:18854521:C'	b'M62SunitR4'	3	0.4900	0.0518	0.6541
b'CHR1:18854588:C'	b'M62SunitR1'	3	0.7260	0.0630	0.9521
b'CHR1:18854588:C'	b'M62SunitR2'	3	0.8938	0.0590	0.9521
b'CHR1:18854588:C'	b'M62SunitR3'	3	0.5111	0.0577	0.9521
b'CHR1:18854588:C'	b'M62SunitR4'	3	0.4900	0.0518	0.9521
b'CHR1:202160698:C'	b'M62SunitR1'	3	0.7260	0.0630	0.9829
b'CHR1:202160698:C'	b'M62SunitR2'	3	0.8938	0.0590	0.9829
b'CHR1:202160698:C'	b'M62SunitR3'	3	0.5111	0.0577	0.9829
b'CHR1:202160698:C'	b'M62SunitR4'	3	0.4900	0.0518	0.9829
b'CHR1:215567710:G'	b'M62SunitR1'	3	0.7260	0.0630	0.9527
b'CHR1:215567710:G'	b'M62SunitR2'	3	0.8938	0.0590	0.9527
b'CHR1:215567710:G'	b'M62SunitR3'	3	0.5111	0.0577	0.9527
b'CHR1:215567710:G'	b'M62SunitR4'	3	0.4900	0.0518	0.9527
b'CHR1:230921501:T'	b'M62SunitR1'	3	0.7260	0.0630	0.5242
b'CHR1:230921501:T'	b'M62SunitR2'	3	0.8938	0.0590	0.5242
b'CHR1:230921501:T'	b'M62SunitR3'	3	0.5111	0.0577	0.5242
b'CHR1:230921501:T'	b'M62SunitR4'	3	0.4900	0.0518	0.5242
b'CHR1:3763211:T'	b'M62SunitR1'	3	0.7260	0.0630	0.5984
b'CHR1:3763211:T'	b'M62SunitR2'	3	0.8938	0.0590	0.5984
b'CHR1:3763211:T'	b'M62SunitR3'	3	0.5111	0.0577	0.5984
b'CHR1:3763211:T'	b'M62SunitR4'	3	0.4900	0.0518	0.5984
b'CHR1:53594575:C'	b'M62SunitR1'	3	0.7260	0.0630	0.9012
b'CHR1:53594575:C'	b'M62SunitR2'	3	0.8938	0.0590	0.9012
b'CHR1:53594575:C'	b'M62SunitR3'	3	0.5111	0.0577	0.9012
b'CHR1:53594575:C'	b'M62SunitR4'	3	0.4900	0.0518	0.9012
b'CHR1:63323280:A'	b'M62SunitR1'	3	0.7260	0.0630	0.9352
b'CHR1:63323280:A'	b'M62SunitR2'	3	0.8938	0.0590	0.9352
b'CHR1:63323280:A'	b'M62SunitR3'	3	0.5111	0.0577	0.9352
b'CHR1:63323280:A'	b'M62SunitR4'	3	0.4900	0.0518	0.9352
b'CHR3:48447042:C'	b'M62SunitR1'	3	0.7260	0.0630	0.6014
b'CHR3:48447042:C'	b'M62SunitR2'	3	0.8938	0.0590	0.6014
b'CHR3:48447042:C'	b'M62SunitR3'	3	0.5111	0.0577	0.6014
b'CHR3:48447042:C'	b'M62SunitR4'	3	0.4900	0.0518	0.6014
b'CHR7:151066568:A'	b'M62SunitR1'	3	0.7260	0.0630	0.8410
b'CHR7:151066568:A'	b'M62SunitR2'	3	0.8938	0.0590	0.8410
b'CHR7:151066568:A'	b'M62SunitR3'	3	0.5111	0.0577	0.8410
b'CHR7:151066568:A'	b'M62SunitR4'	3	0.4900	0.0518	0.8410
