mutation_id	sample_id	cluster_id	cellular_prevalence	cellular_prevalence_std	cluster_assignment_prob
b'CHR10:94720464:A'	b'M62SunitR1'	0	0.3470	0.0334	0.6534
b'CHR10:94720464:A'	b'M62SunitR2'	0	0.4322	0.0414	0.6534
b'CHR10:94720464:A'	b'M62SunitR3'	0	0.3398	0.0316	0.6534
b'CHR10:94720464:A'	b'M62SunitR4'	0	0.4831	0.0404	0.6534
b'CHR11:120128675:T'	b'M62SunitR1'	0	0.3470	0.0334	0.9731
b'CHR11:120128675:T'	b'M62SunitR2'	0	0.4322	0.0414	0.9731
b'CHR11:120128675:T'	b'M62SunitR3'	0	0.3398	0.0316	0.9731
b'CHR11:120128675:T'	b'M62SunitR4'	0	0.4831	0.0404	0.9731
b'CHR19:52881597:A'	b'M62SunitR1'	0	0.3470	0.0334	0.8420
b'CHR19:52881597:A'	b'M62SunitR2'	0	0.4322	0.0414	0.8420
b'CHR19:52881597:A'	b'M62SunitR3'	0	0.3398	0.0316	0.8420
b'CHR19:52881597:A'	b'M62SunitR4'	0	0.4831	0.0404	0.8420
b'CHR1:11706367:T'	b'M62SunitR1'	0	0.3470	0.0334	0.5142
b'CHR1:11706367:T'	b'M62SunitR2'	0	0.4322	0.0414	0.5142
b'CHR1:11706367:T'	b'M62SunitR3'	0	0.3398	0.0316	0.5142
b'CHR1:11706367:T'	b'M62SunitR4'	0	0.4831	0.0404	0.5142
b'CHR1:155054385:T'	b'M62SunitR1'	0	0.3470	0.0334	0.8444
b'CHR1:155054385:T'	b'M62SunitR2'	0	0.4322	0.0414	0.8444
b'CHR1:155054385:T'	b'M62SunitR3'	0	0.3398	0.0316	0.8444
b'CHR1:155054385:T'	b'M62SunitR4'	0	0.4831	0.0404	0.8444
b'CHR1:16759300:T'	b'M62SunitR1'	0	0.3470	0.0334	0.9999
b'CHR1:16759300:T'	b'M62SunitR2'	0	0.4322	0.0414	0.9999
b'CHR1:16759300:T'	b'M62SunitR3'	0	0.3398	0.0316	0.9999
b'CHR1:16759300:T'	b'M62SunitR4'	0	0.4831	0.0404	0.9999
b'CHR1:18481971:A'	b'M62SunitR1'	0	0.3470	0.0334	0.4035
b'CHR1:18481971:A'	b'M62SunitR2'	0	0.4322	0.0414	0.4035
b'CHR1:18481971:A'	b'M62SunitR3'	0	0.3398	0.0316	0.4035
b'CHR1:18481971:A'	b'M62SunitR4'	0	0.4831	0.0404	0.4035
b'CHR1:239908407:T'	b'M62SunitR1'	0	0.3470	0.0334	0.3593
b'CHR1:239908407:T'	b'M62SunitR2'	0	0.4322	0.0414	0.3593
b'CHR1:239908407:T'	b'M62SunitR3'	0	0.3398	0.0316	0.3593
b'CHR1:239908407:T'	b'M62SunitR4'	0	0.4831	0.0404	0.3593
b'CHR4:145553807:T'	b'M62SunitR1'	0	0.3470	0.0334	0.4109
b'CHR4:145553807:T'	b'M62SunitR2'	0	0.4322	0.0414	0.4109
b'CHR4:145553807:T'	b'M62SunitR3'	0	0.3398	0.0316	0.4109
b'CHR4:145553807:T'	b'M62SunitR4'	0	0.4831	0.0404	0.4109
b'CHR6:10687513:T'	b'M62SunitR1'	0	0.3470	0.0334	0.6905
b'CHR6:10687513:T'	b'M62SunitR2'	0	0.4322	0.0414	0.6905
b'CHR6:10687513:T'	b'M62SunitR3'	0	0.3398	0.0316	0.6905
b'CHR6:10687513:T'	b'M62SunitR4'	0	0.4831	0.0404	0.6905
b'CHR6:111372976:C'	b'M62SunitR1'	0	0.3470	0.0334	0.4189
b'CHR6:111372976:C'	b'M62SunitR2'	0	0.4322	0.0414	0.4189
b'CHR6:111372976:C'	b'M62SunitR3'	0	0.3398	0.0316	0.4189
b'CHR6:111372976:C'	b'M62SunitR4'	0	0.4831	0.0404	0.4189
b'CHR6:11193627:A'	b'M62SunitR1'	0	0.3470	0.0334	0.9958
b'CHR6:11193627:A'	b'M62SunitR2'	0	0.4322	0.0414	0.9958
b'CHR6:11193627:A'	b'M62SunitR3'	0	0.3398	0.0316	0.9958
b'CHR6:11193627:A'	b'M62SunitR4'	0	0.4831	0.0404	0.9958
b'CHR6:2749147:T'	b'M62SunitR1'	0	0.3470	0.0334	0.4720
b'CHR6:2749147:T'	b'M62SunitR2'	0	0.4322	0.0414	0.4720
b'CHR6:2749147:T'	b'M62SunitR3'	0	0.3398	0.0316	0.4720
b'CHR6:2749147:T'	b'M62SunitR4'	0	0.4831	0.0404	0.4720
b'CHR6:7393219:T'	b'M62SunitR1'	0	0.3470	0.0334	0.9737
b'CHR6:7393219:T'	b'M62SunitR2'	0	0.4322	0.0414	0.9737
b'CHR6:7393219:T'	b'M62SunitR3'	0	0.3398	0.0316	0.9737
b'CHR6:7393219:T'	b'M62SunitR4'	0	0.4831	0.0404	0.9737
b'CHR6:7577027:T'	b'M62SunitR1'	0	0.3470	0.0334	0.5980
b'CHR6:7577027:T'	b'M62SunitR2'	0	0.4322	0.0414	0.5980
b'CHR6:7577027:T'	b'M62SunitR3'	0	0.3398	0.0316	0.5980
b'CHR6:7577027:T'	b'M62SunitR4'	0	0.4831	0.0404	0.5980
b'CHR6:7581403:A'	b'M62SunitR1'	0	0.3470	0.0334	0.9509
b'CHR6:7581403:A'	b'M62SunitR2'	0	0.4322	0.0414	0.9509
b'CHR6:7581403:A'	b'M62SunitR3'	0	0.3398	0.0316	0.9509
b'CHR6:7581403:A'	b'M62SunitR4'	0	0.4831	0.0404	0.9509
b'CHR6:7601487:T'	b'M62SunitR1'	0	0.3470	0.0334	0.5414
b'CHR6:7601487:T'	b'M62SunitR2'	0	0.4322	0.0414	0.5414
b'CHR6:7601487:T'	b'M62SunitR3'	0	0.3398	0.0316	0.5414
b'CHR6:7601487:T'	b'M62SunitR4'	0	0.4831	0.0404	0.5414
b'CHR7:72942166:T'	b'M62SunitR1'	0	0.3470	0.0334	0.6710
b'CHR7:72942166:T'	b'M62SunitR2'	0	0.4322	0.0414	0.6710
b'CHR7:72942166:T'	b'M62SunitR3'	0	0.3398	0.0316	0.6710
b'CHR7:72942166:T'	b'M62SunitR4'	0	0.4831	0.0404	0.6710
b'CHR9:125337434:T'	b'M62SunitR1'	0	0.3470	0.0334	0.6965
b'CHR9:125337434:T'	b'M62SunitR2'	0	0.4322	0.0414	0.6965
b'CHR9:125337434:T'	b'M62SunitR3'	0	0.3398	0.0316	0.6965
b'CHR9:125337434:T'	b'M62SunitR4'	0	0.4831	0.0404	0.6965
b'CHR9:26928213:T'	b'M62SunitR1'	0	0.3470	0.0334	0.9916
b'CHR9:26928213:T'	b'M62SunitR2'	0	0.4322	0.0414	0.9916
b'CHR9:26928213:T'	b'M62SunitR3'	0	0.3398	0.0316	0.9916
b'CHR9:26928213:T'	b'M62SunitR4'	0	0.4831	0.0404	0.9916
b'CHR9:95881156:A'	b'M62SunitR1'	0	0.3470	0.0334	0.9379
b'CHR9:95881156:A'	b'M62SunitR2'	0	0.4322	0.0414	0.9379
b'CHR9:95881156:A'	b'M62SunitR3'	0	0.3398	0.0316	0.9379
b'CHR9:95881156:A'	b'M62SunitR4'	0	0.4831	0.0404	0.9379
b'CHR10:70145794:T'	b'M62SunitR1'	1	0.2428	0.0323	0.8632
b'CHR10:70145794:T'	b'M62SunitR2'	1	0.2141	0.0256	0.8632
b'CHR10:70145794:T'	b'M62SunitR3'	1	0.1811	0.0194	0.8632
b'CHR10:70145794:T'	b'M62SunitR4'	1	0.1812	0.0225	0.8632
b'CHR10:73751113:G'	b'M62SunitR1'	1	0.2428	0.0323	0.4774
b'CHR10:73751113:G'	b'M62SunitR2'	1	0.2141	0.0256	0.4774
b'CHR10:73751113:G'	b'M62SunitR3'	1	0.1811	0.0194	0.4774
b'CHR10:73751113:G'	b'M62SunitR4'	1	0.1812	0.0225	0.4774
b'CHR11:119186606:T'	b'M62SunitR1'	1	0.2428	0.0323	0.9987
b'CHR11:119186606:T'	b'M62SunitR2'	1	0.2141	0.0256	0.9987
b'CHR11:119186606:T'	b'M62SunitR3'	1	0.1811	0.0194	0.9987
b'CHR11:119186606:T'	b'M62SunitR4'	1	0.1812	0.0225	0.9987
b'CHR11:124894022:C'	b'M62SunitR1'	1	0.2428	0.0323	0.3436
b'CHR11:124894022:C'	b'M62SunitR2'	1	0.2141	0.0256	0.3436
b'CHR11:124894022:C'	b'M62SunitR3'	1	0.1811	0.0194	0.3436
b'CHR11:124894022:C'	b'M62SunitR4'	1	0.1812	0.0225	0.3436
b'CHR11:59364822:A'	b'M62SunitR1'	1	0.2428	0.0323	0.8953
b'CHR11:59364822:A'	b'M62SunitR2'	1	0.2141	0.0256	0.8953
b'CHR11:59364822:A'	b'M62SunitR3'	1	0.1811	0.0194	0.8953
b'CHR11:59364822:A'	b'M62SunitR4'	1	0.1812	0.0225	0.8953
b'CHR11:64593580:A'	b'M62SunitR1'	1	0.2428	0.0323	0.9992
b'CHR11:64593580:A'	b'M62SunitR2'	1	0.2141	0.0256	0.9992
b'CHR11:64593580:A'	b'M62SunitR3'	1	0.1811	0.0194	0.9992
b'CHR11:64593580:A'	b'M62SunitR4'	1	0.1812	0.0225	0.9992
b'CHR11:65630575:T'	b'M62SunitR1'	1	0.2428	0.0323	0.6447
b'CHR11:65630575:T'	b'M62SunitR2'	1	0.2141	0.0256	0.6447
b'CHR11:65630575:T'	b'M62SunitR3'	1	0.1811	0.0194	0.6447
b'CHR11:65630575:T'	b'M62SunitR4'	1	0.1812	0.0225	0.6447
b'CHR11:83962885:A'	b'M62SunitR1'	1	0.2428	0.0323	0.7053
b'CHR11:83962885:A'	b'M62SunitR2'	1	0.2141	0.0256	0.7053
b'CHR11:83962885:A'	b'M62SunitR3'	1	0.1811	0.0194	0.7053
b'CHR11:83962885:A'	b'M62SunitR4'	1	0.1812	0.0225	0.7053
b'CHR12:108518570:T'	b'M62SunitR1'	1	0.2428	0.0323	0.9737
b'CHR12:108518570:T'	b'M62SunitR2'	1	0.2141	0.0256	0.9737
b'CHR12:108518570:T'	b'M62SunitR3'	1	0.1811	0.0194	0.9737
b'CHR12:108518570:T'	b'M62SunitR4'	1	0.1812	0.0225	0.9737
b'CHR12:122184703:T'	b'M62SunitR1'	1	0.2428	0.0323	0.9812
b'CHR12:122184703:T'	b'M62SunitR2'	1	0.2141	0.0256	0.9812
b'CHR12:122184703:T'	b'M62SunitR3'	1	0.1811	0.0194	0.9812
b'CHR12:122184703:T'	b'M62SunitR4'	1	0.1812	0.0225	0.9812
b'CHR12:40481156:A'	b'M62SunitR1'	1	0.2428	0.0323	0.9997
b'CHR12:40481156:A'	b'M62SunitR2'	1	0.2141	0.0256	0.9997
b'CHR12:40481156:A'	b'M62SunitR3'	1	0.1811	0.0194	0.9997
b'CHR12:40481156:A'	b'M62SunitR4'	1	0.1812	0.0225	0.9997
b'CHR12:40481157:G'	b'M62SunitR1'	1	0.2428	0.0323	0.9997
b'CHR12:40481157:G'	b'M62SunitR2'	1	0.2141	0.0256	0.9997
b'CHR12:40481157:G'	b'M62SunitR3'	1	0.1811	0.0194	0.9997
b'CHR12:40481157:G'	b'M62SunitR4'	1	0.1812	0.0225	0.9997
b'CHR12:45927444:G'	b'M62SunitR1'	1	0.2428	0.0323	0.4348
b'CHR12:45927444:G'	b'M62SunitR2'	1	0.2141	0.0256	0.4348
b'CHR12:45927444:G'	b'M62SunitR3'	1	0.1811	0.0194	0.4348
b'CHR12:45927444:G'	b'M62SunitR4'	1	0.1812	0.0225	0.4348
b'CHR12:55027042:G'	b'M62SunitR1'	1	0.2428	0.0323	0.9004
b'CHR12:55027042:G'	b'M62SunitR2'	1	0.2141	0.0256	0.9004
b'CHR12:55027042:G'	b'M62SunitR3'	1	0.1811	0.0194	0.9004
b'CHR12:55027042:G'	b'M62SunitR4'	1	0.1812	0.0225	0.9004
b'CHR12:56267413:A'	b'M62SunitR1'	1	0.2428	0.0323	0.5281
b'CHR12:56267413:A'	b'M62SunitR2'	1	0.2141	0.0256	0.5281
b'CHR12:56267413:A'	b'M62SunitR3'	1	0.1811	0.0194	0.5281
b'CHR12:56267413:A'	b'M62SunitR4'	1	0.1812	0.0225	0.5281
b'CHR12:85046079:A'	b'M62SunitR1'	1	0.2428	0.0323	0.3394
b'CHR12:85046079:A'	b'M62SunitR2'	1	0.2141	0.0256	0.3394
b'CHR12:85046079:A'	b'M62SunitR3'	1	0.1811	0.0194	0.3394
b'CHR12:85046079:A'	b'M62SunitR4'	1	0.1812	0.0225	0.3394
b'CHR15:23566598:A'	b'M62SunitR1'	1	0.2428	0.0323	0.5675
b'CHR15:23566598:A'	b'M62SunitR2'	1	0.2141	0.0256	0.5675
b'CHR15:23566598:A'	b'M62SunitR3'	1	0.1811	0.0194	0.5675
b'CHR15:23566598:A'	b'M62SunitR4'	1	0.1812	0.0225	0.5675
b'CHR15:44328733:C'	b'M62SunitR1'	1	0.2428	0.0323	0.5990
b'CHR15:44328733:C'	b'M62SunitR2'	1	0.2141	0.0256	0.5990
b'CHR15:44328733:C'	b'M62SunitR3'	1	0.1811	0.0194	0.5990
b'CHR15:44328733:C'	b'M62SunitR4'	1	0.1812	0.0225	0.5990
b'CHR15:45095849:C'	b'M62SunitR1'	1	0.2428	0.0323	0.9944
b'CHR15:45095849:C'	b'M62SunitR2'	1	0.2141	0.0256	0.9944
b'CHR15:45095849:C'	b'M62SunitR3'	1	0.1811	0.0194	0.9944
b'CHR15:45095849:C'	b'M62SunitR4'	1	0.1812	0.0225	0.9944
b'CHR16:647835:T'	b'M62SunitR1'	1	0.2428	0.0323	0.7009
b'CHR16:647835:T'	b'M62SunitR2'	1	0.2141	0.0256	0.7009
b'CHR16:647835:T'	b'M62SunitR3'	1	0.1811	0.0194	0.7009
b'CHR16:647835:T'	b'M62SunitR4'	1	0.1812	0.0225	0.7009
b'CHR17:20204775:G'	b'M62SunitR1'	1	0.2428	0.0323	0.8190
b'CHR17:20204775:G'	b'M62SunitR2'	1	0.2141	0.0256	0.8190
b'CHR17:20204775:G'	b'M62SunitR3'	1	0.1811	0.0194	0.8190
b'CHR17:20204775:G'	b'M62SunitR4'	1	0.1812	0.0225	0.8190
b'CHR17:3843133:A'	b'M62SunitR1'	1	0.2428	0.0323	0.6998
b'CHR17:3843133:A'	b'M62SunitR2'	1	0.2141	0.0256	0.6998
b'CHR17:3843133:A'	b'M62SunitR3'	1	0.1811	0.0194	0.6998
b'CHR17:3843133:A'	b'M62SunitR4'	1	0.1812	0.0225	0.6998
b'CHR17:43209672:C'	b'M62SunitR1'	1	0.2428	0.0323	0.6628
b'CHR17:43209672:C'	b'M62SunitR2'	1	0.2141	0.0256	0.6628
b'CHR17:43209672:C'	b'M62SunitR3'	1	0.1811	0.0194	0.6628
b'CHR17:43209672:C'	b'M62SunitR4'	1	0.1812	0.0225	0.6628
b'CHR17:80436175:G'	b'M62SunitR1'	1	0.2428	0.0323	0.8092
b'CHR17:80436175:G'	b'M62SunitR2'	1	0.2141	0.0256	0.8092
b'CHR17:80436175:G'	b'M62SunitR3'	1	0.1811	0.0194	0.8092
b'CHR17:80436175:G'	b'M62SunitR4'	1	0.1812	0.0225	0.8092
b'CHR19:1495334:T'	b'M62SunitR1'	1	0.2428	0.0323	0.8030
b'CHR19:1495334:T'	b'M62SunitR2'	1	0.2141	0.0256	0.8030
b'CHR19:1495334:T'	b'M62SunitR3'	1	0.1811	0.0194	0.8030
b'CHR19:1495334:T'	b'M62SunitR4'	1	0.1812	0.0225	0.8030
b'CHR19:19147765:A'	b'M62SunitR1'	1	0.2428	0.0323	0.9115
b'CHR19:19147765:A'	b'M62SunitR2'	1	0.2141	0.0256	0.9115
b'CHR19:19147765:A'	b'M62SunitR3'	1	0.1811	0.0194	0.9115
b'CHR19:19147765:A'	b'M62SunitR4'	1	0.1812	0.0225	0.9115
b'CHR19:19273137:T'	b'M62SunitR1'	1	0.2428	0.0323	0.8576
b'CHR19:19273137:T'	b'M62SunitR2'	1	0.2141	0.0256	0.8576
b'CHR19:19273137:T'	b'M62SunitR3'	1	0.1811	0.0194	0.8576
b'CHR19:19273137:T'	b'M62SunitR4'	1	0.1812	0.0225	0.8576
b'CHR19:36915827:T'	b'M62SunitR1'	1	0.2428	0.0323	0.9853
b'CHR19:36915827:T'	b'M62SunitR2'	1	0.2141	0.0256	0.9853
b'CHR19:36915827:T'	b'M62SunitR3'	1	0.1811	0.0194	0.9853
b'CHR19:36915827:T'	b'M62SunitR4'	1	0.1812	0.0225	0.9853
b'CHR19:45591702:A'	b'M62SunitR1'	1	0.2428	0.0323	0.8373
b'CHR19:45591702:A'	b'M62SunitR2'	1	0.2141	0.0256	0.8373
b'CHR19:45591702:A'	b'M62SunitR3'	1	0.1811	0.0194	0.8373
b'CHR19:45591702:A'	b'M62SunitR4'	1	0.1812	0.0225	0.8373
b'CHR19:49022934:A'	b'M62SunitR1'	1	0.2428	0.0323	0.5674
b'CHR19:49022934:A'	b'M62SunitR2'	1	0.2141	0.0256	0.5674
b'CHR19:49022934:A'	b'M62SunitR3'	1	0.1811	0.0194	0.5674
b'CHR19:49022934:A'	b'M62SunitR4'	1	0.1812	0.0225	0.5674
b'CHR19:51627961:A'	b'M62SunitR1'	1	0.2428	0.0323	0.9381
b'CHR19:51627961:A'	b'M62SunitR2'	1	0.2141	0.0256	0.9381
b'CHR19:51627961:A'	b'M62SunitR3'	1	0.1811	0.0194	0.9381
b'CHR19:51627961:A'	b'M62SunitR4'	1	0.1812	0.0225	0.9381
b'CHR19:8980141:A'	b'M62SunitR1'	1	0.2428	0.0323	0.5196
b'CHR19:8980141:A'	b'M62SunitR2'	1	0.2141	0.0256	0.5196
b'CHR19:8980141:A'	b'M62SunitR3'	1	0.1811	0.0194	0.5196
b'CHR19:8980141:A'	b'M62SunitR4'	1	0.1812	0.0225	0.5196
b'CHR1:1046687:A'	b'M62SunitR1'	1	0.2428	0.0323	0.9373
b'CHR1:1046687:A'	b'M62SunitR2'	1	0.2141	0.0256	0.9373
b'CHR1:1046687:A'	b'M62SunitR3'	1	0.1811	0.0194	0.9373
b'CHR1:1046687:A'	b'M62SunitR4'	1	0.1812	0.0225	0.9373
b'CHR1:113981341:T'	b'M62SunitR1'	1	0.2428	0.0323	0.9950
b'CHR1:113981341:T'	b'M62SunitR2'	1	0.2141	0.0256	0.9950
b'CHR1:113981341:T'	b'M62SunitR3'	1	0.1811	0.0194	0.9950
b'CHR1:113981341:T'	b'M62SunitR4'	1	0.1812	0.0225	0.9950
b'CHR1:1495680:C'	b'M62SunitR1'	1	0.2428	0.0323	0.6880
b'CHR1:1495680:C'	b'M62SunitR2'	1	0.2141	0.0256	0.6880
b'CHR1:1495680:C'	b'M62SunitR3'	1	0.1811	0.0194	0.6880
b'CHR1:1495680:C'	b'M62SunitR4'	1	0.1812	0.0225	0.6880
b'CHR1:1495915:C'	b'M62SunitR1'	1	0.2428	0.0323	0.9872
b'CHR1:1495915:C'	b'M62SunitR2'	1	0.2141	0.0256	0.9872
b'CHR1:1495915:C'	b'M62SunitR3'	1	0.1811	0.0194	0.9872
b'CHR1:1495915:C'	b'M62SunitR4'	1	0.1812	0.0225	0.9872
b'CHR1:157586429:T'	b'M62SunitR1'	1	0.2428	0.0323	0.6881
b'CHR1:157586429:T'	b'M62SunitR2'	1	0.2141	0.0256	0.6881
b'CHR1:157586429:T'	b'M62SunitR3'	1	0.1811	0.0194	0.6881
b'CHR1:157586429:T'	b'M62SunitR4'	1	0.1812	0.0225	0.6881
b'CHR1:168308838:T'	b'M62SunitR1'	1	0.2428	0.0323	0.7379
b'CHR1:168308838:T'	b'M62SunitR2'	1	0.2141	0.0256	0.7379
b'CHR1:168308838:T'	b'M62SunitR3'	1	0.1811	0.0194	0.7379
b'CHR1:168308838:T'	b'M62SunitR4'	1	0.1812	0.0225	0.7379
b'CHR1:197103366:C'	b'M62SunitR1'	1	0.2428	0.0323	0.8797
b'CHR1:197103366:C'	b'M62SunitR2'	1	0.2141	0.0256	0.8797
b'CHR1:197103366:C'	b'M62SunitR3'	1	0.1811	0.0194	0.8797
b'CHR1:197103366:C'	b'M62SunitR4'	1	0.1812	0.0225	0.8797
b'CHR1:21611463:T'	b'M62SunitR1'	1	0.2428	0.0323	0.4187
b'CHR1:21611463:T'	b'M62SunitR2'	1	0.2141	0.0256	0.4187
b'CHR1:21611463:T'	b'M62SunitR3'	1	0.1811	0.0194	0.4187
b'CHR1:21611463:T'	b'M62SunitR4'	1	0.1812	0.0225	0.4187
b'CHR1:247423969:T'	b'M62SunitR1'	1	0.2428	0.0323	0.7739
b'CHR1:247423969:T'	b'M62SunitR2'	1	0.2141	0.0256	0.7739
b'CHR1:247423969:T'	b'M62SunitR3'	1	0.1811	0.0194	0.7739
b'CHR1:247423969:T'	b'M62SunitR4'	1	0.1812	0.0225	0.7739
b'CHR1:247814820:A'	b'M62SunitR1'	1	0.2428	0.0323	0.4426
b'CHR1:247814820:A'	b'M62SunitR2'	1	0.2141	0.0256	0.4426
b'CHR1:247814820:A'	b'M62SunitR3'	1	0.1811	0.0194	0.4426
b'CHR1:247814820:A'	b'M62SunitR4'	1	0.1812	0.0225	0.4426
b'CHR1:37886922:T'	b'M62SunitR1'	1	0.2428	0.0323	0.3495
b'CHR1:37886922:T'	b'M62SunitR2'	1	0.2141	0.0256	0.3495
b'CHR1:37886922:T'	b'M62SunitR3'	1	0.1811	0.0194	0.3495
b'CHR1:37886922:T'	b'M62SunitR4'	1	0.1812	0.0225	0.3495
b'CHR1:70039224:A'	b'M62SunitR1'	1	0.2428	0.0323	0.9309
b'CHR1:70039224:A'	b'M62SunitR2'	1	0.2141	0.0256	0.9309
b'CHR1:70039224:A'	b'M62SunitR3'	1	0.1811	0.0194	0.9309
b'CHR1:70039224:A'	b'M62SunitR4'	1	0.1812	0.0225	0.9309
b'CHR1:78629802:A'	b'M62SunitR1'	1	0.2428	0.0323	0.9744
b'CHR1:78629802:A'	b'M62SunitR2'	1	0.2141	0.0256	0.9744
b'CHR1:78629802:A'	b'M62SunitR3'	1	0.1811	0.0194	0.9744
b'CHR1:78629802:A'	b'M62SunitR4'	1	0.1812	0.0225	0.9744
b'CHR1:8957259:A'	b'M62SunitR1'	1	0.2428	0.0323	0.8590
b'CHR1:8957259:A'	b'M62SunitR2'	1	0.2141	0.0256	0.8590
b'CHR1:8957259:A'	b'M62SunitR3'	1	0.1811	0.0194	0.8590
b'CHR1:8957259:A'	b'M62SunitR4'	1	0.1812	0.0225	0.8590
b'CHR1:91319110:C'	b'M62SunitR1'	1	0.2428	0.0323	0.6057
b'CHR1:91319110:C'	b'M62SunitR2'	1	0.2141	0.0256	0.6057
b'CHR1:91319110:C'	b'M62SunitR3'	1	0.1811	0.0194	0.6057
b'CHR1:91319110:C'	b'M62SunitR4'	1	0.1812	0.0225	0.6057
b'CHR20:21328621:A'	b'M62SunitR1'	1	0.2428	0.0323	0.8989
b'CHR20:21328621:A'	b'M62SunitR2'	1	0.2141	0.0256	0.8989
b'CHR20:21328621:A'	b'M62SunitR3'	1	0.1811	0.0194	0.8989
b'CHR20:21328621:A'	b'M62SunitR4'	1	0.1812	0.0225	0.8989
b'CHR21:44551263:G'	b'M62SunitR1'	1	0.2428	0.0323	0.8854
b'CHR21:44551263:G'	b'M62SunitR2'	1	0.2141	0.0256	0.8854
b'CHR21:44551263:G'	b'M62SunitR3'	1	0.1811	0.0194	0.8854
b'CHR21:44551263:G'	b'M62SunitR4'	1	0.1812	0.0225	0.8854
b'CHR2:124865392:A'	b'M62SunitR1'	1	0.2428	0.0323	0.5962
b'CHR2:124865392:A'	b'M62SunitR2'	1	0.2141	0.0256	0.5962
b'CHR2:124865392:A'	b'M62SunitR3'	1	0.1811	0.0194	0.5962
b'CHR2:124865392:A'	b'M62SunitR4'	1	0.1812	0.0225	0.5962
b'CHR2:167249230:T'	b'M62SunitR1'	1	0.2428	0.0323	0.4984
b'CHR2:167249230:T'	b'M62SunitR2'	1	0.2141	0.0256	0.4984
b'CHR2:167249230:T'	b'M62SunitR3'	1	0.1811	0.0194	0.4984
b'CHR2:167249230:T'	b'M62SunitR4'	1	0.1812	0.0225	0.4984
b'CHR2:186838999:G'	b'M62SunitR1'	1	0.2428	0.0323	0.5824
b'CHR2:186838999:G'	b'M62SunitR2'	1	0.2141	0.0256	0.5824
b'CHR2:186838999:G'	b'M62SunitR3'	1	0.1811	0.0194	0.5824
b'CHR2:186838999:G'	b'M62SunitR4'	1	0.1812	0.0225	0.5824
b'CHR3:45093328:A'	b'M62SunitR1'	1	0.2428	0.0323	0.9825
b'CHR3:45093328:A'	b'M62SunitR2'	1	0.2141	0.0256	0.9825
b'CHR3:45093328:A'	b'M62SunitR3'	1	0.1811	0.0194	0.9825
b'CHR3:45093328:A'	b'M62SunitR4'	1	0.1812	0.0225	0.9825
b'CHR3:50320148:G'	b'M62SunitR1'	1	0.2428	0.0323	0.9937
b'CHR3:50320148:G'	b'M62SunitR2'	1	0.2141	0.0256	0.9937
b'CHR3:50320148:G'	b'M62SunitR3'	1	0.1811	0.0194	0.9937
b'CHR3:50320148:G'	b'M62SunitR4'	1	0.1812	0.0225	0.9937
b'CHR3:9950005:A'	b'M62SunitR1'	1	0.2428	0.0323	1.0000
b'CHR3:9950005:A'	b'M62SunitR2'	1	0.2141	0.0256	1.0000
b'CHR3:9950005:A'	b'M62SunitR3'	1	0.1811	0.0194	1.0000
b'CHR3:9950005:A'	b'M62SunitR4'	1	0.1812	0.0225	1.0000
b'CHR4:105942405:T'	b'M62SunitR1'	1	0.2428	0.0323	0.6716
b'CHR4:105942405:T'	b'M62SunitR2'	1	0.2141	0.0256	0.6716
b'CHR4:105942405:T'	b'M62SunitR3'	1	0.1811	0.0194	0.6716
b'CHR4:105942405:T'	b'M62SunitR4'	1	0.1812	0.0225	0.6716
b'CHR4:155711214:C'	b'M62SunitR1'	1	0.2428	0.0323	0.7143
b'CHR4:155711214:C'	b'M62SunitR2'	1	0.2141	0.0256	0.7143
b'CHR4:155711214:C'	b'M62SunitR3'	1	0.1811	0.0194	0.7143
b'CHR4:155711214:C'	b'M62SunitR4'	1	0.1812	0.0225	0.7143
b'CHR4:186619620:A'	b'M62SunitR1'	1	0.2428	0.0323	0.7204
b'CHR4:186619620:A'	b'M62SunitR2'	1	0.2141	0.0256	0.7204
b'CHR4:186619620:A'	b'M62SunitR3'	1	0.1811	0.0194	0.7204
b'CHR4:186619620:A'	b'M62SunitR4'	1	0.1812	0.0225	0.7204
b'CHR4:7006660:G'	b'M62SunitR1'	1	0.2428	0.0323	0.6380
b'CHR4:7006660:G'	b'M62SunitR2'	1	0.2141	0.0256	0.6380
b'CHR4:7006660:G'	b'M62SunitR3'	1	0.1811	0.0194	0.6380
b'CHR4:7006660:G'	b'M62SunitR4'	1	0.1812	0.0225	0.6380
b'CHR5:138930531:A'	b'M62SunitR1'	1	0.2428	0.0323	0.5957
b'CHR5:138930531:A'	b'M62SunitR2'	1	0.2141	0.0256	0.5957
b'CHR5:138930531:A'	b'M62SunitR3'	1	0.1811	0.0194	0.5957
b'CHR5:138930531:A'	b'M62SunitR4'	1	0.1812	0.0225	0.5957
b'CHR5:138930532:CCCACATGAACTA'	b'M62SunitR1'	1	0.2428	0.0323	0.5957
b'CHR5:138930532:CCCACATGAACTA'	b'M62SunitR2'	1	0.2141	0.0256	0.5957
b'CHR5:138930532:CCCACATGAACTA'	b'M62SunitR3'	1	0.1811	0.0194	0.5957
b'CHR5:138930532:CCCACATGAACTA'	b'M62SunitR4'	1	0.1812	0.0225	0.5957
b'CHR5:141431886:T'	b'M62SunitR1'	1	0.2428	0.0323	0.7595
b'CHR5:141431886:T'	b'M62SunitR2'	1	0.2141	0.0256	0.7595
b'CHR5:141431886:T'	b'M62SunitR3'	1	0.1811	0.0194	0.7595
b'CHR5:141431886:T'	b'M62SunitR4'	1	0.1812	0.0225	0.7595
b'CHR5:177403277:A'	b'M62SunitR1'	1	0.2428	0.0323	0.9985
b'CHR5:177403277:A'	b'M62SunitR2'	1	0.2141	0.0256	0.9985
b'CHR5:177403277:A'	b'M62SunitR3'	1	0.1811	0.0194	0.9985
b'CHR5:177403277:A'	b'M62SunitR4'	1	0.1812	0.0225	0.9985
b'CHR5:31409330:A'	b'M62SunitR1'	1	0.2428	0.0323	0.4582
b'CHR5:31409330:A'	b'M62SunitR2'	1	0.2141	0.0256	0.4582
b'CHR5:31409330:A'	b'M62SunitR3'	1	0.1811	0.0194	0.4582
b'CHR5:31409330:A'	b'M62SunitR4'	1	0.1812	0.0225	0.4582
b'CHR5:51389819:T'	b'M62SunitR1'	1	0.2428	0.0323	0.7449
b'CHR5:51389819:T'	b'M62SunitR2'	1	0.2141	0.0256	0.7449
b'CHR5:51389819:T'	b'M62SunitR3'	1	0.1811	0.0194	0.7449
b'CHR5:51389819:T'	b'M62SunitR4'	1	0.1812	0.0225	0.7449
b'CHR5:74634923:T'	b'M62SunitR1'	1	0.2428	0.0323	0.8563
b'CHR5:74634923:T'	b'M62SunitR2'	1	0.2141	0.0256	0.8563
b'CHR5:74634923:T'	b'M62SunitR3'	1	0.1811	0.0194	0.8563
b'CHR5:74634923:T'	b'M62SunitR4'	1	0.1812	0.0225	0.8563
b'CHR6:12120212:G'	b'M62SunitR1'	1	0.2428	0.0323	0.4838
b'CHR6:12120212:G'	b'M62SunitR2'	1	0.2141	0.0256	0.4838
b'CHR6:12120212:G'	b'M62SunitR3'	1	0.1811	0.0194	0.4838
b'CHR6:12120212:G'	b'M62SunitR4'	1	0.1812	0.0225	0.4838
b'CHR6:167136359:T'	b'M62SunitR1'	1	0.2428	0.0323	0.5441
b'CHR6:167136359:T'	b'M62SunitR2'	1	0.2141	0.0256	0.5441
b'CHR6:167136359:T'	b'M62SunitR3'	1	0.1811	0.0194	0.5441
b'CHR6:167136359:T'	b'M62SunitR4'	1	0.1812	0.0225	0.5441
b'CHR6:34871637:A'	b'M62SunitR1'	1	0.2428	0.0323	0.6754
b'CHR6:34871637:A'	b'M62SunitR2'	1	0.2141	0.0256	0.6754
b'CHR6:34871637:A'	b'M62SunitR3'	1	0.1811	0.0194	0.6754
b'CHR6:34871637:A'	b'M62SunitR4'	1	0.1812	0.0225	0.6754
b'CHR6:45422739:A'	b'M62SunitR1'	1	0.2428	0.0323	0.5674
b'CHR6:45422739:A'	b'M62SunitR2'	1	0.2141	0.0256	0.5674
b'CHR6:45422739:A'	b'M62SunitR3'	1	0.1811	0.0194	0.5674
b'CHR6:45422739:A'	b'M62SunitR4'	1	0.1812	0.0225	0.5674
b'CHR6:9775825:A'	b'M62SunitR1'	1	0.2428	0.0323	0.3974
b'CHR6:9775825:A'	b'M62SunitR2'	1	0.2141	0.0256	0.3974
b'CHR6:9775825:A'	b'M62SunitR3'	1	0.1811	0.0194	0.3974
b'CHR6:9775825:A'	b'M62SunitR4'	1	0.1812	0.0225	0.3974
b'CHR7:39085988:C'	b'M62SunitR1'	1	0.2428	0.0323	0.9183
b'CHR7:39085988:C'	b'M62SunitR2'	1	0.2141	0.0256	0.9183
b'CHR7:39085988:C'	b'M62SunitR3'	1	0.1811	0.0194	0.9183
b'CHR7:39085988:C'	b'M62SunitR4'	1	0.1812	0.0225	0.9183
b'CHR7:39085990:C'	b'M62SunitR1'	1	0.2428	0.0323	0.9183
b'CHR7:39085990:C'	b'M62SunitR2'	1	0.2141	0.0256	0.9183
b'CHR7:39085990:C'	b'M62SunitR3'	1	0.1811	0.0194	0.9183
b'CHR7:39085990:C'	b'M62SunitR4'	1	0.1812	0.0225	0.9183
b'CHR8:144040433:T'	b'M62SunitR1'	1	0.2428	0.0323	0.8010
b'CHR8:144040433:T'	b'M62SunitR2'	1	0.2141	0.0256	0.8010
b'CHR8:144040433:T'	b'M62SunitR3'	1	0.1811	0.0194	0.8010
b'CHR8:144040433:T'	b'M62SunitR4'	1	0.1812	0.0225	0.8010
b'CHR8:26583969:A'	b'M62SunitR1'	1	0.2428	0.0323	0.6308
b'CHR8:26583969:A'	b'M62SunitR2'	1	0.2141	0.0256	0.6308
b'CHR8:26583969:A'	b'M62SunitR3'	1	0.1811	0.0194	0.6308
b'CHR8:26583969:A'	b'M62SunitR4'	1	0.1812	0.0225	0.6308
b'CHR8:31120316:A'	b'M62SunitR1'	1	0.2428	0.0323	0.3649
b'CHR8:31120316:A'	b'M62SunitR2'	1	0.2141	0.0256	0.3649
b'CHR8:31120316:A'	b'M62SunitR3'	1	0.1811	0.0194	0.3649
b'CHR8:31120316:A'	b'M62SunitR4'	1	0.1812	0.0225	0.3649
b'CHR9:131598217:T'	b'M62SunitR1'	1	0.2428	0.0323	0.7981
b'CHR9:131598217:T'	b'M62SunitR2'	1	0.2141	0.0256	0.7981
b'CHR9:131598217:T'	b'M62SunitR3'	1	0.1811	0.0194	0.7981
b'CHR9:131598217:T'	b'M62SunitR4'	1	0.1812	0.0225	0.7981
b'CHR9:137024143:A'	b'M62SunitR1'	1	0.2428	0.0323	0.5884
b'CHR9:137024143:A'	b'M62SunitR2'	1	0.2141	0.0256	0.5884
b'CHR9:137024143:A'	b'M62SunitR3'	1	0.1811	0.0194	0.5884
b'CHR9:137024143:A'	b'M62SunitR4'	1	0.1812	0.0225	0.5884
b'CHR10:92240093:G'	b'M62SunitR1'	2	0.7354	0.0377	0.4870
b'CHR10:92240093:G'	b'M62SunitR2'	2	0.6265	0.0347	0.4870
b'CHR10:92240093:G'	b'M62SunitR3'	2	0.8303	0.0372	0.4870
b'CHR10:92240093:G'	b'M62SunitR4'	2	0.8090	0.0384	0.4870
b'CHR14:31178233:C'	b'M62SunitR1'	2	0.7354	0.0377	0.5467
b'CHR14:31178233:C'	b'M62SunitR2'	2	0.6265	0.0347	0.5467
b'CHR14:31178233:C'	b'M62SunitR3'	2	0.8303	0.0372	0.5467
b'CHR14:31178233:C'	b'M62SunitR4'	2	0.8090	0.0384	0.5467
b'CHR17:81937211:G'	b'M62SunitR1'	2	0.7354	0.0377	0.6735
b'CHR17:81937211:G'	b'M62SunitR2'	2	0.6265	0.0347	0.6735
b'CHR17:81937211:G'	b'M62SunitR3'	2	0.8303	0.0372	0.6735
b'CHR17:81937211:G'	b'M62SunitR4'	2	0.8090	0.0384	0.6735
b'CHR19:1049270:A'	b'M62SunitR1'	2	0.7354	0.0377	0.9793
b'CHR19:1049270:A'	b'M62SunitR2'	2	0.6265	0.0347	0.9793
b'CHR19:1049270:A'	b'M62SunitR3'	2	0.8303	0.0372	0.9793
b'CHR19:1049270:A'	b'M62SunitR4'	2	0.8090	0.0384	0.9793
b'CHR1:11779915:A'	b'M62SunitR1'	2	0.7354	0.0377	0.5771
b'CHR1:11779915:A'	b'M62SunitR2'	2	0.6265	0.0347	0.5771
b'CHR1:11779915:A'	b'M62SunitR3'	2	0.8303	0.0372	0.5771
b'CHR1:11779915:A'	b'M62SunitR4'	2	0.8090	0.0384	0.5771
b'CHR1:13343011:A'	b'M62SunitR1'	2	0.7354	0.0377	0.7984
b'CHR1:13343011:A'	b'M62SunitR2'	2	0.6265	0.0347	0.7984
b'CHR1:13343011:A'	b'M62SunitR3'	2	0.8303	0.0372	0.7984
b'CHR1:13343011:A'	b'M62SunitR4'	2	0.8090	0.0384	0.7984
b'CHR1:13421192:T'	b'M62SunitR1'	2	0.7354	0.0377	0.9914
b'CHR1:13421192:T'	b'M62SunitR2'	2	0.6265	0.0347	0.9914
b'CHR1:13421192:T'	b'M62SunitR3'	2	0.8303	0.0372	0.9914
b'CHR1:13421192:T'	b'M62SunitR4'	2	0.8090	0.0384	0.9914
b'CHR1:13782619:G'	b'M62SunitR1'	2	0.7354	0.0377	0.9849
b'CHR1:13782619:G'	b'M62SunitR2'	2	0.6265	0.0347	0.9849
b'CHR1:13782619:G'	b'M62SunitR3'	2	0.8303	0.0372	0.9849
b'CHR1:13782619:G'	b'M62SunitR4'	2	0.8090	0.0384	0.9849
b'CHR1:15939409:A'	b'M62SunitR1'	2	0.7354	0.0377	0.9982
b'CHR1:15939409:A'	b'M62SunitR2'	2	0.6265	0.0347	0.9982
b'CHR1:15939409:A'	b'M62SunitR3'	2	0.8303	0.0372	0.9982
b'CHR1:15939409:A'	b'M62SunitR4'	2	0.8090	0.0384	0.9982
b'CHR1:160155085:A'	b'M62SunitR1'	2	0.7354	0.0377	0.6366
b'CHR1:160155085:A'	b'M62SunitR2'	2	0.6265	0.0347	0.6366
b'CHR1:160155085:A'	b'M62SunitR3'	2	0.8303	0.0372	0.6366
b'CHR1:160155085:A'	b'M62SunitR4'	2	0.8090	0.0384	0.6366
b'CHR1:16409637:C'	b'M62SunitR1'	2	0.7354	0.0377	0.9987
b'CHR1:16409637:C'	b'M62SunitR2'	2	0.6265	0.0347	0.9987
b'CHR1:16409637:C'	b'M62SunitR3'	2	0.8303	0.0372	0.9987
b'CHR1:16409637:C'	b'M62SunitR4'	2	0.8090	0.0384	0.9987
b'CHR1:17070097:A'	b'M62SunitR1'	2	0.7354	0.0377	0.5715
b'CHR1:17070097:A'	b'M62SunitR2'	2	0.6265	0.0347	0.5715
b'CHR1:17070097:A'	b'M62SunitR3'	2	0.8303	0.0372	0.5715
b'CHR1:17070097:A'	b'M62SunitR4'	2	0.8090	0.0384	0.5715
b'CHR1:17079314:A'	b'M62SunitR1'	2	0.7354	0.0377	0.7573
b'CHR1:17079314:A'	b'M62SunitR2'	2	0.6265	0.0347	0.7573
b'CHR1:17079314:A'	b'M62SunitR3'	2	0.8303	0.0372	0.7573
b'CHR1:17079314:A'	b'M62SunitR4'	2	0.8090	0.0384	0.7573
b'CHR1:17084646:G'	b'M62SunitR1'	2	0.7354	0.0377	0.9714
b'CHR1:17084646:G'	b'M62SunitR2'	2	0.6265	0.0347	0.9714
b'CHR1:17084646:G'	b'M62SunitR3'	2	0.8303	0.0372	0.9714
b'CHR1:17084646:G'	b'M62SunitR4'	2	0.8090	0.0384	0.9714
b'CHR1:18877503:G'	b'M62SunitR1'	2	0.7354	0.0377	0.8652
b'CHR1:18877503:G'	b'M62SunitR2'	2	0.6265	0.0347	0.8652
b'CHR1:18877503:G'	b'M62SunitR3'	2	0.8303	0.0372	0.8652
b'CHR1:18877503:G'	b'M62SunitR4'	2	0.8090	0.0384	0.8652
b'CHR1:19282760:C'	b'M62SunitR1'	2	0.7354	0.0377	0.9996
b'CHR1:19282760:C'	b'M62SunitR2'	2	0.6265	0.0347	0.9996
b'CHR1:19282760:C'	b'M62SunitR3'	2	0.8303	0.0372	0.9996
b'CHR1:19282760:C'	b'M62SunitR4'	2	0.8090	0.0384	0.9996
b'CHR1:19623568:C'	b'M62SunitR1'	2	0.7354	0.0377	0.9494
b'CHR1:19623568:C'	b'M62SunitR2'	2	0.6265	0.0347	0.9494
b'CHR1:19623568:C'	b'M62SunitR3'	2	0.8303	0.0372	0.9494
b'CHR1:19623568:C'	b'M62SunitR4'	2	0.8090	0.0384	0.9494
b'CHR1:20084839:T'	b'M62SunitR1'	2	0.7354	0.0377	0.9592
b'CHR1:20084839:T'	b'M62SunitR2'	2	0.6265	0.0347	0.9592
b'CHR1:20084839:T'	b'M62SunitR3'	2	0.8303	0.0372	0.9592
b'CHR1:20084839:T'	b'M62SunitR4'	2	0.8090	0.0384	0.9592
b'CHR1:21483257:C'	b'M62SunitR1'	2	0.7354	0.0377	0.4211
b'CHR1:21483257:C'	b'M62SunitR2'	2	0.6265	0.0347	0.4211
b'CHR1:21483257:C'	b'M62SunitR3'	2	0.8303	0.0372	0.4211
b'CHR1:21483257:C'	b'M62SunitR4'	2	0.8090	0.0384	0.4211
b'CHR1:21874505:T'	b'M62SunitR1'	2	0.7354	0.0377	0.9935
b'CHR1:21874505:T'	b'M62SunitR2'	2	0.6265	0.0347	0.9935
b'CHR1:21874505:T'	b'M62SunitR3'	2	0.8303	0.0372	0.9935
b'CHR1:21874505:T'	b'M62SunitR4'	2	0.8090	0.0384	0.9935
b'CHR1:22526222:C'	b'M62SunitR1'	2	0.7354	0.0377	0.9998
b'CHR1:22526222:C'	b'M62SunitR2'	2	0.6265	0.0347	0.9998
b'CHR1:22526222:C'	b'M62SunitR3'	2	0.8303	0.0372	0.9998
b'CHR1:22526222:C'	b'M62SunitR4'	2	0.8090	0.0384	0.9998
b'CHR1:226223692:T'	b'M62SunitR1'	2	0.7354	0.0377	0.3548
b'CHR1:226223692:T'	b'M62SunitR2'	2	0.6265	0.0347	0.3548
b'CHR1:226223692:T'	b'M62SunitR3'	2	0.8303	0.0372	0.3548
b'CHR1:226223692:T'	b'M62SunitR4'	2	0.8090	0.0384	0.3548
b'CHR1:25243590:C'	b'M62SunitR1'	2	0.7354	0.0377	0.9190
b'CHR1:25243590:C'	b'M62SunitR2'	2	0.6265	0.0347	0.9190
b'CHR1:25243590:C'	b'M62SunitR3'	2	0.8303	0.0372	0.9190
b'CHR1:25243590:C'	b'M62SunitR4'	2	0.8090	0.0384	0.9190
b'CHR1:26344118:T'	b'M62SunitR1'	2	0.7354	0.0377	0.8450
b'CHR1:26344118:T'	b'M62SunitR2'	2	0.6265	0.0347	0.8450
b'CHR1:26344118:T'	b'M62SunitR3'	2	0.8303	0.0372	0.8450
b'CHR1:26344118:T'	b'M62SunitR4'	2	0.8090	0.0384	0.8450
b'CHR1:26952030:A'	b'M62SunitR1'	2	0.7354	0.0377	0.9993
b'CHR1:26952030:A'	b'M62SunitR2'	2	0.6265	0.0347	0.9993
b'CHR1:26952030:A'	b'M62SunitR3'	2	0.8303	0.0372	0.9993
b'CHR1:26952030:A'	b'M62SunitR4'	2	0.8090	0.0384	0.9993
b'CHR1:27360975:T'	b'M62SunitR1'	2	0.7354	0.0377	0.9115
b'CHR1:27360975:T'	b'M62SunitR2'	2	0.6265	0.0347	0.9115
b'CHR1:27360975:T'	b'M62SunitR3'	2	0.8303	0.0372	0.9115
b'CHR1:27360975:T'	b'M62SunitR4'	2	0.8090	0.0384	0.9115
b'CHR1:31630664:G'	b'M62SunitR1'	2	0.7354	0.0377	0.9601
b'CHR1:31630664:G'	b'M62SunitR2'	2	0.6265	0.0347	0.9601
b'CHR1:31630664:G'	b'M62SunitR3'	2	0.8303	0.0372	0.9601
b'CHR1:31630664:G'	b'M62SunitR4'	2	0.8090	0.0384	0.9601
b'CHR1:31698605:G'	b'M62SunitR1'	2	0.7354	0.0377	0.9322
b'CHR1:31698605:G'	b'M62SunitR2'	2	0.6265	0.0347	0.9322
b'CHR1:31698605:G'	b'M62SunitR3'	2	0.8303	0.0372	0.9322
b'CHR1:31698605:G'	b'M62SunitR4'	2	0.8090	0.0384	0.9322
b'CHR1:32770050:G'	b'M62SunitR1'	2	0.7354	0.0377	0.9968
b'CHR1:32770050:G'	b'M62SunitR2'	2	0.6265	0.0347	0.9968
b'CHR1:32770050:G'	b'M62SunitR3'	2	0.8303	0.0372	0.9968
b'CHR1:32770050:G'	b'M62SunitR4'	2	0.8090	0.0384	0.9968
b'CHR1:33494462:G'	b'M62SunitR1'	2	0.7354	0.0377	0.9993
b'CHR1:33494462:G'	b'M62SunitR2'	2	0.6265	0.0347	0.9993
b'CHR1:33494462:G'	b'M62SunitR3'	2	0.8303	0.0372	0.9993
b'CHR1:33494462:G'	b'M62SunitR4'	2	0.8090	0.0384	0.9993
b'CHR1:3478610:A'	b'M62SunitR1'	2	0.7354	0.0377	0.8138
b'CHR1:3478610:A'	b'M62SunitR2'	2	0.6265	0.0347	0.8138
b'CHR1:3478610:A'	b'M62SunitR3'	2	0.8303	0.0372	0.8138
b'CHR1:3478610:A'	b'M62SunitR4'	2	0.8090	0.0384	0.8138
b'CHR1:51840355:A'	b'M62SunitR1'	2	0.7354	0.0377	0.8751
b'CHR1:51840355:A'	b'M62SunitR2'	2	0.6265	0.0347	0.8751
b'CHR1:51840355:A'	b'M62SunitR3'	2	0.8303	0.0372	0.8751
b'CHR1:51840355:A'	b'M62SunitR4'	2	0.8090	0.0384	0.8751
b'CHR1:53247055:T'	b'M62SunitR1'	2	0.7354	0.0377	0.5300
b'CHR1:53247055:T'	b'M62SunitR2'	2	0.6265	0.0347	0.5300
b'CHR1:53247055:T'	b'M62SunitR3'	2	0.8303	0.0372	0.5300
b'CHR1:53247055:T'	b'M62SunitR4'	2	0.8090	0.0384	0.5300
b'CHR1:53250744:A'	b'M62SunitR1'	2	0.7354	0.0377	0.9796
b'CHR1:53250744:A'	b'M62SunitR2'	2	0.6265	0.0347	0.9796
b'CHR1:53250744:A'	b'M62SunitR3'	2	0.8303	0.0372	0.9796
b'CHR1:53250744:A'	b'M62SunitR4'	2	0.8090	0.0384	0.9796
b'CHR1:53594343:C'	b'M62SunitR1'	2	0.7354	0.0377	0.8603
b'CHR1:53594343:C'	b'M62SunitR2'	2	0.6265	0.0347	0.8603
b'CHR1:53594343:C'	b'M62SunitR3'	2	0.8303	0.0372	0.8603
b'CHR1:53594343:C'	b'M62SunitR4'	2	0.8090	0.0384	0.8603
b'CHR1:63415881:T'	b'M62SunitR1'	2	0.7354	0.0377	0.7024
b'CHR1:63415881:T'	b'M62SunitR2'	2	0.6265	0.0347	0.7024
b'CHR1:63415881:T'	b'M62SunitR3'	2	0.8303	0.0372	0.7024
b'CHR1:63415881:T'	b'M62SunitR4'	2	0.8090	0.0384	0.7024
b'CHR1:64844806:C'	b'M62SunitR1'	2	0.7354	0.0377	0.8801
b'CHR1:64844806:C'	b'M62SunitR2'	2	0.6265	0.0347	0.8801
b'CHR1:64844806:C'	b'M62SunitR3'	2	0.8303	0.0372	0.8801
b'CHR1:64844806:C'	b'M62SunitR4'	2	0.8090	0.0384	0.8801
b'CHR1:7827188:A'	b'M62SunitR1'	2	0.7354	0.0377	0.9974
b'CHR1:7827188:A'	b'M62SunitR2'	2	0.6265	0.0347	0.9974
b'CHR1:7827188:A'	b'M62SunitR3'	2	0.8303	0.0372	0.9974
b'CHR1:7827188:A'	b'M62SunitR4'	2	0.8090	0.0384	0.9974
b'CHR1:942934:C'	b'M62SunitR1'	2	0.7354	0.0377	0.9989
b'CHR1:942934:C'	b'M62SunitR2'	2	0.6265	0.0347	0.9989
b'CHR1:942934:C'	b'M62SunitR3'	2	0.8303	0.0372	0.9989
b'CHR1:942934:C'	b'M62SunitR4'	2	0.8090	0.0384	0.9989
b'CHR2:111856807:G'	b'M62SunitR1'	2	0.7354	0.0377	0.5060
b'CHR2:111856807:G'	b'M62SunitR2'	2	0.6265	0.0347	0.5060
b'CHR2:111856807:G'	b'M62SunitR3'	2	0.8303	0.0372	0.5060
b'CHR2:111856807:G'	b'M62SunitR4'	2	0.8090	0.0384	0.5060
b'CHR2:219451248:A'	b'M62SunitR1'	2	0.7354	0.0377	0.9909
b'CHR2:219451248:A'	b'M62SunitR2'	2	0.6265	0.0347	0.9909
b'CHR2:219451248:A'	b'M62SunitR3'	2	0.8303	0.0372	0.9909
b'CHR2:219451248:A'	b'M62SunitR4'	2	0.8090	0.0384	0.9909
b'CHR2:73291715:T'	b'M62SunitR1'	2	0.7354	0.0377	0.9927
b'CHR2:73291715:T'	b'M62SunitR2'	2	0.6265	0.0347	0.9927
b'CHR2:73291715:T'	b'M62SunitR3'	2	0.8303	0.0372	0.9927
b'CHR2:73291715:T'	b'M62SunitR4'	2	0.8090	0.0384	0.9927
b'CHR3:41800280:T'	b'M62SunitR1'	2	0.7354	0.0377	0.8320
b'CHR3:41800280:T'	b'M62SunitR2'	2	0.6265	0.0347	0.8320
b'CHR3:41800280:T'	b'M62SunitR3'	2	0.8303	0.0372	0.8320
b'CHR3:41800280:T'	b'M62SunitR4'	2	0.8090	0.0384	0.8320
b'CHR4:39510416:A'	b'M62SunitR1'	2	0.7354	0.0377	0.6432
b'CHR4:39510416:A'	b'M62SunitR2'	2	0.6265	0.0347	0.6432
b'CHR4:39510416:A'	b'M62SunitR3'	2	0.8303	0.0372	0.6432
b'CHR4:39510416:A'	b'M62SunitR4'	2	0.8090	0.0384	0.6432
b'CHR5:150540177:C'	b'M62SunitR1'	2	0.7354	0.0377	0.6246
b'CHR5:150540177:C'	b'M62SunitR2'	2	0.6265	0.0347	0.6246
b'CHR5:150540177:C'	b'M62SunitR3'	2	0.8303	0.0372	0.6246
b'CHR5:150540177:C'	b'M62SunitR4'	2	0.8090	0.0384	0.6246
b'CHR6:3154637:C'	b'M62SunitR1'	2	0.7354	0.0377	0.4966
b'CHR6:3154637:C'	b'M62SunitR2'	2	0.6265	0.0347	0.4966
b'CHR6:3154637:C'	b'M62SunitR3'	2	0.8303	0.0372	0.4966
b'CHR6:3154637:C'	b'M62SunitR4'	2	0.8090	0.0384	0.4966
b'CHR10:128101279:T'	b'M62SunitR1'	3	0.7245	0.0630	0.6200
b'CHR10:128101279:T'	b'M62SunitR2'	3	0.8944	0.0590	0.6200
b'CHR10:128101279:T'	b'M62SunitR3'	3	0.5097	0.0577	0.6200
b'CHR10:128101279:T'	b'M62SunitR4'	3	0.4893	0.0519	0.6200
b'CHR1:111242317:G'	b'M62SunitR1'	3	0.7245	0.0630	0.5845
b'CHR1:111242317:G'	b'M62SunitR2'	3	0.8944	0.0590	0.5845
b'CHR1:111242317:G'	b'M62SunitR3'	3	0.5097	0.0577	0.5845
b'CHR1:111242317:G'	b'M62SunitR4'	3	0.4893	0.0519	0.5845
b'CHR1:18854521:C'	b'M62SunitR1'	3	0.7245	0.0630	0.6532
b'CHR1:18854521:C'	b'M62SunitR2'	3	0.8944	0.0590	0.6532
b'CHR1:18854521:C'	b'M62SunitR3'	3	0.5097	0.0577	0.6532
b'CHR1:18854521:C'	b'M62SunitR4'	3	0.4893	0.0519	0.6532
b'CHR1:18854588:C'	b'M62SunitR1'	3	0.7245	0.0630	0.9522
b'CHR1:18854588:C'	b'M62SunitR2'	3	0.8944	0.0590	0.9522
b'CHR1:18854588:C'	b'M62SunitR3'	3	0.5097	0.0577	0.9522
b'CHR1:18854588:C'	b'M62SunitR4'	3	0.4893	0.0519	0.9522
b'CHR1:202160698:C'	b'M62SunitR1'	3	0.7245	0.0630	0.9826
b'CHR1:202160698:C'	b'M62SunitR2'	3	0.8944	0.0590	0.9826
b'CHR1:202160698:C'	b'M62SunitR3'	3	0.5097	0.0577	0.9826
b'CHR1:202160698:C'	b'M62SunitR4'	3	0.4893	0.0519	0.9826
b'CHR1:215567710:G'	b'M62SunitR1'	3	0.7245	0.0630	0.9535
b'CHR1:215567710:G'	b'M62SunitR2'	3	0.8944	0.0590	0.9535
b'CHR1:215567710:G'	b'M62SunitR3'	3	0.5097	0.0577	0.9535
b'CHR1:215567710:G'	b'M62SunitR4'	3	0.4893	0.0519	0.9535
b'CHR1:230921501:T'	b'M62SunitR1'	3	0.7245	0.0630	0.5218
b'CHR1:230921501:T'	b'M62SunitR2'	3	0.8944	0.0590	0.5218
b'CHR1:230921501:T'	b'M62SunitR3'	3	0.5097	0.0577	0.5218
b'CHR1:230921501:T'	b'M62SunitR4'	3	0.4893	0.0519	0.5218
b'CHR1:3763211:T'	b'M62SunitR1'	3	0.7245	0.0630	0.5898
b'CHR1:3763211:T'	b'M62SunitR2'	3	0.8944	0.0590	0.5898
b'CHR1:3763211:T'	b'M62SunitR3'	3	0.5097	0.0577	0.5898
b'CHR1:3763211:T'	b'M62SunitR4'	3	0.4893	0.0519	0.5898
b'CHR1:53594575:C'	b'M62SunitR1'	3	0.7245	0.0630	0.8985
b'CHR1:53594575:C'	b'M62SunitR2'	3	0.8944	0.0590	0.8985
b'CHR1:53594575:C'	b'M62SunitR3'	3	0.5097	0.0577	0.8985
b'CHR1:53594575:C'	b'M62SunitR4'	3	0.4893	0.0519	0.8985
b'CHR1:63323280:A'	b'M62SunitR1'	3	0.7245	0.0630	0.9358
b'CHR1:63323280:A'	b'M62SunitR2'	3	0.8944	0.0590	0.9358
b'CHR1:63323280:A'	b'M62SunitR3'	3	0.5097	0.0577	0.9358
b'CHR1:63323280:A'	b'M62SunitR4'	3	0.4893	0.0519	0.9358
b'CHR3:48447042:C'	b'M62SunitR1'	3	0.7245	0.0630	0.5986
b'CHR3:48447042:C'	b'M62SunitR2'	3	0.8944	0.0590	0.5986
b'CHR3:48447042:C'	b'M62SunitR3'	3	0.5097	0.0577	0.5986
b'CHR3:48447042:C'	b'M62SunitR4'	3	0.4893	0.0519	0.5986
b'CHR7:151066568:A'	b'M62SunitR1'	3	0.7245	0.0630	0.8423
b'CHR7:151066568:A'	b'M62SunitR2'	3	0.8944	0.0590	0.8423
b'CHR7:151066568:A'	b'M62SunitR3'	3	0.5097	0.0577	0.8423
b'CHR7:151066568:A'	b'M62SunitR4'	3	0.4893	0.0519	0.8423
