mutation_id	sample_id	cluster_id	cellular_prevalence	cellular_prevalence_std	cluster_assignment_prob
b'CHR10:94720464:A'	b'M62SunitR1'	0	0.3468	0.0334	0.6551
b'CHR10:94720464:A'	b'M62SunitR2'	0	0.4314	0.0413	0.6551
b'CHR10:94720464:A'	b'M62SunitR3'	0	0.3393	0.0316	0.6551
b'CHR10:94720464:A'	b'M62SunitR4'	0	0.4812	0.0402	0.6551
b'CHR11:120128675:T'	b'M62SunitR1'	0	0.3468	0.0334	0.9731
b'CHR11:120128675:T'	b'M62SunitR2'	0	0.4314	0.0413	0.9731
b'CHR11:120128675:T'	b'M62SunitR3'	0	0.3393	0.0316	0.9731
b'CHR11:120128675:T'	b'M62SunitR4'	0	0.4812	0.0402	0.9731
b'CHR19:52881597:A'	b'M62SunitR1'	0	0.3468	0.0334	0.8437
b'CHR19:52881597:A'	b'M62SunitR2'	0	0.4314	0.0413	0.8437
b'CHR19:52881597:A'	b'M62SunitR3'	0	0.3393	0.0316	0.8437
b'CHR19:52881597:A'	b'M62SunitR4'	0	0.4812	0.0402	0.8437
b'CHR1:11706367:T'	b'M62SunitR1'	0	0.3468	0.0334	0.5159
b'CHR1:11706367:T'	b'M62SunitR2'	0	0.4314	0.0413	0.5159
b'CHR1:11706367:T'	b'M62SunitR3'	0	0.3393	0.0316	0.5159
b'CHR1:11706367:T'	b'M62SunitR4'	0	0.4812	0.0402	0.5159
b'CHR1:155054385:T'	b'M62SunitR1'	0	0.3468	0.0334	0.8510
b'CHR1:155054385:T'	b'M62SunitR2'	0	0.4314	0.0413	0.8510
b'CHR1:155054385:T'	b'M62SunitR3'	0	0.3393	0.0316	0.8510
b'CHR1:155054385:T'	b'M62SunitR4'	0	0.4812	0.0402	0.8510
b'CHR1:16759300:T'	b'M62SunitR1'	0	0.3468	0.0334	0.9999
b'CHR1:16759300:T'	b'M62SunitR2'	0	0.4314	0.0413	0.9999
b'CHR1:16759300:T'	b'M62SunitR3'	0	0.3393	0.0316	0.9999
b'CHR1:16759300:T'	b'M62SunitR4'	0	0.4812	0.0402	0.9999
b'CHR1:18481971:A'	b'M62SunitR1'	0	0.3468	0.0334	0.3902
b'CHR1:18481971:A'	b'M62SunitR2'	0	0.4314	0.0413	0.3902
b'CHR1:18481971:A'	b'M62SunitR3'	0	0.3393	0.0316	0.3902
b'CHR1:18481971:A'	b'M62SunitR4'	0	0.4812	0.0402	0.3902
b'CHR1:239908407:T'	b'M62SunitR1'	0	0.3468	0.0334	0.3469
b'CHR1:239908407:T'	b'M62SunitR2'	0	0.4314	0.0413	0.3469
b'CHR1:239908407:T'	b'M62SunitR3'	0	0.3393	0.0316	0.3469
b'CHR1:239908407:T'	b'M62SunitR4'	0	0.4812	0.0402	0.3469
b'CHR4:145553807:T'	b'M62SunitR1'	0	0.3468	0.0334	0.4013
b'CHR4:145553807:T'	b'M62SunitR2'	0	0.4314	0.0413	0.4013
b'CHR4:145553807:T'	b'M62SunitR3'	0	0.3393	0.0316	0.4013
b'CHR4:145553807:T'	b'M62SunitR4'	0	0.4812	0.0402	0.4013
b'CHR6:10687513:T'	b'M62SunitR1'	0	0.3468	0.0334	0.7100
b'CHR6:10687513:T'	b'M62SunitR2'	0	0.4314	0.0413	0.7100
b'CHR6:10687513:T'	b'M62SunitR3'	0	0.3393	0.0316	0.7100
b'CHR6:10687513:T'	b'M62SunitR4'	0	0.4812	0.0402	0.7100
b'CHR6:111372976:C'	b'M62SunitR1'	0	0.3468	0.0334	0.4025
b'CHR6:111372976:C'	b'M62SunitR2'	0	0.4314	0.0413	0.4025
b'CHR6:111372976:C'	b'M62SunitR3'	0	0.3393	0.0316	0.4025
b'CHR6:111372976:C'	b'M62SunitR4'	0	0.4812	0.0402	0.4025
b'CHR6:11193627:A'	b'M62SunitR1'	0	0.3468	0.0334	0.9962
b'CHR6:11193627:A'	b'M62SunitR2'	0	0.4314	0.0413	0.9962
b'CHR6:11193627:A'	b'M62SunitR3'	0	0.3393	0.0316	0.9962
b'CHR6:11193627:A'	b'M62SunitR4'	0	0.4812	0.0402	0.9962
b'CHR6:2749147:T'	b'M62SunitR1'	0	0.3468	0.0334	0.4592
b'CHR6:2749147:T'	b'M62SunitR2'	0	0.4314	0.0413	0.4592
b'CHR6:2749147:T'	b'M62SunitR3'	0	0.3393	0.0316	0.4592
b'CHR6:2749147:T'	b'M62SunitR4'	0	0.4812	0.0402	0.4592
b'CHR6:7393219:T'	b'M62SunitR1'	0	0.3468	0.0334	0.9749
b'CHR6:7393219:T'	b'M62SunitR2'	0	0.4314	0.0413	0.9749
b'CHR6:7393219:T'	b'M62SunitR3'	0	0.3393	0.0316	0.9749
b'CHR6:7393219:T'	b'M62SunitR4'	0	0.4812	0.0402	0.9749
b'CHR6:7577027:T'	b'M62SunitR1'	0	0.3468	0.0334	0.5902
b'CHR6:7577027:T'	b'M62SunitR2'	0	0.4314	0.0413	0.5902
b'CHR6:7577027:T'	b'M62SunitR3'	0	0.3393	0.0316	0.5902
b'CHR6:7577027:T'	b'M62SunitR4'	0	0.4812	0.0402	0.5902
b'CHR6:7581403:A'	b'M62SunitR1'	0	0.3468	0.0334	0.9498
b'CHR6:7581403:A'	b'M62SunitR2'	0	0.4314	0.0413	0.9498
b'CHR6:7581403:A'	b'M62SunitR3'	0	0.3393	0.0316	0.9498
b'CHR6:7581403:A'	b'M62SunitR4'	0	0.4812	0.0402	0.9498
b'CHR6:7601487:T'	b'M62SunitR1'	0	0.3468	0.0334	0.5321
b'CHR6:7601487:T'	b'M62SunitR2'	0	0.4314	0.0413	0.5321
b'CHR6:7601487:T'	b'M62SunitR3'	0	0.3393	0.0316	0.5321
b'CHR6:7601487:T'	b'M62SunitR4'	0	0.4812	0.0402	0.5321
b'CHR7:72942166:T'	b'M62SunitR1'	0	0.3468	0.0334	0.6636
b'CHR7:72942166:T'	b'M62SunitR2'	0	0.4314	0.0413	0.6636
b'CHR7:72942166:T'	b'M62SunitR3'	0	0.3393	0.0316	0.6636
b'CHR7:72942166:T'	b'M62SunitR4'	0	0.4812	0.0402	0.6636
b'CHR8:31120316:A'	b'M62SunitR1'	0	0.3468	0.0334	0.3625
b'CHR8:31120316:A'	b'M62SunitR2'	0	0.4314	0.0413	0.3625
b'CHR8:31120316:A'	b'M62SunitR3'	0	0.3393	0.0316	0.3625
b'CHR8:31120316:A'	b'M62SunitR4'	0	0.4812	0.0402	0.3625
b'CHR9:125337434:T'	b'M62SunitR1'	0	0.3468	0.0334	0.7057
b'CHR9:125337434:T'	b'M62SunitR2'	0	0.4314	0.0413	0.7057
b'CHR9:125337434:T'	b'M62SunitR3'	0	0.3393	0.0316	0.7057
b'CHR9:125337434:T'	b'M62SunitR4'	0	0.4812	0.0402	0.7057
b'CHR9:26928213:T'	b'M62SunitR1'	0	0.3468	0.0334	0.9922
b'CHR9:26928213:T'	b'M62SunitR2'	0	0.4314	0.0413	0.9922
b'CHR9:26928213:T'	b'M62SunitR3'	0	0.3393	0.0316	0.9922
b'CHR9:26928213:T'	b'M62SunitR4'	0	0.4812	0.0402	0.9922
b'CHR9:95881156:A'	b'M62SunitR1'	0	0.3468	0.0334	0.9421
b'CHR9:95881156:A'	b'M62SunitR2'	0	0.4314	0.0413	0.9421
b'CHR9:95881156:A'	b'M62SunitR3'	0	0.3393	0.0316	0.9421
b'CHR9:95881156:A'	b'M62SunitR4'	0	0.4812	0.0402	0.9421
b'CHR10:128101279:T'	b'M62SunitR1'	1	0.7263	0.0628	0.6268
b'CHR10:128101279:T'	b'M62SunitR2'	1	0.8934	0.0590	0.6268
b'CHR10:128101279:T'	b'M62SunitR3'	1	0.5114	0.0576	0.6268
b'CHR10:128101279:T'	b'M62SunitR4'	1	0.4909	0.0517	0.6268
b'CHR1:111242317:G'	b'M62SunitR1'	1	0.7263	0.0628	0.5957
b'CHR1:111242317:G'	b'M62SunitR2'	1	0.8934	0.0590	0.5957
b'CHR1:111242317:G'	b'M62SunitR3'	1	0.5114	0.0576	0.5957
b'CHR1:111242317:G'	b'M62SunitR4'	1	0.4909	0.0517	0.5957
b'CHR1:18854521:C'	b'M62SunitR1'	1	0.7263	0.0628	0.6562
b'CHR1:18854521:C'	b'M62SunitR2'	1	0.8934	0.0590	0.6562
b'CHR1:18854521:C'	b'M62SunitR3'	1	0.5114	0.0576	0.6562
b'CHR1:18854521:C'	b'M62SunitR4'	1	0.4909	0.0517	0.6562
b'CHR1:18854588:C'	b'M62SunitR1'	1	0.7263	0.0628	0.9524
b'CHR1:18854588:C'	b'M62SunitR2'	1	0.8934	0.0590	0.9524
b'CHR1:18854588:C'	b'M62SunitR3'	1	0.5114	0.0576	0.9524
b'CHR1:18854588:C'	b'M62SunitR4'	1	0.4909	0.0517	0.9524
b'CHR1:202160698:C'	b'M62SunitR1'	1	0.7263	0.0628	0.9831
b'CHR1:202160698:C'	b'M62SunitR2'	1	0.8934	0.0590	0.9831
b'CHR1:202160698:C'	b'M62SunitR3'	1	0.5114	0.0576	0.9831
b'CHR1:202160698:C'	b'M62SunitR4'	1	0.4909	0.0517	0.9831
b'CHR1:215567710:G'	b'M62SunitR1'	1	0.7263	0.0628	0.9528
b'CHR1:215567710:G'	b'M62SunitR2'	1	0.8934	0.0590	0.9528
b'CHR1:215567710:G'	b'M62SunitR3'	1	0.5114	0.0576	0.9528
b'CHR1:215567710:G'	b'M62SunitR4'	1	0.4909	0.0517	0.9528
b'CHR1:230921501:T'	b'M62SunitR1'	1	0.7263	0.0628	0.5265
b'CHR1:230921501:T'	b'M62SunitR2'	1	0.8934	0.0590	0.5265
b'CHR1:230921501:T'	b'M62SunitR3'	1	0.5114	0.0576	0.5265
b'CHR1:230921501:T'	b'M62SunitR4'	1	0.4909	0.0517	0.5265
b'CHR1:3763211:T'	b'M62SunitR1'	1	0.7263	0.0628	0.6041
b'CHR1:3763211:T'	b'M62SunitR2'	1	0.8934	0.0590	0.6041
b'CHR1:3763211:T'	b'M62SunitR3'	1	0.5114	0.0576	0.6041
b'CHR1:3763211:T'	b'M62SunitR4'	1	0.4909	0.0517	0.6041
b'CHR1:53594575:C'	b'M62SunitR1'	1	0.7263	0.0628	0.9021
b'CHR1:53594575:C'	b'M62SunitR2'	1	0.8934	0.0590	0.9021
b'CHR1:53594575:C'	b'M62SunitR3'	1	0.5114	0.0576	0.9021
b'CHR1:53594575:C'	b'M62SunitR4'	1	0.4909	0.0517	0.9021
b'CHR1:63323280:A'	b'M62SunitR1'	1	0.7263	0.0628	0.9360
b'CHR1:63323280:A'	b'M62SunitR2'	1	0.8934	0.0590	0.9360
b'CHR1:63323280:A'	b'M62SunitR3'	1	0.5114	0.0576	0.9360
b'CHR1:63323280:A'	b'M62SunitR4'	1	0.4909	0.0517	0.9360
b'CHR3:48447042:C'	b'M62SunitR1'	1	0.7263	0.0628	0.6046
b'CHR3:48447042:C'	b'M62SunitR2'	1	0.8934	0.0590	0.6046
b'CHR3:48447042:C'	b'M62SunitR3'	1	0.5114	0.0576	0.6046
b'CHR3:48447042:C'	b'M62SunitR4'	1	0.4909	0.0517	0.6046
b'CHR7:151066568:A'	b'M62SunitR1'	1	0.7263	0.0628	0.8414
b'CHR7:151066568:A'	b'M62SunitR2'	1	0.8934	0.0590	0.8414
b'CHR7:151066568:A'	b'M62SunitR3'	1	0.5114	0.0576	0.8414
b'CHR7:151066568:A'	b'M62SunitR4'	1	0.4909	0.0517	0.8414
b'CHR10:70145794:T'	b'M62SunitR1'	2	0.2415	0.0325	0.8479
b'CHR10:70145794:T'	b'M62SunitR2'	2	0.2131	0.0257	0.8479
b'CHR10:70145794:T'	b'M62SunitR3'	2	0.1801	0.0194	0.8479
b'CHR10:70145794:T'	b'M62SunitR4'	2	0.1802	0.0225	0.8479
b'CHR10:73751113:G'	b'M62SunitR1'	2	0.2415	0.0325	0.4661
b'CHR10:73751113:G'	b'M62SunitR2'	2	0.2131	0.0257	0.4661
b'CHR10:73751113:G'	b'M62SunitR3'	2	0.1801	0.0194	0.4661
b'CHR10:73751113:G'	b'M62SunitR4'	2	0.1802	0.0225	0.4661
b'CHR11:119186606:T'	b'M62SunitR1'	2	0.2415	0.0325	0.9986
b'CHR11:119186606:T'	b'M62SunitR2'	2	0.2131	0.0257	0.9986
b'CHR11:119186606:T'	b'M62SunitR3'	2	0.1801	0.0194	0.9986
b'CHR11:119186606:T'	b'M62SunitR4'	2	0.1802	0.0225	0.9986
b'CHR11:124894022:C'	b'M62SunitR1'	2	0.2415	0.0325	0.3161
b'CHR11:124894022:C'	b'M62SunitR2'	2	0.2131	0.0257	0.3161
b'CHR11:124894022:C'	b'M62SunitR3'	2	0.1801	0.0194	0.3161
b'CHR11:124894022:C'	b'M62SunitR4'	2	0.1802	0.0225	0.3161
b'CHR11:59364822:A'	b'M62SunitR1'	2	0.2415	0.0325	0.8880
b'CHR11:59364822:A'	b'M62SunitR2'	2	0.2131	0.0257	0.8880
b'CHR11:59364822:A'	b'M62SunitR3'	2	0.1801	0.0194	0.8880
b'CHR11:59364822:A'	b'M62SunitR4'	2	0.1802	0.0225	0.8880
b'CHR11:64593580:A'	b'M62SunitR1'	2	0.2415	0.0325	0.9991
b'CHR11:64593580:A'	b'M62SunitR2'	2	0.2131	0.0257	0.9991
b'CHR11:64593580:A'	b'M62SunitR3'	2	0.1801	0.0194	0.9991
b'CHR11:64593580:A'	b'M62SunitR4'	2	0.1802	0.0225	0.9991
b'CHR11:65630575:T'	b'M62SunitR1'	2	0.2415	0.0325	0.6212
b'CHR11:65630575:T'	b'M62SunitR2'	2	0.2131	0.0257	0.6212
b'CHR11:65630575:T'	b'M62SunitR3'	2	0.1801	0.0194	0.6212
b'CHR11:65630575:T'	b'M62SunitR4'	2	0.1802	0.0225	0.6212
b'CHR11:83962885:A'	b'M62SunitR1'	2	0.2415	0.0325	0.6744
b'CHR11:83962885:A'	b'M62SunitR2'	2	0.2131	0.0257	0.6744
b'CHR11:83962885:A'	b'M62SunitR3'	2	0.1801	0.0194	0.6744
b'CHR11:83962885:A'	b'M62SunitR4'	2	0.1802	0.0225	0.6744
b'CHR12:108518570:T'	b'M62SunitR1'	2	0.2415	0.0325	0.9735
b'CHR12:108518570:T'	b'M62SunitR2'	2	0.2131	0.0257	0.9735
b'CHR12:108518570:T'	b'M62SunitR3'	2	0.1801	0.0194	0.9735
b'CHR12:108518570:T'	b'M62SunitR4'	2	0.1802	0.0225	0.9735
b'CHR12:122184703:T'	b'M62SunitR1'	2	0.2415	0.0325	0.9809
b'CHR12:122184703:T'	b'M62SunitR2'	2	0.2131	0.0257	0.9809
b'CHR12:122184703:T'	b'M62SunitR3'	2	0.1801	0.0194	0.9809
b'CHR12:122184703:T'	b'M62SunitR4'	2	0.1802	0.0225	0.9809
b'CHR12:40481156:A'	b'M62SunitR1'	2	0.2415	0.0325	0.9997
b'CHR12:40481156:A'	b'M62SunitR2'	2	0.2131	0.0257	0.9997
b'CHR12:40481156:A'	b'M62SunitR3'	2	0.1801	0.0194	0.9997
b'CHR12:40481156:A'	b'M62SunitR4'	2	0.1802	0.0225	0.9997
b'CHR12:40481157:G'	b'M62SunitR1'	2	0.2415	0.0325	0.9997
b'CHR12:40481157:G'	b'M62SunitR2'	2	0.2131	0.0257	0.9997
b'CHR12:40481157:G'	b'M62SunitR3'	2	0.1801	0.0194	0.9997
b'CHR12:40481157:G'	b'M62SunitR4'	2	0.1802	0.0225	0.9997
b'CHR12:45927444:G'	b'M62SunitR1'	2	0.2415	0.0325	0.4051
b'CHR12:45927444:G'	b'M62SunitR2'	2	0.2131	0.0257	0.4051
b'CHR12:45927444:G'	b'M62SunitR3'	2	0.1801	0.0194	0.4051
b'CHR12:45927444:G'	b'M62SunitR4'	2	0.1802	0.0225	0.4051
b'CHR12:55027042:G'	b'M62SunitR1'	2	0.2415	0.0325	0.8981
b'CHR12:55027042:G'	b'M62SunitR2'	2	0.2131	0.0257	0.8981
b'CHR12:55027042:G'	b'M62SunitR3'	2	0.1801	0.0194	0.8981
b'CHR12:55027042:G'	b'M62SunitR4'	2	0.1802	0.0225	0.8981
b'CHR12:56267413:A'	b'M62SunitR1'	2	0.2415	0.0325	0.5166
b'CHR12:56267413:A'	b'M62SunitR2'	2	0.2131	0.0257	0.5166
b'CHR12:56267413:A'	b'M62SunitR3'	2	0.1801	0.0194	0.5166
b'CHR12:56267413:A'	b'M62SunitR4'	2	0.1802	0.0225	0.5166
b'CHR12:85046079:A'	b'M62SunitR1'	2	0.2415	0.0325	0.3153
b'CHR12:85046079:A'	b'M62SunitR2'	2	0.2131	0.0257	0.3153
b'CHR12:85046079:A'	b'M62SunitR3'	2	0.1801	0.0194	0.3153
b'CHR12:85046079:A'	b'M62SunitR4'	2	0.1802	0.0225	0.3153
b'CHR15:23566598:A'	b'M62SunitR1'	2	0.2415	0.0325	0.5528
b'CHR15:23566598:A'	b'M62SunitR2'	2	0.2131	0.0257	0.5528
b'CHR15:23566598:A'	b'M62SunitR3'	2	0.1801	0.0194	0.5528
b'CHR15:23566598:A'	b'M62SunitR4'	2	0.1802	0.0225	0.5528
b'CHR15:44328733:C'	b'M62SunitR1'	2	0.2415	0.0325	0.5818
b'CHR15:44328733:C'	b'M62SunitR2'	2	0.2131	0.0257	0.5818
b'CHR15:44328733:C'	b'M62SunitR3'	2	0.1801	0.0194	0.5818
b'CHR15:44328733:C'	b'M62SunitR4'	2	0.1802	0.0225	0.5818
b'CHR15:45095849:C'	b'M62SunitR1'	2	0.2415	0.0325	0.9942
b'CHR15:45095849:C'	b'M62SunitR2'	2	0.2131	0.0257	0.9942
b'CHR15:45095849:C'	b'M62SunitR3'	2	0.1801	0.0194	0.9942
b'CHR15:45095849:C'	b'M62SunitR4'	2	0.1802	0.0225	0.9942
b'CHR16:647835:T'	b'M62SunitR1'	2	0.2415	0.0325	0.6937
b'CHR16:647835:T'	b'M62SunitR2'	2	0.2131	0.0257	0.6937
b'CHR16:647835:T'	b'M62SunitR3'	2	0.1801	0.0194	0.6937
b'CHR16:647835:T'	b'M62SunitR4'	2	0.1802	0.0225	0.6937
b'CHR17:20204775:G'	b'M62SunitR1'	2	0.2415	0.0325	0.8084
b'CHR17:20204775:G'	b'M62SunitR2'	2	0.2131	0.0257	0.8084
b'CHR17:20204775:G'	b'M62SunitR3'	2	0.1801	0.0194	0.8084
b'CHR17:20204775:G'	b'M62SunitR4'	2	0.1802	0.0225	0.8084
b'CHR17:3843133:A'	b'M62SunitR1'	2	0.2415	0.0325	0.6820
b'CHR17:3843133:A'	b'M62SunitR2'	2	0.2131	0.0257	0.6820
b'CHR17:3843133:A'	b'M62SunitR3'	2	0.1801	0.0194	0.6820
b'CHR17:3843133:A'	b'M62SunitR4'	2	0.1802	0.0225	0.6820
b'CHR17:43209672:C'	b'M62SunitR1'	2	0.2415	0.0325	0.6459
b'CHR17:43209672:C'	b'M62SunitR2'	2	0.2131	0.0257	0.6459
b'CHR17:43209672:C'	b'M62SunitR3'	2	0.1801	0.0194	0.6459
b'CHR17:43209672:C'	b'M62SunitR4'	2	0.1802	0.0225	0.6459
b'CHR17:80436175:G'	b'M62SunitR1'	2	0.2415	0.0325	0.8046
b'CHR17:80436175:G'	b'M62SunitR2'	2	0.2131	0.0257	0.8046
b'CHR17:80436175:G'	b'M62SunitR3'	2	0.1801	0.0194	0.8046
b'CHR17:80436175:G'	b'M62SunitR4'	2	0.1802	0.0225	0.8046
b'CHR19:1495334:T'	b'M62SunitR1'	2	0.2415	0.0325	0.7969
b'CHR19:1495334:T'	b'M62SunitR2'	2	0.2131	0.0257	0.7969
b'CHR19:1495334:T'	b'M62SunitR3'	2	0.1801	0.0194	0.7969
b'CHR19:1495334:T'	b'M62SunitR4'	2	0.1802	0.0225	0.7969
b'CHR19:19147765:A'	b'M62SunitR1'	2	0.2415	0.0325	0.9086
b'CHR19:19147765:A'	b'M62SunitR2'	2	0.2131	0.0257	0.9086
b'CHR19:19147765:A'	b'M62SunitR3'	2	0.1801	0.0194	0.9086
b'CHR19:19147765:A'	b'M62SunitR4'	2	0.1802	0.0225	0.9086
b'CHR19:19273137:T'	b'M62SunitR1'	2	0.2415	0.0325	0.8529
b'CHR19:19273137:T'	b'M62SunitR2'	2	0.2131	0.0257	0.8529
b'CHR19:19273137:T'	b'M62SunitR3'	2	0.1801	0.0194	0.8529
b'CHR19:19273137:T'	b'M62SunitR4'	2	0.1802	0.0225	0.8529
b'CHR19:36915827:T'	b'M62SunitR1'	2	0.2415	0.0325	0.9851
b'CHR19:36915827:T'	b'M62SunitR2'	2	0.2131	0.0257	0.9851
b'CHR19:36915827:T'	b'M62SunitR3'	2	0.1801	0.0194	0.9851
b'CHR19:36915827:T'	b'M62SunitR4'	2	0.1802	0.0225	0.9851
b'CHR19:45591702:A'	b'M62SunitR1'	2	0.2415	0.0325	0.8332
b'CHR19:45591702:A'	b'M62SunitR2'	2	0.2131	0.0257	0.8332
b'CHR19:45591702:A'	b'M62SunitR3'	2	0.1801	0.0194	0.8332
b'CHR19:45591702:A'	b'M62SunitR4'	2	0.1802	0.0225	0.8332
b'CHR19:49022934:A'	b'M62SunitR1'	2	0.2415	0.0325	0.5385
b'CHR19:49022934:A'	b'M62SunitR2'	2	0.2131	0.0257	0.5385
b'CHR19:49022934:A'	b'M62SunitR3'	2	0.1801	0.0194	0.5385
b'CHR19:49022934:A'	b'M62SunitR4'	2	0.1802	0.0225	0.5385
b'CHR19:51627961:A'	b'M62SunitR1'	2	0.2415	0.0325	0.9381
b'CHR19:51627961:A'	b'M62SunitR2'	2	0.2131	0.0257	0.9381
b'CHR19:51627961:A'	b'M62SunitR3'	2	0.1801	0.0194	0.9381
b'CHR19:51627961:A'	b'M62SunitR4'	2	0.1802	0.0225	0.9381
b'CHR19:8980141:A'	b'M62SunitR1'	2	0.2415	0.0325	0.4928
b'CHR19:8980141:A'	b'M62SunitR2'	2	0.2131	0.0257	0.4928
b'CHR19:8980141:A'	b'M62SunitR3'	2	0.1801	0.0194	0.4928
b'CHR19:8980141:A'	b'M62SunitR4'	2	0.1802	0.0225	0.4928
b'CHR1:1046687:A'	b'M62SunitR1'	2	0.2415	0.0325	0.9346
b'CHR1:1046687:A'	b'M62SunitR2'	2	0.2131	0.0257	0.9346
b'CHR1:1046687:A'	b'M62SunitR3'	2	0.1801	0.0194	0.9346
b'CHR1:1046687:A'	b'M62SunitR4'	2	0.1802	0.0225	0.9346
b'CHR1:113981341:T'	b'M62SunitR1'	2	0.2415	0.0325	0.9946
b'CHR1:113981341:T'	b'M62SunitR2'	2	0.2131	0.0257	0.9946
b'CHR1:113981341:T'	b'M62SunitR3'	2	0.1801	0.0194	0.9946
b'CHR1:113981341:T'	b'M62SunitR4'	2	0.1802	0.0225	0.9946
b'CHR1:1495680:C'	b'M62SunitR1'	2	0.2415	0.0325	0.6758
b'CHR1:1495680:C'	b'M62SunitR2'	2	0.2131	0.0257	0.6758
b'CHR1:1495680:C'	b'M62SunitR3'	2	0.1801	0.0194	0.6758
b'CHR1:1495680:C'	b'M62SunitR4'	2	0.1802	0.0225	0.6758
b'CHR1:1495915:C'	b'M62SunitR1'	2	0.2415	0.0325	0.9863
b'CHR1:1495915:C'	b'M62SunitR2'	2	0.2131	0.0257	0.9863
b'CHR1:1495915:C'	b'M62SunitR3'	2	0.1801	0.0194	0.9863
b'CHR1:1495915:C'	b'M62SunitR4'	2	0.1802	0.0225	0.9863
b'CHR1:157586429:T'	b'M62SunitR1'	2	0.2415	0.0325	0.6788
b'CHR1:157586429:T'	b'M62SunitR2'	2	0.2131	0.0257	0.6788
b'CHR1:157586429:T'	b'M62SunitR3'	2	0.1801	0.0194	0.6788
b'CHR1:157586429:T'	b'M62SunitR4'	2	0.1802	0.0225	0.6788
b'CHR1:168308838:T'	b'M62SunitR1'	2	0.2415	0.0325	0.7157
b'CHR1:168308838:T'	b'M62SunitR2'	2	0.2131	0.0257	0.7157
b'CHR1:168308838:T'	b'M62SunitR3'	2	0.1801	0.0194	0.7157
b'CHR1:168308838:T'	b'M62SunitR4'	2	0.1802	0.0225	0.7157
b'CHR1:197103366:C'	b'M62SunitR1'	2	0.2415	0.0325	0.8728
b'CHR1:197103366:C'	b'M62SunitR2'	2	0.2131	0.0257	0.8728
b'CHR1:197103366:C'	b'M62SunitR3'	2	0.1801	0.0194	0.8728
b'CHR1:197103366:C'	b'M62SunitR4'	2	0.1802	0.0225	0.8728
b'CHR1:21611463:T'	b'M62SunitR1'	2	0.2415	0.0325	0.3905
b'CHR1:21611463:T'	b'M62SunitR2'	2	0.2131	0.0257	0.3905
b'CHR1:21611463:T'	b'M62SunitR3'	2	0.1801	0.0194	0.3905
b'CHR1:21611463:T'	b'M62SunitR4'	2	0.1802	0.0225	0.3905
b'CHR1:247423969:T'	b'M62SunitR1'	2	0.2415	0.0325	0.7550
b'CHR1:247423969:T'	b'M62SunitR2'	2	0.2131	0.0257	0.7550
b'CHR1:247423969:T'	b'M62SunitR3'	2	0.1801	0.0194	0.7550
b'CHR1:247423969:T'	b'M62SunitR4'	2	0.1802	0.0225	0.7550
b'CHR1:247814820:A'	b'M62SunitR1'	2	0.2415	0.0325	0.4184
b'CHR1:247814820:A'	b'M62SunitR2'	2	0.2131	0.0257	0.4184
b'CHR1:247814820:A'	b'M62SunitR3'	2	0.1801	0.0194	0.4184
b'CHR1:247814820:A'	b'M62SunitR4'	2	0.1802	0.0225	0.4184
b'CHR1:37886922:T'	b'M62SunitR1'	2	0.2415	0.0325	0.3212
b'CHR1:37886922:T'	b'M62SunitR2'	2	0.2131	0.0257	0.3212
b'CHR1:37886922:T'	b'M62SunitR3'	2	0.1801	0.0194	0.3212
b'CHR1:37886922:T'	b'M62SunitR4'	2	0.1802	0.0225	0.3212
b'CHR1:70039224:A'	b'M62SunitR1'	2	0.2415	0.0325	0.9268
b'CHR1:70039224:A'	b'M62SunitR2'	2	0.2131	0.0257	0.9268
b'CHR1:70039224:A'	b'M62SunitR3'	2	0.1801	0.0194	0.9268
b'CHR1:70039224:A'	b'M62SunitR4'	2	0.1802	0.0225	0.9268
b'CHR1:78629802:A'	b'M62SunitR1'	2	0.2415	0.0325	0.9730
b'CHR1:78629802:A'	b'M62SunitR2'	2	0.2131	0.0257	0.9730
b'CHR1:78629802:A'	b'M62SunitR3'	2	0.1801	0.0194	0.9730
b'CHR1:78629802:A'	b'M62SunitR4'	2	0.1802	0.0225	0.9730
b'CHR1:8957259:A'	b'M62SunitR1'	2	0.2415	0.0325	0.8518
b'CHR1:8957259:A'	b'M62SunitR2'	2	0.2131	0.0257	0.8518
b'CHR1:8957259:A'	b'M62SunitR3'	2	0.1801	0.0194	0.8518
b'CHR1:8957259:A'	b'M62SunitR4'	2	0.1802	0.0225	0.8518
b'CHR1:91319110:C'	b'M62SunitR1'	2	0.2415	0.0325	0.5841
b'CHR1:91319110:C'	b'M62SunitR2'	2	0.2131	0.0257	0.5841
b'CHR1:91319110:C'	b'M62SunitR3'	2	0.1801	0.0194	0.5841
b'CHR1:91319110:C'	b'M62SunitR4'	2	0.1802	0.0225	0.5841
b'CHR20:21328621:A'	b'M62SunitR1'	2	0.2415	0.0325	0.8955
b'CHR20:21328621:A'	b'M62SunitR2'	2	0.2131	0.0257	0.8955
b'CHR20:21328621:A'	b'M62SunitR3'	2	0.1801	0.0194	0.8955
b'CHR20:21328621:A'	b'M62SunitR4'	2	0.1802	0.0225	0.8955
b'CHR21:44551263:G'	b'M62SunitR1'	2	0.2415	0.0325	0.8843
b'CHR21:44551263:G'	b'M62SunitR2'	2	0.2131	0.0257	0.8843
b'CHR21:44551263:G'	b'M62SunitR3'	2	0.1801	0.0194	0.8843
b'CHR21:44551263:G'	b'M62SunitR4'	2	0.1802	0.0225	0.8843
b'CHR2:124865392:A'	b'M62SunitR1'	2	0.2415	0.0325	0.5691
b'CHR2:124865392:A'	b'M62SunitR2'	2	0.2131	0.0257	0.5691
b'CHR2:124865392:A'	b'M62SunitR3'	2	0.1801	0.0194	0.5691
b'CHR2:124865392:A'	b'M62SunitR4'	2	0.1802	0.0225	0.5691
b'CHR2:167249230:T'	b'M62SunitR1'	2	0.2415	0.0325	0.4678
b'CHR2:167249230:T'	b'M62SunitR2'	2	0.2131	0.0257	0.4678
b'CHR2:167249230:T'	b'M62SunitR3'	2	0.1801	0.0194	0.4678
b'CHR2:167249230:T'	b'M62SunitR4'	2	0.1802	0.0225	0.4678
b'CHR2:186838999:G'	b'M62SunitR1'	2	0.2415	0.0325	0.5594
b'CHR2:186838999:G'	b'M62SunitR2'	2	0.2131	0.0257	0.5594
b'CHR2:186838999:G'	b'M62SunitR3'	2	0.1801	0.0194	0.5594
b'CHR2:186838999:G'	b'M62SunitR4'	2	0.1802	0.0225	0.5594
b'CHR3:45093328:A'	b'M62SunitR1'	2	0.2415	0.0325	0.9817
b'CHR3:45093328:A'	b'M62SunitR2'	2	0.2131	0.0257	0.9817
b'CHR3:45093328:A'	b'M62SunitR3'	2	0.1801	0.0194	0.9817
b'CHR3:45093328:A'	b'M62SunitR4'	2	0.1802	0.0225	0.9817
b'CHR3:50320148:G'	b'M62SunitR1'	2	0.2415	0.0325	0.9932
b'CHR3:50320148:G'	b'M62SunitR2'	2	0.2131	0.0257	0.9932
b'CHR3:50320148:G'	b'M62SunitR3'	2	0.1801	0.0194	0.9932
b'CHR3:50320148:G'	b'M62SunitR4'	2	0.1802	0.0225	0.9932
b'CHR3:9950005:A'	b'M62SunitR1'	2	0.2415	0.0325	1.0000
b'CHR3:9950005:A'	b'M62SunitR2'	2	0.2131	0.0257	1.0000
b'CHR3:9950005:A'	b'M62SunitR3'	2	0.1801	0.0194	1.0000
b'CHR3:9950005:A'	b'M62SunitR4'	2	0.1802	0.0225	1.0000
b'CHR4:105942405:T'	b'M62SunitR1'	2	0.2415	0.0325	0.6590
b'CHR4:105942405:T'	b'M62SunitR2'	2	0.2131	0.0257	0.6590
b'CHR4:105942405:T'	b'M62SunitR3'	2	0.1801	0.0194	0.6590
b'CHR4:105942405:T'	b'M62SunitR4'	2	0.1802	0.0225	0.6590
b'CHR4:155711214:C'	b'M62SunitR1'	2	0.2415	0.0325	0.7067
b'CHR4:155711214:C'	b'M62SunitR2'	2	0.2131	0.0257	0.7067
b'CHR4:155711214:C'	b'M62SunitR3'	2	0.1801	0.0194	0.7067
b'CHR4:155711214:C'	b'M62SunitR4'	2	0.1802	0.0225	0.7067
b'CHR4:186619620:A'	b'M62SunitR1'	2	0.2415	0.0325	0.7064
b'CHR4:186619620:A'	b'M62SunitR2'	2	0.2131	0.0257	0.7064
b'CHR4:186619620:A'	b'M62SunitR3'	2	0.1801	0.0194	0.7064
b'CHR4:186619620:A'	b'M62SunitR4'	2	0.1802	0.0225	0.7064
b'CHR4:7006660:G'	b'M62SunitR1'	2	0.2415	0.0325	0.6121
b'CHR4:7006660:G'	b'M62SunitR2'	2	0.2131	0.0257	0.6121
b'CHR4:7006660:G'	b'M62SunitR3'	2	0.1801	0.0194	0.6121
b'CHR4:7006660:G'	b'M62SunitR4'	2	0.1802	0.0225	0.6121
b'CHR5:138930531:A'	b'M62SunitR1'	2	0.2415	0.0325	0.5638
b'CHR5:138930531:A'	b'M62SunitR2'	2	0.2131	0.0257	0.5638
b'CHR5:138930531:A'	b'M62SunitR3'	2	0.1801	0.0194	0.5638
b'CHR5:138930531:A'	b'M62SunitR4'	2	0.1802	0.0225	0.5638
b'CHR5:138930532:CCCACATGAACTA'	b'M62SunitR1'	2	0.2415	0.0325	0.5638
b'CHR5:138930532:CCCACATGAACTA'	b'M62SunitR2'	2	0.2131	0.0257	0.5638
b'CHR5:138930532:CCCACATGAACTA'	b'M62SunitR3'	2	0.1801	0.0194	0.5638
b'CHR5:138930532:CCCACATGAACTA'	b'M62SunitR4'	2	0.1802	0.0225	0.5638
b'CHR5:141431886:T'	b'M62SunitR1'	2	0.2415	0.0325	0.7512
b'CHR5:141431886:T'	b'M62SunitR2'	2	0.2131	0.0257	0.7512
b'CHR5:141431886:T'	b'M62SunitR3'	2	0.1801	0.0194	0.7512
b'CHR5:141431886:T'	b'M62SunitR4'	2	0.1802	0.0225	0.7512
b'CHR5:177403277:A'	b'M62SunitR1'	2	0.2415	0.0325	0.9984
b'CHR5:177403277:A'	b'M62SunitR2'	2	0.2131	0.0257	0.9984
b'CHR5:177403277:A'	b'M62SunitR3'	2	0.1801	0.0194	0.9984
b'CHR5:177403277:A'	b'M62SunitR4'	2	0.1802	0.0225	0.9984
b'CHR5:31409330:A'	b'M62SunitR1'	2	0.2415	0.0325	0.4277
b'CHR5:31409330:A'	b'M62SunitR2'	2	0.2131	0.0257	0.4277
b'CHR5:31409330:A'	b'M62SunitR3'	2	0.1801	0.0194	0.4277
b'CHR5:31409330:A'	b'M62SunitR4'	2	0.1802	0.0225	0.4277
b'CHR5:51389819:T'	b'M62SunitR1'	2	0.2415	0.0325	0.7374
b'CHR5:51389819:T'	b'M62SunitR2'	2	0.2131	0.0257	0.7374
b'CHR5:51389819:T'	b'M62SunitR3'	2	0.1801	0.0194	0.7374
b'CHR5:51389819:T'	b'M62SunitR4'	2	0.1802	0.0225	0.7374
b'CHR5:74634923:T'	b'M62SunitR1'	2	0.2415	0.0325	0.8527
b'CHR5:74634923:T'	b'M62SunitR2'	2	0.2131	0.0257	0.8527
b'CHR5:74634923:T'	b'M62SunitR3'	2	0.1801	0.0194	0.8527
b'CHR5:74634923:T'	b'M62SunitR4'	2	0.1802	0.0225	0.8527
b'CHR6:12120212:G'	b'M62SunitR1'	2	0.2415	0.0325	0.4685
b'CHR6:12120212:G'	b'M62SunitR2'	2	0.2131	0.0257	0.4685
b'CHR6:12120212:G'	b'M62SunitR3'	2	0.1801	0.0194	0.4685
b'CHR6:12120212:G'	b'M62SunitR4'	2	0.1802	0.0225	0.4685
b'CHR6:167136359:T'	b'M62SunitR1'	2	0.2415	0.0325	0.5201
b'CHR6:167136359:T'	b'M62SunitR2'	2	0.2131	0.0257	0.5201
b'CHR6:167136359:T'	b'M62SunitR3'	2	0.1801	0.0194	0.5201
b'CHR6:167136359:T'	b'M62SunitR4'	2	0.1802	0.0225	0.5201
b'CHR6:34871637:A'	b'M62SunitR1'	2	0.2415	0.0325	0.6545
b'CHR6:34871637:A'	b'M62SunitR2'	2	0.2131	0.0257	0.6545
b'CHR6:34871637:A'	b'M62SunitR3'	2	0.1801	0.0194	0.6545
b'CHR6:34871637:A'	b'M62SunitR4'	2	0.1802	0.0225	0.6545
b'CHR6:45422739:A'	b'M62SunitR1'	2	0.2415	0.0325	0.5385
b'CHR6:45422739:A'	b'M62SunitR2'	2	0.2131	0.0257	0.5385
b'CHR6:45422739:A'	b'M62SunitR3'	2	0.1801	0.0194	0.5385
b'CHR6:45422739:A'	b'M62SunitR4'	2	0.1802	0.0225	0.5385
b'CHR6:9775825:A'	b'M62SunitR1'	2	0.2415	0.0325	0.3672
b'CHR6:9775825:A'	b'M62SunitR2'	2	0.2131	0.0257	0.3672
b'CHR6:9775825:A'	b'M62SunitR3'	2	0.1801	0.0194	0.3672
b'CHR6:9775825:A'	b'M62SunitR4'	2	0.1802	0.0225	0.3672
b'CHR7:39085988:C'	b'M62SunitR1'	2	0.2415	0.0325	0.9128
b'CHR7:39085988:C'	b'M62SunitR2'	2	0.2131	0.0257	0.9128
b'CHR7:39085988:C'	b'M62SunitR3'	2	0.1801	0.0194	0.9128
b'CHR7:39085988:C'	b'M62SunitR4'	2	0.1802	0.0225	0.9128
b'CHR7:39085990:C'	b'M62SunitR1'	2	0.2415	0.0325	0.9128
b'CHR7:39085990:C'	b'M62SunitR2'	2	0.2131	0.0257	0.9128
b'CHR7:39085990:C'	b'M62SunitR3'	2	0.1801	0.0194	0.9128
b'CHR7:39085990:C'	b'M62SunitR4'	2	0.1802	0.0225	0.9128
b'CHR8:144040433:T'	b'M62SunitR1'	2	0.2415	0.0325	0.7910
b'CHR8:144040433:T'	b'M62SunitR2'	2	0.2131	0.0257	0.7910
b'CHR8:144040433:T'	b'M62SunitR3'	2	0.1801	0.0194	0.7910
b'CHR8:144040433:T'	b'M62SunitR4'	2	0.1802	0.0225	0.7910
b'CHR8:26583969:A'	b'M62SunitR1'	2	0.2415	0.0325	0.6235
b'CHR8:26583969:A'	b'M62SunitR2'	2	0.2131	0.0257	0.6235
b'CHR8:26583969:A'	b'M62SunitR3'	2	0.1801	0.0194	0.6235
b'CHR8:26583969:A'	b'M62SunitR4'	2	0.1802	0.0225	0.6235
b'CHR9:131598217:T'	b'M62SunitR1'	2	0.2415	0.0325	0.7869
b'CHR9:131598217:T'	b'M62SunitR2'	2	0.2131	0.0257	0.7869
b'CHR9:131598217:T'	b'M62SunitR3'	2	0.1801	0.0194	0.7869
b'CHR9:131598217:T'	b'M62SunitR4'	2	0.1802	0.0225	0.7869
b'CHR9:137024143:A'	b'M62SunitR1'	2	0.2415	0.0325	0.5696
b'CHR9:137024143:A'	b'M62SunitR2'	2	0.2131	0.0257	0.5696
b'CHR9:137024143:A'	b'M62SunitR3'	2	0.1801	0.0194	0.5696
b'CHR9:137024143:A'	b'M62SunitR4'	2	0.1802	0.0225	0.5696
b'CHR10:92240093:G'	b'M62SunitR1'	3	0.7354	0.0378	0.4673
b'CHR10:92240093:G'	b'M62SunitR2'	3	0.6265	0.0347	0.4673
b'CHR10:92240093:G'	b'M62SunitR3'	3	0.8317	0.0373	0.4673
b'CHR10:92240093:G'	b'M62SunitR4'	3	0.8101	0.0385	0.4673
b'CHR14:31178233:C'	b'M62SunitR1'	3	0.7354	0.0378	0.5226
b'CHR14:31178233:C'	b'M62SunitR2'	3	0.6265	0.0347	0.5226
b'CHR14:31178233:C'	b'M62SunitR3'	3	0.8317	0.0373	0.5226
b'CHR14:31178233:C'	b'M62SunitR4'	3	0.8101	0.0385	0.5226
b'CHR17:81937211:G'	b'M62SunitR1'	3	0.7354	0.0378	0.6529
b'CHR17:81937211:G'	b'M62SunitR2'	3	0.6265	0.0347	0.6529
b'CHR17:81937211:G'	b'M62SunitR3'	3	0.8317	0.0373	0.6529
b'CHR17:81937211:G'	b'M62SunitR4'	3	0.8101	0.0385	0.6529
b'CHR19:1049270:A'	b'M62SunitR1'	3	0.7354	0.0378	0.9781
b'CHR19:1049270:A'	b'M62SunitR2'	3	0.6265	0.0347	0.9781
b'CHR19:1049270:A'	b'M62SunitR3'	3	0.8317	0.0373	0.9781
b'CHR19:1049270:A'	b'M62SunitR4'	3	0.8101	0.0385	0.9781
b'CHR1:11779915:A'	b'M62SunitR1'	3	0.7354	0.0378	0.5673
b'CHR1:11779915:A'	b'M62SunitR2'	3	0.6265	0.0347	0.5673
b'CHR1:11779915:A'	b'M62SunitR3'	3	0.8317	0.0373	0.5673
b'CHR1:11779915:A'	b'M62SunitR4'	3	0.8101	0.0385	0.5673
b'CHR1:13343011:A'	b'M62SunitR1'	3	0.7354	0.0378	0.7984
b'CHR1:13343011:A'	b'M62SunitR2'	3	0.6265	0.0347	0.7984
b'CHR1:13343011:A'	b'M62SunitR3'	3	0.8317	0.0373	0.7984
b'CHR1:13343011:A'	b'M62SunitR4'	3	0.8101	0.0385	0.7984
b'CHR1:13421192:T'	b'M62SunitR1'	3	0.7354	0.0378	0.9907
b'CHR1:13421192:T'	b'M62SunitR2'	3	0.6265	0.0347	0.9907
b'CHR1:13421192:T'	b'M62SunitR3'	3	0.8317	0.0373	0.9907
b'CHR1:13421192:T'	b'M62SunitR4'	3	0.8101	0.0385	0.9907
b'CHR1:13782619:G'	b'M62SunitR1'	3	0.7354	0.0378	0.9838
b'CHR1:13782619:G'	b'M62SunitR2'	3	0.6265	0.0347	0.9838
b'CHR1:13782619:G'	b'M62SunitR3'	3	0.8317	0.0373	0.9838
b'CHR1:13782619:G'	b'M62SunitR4'	3	0.8101	0.0385	0.9838
b'CHR1:15939409:A'	b'M62SunitR1'	3	0.7354	0.0378	0.9983
b'CHR1:15939409:A'	b'M62SunitR2'	3	0.6265	0.0347	0.9983
b'CHR1:15939409:A'	b'M62SunitR3'	3	0.8317	0.0373	0.9983
b'CHR1:15939409:A'	b'M62SunitR4'	3	0.8101	0.0385	0.9983
b'CHR1:160155085:A'	b'M62SunitR1'	3	0.7354	0.0378	0.6150
b'CHR1:160155085:A'	b'M62SunitR2'	3	0.6265	0.0347	0.6150
b'CHR1:160155085:A'	b'M62SunitR3'	3	0.8317	0.0373	0.6150
b'CHR1:160155085:A'	b'M62SunitR4'	3	0.8101	0.0385	0.6150
b'CHR1:16409637:C'	b'M62SunitR1'	3	0.7354	0.0378	0.9987
b'CHR1:16409637:C'	b'M62SunitR2'	3	0.6265	0.0347	0.9987
b'CHR1:16409637:C'	b'M62SunitR3'	3	0.8317	0.0373	0.9987
b'CHR1:16409637:C'	b'M62SunitR4'	3	0.8101	0.0385	0.9987
b'CHR1:17070097:A'	b'M62SunitR1'	3	0.7354	0.0378	0.5590
b'CHR1:17070097:A'	b'M62SunitR2'	3	0.6265	0.0347	0.5590
b'CHR1:17070097:A'	b'M62SunitR3'	3	0.8317	0.0373	0.5590
b'CHR1:17070097:A'	b'M62SunitR4'	3	0.8101	0.0385	0.5590
b'CHR1:17079314:A'	b'M62SunitR1'	3	0.7354	0.0378	0.7510
b'CHR1:17079314:A'	b'M62SunitR2'	3	0.6265	0.0347	0.7510
b'CHR1:17079314:A'	b'M62SunitR3'	3	0.8317	0.0373	0.7510
b'CHR1:17079314:A'	b'M62SunitR4'	3	0.8101	0.0385	0.7510
b'CHR1:17084646:G'	b'M62SunitR1'	3	0.7354	0.0378	0.9724
b'CHR1:17084646:G'	b'M62SunitR2'	3	0.6265	0.0347	0.9724
b'CHR1:17084646:G'	b'M62SunitR3'	3	0.8317	0.0373	0.9724
b'CHR1:17084646:G'	b'M62SunitR4'	3	0.8101	0.0385	0.9724
b'CHR1:18877503:G'	b'M62SunitR1'	3	0.7354	0.0378	0.8595
b'CHR1:18877503:G'	b'M62SunitR2'	3	0.6265	0.0347	0.8595
b'CHR1:18877503:G'	b'M62SunitR3'	3	0.8317	0.0373	0.8595
b'CHR1:18877503:G'	b'M62SunitR4'	3	0.8101	0.0385	0.8595
b'CHR1:19282760:C'	b'M62SunitR1'	3	0.7354	0.0378	0.9996
b'CHR1:19282760:C'	b'M62SunitR2'	3	0.6265	0.0347	0.9996
b'CHR1:19282760:C'	b'M62SunitR3'	3	0.8317	0.0373	0.9996
b'CHR1:19282760:C'	b'M62SunitR4'	3	0.8101	0.0385	0.9996
b'CHR1:19623568:C'	b'M62SunitR1'	3	0.7354	0.0378	0.9502
b'CHR1:19623568:C'	b'M62SunitR2'	3	0.6265	0.0347	0.9502
b'CHR1:19623568:C'	b'M62SunitR3'	3	0.8317	0.0373	0.9502
b'CHR1:19623568:C'	b'M62SunitR4'	3	0.8101	0.0385	0.9502
b'CHR1:20084839:T'	b'M62SunitR1'	3	0.7354	0.0378	0.9579
b'CHR1:20084839:T'	b'M62SunitR2'	3	0.6265	0.0347	0.9579
b'CHR1:20084839:T'	b'M62SunitR3'	3	0.8317	0.0373	0.9579
b'CHR1:20084839:T'	b'M62SunitR4'	3	0.8101	0.0385	0.9579
b'CHR1:21483257:C'	b'M62SunitR1'	3	0.7354	0.0378	0.4000
b'CHR1:21483257:C'	b'M62SunitR2'	3	0.6265	0.0347	0.4000
b'CHR1:21483257:C'	b'M62SunitR3'	3	0.8317	0.0373	0.4000
b'CHR1:21483257:C'	b'M62SunitR4'	3	0.8101	0.0385	0.4000
b'CHR1:21874505:T'	b'M62SunitR1'	3	0.7354	0.0378	0.9931
b'CHR1:21874505:T'	b'M62SunitR2'	3	0.6265	0.0347	0.9931
b'CHR1:21874505:T'	b'M62SunitR3'	3	0.8317	0.0373	0.9931
b'CHR1:21874505:T'	b'M62SunitR4'	3	0.8101	0.0385	0.9931
b'CHR1:22526222:C'	b'M62SunitR1'	3	0.7354	0.0378	0.9998
b'CHR1:22526222:C'	b'M62SunitR2'	3	0.6265	0.0347	0.9998
b'CHR1:22526222:C'	b'M62SunitR3'	3	0.8317	0.0373	0.9998
b'CHR1:22526222:C'	b'M62SunitR4'	3	0.8101	0.0385	0.9998
b'CHR1:226223692:T'	b'M62SunitR1'	3	0.7354	0.0378	0.3267
b'CHR1:226223692:T'	b'M62SunitR2'	3	0.6265	0.0347	0.3267
b'CHR1:226223692:T'	b'M62SunitR3'	3	0.8317	0.0373	0.3267
b'CHR1:226223692:T'	b'M62SunitR4'	3	0.8101	0.0385	0.3267
b'CHR1:25243590:C'	b'M62SunitR1'	3	0.7354	0.0378	0.9188
b'CHR1:25243590:C'	b'M62SunitR2'	3	0.6265	0.0347	0.9188
b'CHR1:25243590:C'	b'M62SunitR3'	3	0.8317	0.0373	0.9188
b'CHR1:25243590:C'	b'M62SunitR4'	3	0.8101	0.0385	0.9188
b'CHR1:26344118:T'	b'M62SunitR1'	3	0.7354	0.0378	0.8329
b'CHR1:26344118:T'	b'M62SunitR2'	3	0.6265	0.0347	0.8329
b'CHR1:26344118:T'	b'M62SunitR3'	3	0.8317	0.0373	0.8329
b'CHR1:26344118:T'	b'M62SunitR4'	3	0.8101	0.0385	0.8329
b'CHR1:26952030:A'	b'M62SunitR1'	3	0.7354	0.0378	0.9992
b'CHR1:26952030:A'	b'M62SunitR2'	3	0.6265	0.0347	0.9992
b'CHR1:26952030:A'	b'M62SunitR3'	3	0.8317	0.0373	0.9992
b'CHR1:26952030:A'	b'M62SunitR4'	3	0.8101	0.0385	0.9992
b'CHR1:27360975:T'	b'M62SunitR1'	3	0.7354	0.0378	0.9115
b'CHR1:27360975:T'	b'M62SunitR2'	3	0.6265	0.0347	0.9115
b'CHR1:27360975:T'	b'M62SunitR3'	3	0.8317	0.0373	0.9115
b'CHR1:27360975:T'	b'M62SunitR4'	3	0.8101	0.0385	0.9115
b'CHR1:31630664:G'	b'M62SunitR1'	3	0.7354	0.0378	0.9581
b'CHR1:31630664:G'	b'M62SunitR2'	3	0.6265	0.0347	0.9581
b'CHR1:31630664:G'	b'M62SunitR3'	3	0.8317	0.0373	0.9581
b'CHR1:31630664:G'	b'M62SunitR4'	3	0.8101	0.0385	0.9581
b'CHR1:31698605:G'	b'M62SunitR1'	3	0.7354	0.0378	0.9299
b'CHR1:31698605:G'	b'M62SunitR2'	3	0.6265	0.0347	0.9299
b'CHR1:31698605:G'	b'M62SunitR3'	3	0.8317	0.0373	0.9299
b'CHR1:31698605:G'	b'M62SunitR4'	3	0.8101	0.0385	0.9299
b'CHR1:32770050:G'	b'M62SunitR1'	3	0.7354	0.0378	0.9966
b'CHR1:32770050:G'	b'M62SunitR2'	3	0.6265	0.0347	0.9966
b'CHR1:32770050:G'	b'M62SunitR3'	3	0.8317	0.0373	0.9966
b'CHR1:32770050:G'	b'M62SunitR4'	3	0.8101	0.0385	0.9966
b'CHR1:33494462:G'	b'M62SunitR1'	3	0.7354	0.0378	0.9992
b'CHR1:33494462:G'	b'M62SunitR2'	3	0.6265	0.0347	0.9992
b'CHR1:33494462:G'	b'M62SunitR3'	3	0.8317	0.0373	0.9992
b'CHR1:33494462:G'	b'M62SunitR4'	3	0.8101	0.0385	0.9992
b'CHR1:3478610:A'	b'M62SunitR1'	3	0.7354	0.0378	0.8094
b'CHR1:3478610:A'	b'M62SunitR2'	3	0.6265	0.0347	0.8094
b'CHR1:3478610:A'	b'M62SunitR3'	3	0.8317	0.0373	0.8094
b'CHR1:3478610:A'	b'M62SunitR4'	3	0.8101	0.0385	0.8094
b'CHR1:51840355:A'	b'M62SunitR1'	3	0.7354	0.0378	0.8705
b'CHR1:51840355:A'	b'M62SunitR2'	3	0.6265	0.0347	0.8705
b'CHR1:51840355:A'	b'M62SunitR3'	3	0.8317	0.0373	0.8705
b'CHR1:51840355:A'	b'M62SunitR4'	3	0.8101	0.0385	0.8705
b'CHR1:53247055:T'	b'M62SunitR1'	3	0.7354	0.0378	0.5243
b'CHR1:53247055:T'	b'M62SunitR2'	3	0.6265	0.0347	0.5243
b'CHR1:53247055:T'	b'M62SunitR3'	3	0.8317	0.0373	0.5243
b'CHR1:53247055:T'	b'M62SunitR4'	3	0.8101	0.0385	0.5243
b'CHR1:53250744:A'	b'M62SunitR1'	3	0.7354	0.0378	0.9798
b'CHR1:53250744:A'	b'M62SunitR2'	3	0.6265	0.0347	0.9798
b'CHR1:53250744:A'	b'M62SunitR3'	3	0.8317	0.0373	0.9798
b'CHR1:53250744:A'	b'M62SunitR4'	3	0.8101	0.0385	0.9798
b'CHR1:53594343:C'	b'M62SunitR1'	3	0.7354	0.0378	0.8548
b'CHR1:53594343:C'	b'M62SunitR2'	3	0.6265	0.0347	0.8548
b'CHR1:53594343:C'	b'M62SunitR3'	3	0.8317	0.0373	0.8548
b'CHR1:53594343:C'	b'M62SunitR4'	3	0.8101	0.0385	0.8548
b'CHR1:63415881:T'	b'M62SunitR1'	3	0.7354	0.0378	0.6913
b'CHR1:63415881:T'	b'M62SunitR2'	3	0.6265	0.0347	0.6913
b'CHR1:63415881:T'	b'M62SunitR3'	3	0.8317	0.0373	0.6913
b'CHR1:63415881:T'	b'M62SunitR4'	3	0.8101	0.0385	0.6913
b'CHR1:64844806:C'	b'M62SunitR1'	3	0.7354	0.0378	0.8717
b'CHR1:64844806:C'	b'M62SunitR2'	3	0.6265	0.0347	0.8717
b'CHR1:64844806:C'	b'M62SunitR3'	3	0.8317	0.0373	0.8717
b'CHR1:64844806:C'	b'M62SunitR4'	3	0.8101	0.0385	0.8717
b'CHR1:7827188:A'	b'M62SunitR1'	3	0.7354	0.0378	0.9972
b'CHR1:7827188:A'	b'M62SunitR2'	3	0.6265	0.0347	0.9972
b'CHR1:7827188:A'	b'M62SunitR3'	3	0.8317	0.0373	0.9972
b'CHR1:7827188:A'	b'M62SunitR4'	3	0.8101	0.0385	0.9972
b'CHR1:942934:C'	b'M62SunitR1'	3	0.7354	0.0378	0.9988
b'CHR1:942934:C'	b'M62SunitR2'	3	0.6265	0.0347	0.9988
b'CHR1:942934:C'	b'M62SunitR3'	3	0.8317	0.0373	0.9988
b'CHR1:942934:C'	b'M62SunitR4'	3	0.8101	0.0385	0.9988
b'CHR2:111856807:G'	b'M62SunitR1'	3	0.7354	0.0378	0.4856
b'CHR2:111856807:G'	b'M62SunitR2'	3	0.6265	0.0347	0.4856
b'CHR2:111856807:G'	b'M62SunitR3'	3	0.8317	0.0373	0.4856
b'CHR2:111856807:G'	b'M62SunitR4'	3	0.8101	0.0385	0.4856
b'CHR2:219451248:A'	b'M62SunitR1'	3	0.7354	0.0378	0.9906
b'CHR2:219451248:A'	b'M62SunitR2'	3	0.6265	0.0347	0.9906
b'CHR2:219451248:A'	b'M62SunitR3'	3	0.8317	0.0373	0.9906
b'CHR2:219451248:A'	b'M62SunitR4'	3	0.8101	0.0385	0.9906
b'CHR2:73291715:T'	b'M62SunitR1'	3	0.7354	0.0378	0.9923
b'CHR2:73291715:T'	b'M62SunitR2'	3	0.6265	0.0347	0.9923
b'CHR2:73291715:T'	b'M62SunitR3'	3	0.8317	0.0373	0.9923
b'CHR2:73291715:T'	b'M62SunitR4'	3	0.8101	0.0385	0.9923
b'CHR3:41800280:T'	b'M62SunitR1'	3	0.7354	0.0378	0.8066
b'CHR3:41800280:T'	b'M62SunitR2'	3	0.6265	0.0347	0.8066
b'CHR3:41800280:T'	b'M62SunitR3'	3	0.8317	0.0373	0.8066
b'CHR3:41800280:T'	b'M62SunitR4'	3	0.8101	0.0385	0.8066
b'CHR4:39510416:A'	b'M62SunitR1'	3	0.7354	0.0378	0.6065
b'CHR4:39510416:A'	b'M62SunitR2'	3	0.6265	0.0347	0.6065
b'CHR4:39510416:A'	b'M62SunitR3'	3	0.8317	0.0373	0.6065
b'CHR4:39510416:A'	b'M62SunitR4'	3	0.8101	0.0385	0.6065
b'CHR5:150540177:C'	b'M62SunitR1'	3	0.7354	0.0378	0.6176
b'CHR5:150540177:C'	b'M62SunitR2'	3	0.6265	0.0347	0.6176
b'CHR5:150540177:C'	b'M62SunitR3'	3	0.8317	0.0373	0.6176
b'CHR5:150540177:C'	b'M62SunitR4'	3	0.8101	0.0385	0.6176
b'CHR6:3154637:C'	b'M62SunitR1'	3	0.7354	0.0378	0.4917
b'CHR6:3154637:C'	b'M62SunitR2'	3	0.6265	0.0347	0.4917
b'CHR6:3154637:C'	b'M62SunitR3'	3	0.8317	0.0373	0.4917
b'CHR6:3154637:C'	b'M62SunitR4'	3	0.8101	0.0385	0.4917
