mutation_id	sample_id	cluster_id	cellular_prevalence	cellular_prevalence_std	cluster_assignment_prob
b'CHR10:102593720:G'	b'M49CtrlR1'	0	0.2400	0.0200	0.8829
b'CHR10:102593720:G'	b'M49CtrlR2'	0	0.2121	0.0179	0.8829
b'CHR10:102593720:G'	b'M49CtrlR3'	0	0.2394	0.0186	0.8829
b'CHR10:102593720:G'	b'M49CtrlR4'	0	0.2391	0.0188	0.8829
b'CHR10:119579974:C'	b'M49CtrlR1'	0	0.2400	0.0200	0.4163
b'CHR10:119579974:C'	b'M49CtrlR2'	0	0.2121	0.0179	0.4163
b'CHR10:119579974:C'	b'M49CtrlR3'	0	0.2394	0.0186	0.4163
b'CHR10:119579974:C'	b'M49CtrlR4'	0	0.2391	0.0188	0.4163
b'CHR10:73751113:G'	b'M49CtrlR1'	0	0.2400	0.0200	0.9693
b'CHR10:73751113:G'	b'M49CtrlR2'	0	0.2121	0.0179	0.9693
b'CHR10:73751113:G'	b'M49CtrlR3'	0	0.2394	0.0186	0.9693
b'CHR10:73751113:G'	b'M49CtrlR4'	0	0.2391	0.0188	0.9693
b'CHR11:120128675:T'	b'M49CtrlR1'	0	0.2400	0.0200	0.9628
b'CHR11:120128675:T'	b'M49CtrlR2'	0	0.2121	0.0179	0.9628
b'CHR11:120128675:T'	b'M49CtrlR3'	0	0.2394	0.0186	0.9628
b'CHR11:120128675:T'	b'M49CtrlR4'	0	0.2391	0.0188	0.9628
b'CHR11:57646395:A'	b'M49CtrlR1'	0	0.2400	0.0200	0.8038
b'CHR11:57646395:A'	b'M49CtrlR2'	0	0.2121	0.0179	0.8038
b'CHR11:57646395:A'	b'M49CtrlR3'	0	0.2394	0.0186	0.8038
b'CHR11:57646395:A'	b'M49CtrlR4'	0	0.2391	0.0188	0.8038
b'CHR11:77190101:A'	b'M49CtrlR1'	0	0.2400	0.0200	0.7712
b'CHR11:77190101:A'	b'M49CtrlR2'	0	0.2121	0.0179	0.7712
b'CHR11:77190101:A'	b'M49CtrlR3'	0	0.2394	0.0186	0.7712
b'CHR11:77190101:A'	b'M49CtrlR4'	0	0.2391	0.0188	0.7712
b'CHR11:77190102:A'	b'M49CtrlR1'	0	0.2400	0.0200	0.7712
b'CHR11:77190102:A'	b'M49CtrlR2'	0	0.2121	0.0179	0.7712
b'CHR11:77190102:A'	b'M49CtrlR3'	0	0.2394	0.0186	0.7712
b'CHR11:77190102:A'	b'M49CtrlR4'	0	0.2391	0.0188	0.7712
b'CHR11:94998292:G'	b'M49CtrlR1'	0	0.2400	0.0200	0.9050
b'CHR11:94998292:G'	b'M49CtrlR2'	0	0.2121	0.0179	0.9050
b'CHR11:94998292:G'	b'M49CtrlR3'	0	0.2394	0.0186	0.9050
b'CHR11:94998292:G'	b'M49CtrlR4'	0	0.2391	0.0188	0.9050
b'CHR12:122988845:T'	b'M49CtrlR1'	0	0.2400	0.0200	0.9069
b'CHR12:122988845:T'	b'M49CtrlR2'	0	0.2121	0.0179	0.9069
b'CHR12:122988845:T'	b'M49CtrlR3'	0	0.2394	0.0186	0.9069
b'CHR12:122988845:T'	b'M49CtrlR4'	0	0.2391	0.0188	0.9069
b'CHR12:48329951:T'	b'M49CtrlR1'	0	0.2400	0.0200	0.7005
b'CHR12:48329951:T'	b'M49CtrlR2'	0	0.2121	0.0179	0.7005
b'CHR12:48329951:T'	b'M49CtrlR3'	0	0.2394	0.0186	0.7005
b'CHR12:48329951:T'	b'M49CtrlR4'	0	0.2391	0.0188	0.7005
b'CHR12:55027042:G'	b'M49CtrlR1'	0	0.2400	0.0200	0.9477
b'CHR12:55027042:G'	b'M49CtrlR2'	0	0.2121	0.0179	0.9477
b'CHR12:55027042:G'	b'M49CtrlR3'	0	0.2394	0.0186	0.9477
b'CHR12:55027042:G'	b'M49CtrlR4'	0	0.2391	0.0188	0.9477
b'CHR12:85046079:A'	b'M49CtrlR1'	0	0.2400	0.0200	0.8806
b'CHR12:85046079:A'	b'M49CtrlR2'	0	0.2121	0.0179	0.8806
b'CHR12:85046079:A'	b'M49CtrlR3'	0	0.2394	0.0186	0.8806
b'CHR12:85046079:A'	b'M49CtrlR4'	0	0.2391	0.0188	0.8806
b'CHR12:9152922:A'	b'M49CtrlR1'	0	0.2400	0.0200	0.9603
b'CHR12:9152922:A'	b'M49CtrlR2'	0	0.2121	0.0179	0.9603
b'CHR12:9152922:A'	b'M49CtrlR3'	0	0.2394	0.0186	0.9603
b'CHR12:9152922:A'	b'M49CtrlR4'	0	0.2391	0.0188	0.9603
b'CHR13:113633258:T'	b'M49CtrlR1'	0	0.2400	0.0200	0.9699
b'CHR13:113633258:T'	b'M49CtrlR2'	0	0.2121	0.0179	0.9699
b'CHR13:113633258:T'	b'M49CtrlR3'	0	0.2394	0.0186	0.9699
b'CHR13:113633258:T'	b'M49CtrlR4'	0	0.2391	0.0188	0.9699
b'CHR13:71559855:A'	b'M49CtrlR1'	0	0.2400	0.0200	0.8006
b'CHR13:71559855:A'	b'M49CtrlR2'	0	0.2121	0.0179	0.8006
b'CHR13:71559855:A'	b'M49CtrlR3'	0	0.2394	0.0186	0.8006
b'CHR13:71559855:A'	b'M49CtrlR4'	0	0.2391	0.0188	0.8006
b'CHR13:94479083:A'	b'M49CtrlR1'	0	0.2400	0.0200	0.7753
b'CHR13:94479083:A'	b'M49CtrlR2'	0	0.2121	0.0179	0.7753
b'CHR13:94479083:A'	b'M49CtrlR3'	0	0.2394	0.0186	0.7753
b'CHR13:94479083:A'	b'M49CtrlR4'	0	0.2391	0.0188	0.7753
b'CHR14:102929246:A'	b'M49CtrlR1'	0	0.2400	0.0200	0.7638
b'CHR14:102929246:A'	b'M49CtrlR2'	0	0.2121	0.0179	0.7638
b'CHR14:102929246:A'	b'M49CtrlR3'	0	0.2394	0.0186	0.7638
b'CHR14:102929246:A'	b'M49CtrlR4'	0	0.2391	0.0188	0.7638
b'CHR14:70060875:T'	b'M49CtrlR1'	0	0.2400	0.0200	0.7200
b'CHR14:70060875:T'	b'M49CtrlR2'	0	0.2121	0.0179	0.7200
b'CHR14:70060875:T'	b'M49CtrlR3'	0	0.2394	0.0186	0.7200
b'CHR14:70060875:T'	b'M49CtrlR4'	0	0.2391	0.0188	0.7200
b'CHR14:70978536:T'	b'M49CtrlR1'	0	0.2400	0.0200	0.9069
b'CHR14:70978536:T'	b'M49CtrlR2'	0	0.2121	0.0179	0.9069
b'CHR14:70978536:T'	b'M49CtrlR3'	0	0.2394	0.0186	0.9069
b'CHR14:70978536:T'	b'M49CtrlR4'	0	0.2391	0.0188	0.9069
b'CHR15:23566598:A'	b'M49CtrlR1'	0	0.2400	0.0200	0.9837
b'CHR15:23566598:A'	b'M49CtrlR2'	0	0.2121	0.0179	0.9837
b'CHR15:23566598:A'	b'M49CtrlR3'	0	0.2394	0.0186	0.9837
b'CHR15:23566598:A'	b'M49CtrlR4'	0	0.2391	0.0188	0.9837
b'CHR15:92147045:A'	b'M49CtrlR1'	0	0.2400	0.0200	0.8530
b'CHR15:92147045:A'	b'M49CtrlR2'	0	0.2121	0.0179	0.8530
b'CHR15:92147045:A'	b'M49CtrlR3'	0	0.2394	0.0186	0.8530
b'CHR15:92147045:A'	b'M49CtrlR4'	0	0.2391	0.0188	0.8530
b'CHR16:3141065:G'	b'M49CtrlR1'	0	0.2400	0.0200	0.8308
b'CHR16:3141065:G'	b'M49CtrlR2'	0	0.2121	0.0179	0.8308
b'CHR16:3141065:G'	b'M49CtrlR3'	0	0.2394	0.0186	0.8308
b'CHR16:3141065:G'	b'M49CtrlR4'	0	0.2391	0.0188	0.8308
b'CHR16:58587391:C'	b'M49CtrlR1'	0	0.2400	0.0200	0.7796
b'CHR16:58587391:C'	b'M49CtrlR2'	0	0.2121	0.0179	0.7796
b'CHR16:58587391:C'	b'M49CtrlR3'	0	0.2394	0.0186	0.7796
b'CHR16:58587391:C'	b'M49CtrlR4'	0	0.2391	0.0188	0.7796
b'CHR16:87904819:T'	b'M49CtrlR1'	0	0.2400	0.0200	0.7818
b'CHR16:87904819:T'	b'M49CtrlR2'	0	0.2121	0.0179	0.7818
b'CHR16:87904819:T'	b'M49CtrlR3'	0	0.2394	0.0186	0.7818
b'CHR16:87904819:T'	b'M49CtrlR4'	0	0.2391	0.0188	0.7818
b'CHR17:10539354:G'	b'M49CtrlR1'	0	0.2400	0.0200	0.9822
b'CHR17:10539354:G'	b'M49CtrlR2'	0	0.2121	0.0179	0.9822
b'CHR17:10539354:G'	b'M49CtrlR3'	0	0.2394	0.0186	0.9822
b'CHR17:10539354:G'	b'M49CtrlR4'	0	0.2391	0.0188	0.9822
b'CHR17:15716798:G'	b'M49CtrlR1'	0	0.2400	0.0200	0.5484
b'CHR17:15716798:G'	b'M49CtrlR2'	0	0.2121	0.0179	0.5484
b'CHR17:15716798:G'	b'M49CtrlR3'	0	0.2394	0.0186	0.5484
b'CHR17:15716798:G'	b'M49CtrlR4'	0	0.2391	0.0188	0.5484
b'CHR17:7817620:C'	b'M49CtrlR1'	0	0.2400	0.0200	0.8117
b'CHR17:7817620:C'	b'M49CtrlR2'	0	0.2121	0.0179	0.8117
b'CHR17:7817620:C'	b'M49CtrlR3'	0	0.2394	0.0186	0.8117
b'CHR17:7817620:C'	b'M49CtrlR4'	0	0.2391	0.0188	0.8117
b'CHR17:80010681:A'	b'M49CtrlR1'	0	0.2400	0.0200	0.8756
b'CHR17:80010681:A'	b'M49CtrlR2'	0	0.2121	0.0179	0.8756
b'CHR17:80010681:A'	b'M49CtrlR3'	0	0.2394	0.0186	0.8756
b'CHR17:80010681:A'	b'M49CtrlR4'	0	0.2391	0.0188	0.8756
b'CHR17:81121422:A'	b'M49CtrlR1'	0	0.2400	0.0200	0.7748
b'CHR17:81121422:A'	b'M49CtrlR2'	0	0.2121	0.0179	0.7748
b'CHR17:81121422:A'	b'M49CtrlR3'	0	0.2394	0.0186	0.7748
b'CHR17:81121422:A'	b'M49CtrlR4'	0	0.2391	0.0188	0.7748
b'CHR17:81937211:G'	b'M49CtrlR1'	0	0.2400	0.0200	0.4612
b'CHR17:81937211:G'	b'M49CtrlR2'	0	0.2121	0.0179	0.4612
b'CHR17:81937211:G'	b'M49CtrlR3'	0	0.2394	0.0186	0.4612
b'CHR17:81937211:G'	b'M49CtrlR4'	0	0.2391	0.0188	0.4612
b'CHR17:8819116:C'	b'M49CtrlR1'	0	0.2400	0.0200	0.8765
b'CHR17:8819116:C'	b'M49CtrlR2'	0	0.2121	0.0179	0.8765
b'CHR17:8819116:C'	b'M49CtrlR3'	0	0.2394	0.0186	0.8765
b'CHR17:8819116:C'	b'M49CtrlR4'	0	0.2391	0.0188	0.8765
b'CHR18:2934431:C'	b'M49CtrlR1'	0	0.2400	0.0200	0.8889
b'CHR18:2934431:C'	b'M49CtrlR2'	0	0.2121	0.0179	0.8889
b'CHR18:2934431:C'	b'M49CtrlR3'	0	0.2394	0.0186	0.8889
b'CHR18:2934431:C'	b'M49CtrlR4'	0	0.2391	0.0188	0.8889
b'CHR19:13209361:T'	b'M49CtrlR1'	0	0.2400	0.0200	0.9032
b'CHR19:13209361:T'	b'M49CtrlR2'	0	0.2121	0.0179	0.9032
b'CHR19:13209361:T'	b'M49CtrlR3'	0	0.2394	0.0186	0.9032
b'CHR19:13209361:T'	b'M49CtrlR4'	0	0.2391	0.0188	0.9032
b'CHR19:1495334:T'	b'M49CtrlR1'	0	0.2400	0.0200	0.9841
b'CHR19:1495334:T'	b'M49CtrlR2'	0	0.2121	0.0179	0.9841
b'CHR19:1495334:T'	b'M49CtrlR3'	0	0.2394	0.0186	0.9841
b'CHR19:1495334:T'	b'M49CtrlR4'	0	0.2391	0.0188	0.9841
b'CHR19:17226319:A'	b'M49CtrlR1'	0	0.2400	0.0200	0.8991
b'CHR19:17226319:A'	b'M49CtrlR2'	0	0.2121	0.0179	0.8991
b'CHR19:17226319:A'	b'M49CtrlR3'	0	0.2394	0.0186	0.8991
b'CHR19:17226319:A'	b'M49CtrlR4'	0	0.2391	0.0188	0.8991
b'CHR19:20545051:T'	b'M49CtrlR1'	0	0.2400	0.0200	0.9486
b'CHR19:20545051:T'	b'M49CtrlR2'	0	0.2121	0.0179	0.9486
b'CHR19:20545051:T'	b'M49CtrlR3'	0	0.2394	0.0186	0.9486
b'CHR19:20545051:T'	b'M49CtrlR4'	0	0.2391	0.0188	0.9486
b'CHR19:36915827:T'	b'M49CtrlR1'	0	0.2400	0.0200	0.9996
b'CHR19:36915827:T'	b'M49CtrlR2'	0	0.2121	0.0179	0.9996
b'CHR19:36915827:T'	b'M49CtrlR3'	0	0.2394	0.0186	0.9996
b'CHR19:36915827:T'	b'M49CtrlR4'	0	0.2391	0.0188	0.9996
b'CHR19:37243400:A'	b'M49CtrlR1'	0	0.2400	0.0200	0.7132
b'CHR19:37243400:A'	b'M49CtrlR2'	0	0.2121	0.0179	0.7132
b'CHR19:37243400:A'	b'M49CtrlR3'	0	0.2394	0.0186	0.7132
b'CHR19:37243400:A'	b'M49CtrlR4'	0	0.2391	0.0188	0.7132
b'CHR19:37888408:A'	b'M49CtrlR1'	0	0.2400	0.0200	0.9137
b'CHR19:37888408:A'	b'M49CtrlR2'	0	0.2121	0.0179	0.9137
b'CHR19:37888408:A'	b'M49CtrlR3'	0	0.2394	0.0186	0.9137
b'CHR19:37888408:A'	b'M49CtrlR4'	0	0.2391	0.0188	0.9137
b'CHR19:45591702:A'	b'M49CtrlR1'	0	0.2400	0.0200	0.6690
b'CHR19:45591702:A'	b'M49CtrlR2'	0	0.2121	0.0179	0.6690
b'CHR19:45591702:A'	b'M49CtrlR3'	0	0.2394	0.0186	0.6690
b'CHR19:45591702:A'	b'M49CtrlR4'	0	0.2391	0.0188	0.6690
b'CHR19:51627961:A'	b'M49CtrlR1'	0	0.2400	0.0200	0.8639
b'CHR19:51627961:A'	b'M49CtrlR2'	0	0.2121	0.0179	0.8639
b'CHR19:51627961:A'	b'M49CtrlR3'	0	0.2394	0.0186	0.8639
b'CHR19:51627961:A'	b'M49CtrlR4'	0	0.2391	0.0188	0.8639
b'CHR19:52705931:T'	b'M49CtrlR1'	0	0.2400	0.0200	0.9557
b'CHR19:52705931:T'	b'M49CtrlR2'	0	0.2121	0.0179	0.9557
b'CHR19:52705931:T'	b'M49CtrlR3'	0	0.2394	0.0186	0.9557
b'CHR19:52705931:T'	b'M49CtrlR4'	0	0.2391	0.0188	0.9557
b'CHR19:56027551:C'	b'M49CtrlR1'	0	0.2400	0.0200	0.8706
b'CHR19:56027551:C'	b'M49CtrlR2'	0	0.2121	0.0179	0.8706
b'CHR19:56027551:C'	b'M49CtrlR3'	0	0.2394	0.0186	0.8706
b'CHR19:56027551:C'	b'M49CtrlR4'	0	0.2391	0.0188	0.8706
b'CHR19:56554274:G'	b'M49CtrlR1'	0	0.2400	0.0200	0.8931
b'CHR19:56554274:G'	b'M49CtrlR2'	0	0.2121	0.0179	0.8931
b'CHR19:56554274:G'	b'M49CtrlR3'	0	0.2394	0.0186	0.8931
b'CHR19:56554274:G'	b'M49CtrlR4'	0	0.2391	0.0188	0.8931
b'CHR1:1046687:A'	b'M49CtrlR1'	0	0.2400	0.0200	0.8090
b'CHR1:1046687:A'	b'M49CtrlR2'	0	0.2121	0.0179	0.8090
b'CHR1:1046687:A'	b'M49CtrlR3'	0	0.2394	0.0186	0.8090
b'CHR1:1046687:A'	b'M49CtrlR4'	0	0.2391	0.0188	0.8090
b'CHR1:111242317:G'	b'M49CtrlR1'	0	0.2400	0.0200	0.8797
b'CHR1:111242317:G'	b'M49CtrlR2'	0	0.2121	0.0179	0.8797
b'CHR1:111242317:G'	b'M49CtrlR3'	0	0.2394	0.0186	0.8797
b'CHR1:111242317:G'	b'M49CtrlR4'	0	0.2391	0.0188	0.8797
b'CHR1:113981341:T'	b'M49CtrlR1'	0	0.2400	0.0200	0.8851
b'CHR1:113981341:T'	b'M49CtrlR2'	0	0.2121	0.0179	0.8851
b'CHR1:113981341:T'	b'M49CtrlR3'	0	0.2394	0.0186	0.8851
b'CHR1:113981341:T'	b'M49CtrlR4'	0	0.2391	0.0188	0.8851
b'CHR1:1495915:C'	b'M49CtrlR1'	0	0.2400	0.0200	0.9550
b'CHR1:1495915:C'	b'M49CtrlR2'	0	0.2121	0.0179	0.9550
b'CHR1:1495915:C'	b'M49CtrlR3'	0	0.2394	0.0186	0.9550
b'CHR1:1495915:C'	b'M49CtrlR4'	0	0.2391	0.0188	0.9550
b'CHR1:152812643:C'	b'M49CtrlR1'	0	0.2400	0.0200	0.4264
b'CHR1:152812643:C'	b'M49CtrlR2'	0	0.2121	0.0179	0.4264
b'CHR1:152812643:C'	b'M49CtrlR3'	0	0.2394	0.0186	0.4264
b'CHR1:152812643:C'	b'M49CtrlR4'	0	0.2391	0.0188	0.4264
b'CHR1:157586429:T'	b'M49CtrlR1'	0	0.2400	0.0200	0.6150
b'CHR1:157586429:T'	b'M49CtrlR2'	0	0.2121	0.0179	0.6150
b'CHR1:157586429:T'	b'M49CtrlR3'	0	0.2394	0.0186	0.6150
b'CHR1:157586429:T'	b'M49CtrlR4'	0	0.2391	0.0188	0.6150
b'CHR1:158699883:T'	b'M49CtrlR1'	0	0.2400	0.0200	0.9341
b'CHR1:158699883:T'	b'M49CtrlR2'	0	0.2121	0.0179	0.9341
b'CHR1:158699883:T'	b'M49CtrlR3'	0	0.2394	0.0186	0.9341
b'CHR1:158699883:T'	b'M49CtrlR4'	0	0.2391	0.0188	0.9341
b'CHR1:16050982:T'	b'M49CtrlR1'	0	0.2400	0.0200	0.9712
b'CHR1:16050982:T'	b'M49CtrlR2'	0	0.2121	0.0179	0.9712
b'CHR1:16050982:T'	b'M49CtrlR3'	0	0.2394	0.0186	0.9712
b'CHR1:16050982:T'	b'M49CtrlR4'	0	0.2391	0.0188	0.9712
b'CHR1:161526114:T'	b'M49CtrlR1'	0	0.2400	0.0200	0.5207
b'CHR1:161526114:T'	b'M49CtrlR2'	0	0.2121	0.0179	0.5207
b'CHR1:161526114:T'	b'M49CtrlR3'	0	0.2394	0.0186	0.5207
b'CHR1:161526114:T'	b'M49CtrlR4'	0	0.2391	0.0188	0.5207
b'CHR1:16759300:T'	b'M49CtrlR1'	0	0.2400	0.0200	0.9985
b'CHR1:16759300:T'	b'M49CtrlR2'	0	0.2121	0.0179	0.9985
b'CHR1:16759300:T'	b'M49CtrlR3'	0	0.2394	0.0186	0.9985
b'CHR1:16759300:T'	b'M49CtrlR4'	0	0.2391	0.0188	0.9985
b'CHR1:168308838:T'	b'M49CtrlR1'	0	0.2400	0.0200	0.3357
b'CHR1:168308838:T'	b'M49CtrlR2'	0	0.2121	0.0179	0.3357
b'CHR1:168308838:T'	b'M49CtrlR3'	0	0.2394	0.0186	0.3357
b'CHR1:168308838:T'	b'M49CtrlR4'	0	0.2391	0.0188	0.3357
b'CHR1:21483257:C'	b'M49CtrlR1'	0	0.2400	0.0200	0.9176
b'CHR1:21483257:C'	b'M49CtrlR2'	0	0.2121	0.0179	0.9176
b'CHR1:21483257:C'	b'M49CtrlR3'	0	0.2394	0.0186	0.9176
b'CHR1:21483257:C'	b'M49CtrlR4'	0	0.2391	0.0188	0.9176
b'CHR1:229547554:G'	b'M49CtrlR1'	0	0.2400	0.0200	0.7652
b'CHR1:229547554:G'	b'M49CtrlR2'	0	0.2121	0.0179	0.7652
b'CHR1:229547554:G'	b'M49CtrlR3'	0	0.2394	0.0186	0.7652
b'CHR1:229547554:G'	b'M49CtrlR4'	0	0.2391	0.0188	0.7652
b'CHR1:248273507:A'	b'M49CtrlR1'	0	0.2400	0.0200	0.7640
b'CHR1:248273507:A'	b'M49CtrlR2'	0	0.2121	0.0179	0.7640
b'CHR1:248273507:A'	b'M49CtrlR3'	0	0.2394	0.0186	0.7640
b'CHR1:248273507:A'	b'M49CtrlR4'	0	0.2391	0.0188	0.7640
b'CHR1:248273509:C'	b'M49CtrlR1'	0	0.2400	0.0200	0.6630
b'CHR1:248273509:C'	b'M49CtrlR2'	0	0.2121	0.0179	0.6630
b'CHR1:248273509:C'	b'M49CtrlR3'	0	0.2394	0.0186	0.6630
b'CHR1:248273509:C'	b'M49CtrlR4'	0	0.2391	0.0188	0.6630
b'CHR1:70039224:A'	b'M49CtrlR1'	0	0.2400	0.0200	0.9930
b'CHR1:70039224:A'	b'M49CtrlR2'	0	0.2121	0.0179	0.9930
b'CHR1:70039224:A'	b'M49CtrlR3'	0	0.2394	0.0186	0.9930
b'CHR1:70039224:A'	b'M49CtrlR4'	0	0.2391	0.0188	0.9930
b'CHR1:8957259:A'	b'M49CtrlR1'	0	0.2400	0.0200	0.9401
b'CHR1:8957259:A'	b'M49CtrlR2'	0	0.2121	0.0179	0.9401
b'CHR1:8957259:A'	b'M49CtrlR3'	0	0.2394	0.0186	0.9401
b'CHR1:8957259:A'	b'M49CtrlR4'	0	0.2391	0.0188	0.9401
b'CHR20:19992282:A'	b'M49CtrlR1'	0	0.2400	0.0200	0.8665
b'CHR20:19992282:A'	b'M49CtrlR2'	0	0.2121	0.0179	0.8665
b'CHR20:19992282:A'	b'M49CtrlR3'	0	0.2394	0.0186	0.8665
b'CHR20:19992282:A'	b'M49CtrlR4'	0	0.2391	0.0188	0.8665
b'CHR20:35503815:A'	b'M49CtrlR1'	0	0.2400	0.0200	0.5935
b'CHR20:35503815:A'	b'M49CtrlR2'	0	0.2121	0.0179	0.5935
b'CHR20:35503815:A'	b'M49CtrlR3'	0	0.2394	0.0186	0.5935
b'CHR20:35503815:A'	b'M49CtrlR4'	0	0.2391	0.0188	0.5935
b'CHR20:44750813:C'	b'M49CtrlR1'	0	0.2400	0.0200	0.9974
b'CHR20:44750813:C'	b'M49CtrlR2'	0	0.2121	0.0179	0.9974
b'CHR20:44750813:C'	b'M49CtrlR3'	0	0.2394	0.0186	0.9974
b'CHR20:44750813:C'	b'M49CtrlR4'	0	0.2391	0.0188	0.9974
b'CHR20:46726177:C'	b'M49CtrlR1'	0	0.2400	0.0200	0.8875
b'CHR20:46726177:C'	b'M49CtrlR2'	0	0.2121	0.0179	0.8875
b'CHR20:46726177:C'	b'M49CtrlR3'	0	0.2394	0.0186	0.8875
b'CHR20:46726177:C'	b'M49CtrlR4'	0	0.2391	0.0188	0.8875
b'CHR22:30470216:A'	b'M49CtrlR1'	0	0.2400	0.0200	0.5264
b'CHR22:30470216:A'	b'M49CtrlR2'	0	0.2121	0.0179	0.5264
b'CHR22:30470216:A'	b'M49CtrlR3'	0	0.2394	0.0186	0.5264
b'CHR22:30470216:A'	b'M49CtrlR4'	0	0.2391	0.0188	0.5264
b'CHR22:41511947:C'	b'M49CtrlR1'	0	0.2400	0.0200	0.5825
b'CHR22:41511947:C'	b'M49CtrlR2'	0	0.2121	0.0179	0.5825
b'CHR22:41511947:C'	b'M49CtrlR3'	0	0.2394	0.0186	0.5825
b'CHR22:41511947:C'	b'M49CtrlR4'	0	0.2391	0.0188	0.5825
b'CHR2:127289755:A'	b'M49CtrlR1'	0	0.2400	0.0200	0.9241
b'CHR2:127289755:A'	b'M49CtrlR2'	0	0.2121	0.0179	0.9241
b'CHR2:127289755:A'	b'M49CtrlR3'	0	0.2394	0.0186	0.9241
b'CHR2:127289755:A'	b'M49CtrlR4'	0	0.2391	0.0188	0.9241
b'CHR2:131125753:T'	b'M49CtrlR1'	0	0.2400	0.0200	0.4454
b'CHR2:131125753:T'	b'M49CtrlR2'	0	0.2121	0.0179	0.4454
b'CHR2:131125753:T'	b'M49CtrlR3'	0	0.2394	0.0186	0.4454
b'CHR2:131125753:T'	b'M49CtrlR4'	0	0.2391	0.0188	0.4454
b'CHR2:135115329:A'	b'M49CtrlR1'	0	0.2400	0.0200	0.9217
b'CHR2:135115329:A'	b'M49CtrlR2'	0	0.2121	0.0179	0.9217
b'CHR2:135115329:A'	b'M49CtrlR3'	0	0.2394	0.0186	0.9217
b'CHR2:135115329:A'	b'M49CtrlR4'	0	0.2391	0.0188	0.9217
b'CHR2:156549720:T'	b'M49CtrlR1'	0	0.2400	0.0200	0.9086
b'CHR2:156549720:T'	b'M49CtrlR2'	0	0.2121	0.0179	0.9086
b'CHR2:156549720:T'	b'M49CtrlR3'	0	0.2394	0.0186	0.9086
b'CHR2:156549720:T'	b'M49CtrlR4'	0	0.2391	0.0188	0.9086
b'CHR2:170847706:T'	b'M49CtrlR1'	0	0.2400	0.0200	0.8912
b'CHR2:170847706:T'	b'M49CtrlR2'	0	0.2121	0.0179	0.8912
b'CHR2:170847706:T'	b'M49CtrlR3'	0	0.2394	0.0186	0.8912
b'CHR2:170847706:T'	b'M49CtrlR4'	0	0.2391	0.0188	0.8912
b'CHR2:208333381:G'	b'M49CtrlR1'	0	0.2400	0.0200	0.8419
b'CHR2:208333381:G'	b'M49CtrlR2'	0	0.2121	0.0179	0.8419
b'CHR2:208333381:G'	b'M49CtrlR3'	0	0.2394	0.0186	0.8419
b'CHR2:208333381:G'	b'M49CtrlR4'	0	0.2391	0.0188	0.8419
b'CHR2:232381776:G'	b'M49CtrlR1'	0	0.2400	0.0200	0.9358
b'CHR2:232381776:G'	b'M49CtrlR2'	0	0.2121	0.0179	0.9358
b'CHR2:232381776:G'	b'M49CtrlR3'	0	0.2394	0.0186	0.9358
b'CHR2:232381776:G'	b'M49CtrlR4'	0	0.2391	0.0188	0.9358
b'CHR2:79869920:C'	b'M49CtrlR1'	0	0.2400	0.0200	0.7901
b'CHR2:79869920:C'	b'M49CtrlR2'	0	0.2121	0.0179	0.7901
b'CHR2:79869920:C'	b'M49CtrlR3'	0	0.2394	0.0186	0.7901
b'CHR2:79869920:C'	b'M49CtrlR4'	0	0.2391	0.0188	0.7901
b'CHR2:97167731:A'	b'M49CtrlR1'	0	0.2400	0.0200	0.9121
b'CHR2:97167731:A'	b'M49CtrlR2'	0	0.2121	0.0179	0.9121
b'CHR2:97167731:A'	b'M49CtrlR3'	0	0.2394	0.0186	0.9121
b'CHR2:97167731:A'	b'M49CtrlR4'	0	0.2391	0.0188	0.9121
b'CHR3:14668125:G'	b'M49CtrlR1'	0	0.2400	0.0200	0.8246
b'CHR3:14668125:G'	b'M49CtrlR2'	0	0.2121	0.0179	0.8246
b'CHR3:14668125:G'	b'M49CtrlR3'	0	0.2394	0.0186	0.8246
b'CHR3:14668125:G'	b'M49CtrlR4'	0	0.2391	0.0188	0.8246
b'CHR3:50320148:G'	b'M49CtrlR1'	0	0.2400	0.0200	0.8643
b'CHR3:50320148:G'	b'M49CtrlR2'	0	0.2121	0.0179	0.8643
b'CHR3:50320148:G'	b'M49CtrlR3'	0	0.2394	0.0186	0.8643
b'CHR3:50320148:G'	b'M49CtrlR4'	0	0.2391	0.0188	0.8643
b'CHR3:55073793:A'	b'M49CtrlR1'	0	0.2400	0.0200	0.9599
b'CHR3:55073793:A'	b'M49CtrlR2'	0	0.2121	0.0179	0.9599
b'CHR3:55073793:A'	b'M49CtrlR3'	0	0.2394	0.0186	0.9599
b'CHR3:55073793:A'	b'M49CtrlR4'	0	0.2391	0.0188	0.9599
b'CHR3:63834186:C'	b'M49CtrlR1'	0	0.2400	0.0200	0.8714
b'CHR3:63834186:C'	b'M49CtrlR2'	0	0.2121	0.0179	0.8714
b'CHR3:63834186:C'	b'M49CtrlR3'	0	0.2394	0.0186	0.8714
b'CHR3:63834186:C'	b'M49CtrlR4'	0	0.2391	0.0188	0.8714
b'CHR3:78600261:T'	b'M49CtrlR1'	0	0.2400	0.0200	0.9222
b'CHR3:78600261:T'	b'M49CtrlR2'	0	0.2121	0.0179	0.9222
b'CHR3:78600261:T'	b'M49CtrlR3'	0	0.2394	0.0186	0.9222
b'CHR3:78600261:T'	b'M49CtrlR4'	0	0.2391	0.0188	0.9222
b'CHR3:9950005:A'	b'M49CtrlR1'	0	0.2400	0.0200	1.0000
b'CHR3:9950005:A'	b'M49CtrlR2'	0	0.2121	0.0179	1.0000
b'CHR3:9950005:A'	b'M49CtrlR3'	0	0.2394	0.0186	1.0000
b'CHR3:9950005:A'	b'M49CtrlR4'	0	0.2391	0.0188	1.0000
b'CHR4:125317234:A'	b'M49CtrlR1'	0	0.2400	0.0200	0.9845
b'CHR4:125317234:A'	b'M49CtrlR2'	0	0.2121	0.0179	0.9845
b'CHR4:125317234:A'	b'M49CtrlR3'	0	0.2394	0.0186	0.9845
b'CHR4:125317234:A'	b'M49CtrlR4'	0	0.2391	0.0188	0.9845
b'CHR4:185463040:A'	b'M49CtrlR1'	0	0.2400	0.0200	0.7208
b'CHR4:185463040:A'	b'M49CtrlR2'	0	0.2121	0.0179	0.7208
b'CHR4:185463040:A'	b'M49CtrlR3'	0	0.2394	0.0186	0.7208
b'CHR4:185463040:A'	b'M49CtrlR4'	0	0.2391	0.0188	0.7208
b'CHR4:185656724:G'	b'M49CtrlR1'	0	0.2400	0.0200	0.5035
b'CHR4:185656724:G'	b'M49CtrlR2'	0	0.2121	0.0179	0.5035
b'CHR4:185656724:G'	b'M49CtrlR3'	0	0.2394	0.0186	0.5035
b'CHR4:185656724:G'	b'M49CtrlR4'	0	0.2391	0.0188	0.5035
b'CHR4:2824643:T'	b'M49CtrlR1'	0	0.2400	0.0200	0.8154
b'CHR4:2824643:T'	b'M49CtrlR2'	0	0.2121	0.0179	0.8154
b'CHR4:2824643:T'	b'M49CtrlR3'	0	0.2394	0.0186	0.8154
b'CHR4:2824643:T'	b'M49CtrlR4'	0	0.2391	0.0188	0.8154
b'CHR4:5825510:T'	b'M49CtrlR1'	0	0.2400	0.0200	0.9079
b'CHR4:5825510:T'	b'M49CtrlR2'	0	0.2121	0.0179	0.9079
b'CHR4:5825510:T'	b'M49CtrlR3'	0	0.2394	0.0186	0.9079
b'CHR4:5825510:T'	b'M49CtrlR4'	0	0.2391	0.0188	0.9079
b'CHR4:85942222:C'	b'M49CtrlR1'	0	0.2400	0.0200	0.9272
b'CHR4:85942222:C'	b'M49CtrlR2'	0	0.2121	0.0179	0.9272
b'CHR4:85942222:C'	b'M49CtrlR3'	0	0.2394	0.0186	0.9272
b'CHR4:85942222:C'	b'M49CtrlR4'	0	0.2391	0.0188	0.9272
b'CHR5:141051875:G'	b'M49CtrlR1'	0	0.2400	0.0200	0.8534
b'CHR5:141051875:G'	b'M49CtrlR2'	0	0.2121	0.0179	0.8534
b'CHR5:141051875:G'	b'M49CtrlR3'	0	0.2394	0.0186	0.8534
b'CHR5:141051875:G'	b'M49CtrlR4'	0	0.2391	0.0188	0.8534
b'CHR5:141431886:T'	b'M49CtrlR1'	0	0.2400	0.0200	0.9061
b'CHR5:141431886:T'	b'M49CtrlR2'	0	0.2121	0.0179	0.9061
b'CHR5:141431886:T'	b'M49CtrlR3'	0	0.2394	0.0186	0.9061
b'CHR5:141431886:T'	b'M49CtrlR4'	0	0.2391	0.0188	0.9061
b'CHR5:173609254:G'	b'M49CtrlR1'	0	0.2400	0.0200	0.6578
b'CHR5:173609254:G'	b'M49CtrlR2'	0	0.2121	0.0179	0.6578
b'CHR5:173609254:G'	b'M49CtrlR3'	0	0.2394	0.0186	0.6578
b'CHR5:173609254:G'	b'M49CtrlR4'	0	0.2391	0.0188	0.6578
b'CHR5:51389819:T'	b'M49CtrlR1'	0	0.2400	0.0200	0.9850
b'CHR5:51389819:T'	b'M49CtrlR2'	0	0.2121	0.0179	0.9850
b'CHR5:51389819:T'	b'M49CtrlR3'	0	0.2394	0.0186	0.9850
b'CHR5:51389819:T'	b'M49CtrlR4'	0	0.2391	0.0188	0.9850
b'CHR6:10687513:T'	b'M49CtrlR1'	0	0.2400	0.0200	0.9994
b'CHR6:10687513:T'	b'M49CtrlR2'	0	0.2121	0.0179	0.9994
b'CHR6:10687513:T'	b'M49CtrlR3'	0	0.2394	0.0186	0.9994
b'CHR6:10687513:T'	b'M49CtrlR4'	0	0.2391	0.0188	0.9994
b'CHR6:11193627:A'	b'M49CtrlR1'	0	0.2400	0.0200	0.9997
b'CHR6:11193627:A'	b'M49CtrlR2'	0	0.2121	0.0179	0.9997
b'CHR6:11193627:A'	b'M49CtrlR3'	0	0.2394	0.0186	0.9997
b'CHR6:11193627:A'	b'M49CtrlR4'	0	0.2391	0.0188	0.9997
b'CHR6:12120212:G'	b'M49CtrlR1'	0	0.2400	0.0200	0.9995
b'CHR6:12120212:G'	b'M49CtrlR2'	0	0.2121	0.0179	0.9995
b'CHR6:12120212:G'	b'M49CtrlR3'	0	0.2394	0.0186	0.9995
b'CHR6:12120212:G'	b'M49CtrlR4'	0	0.2391	0.0188	0.9995
b'CHR6:2749147:T'	b'M49CtrlR1'	0	0.2400	0.0200	0.5545
b'CHR6:2749147:T'	b'M49CtrlR2'	0	0.2121	0.0179	0.5545
b'CHR6:2749147:T'	b'M49CtrlR3'	0	0.2394	0.0186	0.5545
b'CHR6:2749147:T'	b'M49CtrlR4'	0	0.2391	0.0188	0.5545
b'CHR6:3154637:C'	b'M49CtrlR1'	0	0.2400	0.0200	0.4869
b'CHR6:3154637:C'	b'M49CtrlR2'	0	0.2121	0.0179	0.4869
b'CHR6:3154637:C'	b'M49CtrlR3'	0	0.2394	0.0186	0.4869
b'CHR6:3154637:C'	b'M49CtrlR4'	0	0.2391	0.0188	0.4869
b'CHR6:42862523:G'	b'M49CtrlR1'	0	0.2400	0.0200	0.9306
b'CHR6:42862523:G'	b'M49CtrlR2'	0	0.2121	0.0179	0.9306
b'CHR6:42862523:G'	b'M49CtrlR3'	0	0.2394	0.0186	0.9306
b'CHR6:42862523:G'	b'M49CtrlR4'	0	0.2391	0.0188	0.9306
b'CHR6:43369355:A'	b'M49CtrlR1'	0	0.2400	0.0200	0.4626
b'CHR6:43369355:A'	b'M49CtrlR2'	0	0.2121	0.0179	0.4626
b'CHR6:43369355:A'	b'M49CtrlR3'	0	0.2394	0.0186	0.4626
b'CHR6:43369355:A'	b'M49CtrlR4'	0	0.2391	0.0188	0.4626
b'CHR6:7393219:T'	b'M49CtrlR1'	0	0.2400	0.0200	0.9982
b'CHR6:7393219:T'	b'M49CtrlR2'	0	0.2121	0.0179	0.9982
b'CHR6:7393219:T'	b'M49CtrlR3'	0	0.2394	0.0186	0.9982
b'CHR6:7393219:T'	b'M49CtrlR4'	0	0.2391	0.0188	0.9982
b'CHR6:7577027:T'	b'M49CtrlR1'	0	0.2400	0.0200	0.9942
b'CHR6:7577027:T'	b'M49CtrlR2'	0	0.2121	0.0179	0.9942
b'CHR6:7577027:T'	b'M49CtrlR3'	0	0.2394	0.0186	0.9942
b'CHR6:7577027:T'	b'M49CtrlR4'	0	0.2391	0.0188	0.9942
b'CHR6:7581403:A'	b'M49CtrlR1'	0	0.2400	0.0200	0.9978
b'CHR6:7581403:A'	b'M49CtrlR2'	0	0.2121	0.0179	0.9978
b'CHR6:7581403:A'	b'M49CtrlR3'	0	0.2394	0.0186	0.9978
b'CHR6:7581403:A'	b'M49CtrlR4'	0	0.2391	0.0188	0.9978
b'CHR6:7601487:T'	b'M49CtrlR1'	0	0.2400	0.0200	0.5825
b'CHR6:7601487:T'	b'M49CtrlR2'	0	0.2121	0.0179	0.5825
b'CHR6:7601487:T'	b'M49CtrlR3'	0	0.2394	0.0186	0.5825
b'CHR6:7601487:T'	b'M49CtrlR4'	0	0.2391	0.0188	0.5825
b'CHR7:39085988:C'	b'M49CtrlR1'	0	0.2400	0.0200	0.6465
b'CHR7:39085988:C'	b'M49CtrlR2'	0	0.2121	0.0179	0.6465
b'CHR7:39085988:C'	b'M49CtrlR3'	0	0.2394	0.0186	0.6465
b'CHR7:39085988:C'	b'M49CtrlR4'	0	0.2391	0.0188	0.6465
b'CHR7:39085990:C'	b'M49CtrlR1'	0	0.2400	0.0200	0.6688
b'CHR7:39085990:C'	b'M49CtrlR2'	0	0.2121	0.0179	0.6688
b'CHR7:39085990:C'	b'M49CtrlR3'	0	0.2394	0.0186	0.6688
b'CHR7:39085990:C'	b'M49CtrlR4'	0	0.2391	0.0188	0.6688
b'CHR8:144040433:T'	b'M49CtrlR1'	0	0.2400	0.0200	0.8298
b'CHR8:144040433:T'	b'M49CtrlR2'	0	0.2121	0.0179	0.8298
b'CHR8:144040433:T'	b'M49CtrlR3'	0	0.2394	0.0186	0.8298
b'CHR8:144040433:T'	b'M49CtrlR4'	0	0.2391	0.0188	0.8298
b'CHR8:40674861:C'	b'M49CtrlR1'	0	0.2400	0.0200	0.9555
b'CHR8:40674861:C'	b'M49CtrlR2'	0	0.2121	0.0179	0.9555
b'CHR8:40674861:C'	b'M49CtrlR3'	0	0.2394	0.0186	0.9555
b'CHR8:40674861:C'	b'M49CtrlR4'	0	0.2391	0.0188	0.9555
b'CHR8:92011019:A'	b'M49CtrlR1'	0	0.2400	0.0200	0.8730
b'CHR8:92011019:A'	b'M49CtrlR2'	0	0.2121	0.0179	0.8730
b'CHR8:92011019:A'	b'M49CtrlR3'	0	0.2394	0.0186	0.8730
b'CHR8:92011019:A'	b'M49CtrlR4'	0	0.2391	0.0188	0.8730
b'CHR9:125337434:T'	b'M49CtrlR1'	0	0.2400	0.0200	0.8819
b'CHR9:125337434:T'	b'M49CtrlR2'	0	0.2121	0.0179	0.8819
b'CHR9:125337434:T'	b'M49CtrlR3'	0	0.2394	0.0186	0.8819
b'CHR9:125337434:T'	b'M49CtrlR4'	0	0.2391	0.0188	0.8819
b'CHR9:129068201:C'	b'M49CtrlR1'	0	0.2400	0.0200	0.9254
b'CHR9:129068201:C'	b'M49CtrlR2'	0	0.2121	0.0179	0.9254
b'CHR9:129068201:C'	b'M49CtrlR3'	0	0.2394	0.0186	0.9254
b'CHR9:129068201:C'	b'M49CtrlR4'	0	0.2391	0.0188	0.9254
b'CHR9:89348205:A'	b'M49CtrlR1'	0	0.2400	0.0200	0.8881
b'CHR9:89348205:A'	b'M49CtrlR2'	0	0.2121	0.0179	0.8881
b'CHR9:89348205:A'	b'M49CtrlR3'	0	0.2394	0.0186	0.8881
b'CHR9:89348205:A'	b'M49CtrlR4'	0	0.2391	0.0188	0.8881
b'CHR9:93952939:A'	b'M49CtrlR1'	0	0.2400	0.0200	0.8882
b'CHR9:93952939:A'	b'M49CtrlR2'	0	0.2121	0.0179	0.8882
b'CHR9:93952939:A'	b'M49CtrlR3'	0	0.2394	0.0186	0.8882
b'CHR9:93952939:A'	b'M49CtrlR4'	0	0.2391	0.0188	0.8882
b'CHR9:95881156:A'	b'M49CtrlR1'	0	0.2400	0.0200	0.9983
b'CHR9:95881156:A'	b'M49CtrlR2'	0	0.2121	0.0179	0.9983
b'CHR9:95881156:A'	b'M49CtrlR3'	0	0.2394	0.0186	0.9983
b'CHR9:95881156:A'	b'M49CtrlR4'	0	0.2391	0.0188	0.9983
b'CHR9:98782570:A'	b'M49CtrlR1'	0	0.2400	0.0200	0.8370
b'CHR9:98782570:A'	b'M49CtrlR2'	0	0.2121	0.0179	0.8370
b'CHR9:98782570:A'	b'M49CtrlR3'	0	0.2394	0.0186	0.8370
b'CHR9:98782570:A'	b'M49CtrlR4'	0	0.2391	0.0188	0.8370
b'CHR19:52881597:A'	b'M49CtrlR1'	1	0.6308	0.0597	0.9673
b'CHR19:52881597:A'	b'M49CtrlR2'	1	0.4029	0.0561	0.9673
b'CHR19:52881597:A'	b'M49CtrlR3'	1	0.5430	0.0594	0.9673
b'CHR19:52881597:A'	b'M49CtrlR4'	1	0.6013	0.0593	0.9673
b'CHR1:15939409:A'	b'M49CtrlR1'	1	0.6308	0.0597	0.8271
b'CHR1:15939409:A'	b'M49CtrlR2'	1	0.4029	0.0561	0.8271
b'CHR1:15939409:A'	b'M49CtrlR3'	1	0.5430	0.0594	0.8271
b'CHR1:15939409:A'	b'M49CtrlR4'	1	0.6013	0.0593	0.8271
b'CHR1:22526222:C'	b'M49CtrlR1'	1	0.6308	0.0597	0.4916
b'CHR1:22526222:C'	b'M49CtrlR2'	1	0.4029	0.0561	0.4916
b'CHR1:22526222:C'	b'M49CtrlR3'	1	0.5430	0.0594	0.4916
b'CHR1:22526222:C'	b'M49CtrlR4'	1	0.6013	0.0593	0.4916
b'CHR1:247423969:T'	b'M49CtrlR1'	1	0.6308	0.0597	0.9686
b'CHR1:247423969:T'	b'M49CtrlR2'	1	0.4029	0.0561	0.9686
b'CHR1:247423969:T'	b'M49CtrlR3'	1	0.5430	0.0594	0.9686
b'CHR1:247423969:T'	b'M49CtrlR4'	1	0.6013	0.0593	0.9686
b'CHR3:48447042:C'	b'M49CtrlR1'	1	0.6308	0.0597	0.8106
b'CHR3:48447042:C'	b'M49CtrlR2'	1	0.4029	0.0561	0.8106
b'CHR3:48447042:C'	b'M49CtrlR3'	1	0.5430	0.0594	0.8106
b'CHR3:48447042:C'	b'M49CtrlR4'	1	0.6013	0.0593	0.8106
b'CHR6:9775825:A'	b'M49CtrlR1'	1	0.6308	0.0597	0.3236
b'CHR6:9775825:A'	b'M49CtrlR2'	1	0.4029	0.0561	0.3236
b'CHR6:9775825:A'	b'M49CtrlR3'	1	0.5430	0.0594	0.3236
b'CHR6:9775825:A'	b'M49CtrlR4'	1	0.6013	0.0593	0.3236
b'CHR9:26928213:T'	b'M49CtrlR1'	1	0.6308	0.0597	0.9611
b'CHR9:26928213:T'	b'M49CtrlR2'	1	0.4029	0.0561	0.9611
b'CHR9:26928213:T'	b'M49CtrlR3'	1	0.5430	0.0594	0.9611
b'CHR9:26928213:T'	b'M49CtrlR4'	1	0.6013	0.0593	0.9611
b'CHR10:92240093:G'	b'M49CtrlR1'	2	0.9176	0.0449	0.3474
b'CHR10:92240093:G'	b'M49CtrlR2'	2	0.7485	0.0529	0.3474
b'CHR10:92240093:G'	b'M49CtrlR3'	2	0.5582	0.0439	0.3474
b'CHR10:92240093:G'	b'M49CtrlR4'	2	0.7275	0.0501	0.3474
b'CHR19:1049270:A'	b'M49CtrlR1'	2	0.9176	0.0449	0.5013
b'CHR19:1049270:A'	b'M49CtrlR2'	2	0.7485	0.0529	0.5013
b'CHR19:1049270:A'	b'M49CtrlR3'	2	0.5582	0.0439	0.5013
b'CHR19:1049270:A'	b'M49CtrlR4'	2	0.7275	0.0501	0.5013
b'CHR1:11706367:T'	b'M49CtrlR1'	2	0.9176	0.0449	0.6633
b'CHR1:11706367:T'	b'M49CtrlR2'	2	0.7485	0.0529	0.6633
b'CHR1:11706367:T'	b'M49CtrlR3'	2	0.5582	0.0439	0.6633
b'CHR1:11706367:T'	b'M49CtrlR4'	2	0.7275	0.0501	0.6633
b'CHR1:13343011:A'	b'M49CtrlR1'	2	0.9176	0.0449	0.9663
b'CHR1:13343011:A'	b'M49CtrlR2'	2	0.7485	0.0529	0.9663
b'CHR1:13343011:A'	b'M49CtrlR3'	2	0.5582	0.0439	0.9663
b'CHR1:13343011:A'	b'M49CtrlR4'	2	0.7275	0.0501	0.9663
b'CHR1:160155085:A'	b'M49CtrlR1'	2	0.9176	0.0449	0.4642
b'CHR1:160155085:A'	b'M49CtrlR2'	2	0.7485	0.0529	0.4642
b'CHR1:160155085:A'	b'M49CtrlR3'	2	0.5582	0.0439	0.4642
b'CHR1:160155085:A'	b'M49CtrlR4'	2	0.7275	0.0501	0.4642
b'CHR1:16409637:C'	b'M49CtrlR1'	2	0.9176	0.0449	0.7426
b'CHR1:16409637:C'	b'M49CtrlR2'	2	0.7485	0.0529	0.7426
b'CHR1:16409637:C'	b'M49CtrlR3'	2	0.5582	0.0439	0.7426
b'CHR1:16409637:C'	b'M49CtrlR4'	2	0.7275	0.0501	0.7426
b'CHR1:17084646:G'	b'M49CtrlR1'	2	0.9176	0.0449	0.6389
b'CHR1:17084646:G'	b'M49CtrlR2'	2	0.7485	0.0529	0.6389
b'CHR1:17084646:G'	b'M49CtrlR3'	2	0.5582	0.0439	0.6389
b'CHR1:17084646:G'	b'M49CtrlR4'	2	0.7275	0.0501	0.6389
b'CHR1:18877503:G'	b'M49CtrlR1'	2	0.9176	0.0449	0.7071
b'CHR1:18877503:G'	b'M49CtrlR2'	2	0.7485	0.0529	0.7071
b'CHR1:18877503:G'	b'M49CtrlR3'	2	0.5582	0.0439	0.7071
b'CHR1:18877503:G'	b'M49CtrlR4'	2	0.7275	0.0501	0.7071
b'CHR1:202160698:C'	b'M49CtrlR1'	2	0.9176	0.0449	0.8809
b'CHR1:202160698:C'	b'M49CtrlR2'	2	0.7485	0.0529	0.8809
b'CHR1:202160698:C'	b'M49CtrlR3'	2	0.5582	0.0439	0.8809
b'CHR1:202160698:C'	b'M49CtrlR4'	2	0.7275	0.0501	0.8809
b'CHR1:215567710:G'	b'M49CtrlR1'	2	0.9176	0.0449	0.9891
b'CHR1:215567710:G'	b'M49CtrlR2'	2	0.7485	0.0529	0.9891
b'CHR1:215567710:G'	b'M49CtrlR3'	2	0.5582	0.0439	0.9891
b'CHR1:215567710:G'	b'M49CtrlR4'	2	0.7275	0.0501	0.9891
b'CHR1:21874505:T'	b'M49CtrlR1'	2	0.9176	0.0449	0.6983
b'CHR1:21874505:T'	b'M49CtrlR2'	2	0.7485	0.0529	0.6983
b'CHR1:21874505:T'	b'M49CtrlR3'	2	0.5582	0.0439	0.6983
b'CHR1:21874505:T'	b'M49CtrlR4'	2	0.7275	0.0501	0.6983
b'CHR1:230921501:T'	b'M49CtrlR1'	2	0.9176	0.0449	0.4850
b'CHR1:230921501:T'	b'M49CtrlR2'	2	0.7485	0.0529	0.4850
b'CHR1:230921501:T'	b'M49CtrlR3'	2	0.5582	0.0439	0.4850
b'CHR1:230921501:T'	b'M49CtrlR4'	2	0.7275	0.0501	0.4850
b'CHR1:26344118:T'	b'M49CtrlR1'	2	0.9176	0.0449	0.7284
b'CHR1:26344118:T'	b'M49CtrlR2'	2	0.7485	0.0529	0.7284
b'CHR1:26344118:T'	b'M49CtrlR3'	2	0.5582	0.0439	0.7284
b'CHR1:26344118:T'	b'M49CtrlR4'	2	0.7275	0.0501	0.7284
b'CHR1:31630664:G'	b'M49CtrlR1'	2	0.9176	0.0449	0.6629
b'CHR1:31630664:G'	b'M49CtrlR2'	2	0.7485	0.0529	0.6629
b'CHR1:31630664:G'	b'M49CtrlR3'	2	0.5582	0.0439	0.6629
b'CHR1:31630664:G'	b'M49CtrlR4'	2	0.7275	0.0501	0.6629
b'CHR1:31698605:G'	b'M49CtrlR1'	2	0.9176	0.0449	0.7423
b'CHR1:31698605:G'	b'M49CtrlR2'	2	0.7485	0.0529	0.7423
b'CHR1:31698605:G'	b'M49CtrlR3'	2	0.5582	0.0439	0.7423
b'CHR1:31698605:G'	b'M49CtrlR4'	2	0.7275	0.0501	0.7423
b'CHR1:33494462:G'	b'M49CtrlR1'	2	0.9176	0.0449	0.5266
b'CHR1:33494462:G'	b'M49CtrlR2'	2	0.7485	0.0529	0.5266
b'CHR1:33494462:G'	b'M49CtrlR3'	2	0.5582	0.0439	0.5266
b'CHR1:33494462:G'	b'M49CtrlR4'	2	0.7275	0.0501	0.5266
b'CHR1:3478610:A'	b'M49CtrlR1'	2	0.9176	0.0449	0.5697
b'CHR1:3478610:A'	b'M49CtrlR2'	2	0.7485	0.0529	0.5697
b'CHR1:3478610:A'	b'M49CtrlR3'	2	0.5582	0.0439	0.5697
b'CHR1:3478610:A'	b'M49CtrlR4'	2	0.7275	0.0501	0.5697
b'CHR1:53247055:T'	b'M49CtrlR1'	2	0.9176	0.0449	0.9057
b'CHR1:53247055:T'	b'M49CtrlR2'	2	0.7485	0.0529	0.9057
b'CHR1:53247055:T'	b'M49CtrlR3'	2	0.5582	0.0439	0.9057
b'CHR1:53247055:T'	b'M49CtrlR4'	2	0.7275	0.0501	0.9057
b'CHR1:53250744:A'	b'M49CtrlR1'	2	0.9176	0.0449	0.9188
b'CHR1:53250744:A'	b'M49CtrlR2'	2	0.7485	0.0529	0.9188
b'CHR1:53250744:A'	b'M49CtrlR3'	2	0.5582	0.0439	0.9188
b'CHR1:53250744:A'	b'M49CtrlR4'	2	0.7275	0.0501	0.9188
b'CHR1:53594343:C'	b'M49CtrlR1'	2	0.9176	0.0449	0.9732
b'CHR1:53594343:C'	b'M49CtrlR2'	2	0.7485	0.0529	0.9732
b'CHR1:53594343:C'	b'M49CtrlR3'	2	0.5582	0.0439	0.9732
b'CHR1:53594343:C'	b'M49CtrlR4'	2	0.7275	0.0501	0.9732
b'CHR1:7827188:A'	b'M49CtrlR1'	2	0.9176	0.0449	0.6969
b'CHR1:7827188:A'	b'M49CtrlR2'	2	0.7485	0.0529	0.6969
b'CHR1:7827188:A'	b'M49CtrlR3'	2	0.5582	0.0439	0.6969
b'CHR1:7827188:A'	b'M49CtrlR4'	2	0.7275	0.0501	0.6969
b'CHR2:219451248:A'	b'M49CtrlR1'	2	0.9176	0.0449	0.7538
b'CHR2:219451248:A'	b'M49CtrlR2'	2	0.7485	0.0529	0.7538
b'CHR2:219451248:A'	b'M49CtrlR3'	2	0.5582	0.0439	0.7538
b'CHR2:219451248:A'	b'M49CtrlR4'	2	0.7275	0.0501	0.7538
b'CHR2:73291715:T'	b'M49CtrlR1'	2	0.9176	0.0449	0.5518
b'CHR2:73291715:T'	b'M49CtrlR2'	2	0.7485	0.0529	0.5518
b'CHR2:73291715:T'	b'M49CtrlR3'	2	0.5582	0.0439	0.5518
b'CHR2:73291715:T'	b'M49CtrlR4'	2	0.7275	0.0501	0.5518
b'CHR12:40481156:A'	b'M49CtrlR1'	3	0.1339	0.0383	0.9988
b'CHR12:40481156:A'	b'M49CtrlR2'	3	0.0908	0.0227	0.9988
b'CHR12:40481156:A'	b'M49CtrlR3'	3	0.0814	0.0213	0.9988
b'CHR12:40481156:A'	b'M49CtrlR4'	3	0.0910	0.0296	0.9988
b'CHR12:40481157:G'	b'M49CtrlR1'	3	0.1339	0.0383	0.9987
b'CHR12:40481157:G'	b'M49CtrlR2'	3	0.0908	0.0227	0.9987
b'CHR12:40481157:G'	b'M49CtrlR3'	3	0.0814	0.0213	0.9987
b'CHR12:40481157:G'	b'M49CtrlR4'	3	0.0910	0.0296	0.9987
b'CHR19:14765687:T'	b'M49CtrlR1'	3	0.1339	0.0383	1.0000
b'CHR19:14765687:T'	b'M49CtrlR2'	3	0.0908	0.0227	1.0000
b'CHR19:14765687:T'	b'M49CtrlR3'	3	0.0814	0.0213	1.0000
b'CHR19:14765687:T'	b'M49CtrlR4'	3	0.0910	0.0296	1.0000
b'CHR10:128101279:T'	b'M49CtrlR1'	4	0.7579	0.0434	0.9544
b'CHR10:128101279:T'	b'M49CtrlR2'	4	0.7216	0.0464	0.9544
b'CHR10:128101279:T'	b'M49CtrlR3'	4	0.8521	0.0445	0.9544
b'CHR10:128101279:T'	b'M49CtrlR4'	4	0.9614	0.0323	0.9544
b'CHR14:31178233:C'	b'M49CtrlR1'	4	0.7579	0.0434	0.6655
b'CHR14:31178233:C'	b'M49CtrlR2'	4	0.7216	0.0464	0.6655
b'CHR14:31178233:C'	b'M49CtrlR3'	4	0.8521	0.0445	0.6655
b'CHR14:31178233:C'	b'M49CtrlR4'	4	0.9614	0.0323	0.6655
b'CHR16:1241453:A'	b'M49CtrlR1'	4	0.7579	0.0434	0.4021
b'CHR16:1241453:A'	b'M49CtrlR2'	4	0.7216	0.0464	0.4021
b'CHR16:1241453:A'	b'M49CtrlR3'	4	0.8521	0.0445	0.4021
b'CHR16:1241453:A'	b'M49CtrlR4'	4	0.9614	0.0323	0.4021
b'CHR1:11779915:A'	b'M49CtrlR1'	4	0.7579	0.0434	0.6894
b'CHR1:11779915:A'	b'M49CtrlR2'	4	0.7216	0.0464	0.6894
b'CHR1:11779915:A'	b'M49CtrlR3'	4	0.8521	0.0445	0.6894
b'CHR1:11779915:A'	b'M49CtrlR4'	4	0.9614	0.0323	0.6894
b'CHR1:13421192:T'	b'M49CtrlR1'	4	0.7579	0.0434	0.8997
b'CHR1:13421192:T'	b'M49CtrlR2'	4	0.7216	0.0464	0.8997
b'CHR1:13421192:T'	b'M49CtrlR3'	4	0.8521	0.0445	0.8997
b'CHR1:13421192:T'	b'M49CtrlR4'	4	0.9614	0.0323	0.8997
b'CHR1:13773141:T'	b'M49CtrlR1'	4	0.7579	0.0434	0.4848
b'CHR1:13773141:T'	b'M49CtrlR2'	4	0.7216	0.0464	0.4848
b'CHR1:13773141:T'	b'M49CtrlR3'	4	0.8521	0.0445	0.4848
b'CHR1:13773141:T'	b'M49CtrlR4'	4	0.9614	0.0323	0.4848
b'CHR1:13782619:G'	b'M49CtrlR1'	4	0.7579	0.0434	0.9741
b'CHR1:13782619:G'	b'M49CtrlR2'	4	0.7216	0.0464	0.9741
b'CHR1:13782619:G'	b'M49CtrlR3'	4	0.8521	0.0445	0.9741
b'CHR1:13782619:G'	b'M49CtrlR4'	4	0.9614	0.0323	0.9741
b'CHR1:155054385:T'	b'M49CtrlR1'	4	0.7579	0.0434	0.7963
b'CHR1:155054385:T'	b'M49CtrlR2'	4	0.7216	0.0464	0.7963
b'CHR1:155054385:T'	b'M49CtrlR3'	4	0.8521	0.0445	0.7963
b'CHR1:155054385:T'	b'M49CtrlR4'	4	0.9614	0.0323	0.7963
b'CHR1:17070097:A'	b'M49CtrlR1'	4	0.7579	0.0434	0.8000
b'CHR1:17070097:A'	b'M49CtrlR2'	4	0.7216	0.0464	0.8000
b'CHR1:17070097:A'	b'M49CtrlR3'	4	0.8521	0.0445	0.8000
b'CHR1:17070097:A'	b'M49CtrlR4'	4	0.9614	0.0323	0.8000
b'CHR1:17079314:A'	b'M49CtrlR1'	4	0.7579	0.0434	0.9762
b'CHR1:17079314:A'	b'M49CtrlR2'	4	0.7216	0.0464	0.9762
b'CHR1:17079314:A'	b'M49CtrlR3'	4	0.8521	0.0445	0.9762
b'CHR1:17079314:A'	b'M49CtrlR4'	4	0.9614	0.0323	0.9762
b'CHR1:18481971:A'	b'M49CtrlR1'	4	0.7579	0.0434	0.7059
b'CHR1:18481971:A'	b'M49CtrlR2'	4	0.7216	0.0464	0.7059
b'CHR1:18481971:A'	b'M49CtrlR3'	4	0.8521	0.0445	0.7059
b'CHR1:18481971:A'	b'M49CtrlR4'	4	0.9614	0.0323	0.7059
b'CHR1:19282760:C'	b'M49CtrlR1'	4	0.7579	0.0434	0.9752
b'CHR1:19282760:C'	b'M49CtrlR2'	4	0.7216	0.0464	0.9752
b'CHR1:19282760:C'	b'M49CtrlR3'	4	0.8521	0.0445	0.9752
b'CHR1:19282760:C'	b'M49CtrlR4'	4	0.9614	0.0323	0.9752
b'CHR1:19623568:C'	b'M49CtrlR1'	4	0.7579	0.0434	0.9075
b'CHR1:19623568:C'	b'M49CtrlR2'	4	0.7216	0.0464	0.9075
b'CHR1:19623568:C'	b'M49CtrlR3'	4	0.8521	0.0445	0.9075
b'CHR1:19623568:C'	b'M49CtrlR4'	4	0.9614	0.0323	0.9075
b'CHR1:20084839:T'	b'M49CtrlR1'	4	0.7579	0.0434	0.6295
b'CHR1:20084839:T'	b'M49CtrlR2'	4	0.7216	0.0464	0.6295
b'CHR1:20084839:T'	b'M49CtrlR3'	4	0.8521	0.0445	0.6295
b'CHR1:20084839:T'	b'M49CtrlR4'	4	0.9614	0.0323	0.6295
b'CHR1:25243590:C'	b'M49CtrlR1'	4	0.7579	0.0434	0.6958
b'CHR1:25243590:C'	b'M49CtrlR2'	4	0.7216	0.0464	0.6958
b'CHR1:25243590:C'	b'M49CtrlR3'	4	0.8521	0.0445	0.6958
b'CHR1:25243590:C'	b'M49CtrlR4'	4	0.9614	0.0323	0.6958
b'CHR1:26952030:A'	b'M49CtrlR1'	4	0.7579	0.0434	0.7211
b'CHR1:26952030:A'	b'M49CtrlR2'	4	0.7216	0.0464	0.7211
b'CHR1:26952030:A'	b'M49CtrlR3'	4	0.8521	0.0445	0.7211
b'CHR1:26952030:A'	b'M49CtrlR4'	4	0.9614	0.0323	0.7211
b'CHR1:27360975:T'	b'M49CtrlR1'	4	0.7579	0.0434	0.9034
b'CHR1:27360975:T'	b'M49CtrlR2'	4	0.7216	0.0464	0.9034
b'CHR1:27360975:T'	b'M49CtrlR3'	4	0.8521	0.0445	0.9034
b'CHR1:27360975:T'	b'M49CtrlR4'	4	0.9614	0.0323	0.9034
b'CHR1:32770050:G'	b'M49CtrlR1'	4	0.7579	0.0434	0.6856
b'CHR1:32770050:G'	b'M49CtrlR2'	4	0.7216	0.0464	0.6856
b'CHR1:32770050:G'	b'M49CtrlR3'	4	0.8521	0.0445	0.6856
b'CHR1:32770050:G'	b'M49CtrlR4'	4	0.9614	0.0323	0.6856
b'CHR1:3763211:T'	b'M49CtrlR1'	4	0.7579	0.0434	0.9996
b'CHR1:3763211:T'	b'M49CtrlR2'	4	0.7216	0.0464	0.9996
b'CHR1:3763211:T'	b'M49CtrlR3'	4	0.8521	0.0445	0.9996
b'CHR1:3763211:T'	b'M49CtrlR4'	4	0.9614	0.0323	0.9996
b'CHR1:51840355:A'	b'M49CtrlR1'	4	0.7579	0.0434	0.7197
b'CHR1:51840355:A'	b'M49CtrlR2'	4	0.7216	0.0464	0.7197
b'CHR1:51840355:A'	b'M49CtrlR3'	4	0.8521	0.0445	0.7197
b'CHR1:51840355:A'	b'M49CtrlR4'	4	0.9614	0.0323	0.7197
b'CHR1:53078767:A'	b'M49CtrlR1'	4	0.7579	0.0434	0.4578
b'CHR1:53078767:A'	b'M49CtrlR2'	4	0.7216	0.0464	0.4578
b'CHR1:53078767:A'	b'M49CtrlR3'	4	0.8521	0.0445	0.4578
b'CHR1:53078767:A'	b'M49CtrlR4'	4	0.9614	0.0323	0.4578
b'CHR1:63323280:A'	b'M49CtrlR1'	4	0.7579	0.0434	0.8564
b'CHR1:63323280:A'	b'M49CtrlR2'	4	0.7216	0.0464	0.8564
b'CHR1:63323280:A'	b'M49CtrlR3'	4	0.8521	0.0445	0.8564
b'CHR1:63323280:A'	b'M49CtrlR4'	4	0.9614	0.0323	0.8564
b'CHR1:63415881:T'	b'M49CtrlR1'	4	0.7579	0.0434	0.9889
b'CHR1:63415881:T'	b'M49CtrlR2'	4	0.7216	0.0464	0.9889
b'CHR1:63415881:T'	b'M49CtrlR3'	4	0.8521	0.0445	0.9889
b'CHR1:63415881:T'	b'M49CtrlR4'	4	0.9614	0.0323	0.9889
b'CHR1:64844806:C'	b'M49CtrlR1'	4	0.7579	0.0434	0.8641
b'CHR1:64844806:C'	b'M49CtrlR2'	4	0.7216	0.0464	0.8641
b'CHR1:64844806:C'	b'M49CtrlR3'	4	0.8521	0.0445	0.8641
b'CHR1:64844806:C'	b'M49CtrlR4'	4	0.9614	0.0323	0.8641
b'CHR1:942934:C'	b'M49CtrlR1'	4	0.7579	0.0434	0.4628
b'CHR1:942934:C'	b'M49CtrlR2'	4	0.7216	0.0464	0.4628
b'CHR1:942934:C'	b'M49CtrlR3'	4	0.8521	0.0445	0.4628
b'CHR1:942934:C'	b'M49CtrlR4'	4	0.9614	0.0323	0.4628
b'CHR3:123092379:A'	b'M49CtrlR1'	4	0.7579	0.0434	0.3995
b'CHR3:123092379:A'	b'M49CtrlR2'	4	0.7216	0.0464	0.3995
b'CHR3:123092379:A'	b'M49CtrlR3'	4	0.8521	0.0445	0.3995
b'CHR3:123092379:A'	b'M49CtrlR4'	4	0.9614	0.0323	0.3995
b'CHR3:171082335:T'	b'M49CtrlR1'	4	0.7579	0.0434	0.5891
b'CHR3:171082335:T'	b'M49CtrlR2'	4	0.7216	0.0464	0.5891
b'CHR3:171082335:T'	b'M49CtrlR3'	4	0.8521	0.0445	0.5891
b'CHR3:171082335:T'	b'M49CtrlR4'	4	0.9614	0.0323	0.5891
b'CHR3:41800280:T'	b'M49CtrlR1'	4	0.7579	0.0434	0.9341
b'CHR3:41800280:T'	b'M49CtrlR2'	4	0.7216	0.0464	0.9341
b'CHR3:41800280:T'	b'M49CtrlR3'	4	0.8521	0.0445	0.9341
b'CHR3:41800280:T'	b'M49CtrlR4'	4	0.9614	0.0323	0.9341
b'CHR5:150540177:C'	b'M49CtrlR1'	4	0.7579	0.0434	0.8761
b'CHR5:150540177:C'	b'M49CtrlR2'	4	0.7216	0.0464	0.8761
b'CHR5:150540177:C'	b'M49CtrlR3'	4	0.8521	0.0445	0.8761
b'CHR5:150540177:C'	b'M49CtrlR4'	4	0.9614	0.0323	0.8761
b'CHR6:13711047:G'	b'M49CtrlR1'	4	0.7579	0.0434	0.4272
b'CHR6:13711047:G'	b'M49CtrlR2'	4	0.7216	0.0464	0.4272
b'CHR6:13711047:G'	b'M49CtrlR3'	4	0.8521	0.0445	0.4272
b'CHR6:13711047:G'	b'M49CtrlR4'	4	0.9614	0.0323	0.4272
b'CHR7:151066568:A'	b'M49CtrlR1'	4	0.7579	0.0434	0.5331
b'CHR7:151066568:A'	b'M49CtrlR2'	4	0.7216	0.0464	0.5331
b'CHR7:151066568:A'	b'M49CtrlR3'	4	0.8521	0.0445	0.5331
b'CHR7:151066568:A'	b'M49CtrlR4'	4	0.9614	0.0323	0.5331
