mutation_id	sample_id	cluster_id	cellular_prevalence	cellular_prevalence_std	cluster_assignment_prob
b'CHR10:128101279:T'	b'M61SunitR1'	0	0.7110	0.0321	0.8880
b'CHR10:128101279:T'	b'M61SunitR2'	0	0.7805	0.0321	0.8880
b'CHR10:128101279:T'	b'M61SunitR3'	0	0.7318	0.0326	0.8880
b'CHR10:128101279:T'	b'M61SunitR4'	0	0.7546	0.0329	0.8880
b'CHR10:92240093:G'	b'M61SunitR1'	0	0.7110	0.0321	0.4904
b'CHR10:92240093:G'	b'M61SunitR2'	0	0.7805	0.0321	0.4904
b'CHR10:92240093:G'	b'M61SunitR3'	0	0.7318	0.0326	0.4904
b'CHR10:92240093:G'	b'M61SunitR4'	0	0.7546	0.0329	0.4904
b'CHR14:31178233:C'	b'M61SunitR1'	0	0.7110	0.0321	0.8942
b'CHR14:31178233:C'	b'M61SunitR2'	0	0.7805	0.0321	0.8942
b'CHR14:31178233:C'	b'M61SunitR3'	0	0.7318	0.0326	0.8942
b'CHR14:31178233:C'	b'M61SunitR4'	0	0.7546	0.0329	0.8942
b'CHR15:68432031:T'	b'M61SunitR1'	0	0.7110	0.0321	0.8263
b'CHR15:68432031:T'	b'M61SunitR2'	0	0.7805	0.0321	0.8263
b'CHR15:68432031:T'	b'M61SunitR3'	0	0.7318	0.0326	0.8263
b'CHR15:68432031:T'	b'M61SunitR4'	0	0.7546	0.0329	0.8263
b'CHR16:1241453:A'	b'M61SunitR1'	0	0.7110	0.0321	0.9549
b'CHR16:1241453:A'	b'M61SunitR2'	0	0.7805	0.0321	0.9549
b'CHR16:1241453:A'	b'M61SunitR3'	0	0.7318	0.0326	0.9549
b'CHR16:1241453:A'	b'M61SunitR4'	0	0.7546	0.0329	0.9549
b'CHR19:1049270:A'	b'M61SunitR1'	0	0.7110	0.0321	1.0000
b'CHR19:1049270:A'	b'M61SunitR2'	0	0.7805	0.0321	1.0000
b'CHR19:1049270:A'	b'M61SunitR3'	0	0.7318	0.0326	1.0000
b'CHR19:1049270:A'	b'M61SunitR4'	0	0.7546	0.0329	1.0000
b'CHR19:52881597:A'	b'M61SunitR1'	0	0.7110	0.0321	0.7103
b'CHR19:52881597:A'	b'M61SunitR2'	0	0.7805	0.0321	0.7103
b'CHR19:52881597:A'	b'M61SunitR3'	0	0.7318	0.0326	0.7103
b'CHR19:52881597:A'	b'M61SunitR4'	0	0.7546	0.0329	0.7103
b'CHR1:111242317:G'	b'M61SunitR1'	0	0.7110	0.0321	0.9621
b'CHR1:111242317:G'	b'M61SunitR2'	0	0.7805	0.0321	0.9621
b'CHR1:111242317:G'	b'M61SunitR3'	0	0.7318	0.0326	0.9621
b'CHR1:111242317:G'	b'M61SunitR4'	0	0.7546	0.0329	0.9621
b'CHR1:11706367:T'	b'M61SunitR1'	0	0.7110	0.0321	0.9799
b'CHR1:11706367:T'	b'M61SunitR2'	0	0.7805	0.0321	0.9799
b'CHR1:11706367:T'	b'M61SunitR3'	0	0.7318	0.0326	0.9799
b'CHR1:11706367:T'	b'M61SunitR4'	0	0.7546	0.0329	0.9799
b'CHR1:11779915:A'	b'M61SunitR1'	0	0.7110	0.0321	0.8206
b'CHR1:11779915:A'	b'M61SunitR2'	0	0.7805	0.0321	0.8206
b'CHR1:11779915:A'	b'M61SunitR3'	0	0.7318	0.0326	0.8206
b'CHR1:11779915:A'	b'M61SunitR4'	0	0.7546	0.0329	0.8206
b'CHR1:13343011:A'	b'M61SunitR1'	0	0.7110	0.0321	0.9999
b'CHR1:13343011:A'	b'M61SunitR2'	0	0.7805	0.0321	0.9999
b'CHR1:13343011:A'	b'M61SunitR3'	0	0.7318	0.0326	0.9999
b'CHR1:13343011:A'	b'M61SunitR4'	0	0.7546	0.0329	0.9999
b'CHR1:13782619:G'	b'M61SunitR1'	0	0.7110	0.0321	0.9276
b'CHR1:13782619:G'	b'M61SunitR2'	0	0.7805	0.0321	0.9276
b'CHR1:13782619:G'	b'M61SunitR3'	0	0.7318	0.0326	0.9276
b'CHR1:13782619:G'	b'M61SunitR4'	0	0.7546	0.0329	0.9276
b'CHR1:155054385:T'	b'M61SunitR1'	0	0.7110	0.0321	0.7811
b'CHR1:155054385:T'	b'M61SunitR2'	0	0.7805	0.0321	0.7811
b'CHR1:155054385:T'	b'M61SunitR3'	0	0.7318	0.0326	0.7811
b'CHR1:155054385:T'	b'M61SunitR4'	0	0.7546	0.0329	0.7811
b'CHR1:15939409:A'	b'M61SunitR1'	0	0.7110	0.0321	0.9999
b'CHR1:15939409:A'	b'M61SunitR2'	0	0.7805	0.0321	0.9999
b'CHR1:15939409:A'	b'M61SunitR3'	0	0.7318	0.0326	0.9999
b'CHR1:15939409:A'	b'M61SunitR4'	0	0.7546	0.0329	0.9999
b'CHR1:16409637:C'	b'M61SunitR1'	0	0.7110	0.0321	0.9979
b'CHR1:16409637:C'	b'M61SunitR2'	0	0.7805	0.0321	0.9979
b'CHR1:16409637:C'	b'M61SunitR3'	0	0.7318	0.0326	0.9979
b'CHR1:16409637:C'	b'M61SunitR4'	0	0.7546	0.0329	0.9979
b'CHR1:17070097:A'	b'M61SunitR1'	0	0.7110	0.0321	0.9563
b'CHR1:17070097:A'	b'M61SunitR2'	0	0.7805	0.0321	0.9563
b'CHR1:17070097:A'	b'M61SunitR3'	0	0.7318	0.0326	0.9563
b'CHR1:17070097:A'	b'M61SunitR4'	0	0.7546	0.0329	0.9563
b'CHR1:17079314:A'	b'M61SunitR1'	0	0.7110	0.0321	0.9416
b'CHR1:17079314:A'	b'M61SunitR2'	0	0.7805	0.0321	0.9416
b'CHR1:17079314:A'	b'M61SunitR3'	0	0.7318	0.0326	0.9416
b'CHR1:17079314:A'	b'M61SunitR4'	0	0.7546	0.0329	0.9416
b'CHR1:17084646:G'	b'M61SunitR1'	0	0.7110	0.0321	0.9870
b'CHR1:17084646:G'	b'M61SunitR2'	0	0.7805	0.0321	0.9870
b'CHR1:17084646:G'	b'M61SunitR3'	0	0.7318	0.0326	0.9870
b'CHR1:17084646:G'	b'M61SunitR4'	0	0.7546	0.0329	0.9870
b'CHR1:18481971:A'	b'M61SunitR1'	0	0.7110	0.0321	0.9351
b'CHR1:18481971:A'	b'M61SunitR2'	0	0.7805	0.0321	0.9351
b'CHR1:18481971:A'	b'M61SunitR3'	0	0.7318	0.0326	0.9351
b'CHR1:18481971:A'	b'M61SunitR4'	0	0.7546	0.0329	0.9351
b'CHR1:18877503:G'	b'M61SunitR1'	0	0.7110	0.0321	0.9749
b'CHR1:18877503:G'	b'M61SunitR2'	0	0.7805	0.0321	0.9749
b'CHR1:18877503:G'	b'M61SunitR3'	0	0.7318	0.0326	0.9749
b'CHR1:18877503:G'	b'M61SunitR4'	0	0.7546	0.0329	0.9749
b'CHR1:19282760:C'	b'M61SunitR1'	0	0.7110	0.0321	0.9994
b'CHR1:19282760:C'	b'M61SunitR2'	0	0.7805	0.0321	0.9994
b'CHR1:19282760:C'	b'M61SunitR3'	0	0.7318	0.0326	0.9994
b'CHR1:19282760:C'	b'M61SunitR4'	0	0.7546	0.0329	0.9994
b'CHR1:19623568:C'	b'M61SunitR1'	0	0.7110	0.0321	0.5181
b'CHR1:19623568:C'	b'M61SunitR2'	0	0.7805	0.0321	0.5181
b'CHR1:19623568:C'	b'M61SunitR3'	0	0.7318	0.0326	0.5181
b'CHR1:19623568:C'	b'M61SunitR4'	0	0.7546	0.0329	0.5181
b'CHR1:20084839:T'	b'M61SunitR1'	0	0.7110	0.0321	0.8197
b'CHR1:20084839:T'	b'M61SunitR2'	0	0.7805	0.0321	0.8197
b'CHR1:20084839:T'	b'M61SunitR3'	0	0.7318	0.0326	0.8197
b'CHR1:20084839:T'	b'M61SunitR4'	0	0.7546	0.0329	0.8197
b'CHR1:202160698:C'	b'M61SunitR1'	0	0.7110	0.0321	0.7601
b'CHR1:202160698:C'	b'M61SunitR2'	0	0.7805	0.0321	0.7601
b'CHR1:202160698:C'	b'M61SunitR3'	0	0.7318	0.0326	0.7601
b'CHR1:202160698:C'	b'M61SunitR4'	0	0.7546	0.0329	0.7601
b'CHR1:215567710:G'	b'M61SunitR1'	0	0.7110	0.0321	0.9964
b'CHR1:215567710:G'	b'M61SunitR2'	0	0.7805	0.0321	0.9964
b'CHR1:215567710:G'	b'M61SunitR3'	0	0.7318	0.0326	0.9964
b'CHR1:215567710:G'	b'M61SunitR4'	0	0.7546	0.0329	0.9964
b'CHR1:21874505:T'	b'M61SunitR1'	0	0.7110	0.0321	0.8683
b'CHR1:21874505:T'	b'M61SunitR2'	0	0.7805	0.0321	0.8683
b'CHR1:21874505:T'	b'M61SunitR3'	0	0.7318	0.0326	0.8683
b'CHR1:21874505:T'	b'M61SunitR4'	0	0.7546	0.0329	0.8683
b'CHR1:22526222:C'	b'M61SunitR1'	0	0.7110	0.0321	0.9871
b'CHR1:22526222:C'	b'M61SunitR2'	0	0.7805	0.0321	0.9871
b'CHR1:22526222:C'	b'M61SunitR3'	0	0.7318	0.0326	0.9871
b'CHR1:22526222:C'	b'M61SunitR4'	0	0.7546	0.0329	0.9871
b'CHR1:230921501:T'	b'M61SunitR1'	0	0.7110	0.0321	0.9929
b'CHR1:230921501:T'	b'M61SunitR2'	0	0.7805	0.0321	0.9929
b'CHR1:230921501:T'	b'M61SunitR3'	0	0.7318	0.0326	0.9929
b'CHR1:230921501:T'	b'M61SunitR4'	0	0.7546	0.0329	0.9929
b'CHR1:25243590:C'	b'M61SunitR1'	0	0.7110	0.0321	0.9673
b'CHR1:25243590:C'	b'M61SunitR2'	0	0.7805	0.0321	0.9673
b'CHR1:25243590:C'	b'M61SunitR3'	0	0.7318	0.0326	0.9673
b'CHR1:25243590:C'	b'M61SunitR4'	0	0.7546	0.0329	0.9673
b'CHR1:26344118:T'	b'M61SunitR1'	0	0.7110	0.0321	0.9757
b'CHR1:26344118:T'	b'M61SunitR2'	0	0.7805	0.0321	0.9757
b'CHR1:26344118:T'	b'M61SunitR3'	0	0.7318	0.0326	0.9757
b'CHR1:26344118:T'	b'M61SunitR4'	0	0.7546	0.0329	0.9757
b'CHR1:26952030:A'	b'M61SunitR1'	0	0.7110	0.0321	0.9842
b'CHR1:26952030:A'	b'M61SunitR2'	0	0.7805	0.0321	0.9842
b'CHR1:26952030:A'	b'M61SunitR3'	0	0.7318	0.0326	0.9842
b'CHR1:26952030:A'	b'M61SunitR4'	0	0.7546	0.0329	0.9842
b'CHR1:27360975:T'	b'M61SunitR1'	0	0.7110	0.0321	0.9923
b'CHR1:27360975:T'	b'M61SunitR2'	0	0.7805	0.0321	0.9923
b'CHR1:27360975:T'	b'M61SunitR3'	0	0.7318	0.0326	0.9923
b'CHR1:27360975:T'	b'M61SunitR4'	0	0.7546	0.0329	0.9923
b'CHR1:31630664:G'	b'M61SunitR1'	0	0.7110	0.0321	0.9935
b'CHR1:31630664:G'	b'M61SunitR2'	0	0.7805	0.0321	0.9935
b'CHR1:31630664:G'	b'M61SunitR3'	0	0.7318	0.0326	0.9935
b'CHR1:31630664:G'	b'M61SunitR4'	0	0.7546	0.0329	0.9935
b'CHR1:31698605:G'	b'M61SunitR1'	0	0.7110	0.0321	0.6698
b'CHR1:31698605:G'	b'M61SunitR2'	0	0.7805	0.0321	0.6698
b'CHR1:31698605:G'	b'M61SunitR3'	0	0.7318	0.0326	0.6698
b'CHR1:31698605:G'	b'M61SunitR4'	0	0.7546	0.0329	0.6698
b'CHR1:32770050:G'	b'M61SunitR1'	0	0.7110	0.0321	0.9998
b'CHR1:32770050:G'	b'M61SunitR2'	0	0.7805	0.0321	0.9998
b'CHR1:32770050:G'	b'M61SunitR3'	0	0.7318	0.0326	0.9998
b'CHR1:32770050:G'	b'M61SunitR4'	0	0.7546	0.0329	0.9998
b'CHR1:33494462:G'	b'M61SunitR1'	0	0.7110	0.0321	0.9999
b'CHR1:33494462:G'	b'M61SunitR2'	0	0.7805	0.0321	0.9999
b'CHR1:33494462:G'	b'M61SunitR3'	0	0.7318	0.0326	0.9999
b'CHR1:33494462:G'	b'M61SunitR4'	0	0.7546	0.0329	0.9999
b'CHR1:3478610:A'	b'M61SunitR1'	0	0.7110	0.0321	0.9961
b'CHR1:3478610:A'	b'M61SunitR2'	0	0.7805	0.0321	0.9961
b'CHR1:3478610:A'	b'M61SunitR3'	0	0.7318	0.0326	0.9961
b'CHR1:3478610:A'	b'M61SunitR4'	0	0.7546	0.0329	0.9961
b'CHR1:3763211:T'	b'M61SunitR1'	0	0.7110	0.0321	0.8000
b'CHR1:3763211:T'	b'M61SunitR2'	0	0.7805	0.0321	0.8000
b'CHR1:3763211:T'	b'M61SunitR3'	0	0.7318	0.0326	0.8000
b'CHR1:3763211:T'	b'M61SunitR4'	0	0.7546	0.0329	0.8000
b'CHR1:51840355:A'	b'M61SunitR1'	0	0.7110	0.0321	0.9964
b'CHR1:51840355:A'	b'M61SunitR2'	0	0.7805	0.0321	0.9964
b'CHR1:51840355:A'	b'M61SunitR3'	0	0.7318	0.0326	0.9964
b'CHR1:51840355:A'	b'M61SunitR4'	0	0.7546	0.0329	0.9964
b'CHR1:53247055:T'	b'M61SunitR1'	0	0.7110	0.0321	0.9996
b'CHR1:53247055:T'	b'M61SunitR2'	0	0.7805	0.0321	0.9996
b'CHR1:53247055:T'	b'M61SunitR3'	0	0.7318	0.0326	0.9996
b'CHR1:53247055:T'	b'M61SunitR4'	0	0.7546	0.0329	0.9996
b'CHR1:53250744:A'	b'M61SunitR1'	0	0.7110	0.0321	0.9982
b'CHR1:53250744:A'	b'M61SunitR2'	0	0.7805	0.0321	0.9982
b'CHR1:53250744:A'	b'M61SunitR3'	0	0.7318	0.0326	0.9982
b'CHR1:53250744:A'	b'M61SunitR4'	0	0.7546	0.0329	0.9982
b'CHR1:53594343:C'	b'M61SunitR1'	0	0.7110	0.0321	0.9882
b'CHR1:53594343:C'	b'M61SunitR2'	0	0.7805	0.0321	0.9882
b'CHR1:53594343:C'	b'M61SunitR3'	0	0.7318	0.0326	0.9882
b'CHR1:53594343:C'	b'M61SunitR4'	0	0.7546	0.0329	0.9882
b'CHR1:53594575:C'	b'M61SunitR1'	0	0.7110	0.0321	0.9922
b'CHR1:53594575:C'	b'M61SunitR2'	0	0.7805	0.0321	0.9922
b'CHR1:53594575:C'	b'M61SunitR3'	0	0.7318	0.0326	0.9922
b'CHR1:53594575:C'	b'M61SunitR4'	0	0.7546	0.0329	0.9922
b'CHR1:63323280:A'	b'M61SunitR1'	0	0.7110	0.0321	0.8922
b'CHR1:63323280:A'	b'M61SunitR2'	0	0.7805	0.0321	0.8922
b'CHR1:63323280:A'	b'M61SunitR3'	0	0.7318	0.0326	0.8922
b'CHR1:63323280:A'	b'M61SunitR4'	0	0.7546	0.0329	0.8922
b'CHR1:63415881:T'	b'M61SunitR1'	0	0.7110	0.0321	0.9819
b'CHR1:63415881:T'	b'M61SunitR2'	0	0.7805	0.0321	0.9819
b'CHR1:63415881:T'	b'M61SunitR3'	0	0.7318	0.0326	0.9819
b'CHR1:63415881:T'	b'M61SunitR4'	0	0.7546	0.0329	0.9819
b'CHR1:64844806:C'	b'M61SunitR1'	0	0.7110	0.0321	0.9848
b'CHR1:64844806:C'	b'M61SunitR2'	0	0.7805	0.0321	0.9848
b'CHR1:64844806:C'	b'M61SunitR3'	0	0.7318	0.0326	0.9848
b'CHR1:64844806:C'	b'M61SunitR4'	0	0.7546	0.0329	0.9848
b'CHR1:7827188:A'	b'M61SunitR1'	0	0.7110	0.0321	0.9987
b'CHR1:7827188:A'	b'M61SunitR2'	0	0.7805	0.0321	0.9987
b'CHR1:7827188:A'	b'M61SunitR3'	0	0.7318	0.0326	0.9987
b'CHR1:7827188:A'	b'M61SunitR4'	0	0.7546	0.0329	0.9987
b'CHR22:37066106:C'	b'M61SunitR1'	0	0.7110	0.0321	0.9196
b'CHR22:37066106:C'	b'M61SunitR2'	0	0.7805	0.0321	0.9196
b'CHR22:37066106:C'	b'M61SunitR3'	0	0.7318	0.0326	0.9196
b'CHR22:37066106:C'	b'M61SunitR4'	0	0.7546	0.0329	0.9196
b'CHR2:219451248:A'	b'M61SunitR1'	0	0.7110	0.0321	0.9943
b'CHR2:219451248:A'	b'M61SunitR2'	0	0.7805	0.0321	0.9943
b'CHR2:219451248:A'	b'M61SunitR3'	0	0.7318	0.0326	0.9943
b'CHR2:219451248:A'	b'M61SunitR4'	0	0.7546	0.0329	0.9943
b'CHR2:232564321:T'	b'M61SunitR1'	0	0.7110	0.0321	0.6945
b'CHR2:232564321:T'	b'M61SunitR2'	0	0.7805	0.0321	0.6945
b'CHR2:232564321:T'	b'M61SunitR3'	0	0.7318	0.0326	0.6945
b'CHR2:232564321:T'	b'M61SunitR4'	0	0.7546	0.0329	0.6945
b'CHR2:73291715:T'	b'M61SunitR1'	0	0.7110	0.0321	0.9583
b'CHR2:73291715:T'	b'M61SunitR2'	0	0.7805	0.0321	0.9583
b'CHR2:73291715:T'	b'M61SunitR3'	0	0.7318	0.0326	0.9583
b'CHR2:73291715:T'	b'M61SunitR4'	0	0.7546	0.0329	0.9583
b'CHR3:123092379:A'	b'M61SunitR1'	0	0.7110	0.0321	0.7116
b'CHR3:123092379:A'	b'M61SunitR2'	0	0.7805	0.0321	0.7116
b'CHR3:123092379:A'	b'M61SunitR3'	0	0.7318	0.0326	0.7116
b'CHR3:123092379:A'	b'M61SunitR4'	0	0.7546	0.0329	0.7116
b'CHR3:171082335:T'	b'M61SunitR1'	0	0.7110	0.0321	0.6799
b'CHR3:171082335:T'	b'M61SunitR2'	0	0.7805	0.0321	0.6799
b'CHR3:171082335:T'	b'M61SunitR3'	0	0.7318	0.0326	0.6799
b'CHR3:171082335:T'	b'M61SunitR4'	0	0.7546	0.0329	0.6799
b'CHR3:41800280:T'	b'M61SunitR1'	0	0.7110	0.0321	0.8169
b'CHR3:41800280:T'	b'M61SunitR2'	0	0.7805	0.0321	0.8169
b'CHR3:41800280:T'	b'M61SunitR3'	0	0.7318	0.0326	0.8169
b'CHR3:41800280:T'	b'M61SunitR4'	0	0.7546	0.0329	0.8169
b'CHR4:85942222:C'	b'M61SunitR1'	0	0.7110	0.0321	0.5561
b'CHR4:85942222:C'	b'M61SunitR2'	0	0.7805	0.0321	0.5561
b'CHR4:85942222:C'	b'M61SunitR3'	0	0.7318	0.0326	0.5561
b'CHR4:85942222:C'	b'M61SunitR4'	0	0.7546	0.0329	0.5561
b'CHR5:150540177:C'	b'M61SunitR1'	0	0.7110	0.0321	0.8907
b'CHR5:150540177:C'	b'M61SunitR2'	0	0.7805	0.0321	0.8907
b'CHR5:150540177:C'	b'M61SunitR3'	0	0.7318	0.0326	0.8907
b'CHR5:150540177:C'	b'M61SunitR4'	0	0.7546	0.0329	0.8907
b'CHR6:3154637:C'	b'M61SunitR1'	0	0.7110	0.0321	0.5691
b'CHR6:3154637:C'	b'M61SunitR2'	0	0.7805	0.0321	0.5691
b'CHR6:3154637:C'	b'M61SunitR3'	0	0.7318	0.0326	0.5691
b'CHR6:3154637:C'	b'M61SunitR4'	0	0.7546	0.0329	0.5691
b'CHR6:7577027:T'	b'M61SunitR1'	0	0.7110	0.0321	0.5453
b'CHR6:7577027:T'	b'M61SunitR2'	0	0.7805	0.0321	0.5453
b'CHR6:7577027:T'	b'M61SunitR3'	0	0.7318	0.0326	0.5453
b'CHR6:7577027:T'	b'M61SunitR4'	0	0.7546	0.0329	0.5453
b'CHR7:72942166:T'	b'M61SunitR1'	0	0.7110	0.0321	0.5275
b'CHR7:72942166:T'	b'M61SunitR2'	0	0.7805	0.0321	0.5275
b'CHR7:72942166:T'	b'M61SunitR3'	0	0.7318	0.0326	0.5275
b'CHR7:72942166:T'	b'M61SunitR4'	0	0.7546	0.0329	0.5275
b'CHR8:143925249:T'	b'M61SunitR1'	0	0.7110	0.0321	0.4023
b'CHR8:143925249:T'	b'M61SunitR2'	0	0.7805	0.0321	0.4023
b'CHR8:143925249:T'	b'M61SunitR3'	0	0.7318	0.0326	0.4023
b'CHR8:143925249:T'	b'M61SunitR4'	0	0.7546	0.0329	0.4023
b'CHR1:13421192:T'	b'M61SunitR1'	1	0.5037	0.0461	0.9233
b'CHR1:13421192:T'	b'M61SunitR2'	1	0.4926	0.0443	0.9233
b'CHR1:13421192:T'	b'M61SunitR3'	1	0.4829	0.0477	0.9233
b'CHR1:13421192:T'	b'M61SunitR4'	1	0.4702	0.0467	0.9233
b'CHR1:13773141:T'	b'M61SunitR1'	1	0.5037	0.0461	0.5260
b'CHR1:13773141:T'	b'M61SunitR2'	1	0.4926	0.0443	0.5260
b'CHR1:13773141:T'	b'M61SunitR3'	1	0.4829	0.0477	0.5260
b'CHR1:13773141:T'	b'M61SunitR4'	1	0.4702	0.0467	0.5260
b'CHR1:16759300:T'	b'M61SunitR1'	1	0.5037	0.0461	0.9926
b'CHR1:16759300:T'	b'M61SunitR2'	1	0.4926	0.0443	0.9926
b'CHR1:16759300:T'	b'M61SunitR3'	1	0.4829	0.0477	0.9926
b'CHR1:16759300:T'	b'M61SunitR4'	1	0.4702	0.0467	0.9926
b'CHR1:247423969:T'	b'M61SunitR1'	1	0.5037	0.0461	0.9917
b'CHR1:247423969:T'	b'M61SunitR2'	1	0.4926	0.0443	0.9917
b'CHR1:247423969:T'	b'M61SunitR3'	1	0.4829	0.0477	0.9917
b'CHR1:247423969:T'	b'M61SunitR4'	1	0.4702	0.0467	0.9917
b'CHR1:942934:C'	b'M61SunitR1'	1	0.5037	0.0461	0.9696
b'CHR1:942934:C'	b'M61SunitR2'	1	0.4926	0.0443	0.9696
b'CHR1:942934:C'	b'M61SunitR3'	1	0.4829	0.0477	0.9696
b'CHR1:942934:C'	b'M61SunitR4'	1	0.4702	0.0467	0.9696
b'CHR2:170847706:T'	b'M61SunitR1'	1	0.5037	0.0461	0.5169
b'CHR2:170847706:T'	b'M61SunitR2'	1	0.4926	0.0443	0.5169
b'CHR2:170847706:T'	b'M61SunitR3'	1	0.4829	0.0477	0.5169
b'CHR2:170847706:T'	b'M61SunitR4'	1	0.4702	0.0467	0.5169
b'CHR3:48447042:C'	b'M61SunitR1'	1	0.5037	0.0461	0.7740
b'CHR3:48447042:C'	b'M61SunitR2'	1	0.4926	0.0443	0.7740
b'CHR3:48447042:C'	b'M61SunitR3'	1	0.4829	0.0477	0.7740
b'CHR3:48447042:C'	b'M61SunitR4'	1	0.4702	0.0467	0.7740
b'CHR6:9775825:A'	b'M61SunitR1'	1	0.5037	0.0461	0.5619
b'CHR6:9775825:A'	b'M61SunitR2'	1	0.4926	0.0443	0.5619
b'CHR6:9775825:A'	b'M61SunitR3'	1	0.4829	0.0477	0.5619
b'CHR6:9775825:A'	b'M61SunitR4'	1	0.4702	0.0467	0.5619
b'CHR7:151066568:A'	b'M61SunitR1'	1	0.5037	0.0461	0.5541
b'CHR7:151066568:A'	b'M61SunitR2'	1	0.4926	0.0443	0.5541
b'CHR7:151066568:A'	b'M61SunitR3'	1	0.4829	0.0477	0.5541
b'CHR7:151066568:A'	b'M61SunitR4'	1	0.4702	0.0467	0.5541
b'CHR9:26928213:T'	b'M61SunitR1'	1	0.5037	0.0461	0.9895
b'CHR9:26928213:T'	b'M61SunitR2'	1	0.4926	0.0443	0.9895
b'CHR9:26928213:T'	b'M61SunitR3'	1	0.4829	0.0477	0.9895
b'CHR9:26928213:T'	b'M61SunitR4'	1	0.4702	0.0467	0.9895
b'CHR12:40481156:A'	b'M61SunitR1'	2	0.0751	0.0178	0.9996
b'CHR12:40481156:A'	b'M61SunitR2'	2	0.0701	0.0200	0.9996
b'CHR12:40481156:A'	b'M61SunitR3'	2	0.1620	0.0428	0.9996
b'CHR12:40481156:A'	b'M61SunitR4'	2	0.0867	0.0193	0.9996
b'CHR12:40481157:G'	b'M61SunitR1'	2	0.0751	0.0178	0.9995
b'CHR12:40481157:G'	b'M61SunitR2'	2	0.0701	0.0200	0.9995
b'CHR12:40481157:G'	b'M61SunitR3'	2	0.1620	0.0428	0.9995
b'CHR12:40481157:G'	b'M61SunitR4'	2	0.0867	0.0193	0.9995
b'CHR12:40482641:G'	b'M61SunitR1'	2	0.0751	0.0178	0.9917
b'CHR12:40482641:G'	b'M61SunitR2'	2	0.0701	0.0200	0.9917
b'CHR12:40482641:G'	b'M61SunitR3'	2	0.1620	0.0428	0.9917
b'CHR12:40482641:G'	b'M61SunitR4'	2	0.0867	0.0193	0.9917
b'CHR19:14765687:T'	b'M61SunitR1'	2	0.0751	0.0178	1.0000
b'CHR19:14765687:T'	b'M61SunitR2'	2	0.0701	0.0200	1.0000
b'CHR19:14765687:T'	b'M61SunitR3'	2	0.1620	0.0428	1.0000
b'CHR19:14765687:T'	b'M61SunitR4'	2	0.0867	0.0193	1.0000
b'CHR19:43081182:G'	b'M61SunitR1'	2	0.0751	0.0178	0.9398
b'CHR19:43081182:G'	b'M61SunitR2'	2	0.0701	0.0200	0.9398
b'CHR19:43081182:G'	b'M61SunitR3'	2	0.1620	0.0428	0.9398
b'CHR19:43081182:G'	b'M61SunitR4'	2	0.0867	0.0193	0.9398
b'CHR2:240682800:T'	b'M61SunitR1'	2	0.0751	0.0178	0.5232
b'CHR2:240682800:T'	b'M61SunitR2'	2	0.0701	0.0200	0.5232
b'CHR2:240682800:T'	b'M61SunitR3'	2	0.1620	0.0428	0.5232
b'CHR2:240682800:T'	b'M61SunitR4'	2	0.0867	0.0193	0.5232
b'CHR8:143871184:T'	b'M61SunitR1'	2	0.0751	0.0178	0.6095
b'CHR8:143871184:T'	b'M61SunitR2'	2	0.0701	0.0200	0.6095
b'CHR8:143871184:T'	b'M61SunitR3'	2	0.1620	0.0428	0.6095
b'CHR8:143871184:T'	b'M61SunitR4'	2	0.0867	0.0193	0.6095
b'CHR10:16928249:A'	b'M61SunitR1'	3	0.2270	0.0186	0.8440
b'CHR10:16928249:A'	b'M61SunitR2'	3	0.2136	0.0193	0.8440
b'CHR10:16928249:A'	b'M61SunitR3'	3	0.2472	0.0212	0.8440
b'CHR10:16928249:A'	b'M61SunitR4'	3	0.2148	0.0187	0.8440
b'CHR10:27994928:C'	b'M61SunitR1'	3	0.2270	0.0186	0.6019
b'CHR10:27994928:C'	b'M61SunitR2'	3	0.2136	0.0193	0.6019
b'CHR10:27994928:C'	b'M61SunitR3'	3	0.2472	0.0212	0.6019
b'CHR10:27994928:C'	b'M61SunitR4'	3	0.2148	0.0187	0.6019
b'CHR10:37153617:T'	b'M61SunitR1'	3	0.2270	0.0186	0.9378
b'CHR10:37153617:T'	b'M61SunitR2'	3	0.2136	0.0193	0.9378
b'CHR10:37153617:T'	b'M61SunitR3'	3	0.2472	0.0212	0.9378
b'CHR10:37153617:T'	b'M61SunitR4'	3	0.2148	0.0187	0.9378
b'CHR11:117917207:C'	b'M61SunitR1'	3	0.2270	0.0186	0.8547
b'CHR11:117917207:C'	b'M61SunitR2'	3	0.2136	0.0193	0.8547
b'CHR11:117917207:C'	b'M61SunitR3'	3	0.2472	0.0212	0.8547
b'CHR11:117917207:C'	b'M61SunitR4'	3	0.2148	0.0187	0.8547
b'CHR11:120128675:T'	b'M61SunitR1'	3	0.2270	0.0186	0.9990
b'CHR11:120128675:T'	b'M61SunitR2'	3	0.2136	0.0193	0.9990
b'CHR11:120128675:T'	b'M61SunitR3'	3	0.2472	0.0212	0.9990
b'CHR11:120128675:T'	b'M61SunitR4'	3	0.2148	0.0187	0.9990
b'CHR11:6002291:G'	b'M61SunitR1'	3	0.2270	0.0186	0.4824
b'CHR11:6002291:G'	b'M61SunitR2'	3	0.2136	0.0193	0.4824
b'CHR11:6002291:G'	b'M61SunitR3'	3	0.2472	0.0212	0.4824
b'CHR11:6002291:G'	b'M61SunitR4'	3	0.2148	0.0187	0.4824
b'CHR11:63904940:C'	b'M61SunitR1'	3	0.2270	0.0186	0.4235
b'CHR11:63904940:C'	b'M61SunitR2'	3	0.2136	0.0193	0.4235
b'CHR11:63904940:C'	b'M61SunitR3'	3	0.2472	0.0212	0.4235
b'CHR11:63904940:C'	b'M61SunitR4'	3	0.2148	0.0187	0.4235
b'CHR11:63904942:A'	b'M61SunitR1'	3	0.2270	0.0186	0.4235
b'CHR11:63904942:A'	b'M61SunitR2'	3	0.2136	0.0193	0.4235
b'CHR11:63904942:A'	b'M61SunitR3'	3	0.2472	0.0212	0.4235
b'CHR11:63904942:A'	b'M61SunitR4'	3	0.2148	0.0187	0.4235
b'CHR11:65778836:A'	b'M61SunitR1'	3	0.2270	0.0186	0.9606
b'CHR11:65778836:A'	b'M61SunitR2'	3	0.2136	0.0193	0.9606
b'CHR11:65778836:A'	b'M61SunitR3'	3	0.2472	0.0212	0.9606
b'CHR11:65778836:A'	b'M61SunitR4'	3	0.2148	0.0187	0.9606
b'CHR11:73975073:A'	b'M61SunitR1'	3	0.2270	0.0186	0.9393
b'CHR11:73975073:A'	b'M61SunitR2'	3	0.2136	0.0193	0.9393
b'CHR11:73975073:A'	b'M61SunitR3'	3	0.2472	0.0212	0.9393
b'CHR11:73975073:A'	b'M61SunitR4'	3	0.2148	0.0187	0.9393
b'CHR12:108518570:T'	b'M61SunitR1'	3	0.2270	0.0186	0.7995
b'CHR12:108518570:T'	b'M61SunitR2'	3	0.2136	0.0193	0.7995
b'CHR12:108518570:T'	b'M61SunitR3'	3	0.2472	0.0212	0.7995
b'CHR12:108518570:T'	b'M61SunitR4'	3	0.2148	0.0187	0.7995
b'CHR12:25144543:A'	b'M61SunitR1'	3	0.2270	0.0186	0.7965
b'CHR12:25144543:A'	b'M61SunitR2'	3	0.2136	0.0193	0.7965
b'CHR12:25144543:A'	b'M61SunitR3'	3	0.2472	0.0212	0.7965
b'CHR12:25144543:A'	b'M61SunitR4'	3	0.2148	0.0187	0.7965
b'CHR12:51699632:A'	b'M61SunitR1'	3	0.2270	0.0186	0.6300
b'CHR12:51699632:A'	b'M61SunitR2'	3	0.2136	0.0193	0.6300
b'CHR12:51699632:A'	b'M61SunitR3'	3	0.2472	0.0212	0.6300
b'CHR12:51699632:A'	b'M61SunitR4'	3	0.2148	0.0187	0.6300
b'CHR12:55027042:G'	b'M61SunitR1'	3	0.2270	0.0186	0.8818
b'CHR12:55027042:G'	b'M61SunitR2'	3	0.2136	0.0193	0.8818
b'CHR12:55027042:G'	b'M61SunitR3'	3	0.2472	0.0212	0.8818
b'CHR12:55027042:G'	b'M61SunitR4'	3	0.2148	0.0187	0.8818
b'CHR12:56267413:A'	b'M61SunitR1'	3	0.2270	0.0186	0.9771
b'CHR12:56267413:A'	b'M61SunitR2'	3	0.2136	0.0193	0.9771
b'CHR12:56267413:A'	b'M61SunitR3'	3	0.2472	0.0212	0.9771
b'CHR12:56267413:A'	b'M61SunitR4'	3	0.2148	0.0187	0.9771
b'CHR12:57629873:G'	b'M61SunitR1'	3	0.2270	0.0186	0.9297
b'CHR12:57629873:G'	b'M61SunitR2'	3	0.2136	0.0193	0.9297
b'CHR12:57629873:G'	b'M61SunitR3'	3	0.2472	0.0212	0.9297
b'CHR12:57629873:G'	b'M61SunitR4'	3	0.2148	0.0187	0.9297
b'CHR12:85046079:A'	b'M61SunitR1'	3	0.2270	0.0186	0.8416
b'CHR12:85046079:A'	b'M61SunitR2'	3	0.2136	0.0193	0.8416
b'CHR12:85046079:A'	b'M61SunitR3'	3	0.2472	0.0212	0.8416
b'CHR12:85046079:A'	b'M61SunitR4'	3	0.2148	0.0187	0.8416
b'CHR14:36725655:A'	b'M61SunitR1'	3	0.2270	0.0186	0.7785
b'CHR14:36725655:A'	b'M61SunitR2'	3	0.2136	0.0193	0.7785
b'CHR14:36725655:A'	b'M61SunitR3'	3	0.2472	0.0212	0.7785
b'CHR14:36725655:A'	b'M61SunitR4'	3	0.2148	0.0187	0.7785
b'CHR14:90647022:A'	b'M61SunitR1'	3	0.2270	0.0186	0.8833
b'CHR14:90647022:A'	b'M61SunitR2'	3	0.2136	0.0193	0.8833
b'CHR14:90647022:A'	b'M61SunitR3'	3	0.2472	0.0212	0.8833
b'CHR14:90647022:A'	b'M61SunitR4'	3	0.2148	0.0187	0.8833
b'CHR15:23566598:A'	b'M61SunitR1'	3	0.2270	0.0186	0.9956
b'CHR15:23566598:A'	b'M61SunitR2'	3	0.2136	0.0193	0.9956
b'CHR15:23566598:A'	b'M61SunitR3'	3	0.2472	0.0212	0.9956
b'CHR15:23566598:A'	b'M61SunitR4'	3	0.2148	0.0187	0.9956
b'CHR15:33826673:A'	b'M61SunitR1'	3	0.2270	0.0186	0.6444
b'CHR15:33826673:A'	b'M61SunitR2'	3	0.2136	0.0193	0.6444
b'CHR15:33826673:A'	b'M61SunitR3'	3	0.2472	0.0212	0.6444
b'CHR15:33826673:A'	b'M61SunitR4'	3	0.2148	0.0187	0.6444
b'CHR15:41572531:T'	b'M61SunitR1'	3	0.2270	0.0186	0.8723
b'CHR15:41572531:T'	b'M61SunitR2'	3	0.2136	0.0193	0.8723
b'CHR15:41572531:T'	b'M61SunitR3'	3	0.2472	0.0212	0.8723
b'CHR15:41572531:T'	b'M61SunitR4'	3	0.2148	0.0187	0.8723
b'CHR16:30112195:A'	b'M61SunitR1'	3	0.2270	0.0186	0.7383
b'CHR16:30112195:A'	b'M61SunitR2'	3	0.2136	0.0193	0.7383
b'CHR16:30112195:A'	b'M61SunitR3'	3	0.2472	0.0212	0.7383
b'CHR16:30112195:A'	b'M61SunitR4'	3	0.2148	0.0187	0.7383
b'CHR16:49377795:G'	b'M61SunitR1'	3	0.2270	0.0186	0.8016
b'CHR16:49377795:G'	b'M61SunitR2'	3	0.2136	0.0193	0.8016
b'CHR16:49377795:G'	b'M61SunitR3'	3	0.2472	0.0212	0.8016
b'CHR16:49377795:G'	b'M61SunitR4'	3	0.2148	0.0187	0.8016
b'CHR16:68678621:C'	b'M61SunitR1'	3	0.2270	0.0186	0.8805
b'CHR16:68678621:C'	b'M61SunitR2'	3	0.2136	0.0193	0.8805
b'CHR16:68678621:C'	b'M61SunitR3'	3	0.2472	0.0212	0.8805
b'CHR16:68678621:C'	b'M61SunitR4'	3	0.2148	0.0187	0.8805
b'CHR16:84295081:T'	b'M61SunitR1'	3	0.2270	0.0186	0.7816
b'CHR16:84295081:T'	b'M61SunitR2'	3	0.2136	0.0193	0.7816
b'CHR16:84295081:T'	b'M61SunitR3'	3	0.2472	0.0212	0.7816
b'CHR16:84295081:T'	b'M61SunitR4'	3	0.2148	0.0187	0.7816
b'CHR16:87904819:T'	b'M61SunitR1'	3	0.2270	0.0186	0.6177
b'CHR16:87904819:T'	b'M61SunitR2'	3	0.2136	0.0193	0.6177
b'CHR16:87904819:T'	b'M61SunitR3'	3	0.2472	0.0212	0.6177
b'CHR16:87904819:T'	b'M61SunitR4'	3	0.2148	0.0187	0.6177
b'CHR17:10511933:A'	b'M61SunitR1'	3	0.2270	0.0186	0.7418
b'CHR17:10511933:A'	b'M61SunitR2'	3	0.2136	0.0193	0.7418
b'CHR17:10511933:A'	b'M61SunitR3'	3	0.2472	0.0212	0.7418
b'CHR17:10511933:A'	b'M61SunitR4'	3	0.2148	0.0187	0.7418
b'CHR17:10539354:G'	b'M61SunitR1'	3	0.2270	0.0186	0.8061
b'CHR17:10539354:G'	b'M61SunitR2'	3	0.2136	0.0193	0.8061
b'CHR17:10539354:G'	b'M61SunitR3'	3	0.2472	0.0212	0.8061
b'CHR17:10539354:G'	b'M61SunitR4'	3	0.2148	0.0187	0.8061
b'CHR17:20204775:G'	b'M61SunitR1'	3	0.2270	0.0186	0.8858
b'CHR17:20204775:G'	b'M61SunitR2'	3	0.2136	0.0193	0.8858
b'CHR17:20204775:G'	b'M61SunitR3'	3	0.2472	0.0212	0.8858
b'CHR17:20204775:G'	b'M61SunitR4'	3	0.2148	0.0187	0.8858
b'CHR17:28388461:T'	b'M61SunitR1'	3	0.2270	0.0186	0.8193
b'CHR17:28388461:T'	b'M61SunitR2'	3	0.2136	0.0193	0.8193
b'CHR17:28388461:T'	b'M61SunitR3'	3	0.2472	0.0212	0.8193
b'CHR17:28388461:T'	b'M61SunitR4'	3	0.2148	0.0187	0.8193
b'CHR17:58280636:A'	b'M61SunitR1'	3	0.2270	0.0186	0.8050
b'CHR17:58280636:A'	b'M61SunitR2'	3	0.2136	0.0193	0.8050
b'CHR17:58280636:A'	b'M61SunitR3'	3	0.2472	0.0212	0.8050
b'CHR17:58280636:A'	b'M61SunitR4'	3	0.2148	0.0187	0.8050
b'CHR17:61884998:G'	b'M61SunitR1'	3	0.2270	0.0186	0.8684
b'CHR17:61884998:G'	b'M61SunitR2'	3	0.2136	0.0193	0.8684
b'CHR17:61884998:G'	b'M61SunitR3'	3	0.2472	0.0212	0.8684
b'CHR17:61884998:G'	b'M61SunitR4'	3	0.2148	0.0187	0.8684
b'CHR17:63931346:T'	b'M61SunitR1'	3	0.2270	0.0186	0.5924
b'CHR17:63931346:T'	b'M61SunitR2'	3	0.2136	0.0193	0.5924
b'CHR17:63931346:T'	b'M61SunitR3'	3	0.2472	0.0212	0.5924
b'CHR17:63931346:T'	b'M61SunitR4'	3	0.2148	0.0187	0.5924
b'CHR17:80213874:A'	b'M61SunitR1'	3	0.2270	0.0186	0.8701
b'CHR17:80213874:A'	b'M61SunitR2'	3	0.2136	0.0193	0.8701
b'CHR17:80213874:A'	b'M61SunitR3'	3	0.2472	0.0212	0.8701
b'CHR17:80213874:A'	b'M61SunitR4'	3	0.2148	0.0187	0.8701
b'CHR17:81937211:G'	b'M61SunitR1'	3	0.2270	0.0186	0.5013
b'CHR17:81937211:G'	b'M61SunitR2'	3	0.2136	0.0193	0.5013
b'CHR17:81937211:G'	b'M61SunitR3'	3	0.2472	0.0212	0.5013
b'CHR17:81937211:G'	b'M61SunitR4'	3	0.2148	0.0187	0.5013
b'CHR19:1495334:T'	b'M61SunitR1'	3	0.2270	0.0186	0.8987
b'CHR19:1495334:T'	b'M61SunitR2'	3	0.2136	0.0193	0.8987
b'CHR19:1495334:T'	b'M61SunitR3'	3	0.2472	0.0212	0.8987
b'CHR19:1495334:T'	b'M61SunitR4'	3	0.2148	0.0187	0.8987
b'CHR19:18870062:C'	b'M61SunitR1'	3	0.2270	0.0186	0.9131
b'CHR19:18870062:C'	b'M61SunitR2'	3	0.2136	0.0193	0.9131
b'CHR19:18870062:C'	b'M61SunitR3'	3	0.2472	0.0212	0.9131
b'CHR19:18870062:C'	b'M61SunitR4'	3	0.2148	0.0187	0.9131
b'CHR19:20545051:T'	b'M61SunitR1'	3	0.2270	0.0186	0.8284
b'CHR19:20545051:T'	b'M61SunitR2'	3	0.2136	0.0193	0.8284
b'CHR19:20545051:T'	b'M61SunitR3'	3	0.2472	0.0212	0.8284
b'CHR19:20545051:T'	b'M61SunitR4'	3	0.2148	0.0187	0.8284
b'CHR19:36915827:T'	b'M61SunitR1'	3	0.2270	0.0186	0.9983
b'CHR19:36915827:T'	b'M61SunitR2'	3	0.2136	0.0193	0.9983
b'CHR19:36915827:T'	b'M61SunitR3'	3	0.2472	0.0212	0.9983
b'CHR19:36915827:T'	b'M61SunitR4'	3	0.2148	0.0187	0.9983
b'CHR19:45591702:A'	b'M61SunitR1'	3	0.2270	0.0186	0.8792
b'CHR19:45591702:A'	b'M61SunitR2'	3	0.2136	0.0193	0.8792
b'CHR19:45591702:A'	b'M61SunitR3'	3	0.2472	0.0212	0.8792
b'CHR19:45591702:A'	b'M61SunitR4'	3	0.2148	0.0187	0.8792
b'CHR19:47042860:A'	b'M61SunitR1'	3	0.2270	0.0186	0.8792
b'CHR19:47042860:A'	b'M61SunitR2'	3	0.2136	0.0193	0.8792
b'CHR19:47042860:A'	b'M61SunitR3'	3	0.2472	0.0212	0.8792
b'CHR19:47042860:A'	b'M61SunitR4'	3	0.2148	0.0187	0.8792
b'CHR19:4714132:A'	b'M61SunitR1'	3	0.2270	0.0186	0.8660
b'CHR19:4714132:A'	b'M61SunitR2'	3	0.2136	0.0193	0.8660
b'CHR19:4714132:A'	b'M61SunitR3'	3	0.2472	0.0212	0.8660
b'CHR19:4714132:A'	b'M61SunitR4'	3	0.2148	0.0187	0.8660
b'CHR19:52705931:T'	b'M61SunitR1'	3	0.2270	0.0186	0.9619
b'CHR19:52705931:T'	b'M61SunitR2'	3	0.2136	0.0193	0.9619
b'CHR19:52705931:T'	b'M61SunitR3'	3	0.2472	0.0212	0.9619
b'CHR19:52705931:T'	b'M61SunitR4'	3	0.2148	0.0187	0.9619
b'CHR1:1046687:A'	b'M61SunitR1'	3	0.2270	0.0186	0.9783
b'CHR1:1046687:A'	b'M61SunitR2'	3	0.2136	0.0193	0.9783
b'CHR1:1046687:A'	b'M61SunitR3'	3	0.2472	0.0212	0.9783
b'CHR1:1046687:A'	b'M61SunitR4'	3	0.2148	0.0187	0.9783
b'CHR1:108718880:A'	b'M61SunitR1'	3	0.2270	0.0186	0.9373
b'CHR1:108718880:A'	b'M61SunitR2'	3	0.2136	0.0193	0.9373
b'CHR1:108718880:A'	b'M61SunitR3'	3	0.2472	0.0212	0.9373
b'CHR1:108718880:A'	b'M61SunitR4'	3	0.2148	0.0187	0.9373
b'CHR1:113981341:T'	b'M61SunitR1'	3	0.2270	0.0186	0.9686
b'CHR1:113981341:T'	b'M61SunitR2'	3	0.2136	0.0193	0.9686
b'CHR1:113981341:T'	b'M61SunitR3'	3	0.2472	0.0212	0.9686
b'CHR1:113981341:T'	b'M61SunitR4'	3	0.2148	0.0187	0.9686
b'CHR1:1495915:C'	b'M61SunitR1'	3	0.2270	0.0186	0.8472
b'CHR1:1495915:C'	b'M61SunitR2'	3	0.2136	0.0193	0.8472
b'CHR1:1495915:C'	b'M61SunitR3'	3	0.2472	0.0212	0.8472
b'CHR1:1495915:C'	b'M61SunitR4'	3	0.2148	0.0187	0.8472
b'CHR1:152812643:C'	b'M61SunitR1'	3	0.2270	0.0186	0.8986
b'CHR1:152812643:C'	b'M61SunitR2'	3	0.2136	0.0193	0.8986
b'CHR1:152812643:C'	b'M61SunitR3'	3	0.2472	0.0212	0.8986
b'CHR1:152812643:C'	b'M61SunitR4'	3	0.2148	0.0187	0.8986
b'CHR1:157586429:T'	b'M61SunitR1'	3	0.2270	0.0186	0.9508
b'CHR1:157586429:T'	b'M61SunitR2'	3	0.2136	0.0193	0.9508
b'CHR1:157586429:T'	b'M61SunitR3'	3	0.2472	0.0212	0.9508
b'CHR1:157586429:T'	b'M61SunitR4'	3	0.2148	0.0187	0.9508
b'CHR1:236571361:A'	b'M61SunitR1'	3	0.2270	0.0186	0.6425
b'CHR1:236571361:A'	b'M61SunitR2'	3	0.2136	0.0193	0.6425
b'CHR1:236571361:A'	b'M61SunitR3'	3	0.2472	0.0212	0.6425
b'CHR1:236571361:A'	b'M61SunitR4'	3	0.2148	0.0187	0.6425
b'CHR1:248273507:A'	b'M61SunitR1'	3	0.2270	0.0186	0.6425
b'CHR1:248273507:A'	b'M61SunitR2'	3	0.2136	0.0193	0.6425
b'CHR1:248273507:A'	b'M61SunitR3'	3	0.2472	0.0212	0.6425
b'CHR1:248273507:A'	b'M61SunitR4'	3	0.2148	0.0187	0.6425
b'CHR1:248273509:C'	b'M61SunitR1'	3	0.2270	0.0186	0.6425
b'CHR1:248273509:C'	b'M61SunitR2'	3	0.2136	0.0193	0.6425
b'CHR1:248273509:C'	b'M61SunitR3'	3	0.2472	0.0212	0.6425
b'CHR1:248273509:C'	b'M61SunitR4'	3	0.2148	0.0187	0.6425
b'CHR1:41037530:G'	b'M61SunitR1'	3	0.2270	0.0186	0.5960
b'CHR1:41037530:G'	b'M61SunitR2'	3	0.2136	0.0193	0.5960
b'CHR1:41037530:G'	b'M61SunitR3'	3	0.2472	0.0212	0.5960
b'CHR1:41037530:G'	b'M61SunitR4'	3	0.2148	0.0187	0.5960
b'CHR1:44805530:A'	b'M61SunitR1'	3	0.2270	0.0186	0.8460
b'CHR1:44805530:A'	b'M61SunitR2'	3	0.2136	0.0193	0.8460
b'CHR1:44805530:A'	b'M61SunitR3'	3	0.2472	0.0212	0.8460
b'CHR1:44805530:A'	b'M61SunitR4'	3	0.2148	0.0187	0.8460
b'CHR1:52642989:A'	b'M61SunitR1'	3	0.2270	0.0186	0.7535
b'CHR1:52642989:A'	b'M61SunitR2'	3	0.2136	0.0193	0.7535
b'CHR1:52642989:A'	b'M61SunitR3'	3	0.2472	0.0212	0.7535
b'CHR1:52642989:A'	b'M61SunitR4'	3	0.2148	0.0187	0.7535
b'CHR1:52988103:T'	b'M61SunitR1'	3	0.2270	0.0186	0.7975
b'CHR1:52988103:T'	b'M61SunitR2'	3	0.2136	0.0193	0.7975
b'CHR1:52988103:T'	b'M61SunitR3'	3	0.2472	0.0212	0.7975
b'CHR1:52988103:T'	b'M61SunitR4'	3	0.2148	0.0187	0.7975
b'CHR1:8957259:A'	b'M61SunitR1'	3	0.2270	0.0186	0.9873
b'CHR1:8957259:A'	b'M61SunitR2'	3	0.2136	0.0193	0.9873
b'CHR1:8957259:A'	b'M61SunitR3'	3	0.2472	0.0212	0.9873
b'CHR1:8957259:A'	b'M61SunitR4'	3	0.2148	0.0187	0.9873
b'CHR20:21328621:A'	b'M61SunitR1'	3	0.2270	0.0186	0.7734
b'CHR20:21328621:A'	b'M61SunitR2'	3	0.2136	0.0193	0.7734
b'CHR20:21328621:A'	b'M61SunitR3'	3	0.2472	0.0212	0.7734
b'CHR20:21328621:A'	b'M61SunitR4'	3	0.2148	0.0187	0.7734
b'CHR20:35490750:T'	b'M61SunitR1'	3	0.2270	0.0186	0.8349
b'CHR20:35490750:T'	b'M61SunitR2'	3	0.2136	0.0193	0.8349
b'CHR20:35490750:T'	b'M61SunitR3'	3	0.2472	0.0212	0.8349
b'CHR20:35490750:T'	b'M61SunitR4'	3	0.2148	0.0187	0.8349
b'CHR20:35503815:A'	b'M61SunitR1'	3	0.2270	0.0186	0.6899
b'CHR20:35503815:A'	b'M61SunitR2'	3	0.2136	0.0193	0.6899
b'CHR20:35503815:A'	b'M61SunitR3'	3	0.2472	0.0212	0.6899
b'CHR20:35503815:A'	b'M61SunitR4'	3	0.2148	0.0187	0.6899
b'CHR20:44750813:C'	b'M61SunitR1'	3	0.2270	0.0186	0.9477
b'CHR20:44750813:C'	b'M61SunitR2'	3	0.2136	0.0193	0.9477
b'CHR20:44750813:C'	b'M61SunitR3'	3	0.2472	0.0212	0.9477
b'CHR20:44750813:C'	b'M61SunitR4'	3	0.2148	0.0187	0.9477
b'CHR20:44960130:A'	b'M61SunitR1'	3	0.2270	0.0186	0.5475
b'CHR20:44960130:A'	b'M61SunitR2'	3	0.2136	0.0193	0.5475
b'CHR20:44960130:A'	b'M61SunitR3'	3	0.2472	0.0212	0.5475
b'CHR20:44960130:A'	b'M61SunitR4'	3	0.2148	0.0187	0.5475
b'CHR20:46726177:C'	b'M61SunitR1'	3	0.2270	0.0186	0.8534
b'CHR20:46726177:C'	b'M61SunitR2'	3	0.2136	0.0193	0.8534
b'CHR20:46726177:C'	b'M61SunitR3'	3	0.2472	0.0212	0.8534
b'CHR20:46726177:C'	b'M61SunitR4'	3	0.2148	0.0187	0.8534
b'CHR20:63563293:T'	b'M61SunitR1'	3	0.2270	0.0186	0.7895
b'CHR20:63563293:T'	b'M61SunitR2'	3	0.2136	0.0193	0.7895
b'CHR20:63563293:T'	b'M61SunitR3'	3	0.2472	0.0212	0.7895
b'CHR20:63563293:T'	b'M61SunitR4'	3	0.2148	0.0187	0.7895
b'CHR2:107859472:T'	b'M61SunitR1'	3	0.2270	0.0186	0.9001
b'CHR2:107859472:T'	b'M61SunitR2'	3	0.2136	0.0193	0.9001
b'CHR2:107859472:T'	b'M61SunitR3'	3	0.2472	0.0212	0.9001
b'CHR2:107859472:T'	b'M61SunitR4'	3	0.2148	0.0187	0.9001
b'CHR2:124865392:A'	b'M61SunitR1'	3	0.2270	0.0186	0.7134
b'CHR2:124865392:A'	b'M61SunitR2'	3	0.2136	0.0193	0.7134
b'CHR2:124865392:A'	b'M61SunitR3'	3	0.2472	0.0212	0.7134
b'CHR2:124865392:A'	b'M61SunitR4'	3	0.2148	0.0187	0.7134
b'CHR2:156549720:T'	b'M61SunitR1'	3	0.2270	0.0186	0.9886
b'CHR2:156549720:T'	b'M61SunitR2'	3	0.2136	0.0193	0.9886
b'CHR2:156549720:T'	b'M61SunitR3'	3	0.2472	0.0212	0.9886
b'CHR2:156549720:T'	b'M61SunitR4'	3	0.2148	0.0187	0.9886
b'CHR2:201493458:A'	b'M61SunitR1'	3	0.2270	0.0186	0.5384
b'CHR2:201493458:A'	b'M61SunitR2'	3	0.2136	0.0193	0.5384
b'CHR2:201493458:A'	b'M61SunitR3'	3	0.2472	0.0212	0.5384
b'CHR2:201493458:A'	b'M61SunitR4'	3	0.2148	0.0187	0.5384
b'CHR2:218474766:G'	b'M61SunitR1'	3	0.2270	0.0186	0.7888
b'CHR2:218474766:G'	b'M61SunitR2'	3	0.2136	0.0193	0.7888
b'CHR2:218474766:G'	b'M61SunitR3'	3	0.2472	0.0212	0.7888
b'CHR2:218474766:G'	b'M61SunitR4'	3	0.2148	0.0187	0.7888
b'CHR2:232381539:G'	b'M61SunitR1'	3	0.2270	0.0186	0.5457
b'CHR2:232381539:G'	b'M61SunitR2'	3	0.2136	0.0193	0.5457
b'CHR2:232381539:G'	b'M61SunitR3'	3	0.2472	0.0212	0.5457
b'CHR2:232381539:G'	b'M61SunitR4'	3	0.2148	0.0187	0.5457
b'CHR2:71364013:T'	b'M61SunitR1'	3	0.2270	0.0186	0.8660
b'CHR2:71364013:T'	b'M61SunitR2'	3	0.2136	0.0193	0.8660
b'CHR2:71364013:T'	b'M61SunitR3'	3	0.2472	0.0212	0.8660
b'CHR2:71364013:T'	b'M61SunitR4'	3	0.2148	0.0187	0.8660
b'CHR2:85663826:A'	b'M61SunitR1'	3	0.2270	0.0186	0.8792
b'CHR2:85663826:A'	b'M61SunitR2'	3	0.2136	0.0193	0.8792
b'CHR2:85663826:A'	b'M61SunitR3'	3	0.2472	0.0212	0.8792
b'CHR2:85663826:A'	b'M61SunitR4'	3	0.2148	0.0187	0.8792
b'CHR3:184243814:A'	b'M61SunitR1'	3	0.2270	0.0186	0.8067
b'CHR3:184243814:A'	b'M61SunitR2'	3	0.2136	0.0193	0.8067
b'CHR3:184243814:A'	b'M61SunitR3'	3	0.2472	0.0212	0.8067
b'CHR3:184243814:A'	b'M61SunitR4'	3	0.2148	0.0187	0.8067
b'CHR3:48656801:A'	b'M61SunitR1'	3	0.2270	0.0186	0.6076
b'CHR3:48656801:A'	b'M61SunitR2'	3	0.2136	0.0193	0.6076
b'CHR3:48656801:A'	b'M61SunitR3'	3	0.2472	0.0212	0.6076
b'CHR3:48656801:A'	b'M61SunitR4'	3	0.2148	0.0187	0.6076
b'CHR3:50320148:G'	b'M61SunitR1'	3	0.2270	0.0186	0.9015
b'CHR3:50320148:G'	b'M61SunitR2'	3	0.2136	0.0193	0.9015
b'CHR3:50320148:G'	b'M61SunitR3'	3	0.2472	0.0212	0.9015
b'CHR3:50320148:G'	b'M61SunitR4'	3	0.2148	0.0187	0.9015
b'CHR3:55073793:A'	b'M61SunitR1'	3	0.2270	0.0186	0.9149
b'CHR3:55073793:A'	b'M61SunitR2'	3	0.2136	0.0193	0.9149
b'CHR3:55073793:A'	b'M61SunitR3'	3	0.2472	0.0212	0.9149
b'CHR3:55073793:A'	b'M61SunitR4'	3	0.2148	0.0187	0.9149
b'CHR3:78600261:T'	b'M61SunitR1'	3	0.2270	0.0186	0.9413
b'CHR3:78600261:T'	b'M61SunitR2'	3	0.2136	0.0193	0.9413
b'CHR3:78600261:T'	b'M61SunitR3'	3	0.2472	0.0212	0.9413
b'CHR3:78600261:T'	b'M61SunitR4'	3	0.2148	0.0187	0.9413
b'CHR3:9950005:A'	b'M61SunitR1'	3	0.2270	0.0186	0.9999
b'CHR3:9950005:A'	b'M61SunitR2'	3	0.2136	0.0193	0.9999
b'CHR3:9950005:A'	b'M61SunitR3'	3	0.2472	0.0212	0.9999
b'CHR3:9950005:A'	b'M61SunitR4'	3	0.2148	0.0187	0.9999
b'CHR4:125317234:A'	b'M61SunitR1'	3	0.2270	0.0186	0.9991
b'CHR4:125317234:A'	b'M61SunitR2'	3	0.2136	0.0193	0.9991
b'CHR4:125317234:A'	b'M61SunitR3'	3	0.2472	0.0212	0.9991
b'CHR4:125317234:A'	b'M61SunitR4'	3	0.2148	0.0187	0.9991
b'CHR4:147673062:T'	b'M61SunitR1'	3	0.2270	0.0186	0.6317
b'CHR4:147673062:T'	b'M61SunitR2'	3	0.2136	0.0193	0.6317
b'CHR4:147673062:T'	b'M61SunitR3'	3	0.2472	0.0212	0.6317
b'CHR4:147673062:T'	b'M61SunitR4'	3	0.2148	0.0187	0.6317
b'CHR4:185656724:G'	b'M61SunitR1'	3	0.2270	0.0186	0.7715
b'CHR4:185656724:G'	b'M61SunitR2'	3	0.2136	0.0193	0.7715
b'CHR4:185656724:G'	b'M61SunitR3'	3	0.2472	0.0212	0.7715
b'CHR4:185656724:G'	b'M61SunitR4'	3	0.2148	0.0187	0.7715
b'CHR4:186663325:A'	b'M61SunitR1'	3	0.2270	0.0186	0.7330
b'CHR4:186663325:A'	b'M61SunitR2'	3	0.2136	0.0193	0.7330
b'CHR4:186663325:A'	b'M61SunitR3'	3	0.2472	0.0212	0.7330
b'CHR4:186663325:A'	b'M61SunitR4'	3	0.2148	0.0187	0.7330
b'CHR5:139682878:T'	b'M61SunitR1'	3	0.2270	0.0186	0.4786
b'CHR5:139682878:T'	b'M61SunitR2'	3	0.2136	0.0193	0.4786
b'CHR5:139682878:T'	b'M61SunitR3'	3	0.2472	0.0212	0.4786
b'CHR5:139682878:T'	b'M61SunitR4'	3	0.2148	0.0187	0.4786
b'CHR5:139682880:A'	b'M61SunitR1'	3	0.2270	0.0186	0.4786
b'CHR5:139682880:A'	b'M61SunitR2'	3	0.2136	0.0193	0.4786
b'CHR5:139682880:A'	b'M61SunitR3'	3	0.2472	0.0212	0.4786
b'CHR5:139682880:A'	b'M61SunitR4'	3	0.2148	0.0187	0.4786
b'CHR5:141123573:T'	b'M61SunitR1'	3	0.2270	0.0186	0.9506
b'CHR5:141123573:T'	b'M61SunitR2'	3	0.2136	0.0193	0.9506
b'CHR5:141123573:T'	b'M61SunitR3'	3	0.2472	0.0212	0.9506
b'CHR5:141123573:T'	b'M61SunitR4'	3	0.2148	0.0187	0.9506
b'CHR5:141394009:T'	b'M61SunitR1'	3	0.2270	0.0186	0.9372
b'CHR5:141394009:T'	b'M61SunitR2'	3	0.2136	0.0193	0.9372
b'CHR5:141394009:T'	b'M61SunitR3'	3	0.2472	0.0212	0.9372
b'CHR5:141394009:T'	b'M61SunitR4'	3	0.2148	0.0187	0.9372
b'CHR5:157651252:C'	b'M61SunitR1'	3	0.2270	0.0186	0.8498
b'CHR5:157651252:C'	b'M61SunitR2'	3	0.2136	0.0193	0.8498
b'CHR5:157651252:C'	b'M61SunitR3'	3	0.2472	0.0212	0.8498
b'CHR5:157651252:C'	b'M61SunitR4'	3	0.2148	0.0187	0.8498
b'CHR5:168669936:A'	b'M61SunitR1'	3	0.2270	0.0186	0.8303
b'CHR5:168669936:A'	b'M61SunitR2'	3	0.2136	0.0193	0.8303
b'CHR5:168669936:A'	b'M61SunitR3'	3	0.2472	0.0212	0.8303
b'CHR5:168669936:A'	b'M61SunitR4'	3	0.2148	0.0187	0.8303
b'CHR5:74634923:T'	b'M61SunitR1'	3	0.2270	0.0186	0.8928
b'CHR5:74634923:T'	b'M61SunitR2'	3	0.2136	0.0193	0.8928
b'CHR5:74634923:T'	b'M61SunitR3'	3	0.2472	0.0212	0.8928
b'CHR5:74634923:T'	b'M61SunitR4'	3	0.2148	0.0187	0.8928
b'CHR6:10687513:T'	b'M61SunitR1'	3	0.2270	0.0186	0.9991
b'CHR6:10687513:T'	b'M61SunitR2'	3	0.2136	0.0193	0.9991
b'CHR6:10687513:T'	b'M61SunitR3'	3	0.2472	0.0212	0.9991
b'CHR6:10687513:T'	b'M61SunitR4'	3	0.2148	0.0187	0.9991
b'CHR6:11193627:A'	b'M61SunitR1'	3	0.2270	0.0186	0.9996
b'CHR6:11193627:A'	b'M61SunitR2'	3	0.2136	0.0193	0.9996
b'CHR6:11193627:A'	b'M61SunitR3'	3	0.2472	0.0212	0.9996
b'CHR6:11193627:A'	b'M61SunitR4'	3	0.2148	0.0187	0.9996
b'CHR6:12120212:G'	b'M61SunitR1'	3	0.2270	0.0186	0.8500
b'CHR6:12120212:G'	b'M61SunitR2'	3	0.2136	0.0193	0.8500
b'CHR6:12120212:G'	b'M61SunitR3'	3	0.2472	0.0212	0.8500
b'CHR6:12120212:G'	b'M61SunitR4'	3	0.2148	0.0187	0.8500
b'CHR6:160243652:T'	b'M61SunitR1'	3	0.2270	0.0186	0.6834
b'CHR6:160243652:T'	b'M61SunitR2'	3	0.2136	0.0193	0.6834
b'CHR6:160243652:T'	b'M61SunitR3'	3	0.2472	0.0212	0.6834
b'CHR6:160243652:T'	b'M61SunitR4'	3	0.2148	0.0187	0.6834
b'CHR6:73409315:G'	b'M61SunitR1'	3	0.2270	0.0186	0.7452
b'CHR6:73409315:G'	b'M61SunitR2'	3	0.2136	0.0193	0.7452
b'CHR6:73409315:G'	b'M61SunitR3'	3	0.2472	0.0212	0.7452
b'CHR6:73409315:G'	b'M61SunitR4'	3	0.2148	0.0187	0.7452
b'CHR6:7393219:T'	b'M61SunitR1'	3	0.2270	0.0186	0.8880
b'CHR6:7393219:T'	b'M61SunitR2'	3	0.2136	0.0193	0.8880
b'CHR6:7393219:T'	b'M61SunitR3'	3	0.2472	0.0212	0.8880
b'CHR6:7393219:T'	b'M61SunitR4'	3	0.2148	0.0187	0.8880
b'CHR6:7581403:A'	b'M61SunitR1'	3	0.2270	0.0186	0.9890
b'CHR6:7581403:A'	b'M61SunitR2'	3	0.2136	0.0193	0.9890
b'CHR6:7581403:A'	b'M61SunitR3'	3	0.2472	0.0212	0.9890
b'CHR6:7581403:A'	b'M61SunitR4'	3	0.2148	0.0187	0.9890
b'CHR6:7601487:T'	b'M61SunitR1'	3	0.2270	0.0186	0.5924
b'CHR6:7601487:T'	b'M61SunitR2'	3	0.2136	0.0193	0.5924
b'CHR6:7601487:T'	b'M61SunitR3'	3	0.2472	0.0212	0.5924
b'CHR6:7601487:T'	b'M61SunitR4'	3	0.2148	0.0187	0.5924
b'CHR7:103523460:A'	b'M61SunitR1'	3	0.2270	0.0186	0.6783
b'CHR7:103523460:A'	b'M61SunitR2'	3	0.2136	0.0193	0.6783
b'CHR7:103523460:A'	b'M61SunitR3'	3	0.2472	0.0212	0.6783
b'CHR7:103523460:A'	b'M61SunitR4'	3	0.2148	0.0187	0.6783
b'CHR7:39085988:C'	b'M61SunitR1'	3	0.2270	0.0186	0.8626
b'CHR7:39085988:C'	b'M61SunitR2'	3	0.2136	0.0193	0.8626
b'CHR7:39085988:C'	b'M61SunitR3'	3	0.2472	0.0212	0.8626
b'CHR7:39085988:C'	b'M61SunitR4'	3	0.2148	0.0187	0.8626
b'CHR7:39085990:C'	b'M61SunitR1'	3	0.2270	0.0186	0.8626
b'CHR7:39085990:C'	b'M61SunitR2'	3	0.2136	0.0193	0.8626
b'CHR7:39085990:C'	b'M61SunitR3'	3	0.2472	0.0212	0.8626
b'CHR7:39085990:C'	b'M61SunitR4'	3	0.2148	0.0187	0.8626
b'CHR7:44539245:T'	b'M61SunitR1'	3	0.2270	0.0186	0.6756
b'CHR7:44539245:T'	b'M61SunitR2'	3	0.2136	0.0193	0.6756
b'CHR7:44539245:T'	b'M61SunitR3'	3	0.2472	0.0212	0.6756
b'CHR7:44539245:T'	b'M61SunitR4'	3	0.2148	0.0187	0.6756
b'CHR8:144040433:T'	b'M61SunitR1'	3	0.2270	0.0186	0.9707
b'CHR8:144040433:T'	b'M61SunitR2'	3	0.2136	0.0193	0.9707
b'CHR8:144040433:T'	b'M61SunitR3'	3	0.2472	0.0212	0.9707
b'CHR8:144040433:T'	b'M61SunitR4'	3	0.2148	0.0187	0.9707
b'CHR8:54459829:A'	b'M61SunitR1'	3	0.2270	0.0186	0.8217
b'CHR8:54459829:A'	b'M61SunitR2'	3	0.2136	0.0193	0.8217
b'CHR8:54459829:A'	b'M61SunitR3'	3	0.2472	0.0212	0.8217
b'CHR8:54459829:A'	b'M61SunitR4'	3	0.2148	0.0187	0.8217
b'CHR9:123381818:C'	b'M61SunitR1'	3	0.2270	0.0186	0.8673
b'CHR9:123381818:C'	b'M61SunitR2'	3	0.2136	0.0193	0.8673
b'CHR9:123381818:C'	b'M61SunitR3'	3	0.2472	0.0212	0.8673
b'CHR9:123381818:C'	b'M61SunitR4'	3	0.2148	0.0187	0.8673
b'CHR9:125326478:G'	b'M61SunitR1'	3	0.2270	0.0186	0.9551
b'CHR9:125326478:G'	b'M61SunitR2'	3	0.2136	0.0193	0.9551
b'CHR9:125326478:G'	b'M61SunitR3'	3	0.2472	0.0212	0.9551
b'CHR9:125326478:G'	b'M61SunitR4'	3	0.2148	0.0187	0.9551
b'CHR9:127034499:A'	b'M61SunitR1'	3	0.2270	0.0186	0.7577
b'CHR9:127034499:A'	b'M61SunitR2'	3	0.2136	0.0193	0.7577
b'CHR9:127034499:A'	b'M61SunitR3'	3	0.2472	0.0212	0.7577
b'CHR9:127034499:A'	b'M61SunitR4'	3	0.2148	0.0187	0.7577
b'CHR9:134727314:A'	b'M61SunitR1'	3	0.2270	0.0186	0.7461
b'CHR9:134727314:A'	b'M61SunitR2'	3	0.2136	0.0193	0.7461
b'CHR9:134727314:A'	b'M61SunitR3'	3	0.2472	0.0212	0.7461
b'CHR9:134727314:A'	b'M61SunitR4'	3	0.2148	0.0187	0.7461
b'CHR9:34371863:A'	b'M61SunitR1'	3	0.2270	0.0186	0.7489
b'CHR9:34371863:A'	b'M61SunitR2'	3	0.2136	0.0193	0.7489
b'CHR9:34371863:A'	b'M61SunitR3'	3	0.2472	0.0212	0.7489
b'CHR9:34371863:A'	b'M61SunitR4'	3	0.2148	0.0187	0.7489
b'CHR9:34726205:G'	b'M61SunitR1'	3	0.2270	0.0186	0.8345
b'CHR9:34726205:G'	b'M61SunitR2'	3	0.2136	0.0193	0.8345
b'CHR9:34726205:G'	b'M61SunitR3'	3	0.2472	0.0212	0.8345
b'CHR9:34726205:G'	b'M61SunitR4'	3	0.2148	0.0187	0.8345
b'CHR9:34726207:A'	b'M61SunitR1'	3	0.2270	0.0186	0.8345
b'CHR9:34726207:A'	b'M61SunitR2'	3	0.2136	0.0193	0.8345
b'CHR9:34726207:A'	b'M61SunitR3'	3	0.2472	0.0212	0.8345
b'CHR9:34726207:A'	b'M61SunitR4'	3	0.2148	0.0187	0.8345
b'CHR9:78328164:G'	b'M61SunitR1'	3	0.2270	0.0186	0.5393
b'CHR9:78328164:G'	b'M61SunitR2'	3	0.2136	0.0193	0.5393
b'CHR9:78328164:G'	b'M61SunitR3'	3	0.2472	0.0212	0.5393
b'CHR9:78328164:G'	b'M61SunitR4'	3	0.2148	0.0187	0.5393
b'CHR9:95881156:A'	b'M61SunitR1'	3	0.2270	0.0186	0.7722
b'CHR9:95881156:A'	b'M61SunitR2'	3	0.2136	0.0193	0.7722
b'CHR9:95881156:A'	b'M61SunitR3'	3	0.2472	0.0212	0.7722
b'CHR9:95881156:A'	b'M61SunitR4'	3	0.2148	0.0187	0.7722
