mutation_id	sample_id	cluster_id	cellular_prevalence	cellular_prevalence_std	cluster_assignment_prob
b'CHR10:128101279:T'	b'M61SunitR1'	0	0.7110	0.0321	0.8868
b'CHR10:128101279:T'	b'M61SunitR2'	0	0.7806	0.0321	0.8868
b'CHR10:128101279:T'	b'M61SunitR3'	0	0.7317	0.0326	0.8868
b'CHR10:128101279:T'	b'M61SunitR4'	0	0.7547	0.0329	0.8868
b'CHR10:92240093:G'	b'M61SunitR1'	0	0.7110	0.0321	0.4988
b'CHR10:92240093:G'	b'M61SunitR2'	0	0.7806	0.0321	0.4988
b'CHR10:92240093:G'	b'M61SunitR3'	0	0.7317	0.0326	0.4988
b'CHR10:92240093:G'	b'M61SunitR4'	0	0.7547	0.0329	0.4988
b'CHR14:31178233:C'	b'M61SunitR1'	0	0.7110	0.0321	0.8933
b'CHR14:31178233:C'	b'M61SunitR2'	0	0.7806	0.0321	0.8933
b'CHR14:31178233:C'	b'M61SunitR3'	0	0.7317	0.0326	0.8933
b'CHR14:31178233:C'	b'M61SunitR4'	0	0.7547	0.0329	0.8933
b'CHR15:68432031:T'	b'M61SunitR1'	0	0.7110	0.0321	0.8296
b'CHR15:68432031:T'	b'M61SunitR2'	0	0.7806	0.0321	0.8296
b'CHR15:68432031:T'	b'M61SunitR3'	0	0.7317	0.0326	0.8296
b'CHR15:68432031:T'	b'M61SunitR4'	0	0.7547	0.0329	0.8296
b'CHR16:1241453:A'	b'M61SunitR1'	0	0.7110	0.0321	0.9548
b'CHR16:1241453:A'	b'M61SunitR2'	0	0.7806	0.0321	0.9548
b'CHR16:1241453:A'	b'M61SunitR3'	0	0.7317	0.0326	0.9548
b'CHR16:1241453:A'	b'M61SunitR4'	0	0.7547	0.0329	0.9548
b'CHR19:1049270:A'	b'M61SunitR1'	0	0.7110	0.0321	1.0000
b'CHR19:1049270:A'	b'M61SunitR2'	0	0.7806	0.0321	1.0000
b'CHR19:1049270:A'	b'M61SunitR3'	0	0.7317	0.0326	1.0000
b'CHR19:1049270:A'	b'M61SunitR4'	0	0.7547	0.0329	1.0000
b'CHR19:52881597:A'	b'M61SunitR1'	0	0.7110	0.0321	0.7084
b'CHR19:52881597:A'	b'M61SunitR2'	0	0.7806	0.0321	0.7084
b'CHR19:52881597:A'	b'M61SunitR3'	0	0.7317	0.0326	0.7084
b'CHR19:52881597:A'	b'M61SunitR4'	0	0.7547	0.0329	0.7084
b'CHR1:111242317:G'	b'M61SunitR1'	0	0.7110	0.0321	0.9618
b'CHR1:111242317:G'	b'M61SunitR2'	0	0.7806	0.0321	0.9618
b'CHR1:111242317:G'	b'M61SunitR3'	0	0.7317	0.0326	0.9618
b'CHR1:111242317:G'	b'M61SunitR4'	0	0.7547	0.0329	0.9618
b'CHR1:11706367:T'	b'M61SunitR1'	0	0.7110	0.0321	0.9798
b'CHR1:11706367:T'	b'M61SunitR2'	0	0.7806	0.0321	0.9798
b'CHR1:11706367:T'	b'M61SunitR3'	0	0.7317	0.0326	0.9798
b'CHR1:11706367:T'	b'M61SunitR4'	0	0.7547	0.0329	0.9798
b'CHR1:11779915:A'	b'M61SunitR1'	0	0.7110	0.0321	0.8238
b'CHR1:11779915:A'	b'M61SunitR2'	0	0.7806	0.0321	0.8238
b'CHR1:11779915:A'	b'M61SunitR3'	0	0.7317	0.0326	0.8238
b'CHR1:11779915:A'	b'M61SunitR4'	0	0.7547	0.0329	0.8238
b'CHR1:13343011:A'	b'M61SunitR1'	0	0.7110	0.0321	0.9999
b'CHR1:13343011:A'	b'M61SunitR2'	0	0.7806	0.0321	0.9999
b'CHR1:13343011:A'	b'M61SunitR3'	0	0.7317	0.0326	0.9999
b'CHR1:13343011:A'	b'M61SunitR4'	0	0.7547	0.0329	0.9999
b'CHR1:13782619:G'	b'M61SunitR1'	0	0.7110	0.0321	0.9270
b'CHR1:13782619:G'	b'M61SunitR2'	0	0.7806	0.0321	0.9270
b'CHR1:13782619:G'	b'M61SunitR3'	0	0.7317	0.0326	0.9270
b'CHR1:13782619:G'	b'M61SunitR4'	0	0.7547	0.0329	0.9270
b'CHR1:155054385:T'	b'M61SunitR1'	0	0.7110	0.0321	0.7782
b'CHR1:155054385:T'	b'M61SunitR2'	0	0.7806	0.0321	0.7782
b'CHR1:155054385:T'	b'M61SunitR3'	0	0.7317	0.0326	0.7782
b'CHR1:155054385:T'	b'M61SunitR4'	0	0.7547	0.0329	0.7782
b'CHR1:15939409:A'	b'M61SunitR1'	0	0.7110	0.0321	0.9999
b'CHR1:15939409:A'	b'M61SunitR2'	0	0.7806	0.0321	0.9999
b'CHR1:15939409:A'	b'M61SunitR3'	0	0.7317	0.0326	0.9999
b'CHR1:15939409:A'	b'M61SunitR4'	0	0.7547	0.0329	0.9999
b'CHR1:16409637:C'	b'M61SunitR1'	0	0.7110	0.0321	0.9979
b'CHR1:16409637:C'	b'M61SunitR2'	0	0.7806	0.0321	0.9979
b'CHR1:16409637:C'	b'M61SunitR3'	0	0.7317	0.0326	0.9979
b'CHR1:16409637:C'	b'M61SunitR4'	0	0.7547	0.0329	0.9979
b'CHR1:17070097:A'	b'M61SunitR1'	0	0.7110	0.0321	0.9559
b'CHR1:17070097:A'	b'M61SunitR2'	0	0.7806	0.0321	0.9559
b'CHR1:17070097:A'	b'M61SunitR3'	0	0.7317	0.0326	0.9559
b'CHR1:17070097:A'	b'M61SunitR4'	0	0.7547	0.0329	0.9559
b'CHR1:17079314:A'	b'M61SunitR1'	0	0.7110	0.0321	0.9430
b'CHR1:17079314:A'	b'M61SunitR2'	0	0.7806	0.0321	0.9430
b'CHR1:17079314:A'	b'M61SunitR3'	0	0.7317	0.0326	0.9430
b'CHR1:17079314:A'	b'M61SunitR4'	0	0.7547	0.0329	0.9430
b'CHR1:17084646:G'	b'M61SunitR1'	0	0.7110	0.0321	0.9869
b'CHR1:17084646:G'	b'M61SunitR2'	0	0.7806	0.0321	0.9869
b'CHR1:17084646:G'	b'M61SunitR3'	0	0.7317	0.0326	0.9869
b'CHR1:17084646:G'	b'M61SunitR4'	0	0.7547	0.0329	0.9869
b'CHR1:18481971:A'	b'M61SunitR1'	0	0.7110	0.0321	0.9362
b'CHR1:18481971:A'	b'M61SunitR2'	0	0.7806	0.0321	0.9362
b'CHR1:18481971:A'	b'M61SunitR3'	0	0.7317	0.0326	0.9362
b'CHR1:18481971:A'	b'M61SunitR4'	0	0.7547	0.0329	0.9362
b'CHR1:18877503:G'	b'M61SunitR1'	0	0.7110	0.0321	0.9746
b'CHR1:18877503:G'	b'M61SunitR2'	0	0.7806	0.0321	0.9746
b'CHR1:18877503:G'	b'M61SunitR3'	0	0.7317	0.0326	0.9746
b'CHR1:18877503:G'	b'M61SunitR4'	0	0.7547	0.0329	0.9746
b'CHR1:19282760:C'	b'M61SunitR1'	0	0.7110	0.0321	0.9994
b'CHR1:19282760:C'	b'M61SunitR2'	0	0.7806	0.0321	0.9994
b'CHR1:19282760:C'	b'M61SunitR3'	0	0.7317	0.0326	0.9994
b'CHR1:19282760:C'	b'M61SunitR4'	0	0.7547	0.0329	0.9994
b'CHR1:19623568:C'	b'M61SunitR1'	0	0.7110	0.0321	0.5183
b'CHR1:19623568:C'	b'M61SunitR2'	0	0.7806	0.0321	0.5183
b'CHR1:19623568:C'	b'M61SunitR3'	0	0.7317	0.0326	0.5183
b'CHR1:19623568:C'	b'M61SunitR4'	0	0.7547	0.0329	0.5183
b'CHR1:20084839:T'	b'M61SunitR1'	0	0.7110	0.0321	0.8172
b'CHR1:20084839:T'	b'M61SunitR2'	0	0.7806	0.0321	0.8172
b'CHR1:20084839:T'	b'M61SunitR3'	0	0.7317	0.0326	0.8172
b'CHR1:20084839:T'	b'M61SunitR4'	0	0.7547	0.0329	0.8172
b'CHR1:202160698:C'	b'M61SunitR1'	0	0.7110	0.0321	0.7575
b'CHR1:202160698:C'	b'M61SunitR2'	0	0.7806	0.0321	0.7575
b'CHR1:202160698:C'	b'M61SunitR3'	0	0.7317	0.0326	0.7575
b'CHR1:202160698:C'	b'M61SunitR4'	0	0.7547	0.0329	0.7575
b'CHR1:215567710:G'	b'M61SunitR1'	0	0.7110	0.0321	0.9964
b'CHR1:215567710:G'	b'M61SunitR2'	0	0.7806	0.0321	0.9964
b'CHR1:215567710:G'	b'M61SunitR3'	0	0.7317	0.0326	0.9964
b'CHR1:215567710:G'	b'M61SunitR4'	0	0.7547	0.0329	0.9964
b'CHR1:21874505:T'	b'M61SunitR1'	0	0.7110	0.0321	0.8677
b'CHR1:21874505:T'	b'M61SunitR2'	0	0.7806	0.0321	0.8677
b'CHR1:21874505:T'	b'M61SunitR3'	0	0.7317	0.0326	0.8677
b'CHR1:21874505:T'	b'M61SunitR4'	0	0.7547	0.0329	0.8677
b'CHR1:22526222:C'	b'M61SunitR1'	0	0.7110	0.0321	0.9869
b'CHR1:22526222:C'	b'M61SunitR2'	0	0.7806	0.0321	0.9869
b'CHR1:22526222:C'	b'M61SunitR3'	0	0.7317	0.0326	0.9869
b'CHR1:22526222:C'	b'M61SunitR4'	0	0.7547	0.0329	0.9869
b'CHR1:230921501:T'	b'M61SunitR1'	0	0.7110	0.0321	0.9928
b'CHR1:230921501:T'	b'M61SunitR2'	0	0.7806	0.0321	0.9928
b'CHR1:230921501:T'	b'M61SunitR3'	0	0.7317	0.0326	0.9928
b'CHR1:230921501:T'	b'M61SunitR4'	0	0.7547	0.0329	0.9928
b'CHR1:25243590:C'	b'M61SunitR1'	0	0.7110	0.0321	0.9668
b'CHR1:25243590:C'	b'M61SunitR2'	0	0.7806	0.0321	0.9668
b'CHR1:25243590:C'	b'M61SunitR3'	0	0.7317	0.0326	0.9668
b'CHR1:25243590:C'	b'M61SunitR4'	0	0.7547	0.0329	0.9668
b'CHR1:26344118:T'	b'M61SunitR1'	0	0.7110	0.0321	0.9754
b'CHR1:26344118:T'	b'M61SunitR2'	0	0.7806	0.0321	0.9754
b'CHR1:26344118:T'	b'M61SunitR3'	0	0.7317	0.0326	0.9754
b'CHR1:26344118:T'	b'M61SunitR4'	0	0.7547	0.0329	0.9754
b'CHR1:26952030:A'	b'M61SunitR1'	0	0.7110	0.0321	0.9840
b'CHR1:26952030:A'	b'M61SunitR2'	0	0.7806	0.0321	0.9840
b'CHR1:26952030:A'	b'M61SunitR3'	0	0.7317	0.0326	0.9840
b'CHR1:26952030:A'	b'M61SunitR4'	0	0.7547	0.0329	0.9840
b'CHR1:27360975:T'	b'M61SunitR1'	0	0.7110	0.0321	0.9922
b'CHR1:27360975:T'	b'M61SunitR2'	0	0.7806	0.0321	0.9922
b'CHR1:27360975:T'	b'M61SunitR3'	0	0.7317	0.0326	0.9922
b'CHR1:27360975:T'	b'M61SunitR4'	0	0.7547	0.0329	0.9922
b'CHR1:31630664:G'	b'M61SunitR1'	0	0.7110	0.0321	0.9934
b'CHR1:31630664:G'	b'M61SunitR2'	0	0.7806	0.0321	0.9934
b'CHR1:31630664:G'	b'M61SunitR3'	0	0.7317	0.0326	0.9934
b'CHR1:31630664:G'	b'M61SunitR4'	0	0.7547	0.0329	0.9934
b'CHR1:31698605:G'	b'M61SunitR1'	0	0.7110	0.0321	0.6687
b'CHR1:31698605:G'	b'M61SunitR2'	0	0.7806	0.0321	0.6687
b'CHR1:31698605:G'	b'M61SunitR3'	0	0.7317	0.0326	0.6687
b'CHR1:31698605:G'	b'M61SunitR4'	0	0.7547	0.0329	0.6687
b'CHR1:32770050:G'	b'M61SunitR1'	0	0.7110	0.0321	0.9998
b'CHR1:32770050:G'	b'M61SunitR2'	0	0.7806	0.0321	0.9998
b'CHR1:32770050:G'	b'M61SunitR3'	0	0.7317	0.0326	0.9998
b'CHR1:32770050:G'	b'M61SunitR4'	0	0.7547	0.0329	0.9998
b'CHR1:33494462:G'	b'M61SunitR1'	0	0.7110	0.0321	0.9999
b'CHR1:33494462:G'	b'M61SunitR2'	0	0.7806	0.0321	0.9999
b'CHR1:33494462:G'	b'M61SunitR3'	0	0.7317	0.0326	0.9999
b'CHR1:33494462:G'	b'M61SunitR4'	0	0.7547	0.0329	0.9999
b'CHR1:3478610:A'	b'M61SunitR1'	0	0.7110	0.0321	0.9961
b'CHR1:3478610:A'	b'M61SunitR2'	0	0.7806	0.0321	0.9961
b'CHR1:3478610:A'	b'M61SunitR3'	0	0.7317	0.0326	0.9961
b'CHR1:3478610:A'	b'M61SunitR4'	0	0.7547	0.0329	0.9961
b'CHR1:3763211:T'	b'M61SunitR1'	0	0.7110	0.0321	0.7978
b'CHR1:3763211:T'	b'M61SunitR2'	0	0.7806	0.0321	0.7978
b'CHR1:3763211:T'	b'M61SunitR3'	0	0.7317	0.0326	0.7978
b'CHR1:3763211:T'	b'M61SunitR4'	0	0.7547	0.0329	0.7978
b'CHR1:51840355:A'	b'M61SunitR1'	0	0.7110	0.0321	0.9963
b'CHR1:51840355:A'	b'M61SunitR2'	0	0.7806	0.0321	0.9963
b'CHR1:51840355:A'	b'M61SunitR3'	0	0.7317	0.0326	0.9963
b'CHR1:51840355:A'	b'M61SunitR4'	0	0.7547	0.0329	0.9963
b'CHR1:53247055:T'	b'M61SunitR1'	0	0.7110	0.0321	0.9996
b'CHR1:53247055:T'	b'M61SunitR2'	0	0.7806	0.0321	0.9996
b'CHR1:53247055:T'	b'M61SunitR3'	0	0.7317	0.0326	0.9996
b'CHR1:53247055:T'	b'M61SunitR4'	0	0.7547	0.0329	0.9996
b'CHR1:53250744:A'	b'M61SunitR1'	0	0.7110	0.0321	0.9981
b'CHR1:53250744:A'	b'M61SunitR2'	0	0.7806	0.0321	0.9981
b'CHR1:53250744:A'	b'M61SunitR3'	0	0.7317	0.0326	0.9981
b'CHR1:53250744:A'	b'M61SunitR4'	0	0.7547	0.0329	0.9981
b'CHR1:53594343:C'	b'M61SunitR1'	0	0.7110	0.0321	0.9881
b'CHR1:53594343:C'	b'M61SunitR2'	0	0.7806	0.0321	0.9881
b'CHR1:53594343:C'	b'M61SunitR3'	0	0.7317	0.0326	0.9881
b'CHR1:53594343:C'	b'M61SunitR4'	0	0.7547	0.0329	0.9881
b'CHR1:53594575:C'	b'M61SunitR1'	0	0.7110	0.0321	0.9922
b'CHR1:53594575:C'	b'M61SunitR2'	0	0.7806	0.0321	0.9922
b'CHR1:53594575:C'	b'M61SunitR3'	0	0.7317	0.0326	0.9922
b'CHR1:53594575:C'	b'M61SunitR4'	0	0.7547	0.0329	0.9922
b'CHR1:63323280:A'	b'M61SunitR1'	0	0.7110	0.0321	0.8910
b'CHR1:63323280:A'	b'M61SunitR2'	0	0.7806	0.0321	0.8910
b'CHR1:63323280:A'	b'M61SunitR3'	0	0.7317	0.0326	0.8910
b'CHR1:63323280:A'	b'M61SunitR4'	0	0.7547	0.0329	0.8910
b'CHR1:63415881:T'	b'M61SunitR1'	0	0.7110	0.0321	0.9817
b'CHR1:63415881:T'	b'M61SunitR2'	0	0.7806	0.0321	0.9817
b'CHR1:63415881:T'	b'M61SunitR3'	0	0.7317	0.0326	0.9817
b'CHR1:63415881:T'	b'M61SunitR4'	0	0.7547	0.0329	0.9817
b'CHR1:64844806:C'	b'M61SunitR1'	0	0.7110	0.0321	0.9846
b'CHR1:64844806:C'	b'M61SunitR2'	0	0.7806	0.0321	0.9846
b'CHR1:64844806:C'	b'M61SunitR3'	0	0.7317	0.0326	0.9846
b'CHR1:64844806:C'	b'M61SunitR4'	0	0.7547	0.0329	0.9846
b'CHR1:7827188:A'	b'M61SunitR1'	0	0.7110	0.0321	0.9987
b'CHR1:7827188:A'	b'M61SunitR2'	0	0.7806	0.0321	0.9987
b'CHR1:7827188:A'	b'M61SunitR3'	0	0.7317	0.0326	0.9987
b'CHR1:7827188:A'	b'M61SunitR4'	0	0.7547	0.0329	0.9987
b'CHR22:37066106:C'	b'M61SunitR1'	0	0.7110	0.0321	0.9193
b'CHR22:37066106:C'	b'M61SunitR2'	0	0.7806	0.0321	0.9193
b'CHR22:37066106:C'	b'M61SunitR3'	0	0.7317	0.0326	0.9193
b'CHR22:37066106:C'	b'M61SunitR4'	0	0.7547	0.0329	0.9193
b'CHR2:219451248:A'	b'M61SunitR1'	0	0.7110	0.0321	0.9942
b'CHR2:219451248:A'	b'M61SunitR2'	0	0.7806	0.0321	0.9942
b'CHR2:219451248:A'	b'M61SunitR3'	0	0.7317	0.0326	0.9942
b'CHR2:219451248:A'	b'M61SunitR4'	0	0.7547	0.0329	0.9942
b'CHR2:232564321:T'	b'M61SunitR1'	0	0.7110	0.0321	0.6994
b'CHR2:232564321:T'	b'M61SunitR2'	0	0.7806	0.0321	0.6994
b'CHR2:232564321:T'	b'M61SunitR3'	0	0.7317	0.0326	0.6994
b'CHR2:232564321:T'	b'M61SunitR4'	0	0.7547	0.0329	0.6994
b'CHR2:73291715:T'	b'M61SunitR1'	0	0.7110	0.0321	0.9578
b'CHR2:73291715:T'	b'M61SunitR2'	0	0.7806	0.0321	0.9578
b'CHR2:73291715:T'	b'M61SunitR3'	0	0.7317	0.0326	0.9578
b'CHR2:73291715:T'	b'M61SunitR4'	0	0.7547	0.0329	0.9578
b'CHR3:123092379:A'	b'M61SunitR1'	0	0.7110	0.0321	0.7098
b'CHR3:123092379:A'	b'M61SunitR2'	0	0.7806	0.0321	0.7098
b'CHR3:123092379:A'	b'M61SunitR3'	0	0.7317	0.0326	0.7098
b'CHR3:123092379:A'	b'M61SunitR4'	0	0.7547	0.0329	0.7098
b'CHR3:171082335:T'	b'M61SunitR1'	0	0.7110	0.0321	0.6776
b'CHR3:171082335:T'	b'M61SunitR2'	0	0.7806	0.0321	0.6776
b'CHR3:171082335:T'	b'M61SunitR3'	0	0.7317	0.0326	0.6776
b'CHR3:171082335:T'	b'M61SunitR4'	0	0.7547	0.0329	0.6776
b'CHR3:41800280:T'	b'M61SunitR1'	0	0.7110	0.0321	0.8259
b'CHR3:41800280:T'	b'M61SunitR2'	0	0.7806	0.0321	0.8259
b'CHR3:41800280:T'	b'M61SunitR3'	0	0.7317	0.0326	0.8259
b'CHR3:41800280:T'	b'M61SunitR4'	0	0.7547	0.0329	0.8259
b'CHR4:85942222:C'	b'M61SunitR1'	0	0.7110	0.0321	0.5652
b'CHR4:85942222:C'	b'M61SunitR2'	0	0.7806	0.0321	0.5652
b'CHR4:85942222:C'	b'M61SunitR3'	0	0.7317	0.0326	0.5652
b'CHR4:85942222:C'	b'M61SunitR4'	0	0.7547	0.0329	0.5652
b'CHR5:150540177:C'	b'M61SunitR1'	0	0.7110	0.0321	0.8893
b'CHR5:150540177:C'	b'M61SunitR2'	0	0.7806	0.0321	0.8893
b'CHR5:150540177:C'	b'M61SunitR3'	0	0.7317	0.0326	0.8893
b'CHR5:150540177:C'	b'M61SunitR4'	0	0.7547	0.0329	0.8893
b'CHR6:3154637:C'	b'M61SunitR1'	0	0.7110	0.0321	0.5729
b'CHR6:3154637:C'	b'M61SunitR2'	0	0.7806	0.0321	0.5729
b'CHR6:3154637:C'	b'M61SunitR3'	0	0.7317	0.0326	0.5729
b'CHR6:3154637:C'	b'M61SunitR4'	0	0.7547	0.0329	0.5729
b'CHR6:7577027:T'	b'M61SunitR1'	0	0.7110	0.0321	0.5481
b'CHR6:7577027:T'	b'M61SunitR2'	0	0.7806	0.0321	0.5481
b'CHR6:7577027:T'	b'M61SunitR3'	0	0.7317	0.0326	0.5481
b'CHR6:7577027:T'	b'M61SunitR4'	0	0.7547	0.0329	0.5481
b'CHR7:72942166:T'	b'M61SunitR1'	0	0.7110	0.0321	0.5368
b'CHR7:72942166:T'	b'M61SunitR2'	0	0.7806	0.0321	0.5368
b'CHR7:72942166:T'	b'M61SunitR3'	0	0.7317	0.0326	0.5368
b'CHR7:72942166:T'	b'M61SunitR4'	0	0.7547	0.0329	0.5368
b'CHR8:143925249:T'	b'M61SunitR1'	0	0.7110	0.0321	0.4096
b'CHR8:143925249:T'	b'M61SunitR2'	0	0.7806	0.0321	0.4096
b'CHR8:143925249:T'	b'M61SunitR3'	0	0.7317	0.0326	0.4096
b'CHR8:143925249:T'	b'M61SunitR4'	0	0.7547	0.0329	0.4096
b'CHR1:13421192:T'	b'M61SunitR1'	1	0.5036	0.0460	0.9240
b'CHR1:13421192:T'	b'M61SunitR2'	1	0.4928	0.0441	0.9240
b'CHR1:13421192:T'	b'M61SunitR3'	1	0.4831	0.0476	0.9240
b'CHR1:13421192:T'	b'M61SunitR4'	1	0.4701	0.0466	0.9240
b'CHR1:13773141:T'	b'M61SunitR1'	1	0.5036	0.0460	0.5318
b'CHR1:13773141:T'	b'M61SunitR2'	1	0.4928	0.0441	0.5318
b'CHR1:13773141:T'	b'M61SunitR3'	1	0.4831	0.0476	0.5318
b'CHR1:13773141:T'	b'M61SunitR4'	1	0.4701	0.0466	0.5318
b'CHR1:16759300:T'	b'M61SunitR1'	1	0.5036	0.0460	0.9927
b'CHR1:16759300:T'	b'M61SunitR2'	1	0.4928	0.0441	0.9927
b'CHR1:16759300:T'	b'M61SunitR3'	1	0.4831	0.0476	0.9927
b'CHR1:16759300:T'	b'M61SunitR4'	1	0.4701	0.0466	0.9927
b'CHR1:247423969:T'	b'M61SunitR1'	1	0.5036	0.0460	0.9919
b'CHR1:247423969:T'	b'M61SunitR2'	1	0.4928	0.0441	0.9919
b'CHR1:247423969:T'	b'M61SunitR3'	1	0.4831	0.0476	0.9919
b'CHR1:247423969:T'	b'M61SunitR4'	1	0.4701	0.0466	0.9919
b'CHR1:942934:C'	b'M61SunitR1'	1	0.5036	0.0460	0.9701
b'CHR1:942934:C'	b'M61SunitR2'	1	0.4928	0.0441	0.9701
b'CHR1:942934:C'	b'M61SunitR3'	1	0.4831	0.0476	0.9701
b'CHR1:942934:C'	b'M61SunitR4'	1	0.4701	0.0466	0.9701
b'CHR2:170847706:T'	b'M61SunitR1'	1	0.5036	0.0460	0.5196
b'CHR2:170847706:T'	b'M61SunitR2'	1	0.4928	0.0441	0.5196
b'CHR2:170847706:T'	b'M61SunitR3'	1	0.4831	0.0476	0.5196
b'CHR2:170847706:T'	b'M61SunitR4'	1	0.4701	0.0466	0.5196
b'CHR3:48447042:C'	b'M61SunitR1'	1	0.5036	0.0460	0.7771
b'CHR3:48447042:C'	b'M61SunitR2'	1	0.4928	0.0441	0.7771
b'CHR3:48447042:C'	b'M61SunitR3'	1	0.4831	0.0476	0.7771
b'CHR3:48447042:C'	b'M61SunitR4'	1	0.4701	0.0466	0.7771
b'CHR6:9775825:A'	b'M61SunitR1'	1	0.5036	0.0460	0.5641
b'CHR6:9775825:A'	b'M61SunitR2'	1	0.4928	0.0441	0.5641
b'CHR6:9775825:A'	b'M61SunitR3'	1	0.4831	0.0476	0.5641
b'CHR6:9775825:A'	b'M61SunitR4'	1	0.4701	0.0466	0.5641
b'CHR7:151066568:A'	b'M61SunitR1'	1	0.5036	0.0460	0.5592
b'CHR7:151066568:A'	b'M61SunitR2'	1	0.4928	0.0441	0.5592
b'CHR7:151066568:A'	b'M61SunitR3'	1	0.4831	0.0476	0.5592
b'CHR7:151066568:A'	b'M61SunitR4'	1	0.4701	0.0466	0.5592
b'CHR9:26928213:T'	b'M61SunitR1'	1	0.5036	0.0460	0.9898
b'CHR9:26928213:T'	b'M61SunitR2'	1	0.4928	0.0441	0.9898
b'CHR9:26928213:T'	b'M61SunitR3'	1	0.4831	0.0476	0.9898
b'CHR9:26928213:T'	b'M61SunitR4'	1	0.4701	0.0466	0.9898
b'CHR10:16928249:A'	b'M61SunitR1'	2	0.2270	0.0186	0.8466
b'CHR10:16928249:A'	b'M61SunitR2'	2	0.2135	0.0193	0.8466
b'CHR10:16928249:A'	b'M61SunitR3'	2	0.2473	0.0211	0.8466
b'CHR10:16928249:A'	b'M61SunitR4'	2	0.2147	0.0187	0.8466
b'CHR10:27994928:C'	b'M61SunitR1'	2	0.2270	0.0186	0.6106
b'CHR10:27994928:C'	b'M61SunitR2'	2	0.2135	0.0193	0.6106
b'CHR10:27994928:C'	b'M61SunitR3'	2	0.2473	0.0211	0.6106
b'CHR10:27994928:C'	b'M61SunitR4'	2	0.2147	0.0187	0.6106
b'CHR10:37153617:T'	b'M61SunitR1'	2	0.2270	0.0186	0.9401
b'CHR10:37153617:T'	b'M61SunitR2'	2	0.2135	0.0193	0.9401
b'CHR10:37153617:T'	b'M61SunitR3'	2	0.2473	0.0211	0.9401
b'CHR10:37153617:T'	b'M61SunitR4'	2	0.2147	0.0187	0.9401
b'CHR11:117917207:C'	b'M61SunitR1'	2	0.2270	0.0186	0.8581
b'CHR11:117917207:C'	b'M61SunitR2'	2	0.2135	0.0193	0.8581
b'CHR11:117917207:C'	b'M61SunitR3'	2	0.2473	0.0211	0.8581
b'CHR11:117917207:C'	b'M61SunitR4'	2	0.2147	0.0187	0.8581
b'CHR11:120128675:T'	b'M61SunitR1'	2	0.2270	0.0186	0.9990
b'CHR11:120128675:T'	b'M61SunitR2'	2	0.2135	0.0193	0.9990
b'CHR11:120128675:T'	b'M61SunitR3'	2	0.2473	0.0211	0.9990
b'CHR11:120128675:T'	b'M61SunitR4'	2	0.2147	0.0187	0.9990
b'CHR11:6002291:G'	b'M61SunitR1'	2	0.2270	0.0186	0.4922
b'CHR11:6002291:G'	b'M61SunitR2'	2	0.2135	0.0193	0.4922
b'CHR11:6002291:G'	b'M61SunitR3'	2	0.2473	0.0211	0.4922
b'CHR11:6002291:G'	b'M61SunitR4'	2	0.2147	0.0187	0.4922
b'CHR11:63904940:C'	b'M61SunitR1'	2	0.2270	0.0186	0.4342
b'CHR11:63904940:C'	b'M61SunitR2'	2	0.2135	0.0193	0.4342
b'CHR11:63904940:C'	b'M61SunitR3'	2	0.2473	0.0211	0.4342
b'CHR11:63904940:C'	b'M61SunitR4'	2	0.2147	0.0187	0.4342
b'CHR11:63904942:A'	b'M61SunitR1'	2	0.2270	0.0186	0.4342
b'CHR11:63904942:A'	b'M61SunitR2'	2	0.2135	0.0193	0.4342
b'CHR11:63904942:A'	b'M61SunitR3'	2	0.2473	0.0211	0.4342
b'CHR11:63904942:A'	b'M61SunitR4'	2	0.2147	0.0187	0.4342
b'CHR11:65778836:A'	b'M61SunitR1'	2	0.2270	0.0186	0.9609
b'CHR11:65778836:A'	b'M61SunitR2'	2	0.2135	0.0193	0.9609
b'CHR11:65778836:A'	b'M61SunitR3'	2	0.2473	0.0211	0.9609
b'CHR11:65778836:A'	b'M61SunitR4'	2	0.2147	0.0187	0.9609
b'CHR11:73975073:A'	b'M61SunitR1'	2	0.2270	0.0186	0.9414
b'CHR11:73975073:A'	b'M61SunitR2'	2	0.2135	0.0193	0.9414
b'CHR11:73975073:A'	b'M61SunitR3'	2	0.2473	0.0211	0.9414
b'CHR11:73975073:A'	b'M61SunitR4'	2	0.2147	0.0187	0.9414
b'CHR12:108518570:T'	b'M61SunitR1'	2	0.2270	0.0186	0.8036
b'CHR12:108518570:T'	b'M61SunitR2'	2	0.2135	0.0193	0.8036
b'CHR12:108518570:T'	b'M61SunitR3'	2	0.2473	0.0211	0.8036
b'CHR12:108518570:T'	b'M61SunitR4'	2	0.2147	0.0187	0.8036
b'CHR12:25144543:A'	b'M61SunitR1'	2	0.2270	0.0186	0.8020
b'CHR12:25144543:A'	b'M61SunitR2'	2	0.2135	0.0193	0.8020
b'CHR12:25144543:A'	b'M61SunitR3'	2	0.2473	0.0211	0.8020
b'CHR12:25144543:A'	b'M61SunitR4'	2	0.2147	0.0187	0.8020
b'CHR12:51699632:A'	b'M61SunitR1'	2	0.2270	0.0186	0.6427
b'CHR12:51699632:A'	b'M61SunitR2'	2	0.2135	0.0193	0.6427
b'CHR12:51699632:A'	b'M61SunitR3'	2	0.2473	0.0211	0.6427
b'CHR12:51699632:A'	b'M61SunitR4'	2	0.2147	0.0187	0.6427
b'CHR12:55027042:G'	b'M61SunitR1'	2	0.2270	0.0186	0.8854
b'CHR12:55027042:G'	b'M61SunitR2'	2	0.2135	0.0193	0.8854
b'CHR12:55027042:G'	b'M61SunitR3'	2	0.2473	0.0211	0.8854
b'CHR12:55027042:G'	b'M61SunitR4'	2	0.2147	0.0187	0.8854
b'CHR12:56267413:A'	b'M61SunitR1'	2	0.2270	0.0186	0.9780
b'CHR12:56267413:A'	b'M61SunitR2'	2	0.2135	0.0193	0.9780
b'CHR12:56267413:A'	b'M61SunitR3'	2	0.2473	0.0211	0.9780
b'CHR12:56267413:A'	b'M61SunitR4'	2	0.2147	0.0187	0.9780
b'CHR12:57629873:G'	b'M61SunitR1'	2	0.2270	0.0186	0.9325
b'CHR12:57629873:G'	b'M61SunitR2'	2	0.2135	0.0193	0.9325
b'CHR12:57629873:G'	b'M61SunitR3'	2	0.2473	0.0211	0.9325
b'CHR12:57629873:G'	b'M61SunitR4'	2	0.2147	0.0187	0.9325
b'CHR12:85046079:A'	b'M61SunitR1'	2	0.2270	0.0186	0.8450
b'CHR12:85046079:A'	b'M61SunitR2'	2	0.2135	0.0193	0.8450
b'CHR12:85046079:A'	b'M61SunitR3'	2	0.2473	0.0211	0.8450
b'CHR12:85046079:A'	b'M61SunitR4'	2	0.2147	0.0187	0.8450
b'CHR14:36725655:A'	b'M61SunitR1'	2	0.2270	0.0186	0.7885
b'CHR14:36725655:A'	b'M61SunitR2'	2	0.2135	0.0193	0.7885
b'CHR14:36725655:A'	b'M61SunitR3'	2	0.2473	0.0211	0.7885
b'CHR14:36725655:A'	b'M61SunitR4'	2	0.2147	0.0187	0.7885
b'CHR14:90647022:A'	b'M61SunitR1'	2	0.2270	0.0186	0.8873
b'CHR14:90647022:A'	b'M61SunitR2'	2	0.2135	0.0193	0.8873
b'CHR14:90647022:A'	b'M61SunitR3'	2	0.2473	0.0211	0.8873
b'CHR14:90647022:A'	b'M61SunitR4'	2	0.2147	0.0187	0.8873
b'CHR15:23566598:A'	b'M61SunitR1'	2	0.2270	0.0186	0.9957
b'CHR15:23566598:A'	b'M61SunitR2'	2	0.2135	0.0193	0.9957
b'CHR15:23566598:A'	b'M61SunitR3'	2	0.2473	0.0211	0.9957
b'CHR15:23566598:A'	b'M61SunitR4'	2	0.2147	0.0187	0.9957
b'CHR15:33826673:A'	b'M61SunitR1'	2	0.2270	0.0186	0.6481
b'CHR15:33826673:A'	b'M61SunitR2'	2	0.2135	0.0193	0.6481
b'CHR15:33826673:A'	b'M61SunitR3'	2	0.2473	0.0211	0.6481
b'CHR15:33826673:A'	b'M61SunitR4'	2	0.2147	0.0187	0.6481
b'CHR15:41572531:T'	b'M61SunitR1'	2	0.2270	0.0186	0.8754
b'CHR15:41572531:T'	b'M61SunitR2'	2	0.2135	0.0193	0.8754
b'CHR15:41572531:T'	b'M61SunitR3'	2	0.2473	0.0211	0.8754
b'CHR15:41572531:T'	b'M61SunitR4'	2	0.2147	0.0187	0.8754
b'CHR16:30112195:A'	b'M61SunitR1'	2	0.2270	0.0186	0.7440
b'CHR16:30112195:A'	b'M61SunitR2'	2	0.2135	0.0193	0.7440
b'CHR16:30112195:A'	b'M61SunitR3'	2	0.2473	0.0211	0.7440
b'CHR16:30112195:A'	b'M61SunitR4'	2	0.2147	0.0187	0.7440
b'CHR16:49377795:G'	b'M61SunitR1'	2	0.2270	0.0186	0.8071
b'CHR16:49377795:G'	b'M61SunitR2'	2	0.2135	0.0193	0.8071
b'CHR16:49377795:G'	b'M61SunitR3'	2	0.2473	0.0211	0.8071
b'CHR16:49377795:G'	b'M61SunitR4'	2	0.2147	0.0187	0.8071
b'CHR16:68678621:C'	b'M61SunitR1'	2	0.2270	0.0186	0.8844
b'CHR16:68678621:C'	b'M61SunitR2'	2	0.2135	0.0193	0.8844
b'CHR16:68678621:C'	b'M61SunitR3'	2	0.2473	0.0211	0.8844
b'CHR16:68678621:C'	b'M61SunitR4'	2	0.2147	0.0187	0.8844
b'CHR16:84295081:T'	b'M61SunitR1'	2	0.2270	0.0186	0.7859
b'CHR16:84295081:T'	b'M61SunitR2'	2	0.2135	0.0193	0.7859
b'CHR16:84295081:T'	b'M61SunitR3'	2	0.2473	0.0211	0.7859
b'CHR16:84295081:T'	b'M61SunitR4'	2	0.2147	0.0187	0.7859
b'CHR16:87904819:T'	b'M61SunitR1'	2	0.2270	0.0186	0.6235
b'CHR16:87904819:T'	b'M61SunitR2'	2	0.2135	0.0193	0.6235
b'CHR16:87904819:T'	b'M61SunitR3'	2	0.2473	0.0211	0.6235
b'CHR16:87904819:T'	b'M61SunitR4'	2	0.2147	0.0187	0.6235
b'CHR17:10511933:A'	b'M61SunitR1'	2	0.2270	0.0186	0.7515
b'CHR17:10511933:A'	b'M61SunitR2'	2	0.2135	0.0193	0.7515
b'CHR17:10511933:A'	b'M61SunitR3'	2	0.2473	0.0211	0.7515
b'CHR17:10511933:A'	b'M61SunitR4'	2	0.2147	0.0187	0.7515
b'CHR17:10539354:G'	b'M61SunitR1'	2	0.2270	0.0186	0.8135
b'CHR17:10539354:G'	b'M61SunitR2'	2	0.2135	0.0193	0.8135
b'CHR17:10539354:G'	b'M61SunitR3'	2	0.2473	0.0211	0.8135
b'CHR17:10539354:G'	b'M61SunitR4'	2	0.2147	0.0187	0.8135
b'CHR17:20204775:G'	b'M61SunitR1'	2	0.2270	0.0186	0.8894
b'CHR17:20204775:G'	b'M61SunitR2'	2	0.2135	0.0193	0.8894
b'CHR17:20204775:G'	b'M61SunitR3'	2	0.2473	0.0211	0.8894
b'CHR17:20204775:G'	b'M61SunitR4'	2	0.2147	0.0187	0.8894
b'CHR17:28388461:T'	b'M61SunitR1'	2	0.2270	0.0186	0.8236
b'CHR17:28388461:T'	b'M61SunitR2'	2	0.2135	0.0193	0.8236
b'CHR17:28388461:T'	b'M61SunitR3'	2	0.2473	0.0211	0.8236
b'CHR17:28388461:T'	b'M61SunitR4'	2	0.2147	0.0187	0.8236
b'CHR17:58280636:A'	b'M61SunitR1'	2	0.2270	0.0186	0.8119
b'CHR17:58280636:A'	b'M61SunitR2'	2	0.2135	0.0193	0.8119
b'CHR17:58280636:A'	b'M61SunitR3'	2	0.2473	0.0211	0.8119
b'CHR17:58280636:A'	b'M61SunitR4'	2	0.2147	0.0187	0.8119
b'CHR17:61884998:G'	b'M61SunitR1'	2	0.2270	0.0186	0.8724
b'CHR17:61884998:G'	b'M61SunitR2'	2	0.2135	0.0193	0.8724
b'CHR17:61884998:G'	b'M61SunitR3'	2	0.2473	0.0211	0.8724
b'CHR17:61884998:G'	b'M61SunitR4'	2	0.2147	0.0187	0.8724
b'CHR17:63931346:T'	b'M61SunitR1'	2	0.2270	0.0186	0.5997
b'CHR17:63931346:T'	b'M61SunitR2'	2	0.2135	0.0193	0.5997
b'CHR17:63931346:T'	b'M61SunitR3'	2	0.2473	0.0211	0.5997
b'CHR17:63931346:T'	b'M61SunitR4'	2	0.2147	0.0187	0.5997
b'CHR17:80213874:A'	b'M61SunitR1'	2	0.2270	0.0186	0.8744
b'CHR17:80213874:A'	b'M61SunitR2'	2	0.2135	0.0193	0.8744
b'CHR17:80213874:A'	b'M61SunitR3'	2	0.2473	0.0211	0.8744
b'CHR17:80213874:A'	b'M61SunitR4'	2	0.2147	0.0187	0.8744
b'CHR17:81937211:G'	b'M61SunitR1'	2	0.2270	0.0186	0.5073
b'CHR17:81937211:G'	b'M61SunitR2'	2	0.2135	0.0193	0.5073
b'CHR17:81937211:G'	b'M61SunitR3'	2	0.2473	0.0211	0.5073
b'CHR17:81937211:G'	b'M61SunitR4'	2	0.2147	0.0187	0.5073
b'CHR19:1495334:T'	b'M61SunitR1'	2	0.2270	0.0186	0.9020
b'CHR19:1495334:T'	b'M61SunitR2'	2	0.2135	0.0193	0.9020
b'CHR19:1495334:T'	b'M61SunitR3'	2	0.2473	0.0211	0.9020
b'CHR19:1495334:T'	b'M61SunitR4'	2	0.2147	0.0187	0.9020
b'CHR19:18870062:C'	b'M61SunitR1'	2	0.2270	0.0186	0.9153
b'CHR19:18870062:C'	b'M61SunitR2'	2	0.2135	0.0193	0.9153
b'CHR19:18870062:C'	b'M61SunitR3'	2	0.2473	0.0211	0.9153
b'CHR19:18870062:C'	b'M61SunitR4'	2	0.2147	0.0187	0.9153
b'CHR19:20545051:T'	b'M61SunitR1'	2	0.2270	0.0186	0.8332
b'CHR19:20545051:T'	b'M61SunitR2'	2	0.2135	0.0193	0.8332
b'CHR19:20545051:T'	b'M61SunitR3'	2	0.2473	0.0211	0.8332
b'CHR19:20545051:T'	b'M61SunitR4'	2	0.2147	0.0187	0.8332
b'CHR19:36915827:T'	b'M61SunitR1'	2	0.2270	0.0186	0.9984
b'CHR19:36915827:T'	b'M61SunitR2'	2	0.2135	0.0193	0.9984
b'CHR19:36915827:T'	b'M61SunitR3'	2	0.2473	0.0211	0.9984
b'CHR19:36915827:T'	b'M61SunitR4'	2	0.2147	0.0187	0.9984
b'CHR19:45591702:A'	b'M61SunitR1'	2	0.2270	0.0186	0.8845
b'CHR19:45591702:A'	b'M61SunitR2'	2	0.2135	0.0193	0.8845
b'CHR19:45591702:A'	b'M61SunitR3'	2	0.2473	0.0211	0.8845
b'CHR19:45591702:A'	b'M61SunitR4'	2	0.2147	0.0187	0.8845
b'CHR19:47042860:A'	b'M61SunitR1'	2	0.2270	0.0186	0.8850
b'CHR19:47042860:A'	b'M61SunitR2'	2	0.2135	0.0193	0.8850
b'CHR19:47042860:A'	b'M61SunitR3'	2	0.2473	0.0211	0.8850
b'CHR19:47042860:A'	b'M61SunitR4'	2	0.2147	0.0187	0.8850
b'CHR19:4714132:A'	b'M61SunitR1'	2	0.2270	0.0186	0.8724
b'CHR19:4714132:A'	b'M61SunitR2'	2	0.2135	0.0193	0.8724
b'CHR19:4714132:A'	b'M61SunitR3'	2	0.2473	0.0211	0.8724
b'CHR19:4714132:A'	b'M61SunitR4'	2	0.2147	0.0187	0.8724
b'CHR19:52705931:T'	b'M61SunitR1'	2	0.2270	0.0186	0.9634
b'CHR19:52705931:T'	b'M61SunitR2'	2	0.2135	0.0193	0.9634
b'CHR19:52705931:T'	b'M61SunitR3'	2	0.2473	0.0211	0.9634
b'CHR19:52705931:T'	b'M61SunitR4'	2	0.2147	0.0187	0.9634
b'CHR1:1046687:A'	b'M61SunitR1'	2	0.2270	0.0186	0.9793
b'CHR1:1046687:A'	b'M61SunitR2'	2	0.2135	0.0193	0.9793
b'CHR1:1046687:A'	b'M61SunitR3'	2	0.2473	0.0211	0.9793
b'CHR1:1046687:A'	b'M61SunitR4'	2	0.2147	0.0187	0.9793
b'CHR1:108718880:A'	b'M61SunitR1'	2	0.2270	0.0186	0.9388
b'CHR1:108718880:A'	b'M61SunitR2'	2	0.2135	0.0193	0.9388
b'CHR1:108718880:A'	b'M61SunitR3'	2	0.2473	0.0211	0.9388
b'CHR1:108718880:A'	b'M61SunitR4'	2	0.2147	0.0187	0.9388
b'CHR1:113981341:T'	b'M61SunitR1'	2	0.2270	0.0186	0.9691
b'CHR1:113981341:T'	b'M61SunitR2'	2	0.2135	0.0193	0.9691
b'CHR1:113981341:T'	b'M61SunitR3'	2	0.2473	0.0211	0.9691
b'CHR1:113981341:T'	b'M61SunitR4'	2	0.2147	0.0187	0.9691
b'CHR1:1495915:C'	b'M61SunitR1'	2	0.2270	0.0186	0.8500
b'CHR1:1495915:C'	b'M61SunitR2'	2	0.2135	0.0193	0.8500
b'CHR1:1495915:C'	b'M61SunitR3'	2	0.2473	0.0211	0.8500
b'CHR1:1495915:C'	b'M61SunitR4'	2	0.2147	0.0187	0.8500
b'CHR1:152812643:C'	b'M61SunitR1'	2	0.2270	0.0186	0.9030
b'CHR1:152812643:C'	b'M61SunitR2'	2	0.2135	0.0193	0.9030
b'CHR1:152812643:C'	b'M61SunitR3'	2	0.2473	0.0211	0.9030
b'CHR1:152812643:C'	b'M61SunitR4'	2	0.2147	0.0187	0.9030
b'CHR1:157586429:T'	b'M61SunitR1'	2	0.2270	0.0186	0.9526
b'CHR1:157586429:T'	b'M61SunitR2'	2	0.2135	0.0193	0.9526
b'CHR1:157586429:T'	b'M61SunitR3'	2	0.2473	0.0211	0.9526
b'CHR1:157586429:T'	b'M61SunitR4'	2	0.2147	0.0187	0.9526
b'CHR1:236571361:A'	b'M61SunitR1'	2	0.2270	0.0186	0.6527
b'CHR1:236571361:A'	b'M61SunitR2'	2	0.2135	0.0193	0.6527
b'CHR1:236571361:A'	b'M61SunitR3'	2	0.2473	0.0211	0.6527
b'CHR1:236571361:A'	b'M61SunitR4'	2	0.2147	0.0187	0.6527
b'CHR1:248273507:A'	b'M61SunitR1'	2	0.2270	0.0186	0.6527
b'CHR1:248273507:A'	b'M61SunitR2'	2	0.2135	0.0193	0.6527
b'CHR1:248273507:A'	b'M61SunitR3'	2	0.2473	0.0211	0.6527
b'CHR1:248273507:A'	b'M61SunitR4'	2	0.2147	0.0187	0.6527
b'CHR1:248273509:C'	b'M61SunitR1'	2	0.2270	0.0186	0.6527
b'CHR1:248273509:C'	b'M61SunitR2'	2	0.2135	0.0193	0.6527
b'CHR1:248273509:C'	b'M61SunitR3'	2	0.2473	0.0211	0.6527
b'CHR1:248273509:C'	b'M61SunitR4'	2	0.2147	0.0187	0.6527
b'CHR1:41037530:G'	b'M61SunitR1'	2	0.2270	0.0186	0.6050
b'CHR1:41037530:G'	b'M61SunitR2'	2	0.2135	0.0193	0.6050
b'CHR1:41037530:G'	b'M61SunitR3'	2	0.2473	0.0211	0.6050
b'CHR1:41037530:G'	b'M61SunitR4'	2	0.2147	0.0187	0.6050
b'CHR1:44805530:A'	b'M61SunitR1'	2	0.2270	0.0186	0.8497
b'CHR1:44805530:A'	b'M61SunitR2'	2	0.2135	0.0193	0.8497
b'CHR1:44805530:A'	b'M61SunitR3'	2	0.2473	0.0211	0.8497
b'CHR1:44805530:A'	b'M61SunitR4'	2	0.2147	0.0187	0.8497
b'CHR1:52642989:A'	b'M61SunitR1'	2	0.2270	0.0186	0.7623
b'CHR1:52642989:A'	b'M61SunitR2'	2	0.2135	0.0193	0.7623
b'CHR1:52642989:A'	b'M61SunitR3'	2	0.2473	0.0211	0.7623
b'CHR1:52642989:A'	b'M61SunitR4'	2	0.2147	0.0187	0.7623
b'CHR1:52988103:T'	b'M61SunitR1'	2	0.2270	0.0186	0.8042
b'CHR1:52988103:T'	b'M61SunitR2'	2	0.2135	0.0193	0.8042
b'CHR1:52988103:T'	b'M61SunitR3'	2	0.2473	0.0211	0.8042
b'CHR1:52988103:T'	b'M61SunitR4'	2	0.2147	0.0187	0.8042
b'CHR1:8957259:A'	b'M61SunitR1'	2	0.2270	0.0186	0.9873
b'CHR1:8957259:A'	b'M61SunitR2'	2	0.2135	0.0193	0.9873
b'CHR1:8957259:A'	b'M61SunitR3'	2	0.2473	0.0211	0.9873
b'CHR1:8957259:A'	b'M61SunitR4'	2	0.2147	0.0187	0.9873
b'CHR20:21328621:A'	b'M61SunitR1'	2	0.2270	0.0186	0.7786
b'CHR20:21328621:A'	b'M61SunitR2'	2	0.2135	0.0193	0.7786
b'CHR20:21328621:A'	b'M61SunitR3'	2	0.2473	0.0211	0.7786
b'CHR20:21328621:A'	b'M61SunitR4'	2	0.2147	0.0187	0.7786
b'CHR20:35490750:T'	b'M61SunitR1'	2	0.2270	0.0186	0.8438
b'CHR20:35490750:T'	b'M61SunitR2'	2	0.2135	0.0193	0.8438
b'CHR20:35490750:T'	b'M61SunitR3'	2	0.2473	0.0211	0.8438
b'CHR20:35490750:T'	b'M61SunitR4'	2	0.2147	0.0187	0.8438
b'CHR20:35503815:A'	b'M61SunitR1'	2	0.2270	0.0186	0.6960
b'CHR20:35503815:A'	b'M61SunitR2'	2	0.2135	0.0193	0.6960
b'CHR20:35503815:A'	b'M61SunitR3'	2	0.2473	0.0211	0.6960
b'CHR20:35503815:A'	b'M61SunitR4'	2	0.2147	0.0187	0.6960
b'CHR20:44750813:C'	b'M61SunitR1'	2	0.2270	0.0186	0.9490
b'CHR20:44750813:C'	b'M61SunitR2'	2	0.2135	0.0193	0.9490
b'CHR20:44750813:C'	b'M61SunitR3'	2	0.2473	0.0211	0.9490
b'CHR20:44750813:C'	b'M61SunitR4'	2	0.2147	0.0187	0.9490
b'CHR20:44960130:A'	b'M61SunitR1'	2	0.2270	0.0186	0.5607
b'CHR20:44960130:A'	b'M61SunitR2'	2	0.2135	0.0193	0.5607
b'CHR20:44960130:A'	b'M61SunitR3'	2	0.2473	0.0211	0.5607
b'CHR20:44960130:A'	b'M61SunitR4'	2	0.2147	0.0187	0.5607
b'CHR20:46726177:C'	b'M61SunitR1'	2	0.2270	0.0186	0.8578
b'CHR20:46726177:C'	b'M61SunitR2'	2	0.2135	0.0193	0.8578
b'CHR20:46726177:C'	b'M61SunitR3'	2	0.2473	0.0211	0.8578
b'CHR20:46726177:C'	b'M61SunitR4'	2	0.2147	0.0187	0.8578
b'CHR20:63563293:T'	b'M61SunitR1'	2	0.2270	0.0186	0.7958
b'CHR20:63563293:T'	b'M61SunitR2'	2	0.2135	0.0193	0.7958
b'CHR20:63563293:T'	b'M61SunitR3'	2	0.2473	0.0211	0.7958
b'CHR20:63563293:T'	b'M61SunitR4'	2	0.2147	0.0187	0.7958
b'CHR2:107859472:T'	b'M61SunitR1'	2	0.2270	0.0186	0.9019
b'CHR2:107859472:T'	b'M61SunitR2'	2	0.2135	0.0193	0.9019
b'CHR2:107859472:T'	b'M61SunitR3'	2	0.2473	0.0211	0.9019
b'CHR2:107859472:T'	b'M61SunitR4'	2	0.2147	0.0187	0.9019
b'CHR2:124865392:A'	b'M61SunitR1'	2	0.2270	0.0186	0.7196
b'CHR2:124865392:A'	b'M61SunitR2'	2	0.2135	0.0193	0.7196
b'CHR2:124865392:A'	b'M61SunitR3'	2	0.2473	0.0211	0.7196
b'CHR2:124865392:A'	b'M61SunitR4'	2	0.2147	0.0187	0.7196
b'CHR2:156549720:T'	b'M61SunitR1'	2	0.2270	0.0186	0.9889
b'CHR2:156549720:T'	b'M61SunitR2'	2	0.2135	0.0193	0.9889
b'CHR2:156549720:T'	b'M61SunitR3'	2	0.2473	0.0211	0.9889
b'CHR2:156549720:T'	b'M61SunitR4'	2	0.2147	0.0187	0.9889
b'CHR2:201493458:A'	b'M61SunitR1'	2	0.2270	0.0186	0.5519
b'CHR2:201493458:A'	b'M61SunitR2'	2	0.2135	0.0193	0.5519
b'CHR2:201493458:A'	b'M61SunitR3'	2	0.2473	0.0211	0.5519
b'CHR2:201493458:A'	b'M61SunitR4'	2	0.2147	0.0187	0.5519
b'CHR2:218474766:G'	b'M61SunitR1'	2	0.2270	0.0186	0.7944
b'CHR2:218474766:G'	b'M61SunitR2'	2	0.2135	0.0193	0.7944
b'CHR2:218474766:G'	b'M61SunitR3'	2	0.2473	0.0211	0.7944
b'CHR2:218474766:G'	b'M61SunitR4'	2	0.2147	0.0187	0.7944
b'CHR2:232381539:G'	b'M61SunitR1'	2	0.2270	0.0186	0.5536
b'CHR2:232381539:G'	b'M61SunitR2'	2	0.2135	0.0193	0.5536
b'CHR2:232381539:G'	b'M61SunitR3'	2	0.2473	0.0211	0.5536
b'CHR2:232381539:G'	b'M61SunitR4'	2	0.2147	0.0187	0.5536
b'CHR2:71364013:T'	b'M61SunitR1'	2	0.2270	0.0186	0.8724
b'CHR2:71364013:T'	b'M61SunitR2'	2	0.2135	0.0193	0.8724
b'CHR2:71364013:T'	b'M61SunitR3'	2	0.2473	0.0211	0.8724
b'CHR2:71364013:T'	b'M61SunitR4'	2	0.2147	0.0187	0.8724
b'CHR2:85663826:A'	b'M61SunitR1'	2	0.2270	0.0186	0.8850
b'CHR2:85663826:A'	b'M61SunitR2'	2	0.2135	0.0193	0.8850
b'CHR2:85663826:A'	b'M61SunitR3'	2	0.2473	0.0211	0.8850
b'CHR2:85663826:A'	b'M61SunitR4'	2	0.2147	0.0187	0.8850
b'CHR3:184243814:A'	b'M61SunitR1'	2	0.2270	0.0186	0.8151
b'CHR3:184243814:A'	b'M61SunitR2'	2	0.2135	0.0193	0.8151
b'CHR3:184243814:A'	b'M61SunitR3'	2	0.2473	0.0211	0.8151
b'CHR3:184243814:A'	b'M61SunitR4'	2	0.2147	0.0187	0.8151
b'CHR3:48656801:A'	b'M61SunitR1'	2	0.2270	0.0186	0.6156
b'CHR3:48656801:A'	b'M61SunitR2'	2	0.2135	0.0193	0.6156
b'CHR3:48656801:A'	b'M61SunitR3'	2	0.2473	0.0211	0.6156
b'CHR3:48656801:A'	b'M61SunitR4'	2	0.2147	0.0187	0.6156
b'CHR3:50320148:G'	b'M61SunitR1'	2	0.2270	0.0186	0.9035
b'CHR3:50320148:G'	b'M61SunitR2'	2	0.2135	0.0193	0.9035
b'CHR3:50320148:G'	b'M61SunitR3'	2	0.2473	0.0211	0.9035
b'CHR3:50320148:G'	b'M61SunitR4'	2	0.2147	0.0187	0.9035
b'CHR3:55073793:A'	b'M61SunitR1'	2	0.2270	0.0186	0.9185
b'CHR3:55073793:A'	b'M61SunitR2'	2	0.2135	0.0193	0.9185
b'CHR3:55073793:A'	b'M61SunitR3'	2	0.2473	0.0211	0.9185
b'CHR3:55073793:A'	b'M61SunitR4'	2	0.2147	0.0187	0.9185
b'CHR3:78600261:T'	b'M61SunitR1'	2	0.2270	0.0186	0.9434
b'CHR3:78600261:T'	b'M61SunitR2'	2	0.2135	0.0193	0.9434
b'CHR3:78600261:T'	b'M61SunitR3'	2	0.2473	0.0211	0.9434
b'CHR3:78600261:T'	b'M61SunitR4'	2	0.2147	0.0187	0.9434
b'CHR3:9950005:A'	b'M61SunitR1'	2	0.2270	0.0186	0.9999
b'CHR3:9950005:A'	b'M61SunitR2'	2	0.2135	0.0193	0.9999
b'CHR3:9950005:A'	b'M61SunitR3'	2	0.2473	0.0211	0.9999
b'CHR3:9950005:A'	b'M61SunitR4'	2	0.2147	0.0187	0.9999
b'CHR4:125317234:A'	b'M61SunitR1'	2	0.2270	0.0186	0.9992
b'CHR4:125317234:A'	b'M61SunitR2'	2	0.2135	0.0193	0.9992
b'CHR4:125317234:A'	b'M61SunitR3'	2	0.2473	0.0211	0.9992
b'CHR4:125317234:A'	b'M61SunitR4'	2	0.2147	0.0187	0.9992
b'CHR4:147673062:T'	b'M61SunitR1'	2	0.2270	0.0186	0.6391
b'CHR4:147673062:T'	b'M61SunitR2'	2	0.2135	0.0193	0.6391
b'CHR4:147673062:T'	b'M61SunitR3'	2	0.2473	0.0211	0.6391
b'CHR4:147673062:T'	b'M61SunitR4'	2	0.2147	0.0187	0.6391
b'CHR4:185656724:G'	b'M61SunitR1'	2	0.2270	0.0186	0.7813
b'CHR4:185656724:G'	b'M61SunitR2'	2	0.2135	0.0193	0.7813
b'CHR4:185656724:G'	b'M61SunitR3'	2	0.2473	0.0211	0.7813
b'CHR4:185656724:G'	b'M61SunitR4'	2	0.2147	0.0187	0.7813
b'CHR4:186663325:A'	b'M61SunitR1'	2	0.2270	0.0186	0.7408
b'CHR4:186663325:A'	b'M61SunitR2'	2	0.2135	0.0193	0.7408
b'CHR4:186663325:A'	b'M61SunitR3'	2	0.2473	0.0211	0.7408
b'CHR4:186663325:A'	b'M61SunitR4'	2	0.2147	0.0187	0.7408
b'CHR5:139682878:T'	b'M61SunitR1'	2	0.2270	0.0186	0.4901
b'CHR5:139682878:T'	b'M61SunitR2'	2	0.2135	0.0193	0.4901
b'CHR5:139682878:T'	b'M61SunitR3'	2	0.2473	0.0211	0.4901
b'CHR5:139682878:T'	b'M61SunitR4'	2	0.2147	0.0187	0.4901
b'CHR5:139682880:A'	b'M61SunitR1'	2	0.2270	0.0186	0.4901
b'CHR5:139682880:A'	b'M61SunitR2'	2	0.2135	0.0193	0.4901
b'CHR5:139682880:A'	b'M61SunitR3'	2	0.2473	0.0211	0.4901
b'CHR5:139682880:A'	b'M61SunitR4'	2	0.2147	0.0187	0.4901
b'CHR5:141123573:T'	b'M61SunitR1'	2	0.2270	0.0186	0.9518
b'CHR5:141123573:T'	b'M61SunitR2'	2	0.2135	0.0193	0.9518
b'CHR5:141123573:T'	b'M61SunitR3'	2	0.2473	0.0211	0.9518
b'CHR5:141123573:T'	b'M61SunitR4'	2	0.2147	0.0187	0.9518
b'CHR5:141394009:T'	b'M61SunitR1'	2	0.2270	0.0186	0.9394
b'CHR5:141394009:T'	b'M61SunitR2'	2	0.2135	0.0193	0.9394
b'CHR5:141394009:T'	b'M61SunitR3'	2	0.2473	0.0211	0.9394
b'CHR5:141394009:T'	b'M61SunitR4'	2	0.2147	0.0187	0.9394
b'CHR5:157651252:C'	b'M61SunitR1'	2	0.2270	0.0186	0.8570
b'CHR5:157651252:C'	b'M61SunitR2'	2	0.2135	0.0193	0.8570
b'CHR5:157651252:C'	b'M61SunitR3'	2	0.2473	0.0211	0.8570
b'CHR5:157651252:C'	b'M61SunitR4'	2	0.2147	0.0187	0.8570
b'CHR5:168669936:A'	b'M61SunitR1'	2	0.2270	0.0186	0.8383
b'CHR5:168669936:A'	b'M61SunitR2'	2	0.2135	0.0193	0.8383
b'CHR5:168669936:A'	b'M61SunitR3'	2	0.2473	0.0211	0.8383
b'CHR5:168669936:A'	b'M61SunitR4'	2	0.2147	0.0187	0.8383
b'CHR5:74634923:T'	b'M61SunitR1'	2	0.2270	0.0186	0.8956
b'CHR5:74634923:T'	b'M61SunitR2'	2	0.2135	0.0193	0.8956
b'CHR5:74634923:T'	b'M61SunitR3'	2	0.2473	0.0211	0.8956
b'CHR5:74634923:T'	b'M61SunitR4'	2	0.2147	0.0187	0.8956
b'CHR6:10687513:T'	b'M61SunitR1'	2	0.2270	0.0186	0.9992
b'CHR6:10687513:T'	b'M61SunitR2'	2	0.2135	0.0193	0.9992
b'CHR6:10687513:T'	b'M61SunitR3'	2	0.2473	0.0211	0.9992
b'CHR6:10687513:T'	b'M61SunitR4'	2	0.2147	0.0187	0.9992
b'CHR6:11193627:A'	b'M61SunitR1'	2	0.2270	0.0186	0.9996
b'CHR6:11193627:A'	b'M61SunitR2'	2	0.2135	0.0193	0.9996
b'CHR6:11193627:A'	b'M61SunitR3'	2	0.2473	0.0211	0.9996
b'CHR6:11193627:A'	b'M61SunitR4'	2	0.2147	0.0187	0.9996
b'CHR6:12120212:G'	b'M61SunitR1'	2	0.2270	0.0186	0.8494
b'CHR6:12120212:G'	b'M61SunitR2'	2	0.2135	0.0193	0.8494
b'CHR6:12120212:G'	b'M61SunitR3'	2	0.2473	0.0211	0.8494
b'CHR6:12120212:G'	b'M61SunitR4'	2	0.2147	0.0187	0.8494
b'CHR6:160243652:T'	b'M61SunitR1'	2	0.2270	0.0186	0.6917
b'CHR6:160243652:T'	b'M61SunitR2'	2	0.2135	0.0193	0.6917
b'CHR6:160243652:T'	b'M61SunitR3'	2	0.2473	0.0211	0.6917
b'CHR6:160243652:T'	b'M61SunitR4'	2	0.2147	0.0187	0.6917
b'CHR6:73409315:G'	b'M61SunitR1'	2	0.2270	0.0186	0.7510
b'CHR6:73409315:G'	b'M61SunitR2'	2	0.2135	0.0193	0.7510
b'CHR6:73409315:G'	b'M61SunitR3'	2	0.2473	0.0211	0.7510
b'CHR6:73409315:G'	b'M61SunitR4'	2	0.2147	0.0187	0.7510
b'CHR6:7393219:T'	b'M61SunitR1'	2	0.2270	0.0186	0.8874
b'CHR6:7393219:T'	b'M61SunitR2'	2	0.2135	0.0193	0.8874
b'CHR6:7393219:T'	b'M61SunitR3'	2	0.2473	0.0211	0.8874
b'CHR6:7393219:T'	b'M61SunitR4'	2	0.2147	0.0187	0.8874
b'CHR6:7581403:A'	b'M61SunitR1'	2	0.2270	0.0186	0.9891
b'CHR6:7581403:A'	b'M61SunitR2'	2	0.2135	0.0193	0.9891
b'CHR6:7581403:A'	b'M61SunitR3'	2	0.2473	0.0211	0.9891
b'CHR6:7581403:A'	b'M61SunitR4'	2	0.2147	0.0187	0.9891
b'CHR6:7601487:T'	b'M61SunitR1'	2	0.2270	0.0186	0.5910
b'CHR6:7601487:T'	b'M61SunitR2'	2	0.2135	0.0193	0.5910
b'CHR6:7601487:T'	b'M61SunitR3'	2	0.2473	0.0211	0.5910
b'CHR6:7601487:T'	b'M61SunitR4'	2	0.2147	0.0187	0.5910
b'CHR7:103523460:A'	b'M61SunitR1'	2	0.2270	0.0186	0.6881
b'CHR7:103523460:A'	b'M61SunitR2'	2	0.2135	0.0193	0.6881
b'CHR7:103523460:A'	b'M61SunitR3'	2	0.2473	0.0211	0.6881
b'CHR7:103523460:A'	b'M61SunitR4'	2	0.2147	0.0187	0.6881
b'CHR7:39085988:C'	b'M61SunitR1'	2	0.2270	0.0186	0.8638
b'CHR7:39085988:C'	b'M61SunitR2'	2	0.2135	0.0193	0.8638
b'CHR7:39085988:C'	b'M61SunitR3'	2	0.2473	0.0211	0.8638
b'CHR7:39085988:C'	b'M61SunitR4'	2	0.2147	0.0187	0.8638
b'CHR7:39085990:C'	b'M61SunitR1'	2	0.2270	0.0186	0.8638
b'CHR7:39085990:C'	b'M61SunitR2'	2	0.2135	0.0193	0.8638
b'CHR7:39085990:C'	b'M61SunitR3'	2	0.2473	0.0211	0.8638
b'CHR7:39085990:C'	b'M61SunitR4'	2	0.2147	0.0187	0.8638
b'CHR7:44539245:T'	b'M61SunitR1'	2	0.2270	0.0186	0.6828
b'CHR7:44539245:T'	b'M61SunitR2'	2	0.2135	0.0193	0.6828
b'CHR7:44539245:T'	b'M61SunitR3'	2	0.2473	0.0211	0.6828
b'CHR7:44539245:T'	b'M61SunitR4'	2	0.2147	0.0187	0.6828
b'CHR8:144040433:T'	b'M61SunitR1'	2	0.2270	0.0186	0.9717
b'CHR8:144040433:T'	b'M61SunitR2'	2	0.2135	0.0193	0.9717
b'CHR8:144040433:T'	b'M61SunitR3'	2	0.2473	0.0211	0.9717
b'CHR8:144040433:T'	b'M61SunitR4'	2	0.2147	0.0187	0.9717
b'CHR8:54459829:A'	b'M61SunitR1'	2	0.2270	0.0186	0.8254
b'CHR8:54459829:A'	b'M61SunitR2'	2	0.2135	0.0193	0.8254
b'CHR8:54459829:A'	b'M61SunitR3'	2	0.2473	0.0211	0.8254
b'CHR8:54459829:A'	b'M61SunitR4'	2	0.2147	0.0187	0.8254
b'CHR9:123381818:C'	b'M61SunitR1'	2	0.2270	0.0186	0.8712
b'CHR9:123381818:C'	b'M61SunitR2'	2	0.2135	0.0193	0.8712
b'CHR9:123381818:C'	b'M61SunitR3'	2	0.2473	0.0211	0.8712
b'CHR9:123381818:C'	b'M61SunitR4'	2	0.2147	0.0187	0.8712
b'CHR9:125326478:G'	b'M61SunitR1'	2	0.2270	0.0186	0.9568
b'CHR9:125326478:G'	b'M61SunitR2'	2	0.2135	0.0193	0.9568
b'CHR9:125326478:G'	b'M61SunitR3'	2	0.2473	0.0211	0.9568
b'CHR9:125326478:G'	b'M61SunitR4'	2	0.2147	0.0187	0.9568
b'CHR9:127034499:A'	b'M61SunitR1'	2	0.2270	0.0186	0.7659
b'CHR9:127034499:A'	b'M61SunitR2'	2	0.2135	0.0193	0.7659
b'CHR9:127034499:A'	b'M61SunitR3'	2	0.2473	0.0211	0.7659
b'CHR9:127034499:A'	b'M61SunitR4'	2	0.2147	0.0187	0.7659
b'CHR9:134727314:A'	b'M61SunitR1'	2	0.2270	0.0186	0.7565
b'CHR9:134727314:A'	b'M61SunitR2'	2	0.2135	0.0193	0.7565
b'CHR9:134727314:A'	b'M61SunitR3'	2	0.2473	0.0211	0.7565
b'CHR9:134727314:A'	b'M61SunitR4'	2	0.2147	0.0187	0.7565
b'CHR9:34371863:A'	b'M61SunitR1'	2	0.2270	0.0186	0.7539
b'CHR9:34371863:A'	b'M61SunitR2'	2	0.2135	0.0193	0.7539
b'CHR9:34371863:A'	b'M61SunitR3'	2	0.2473	0.0211	0.7539
b'CHR9:34371863:A'	b'M61SunitR4'	2	0.2147	0.0187	0.7539
b'CHR9:34726205:G'	b'M61SunitR1'	2	0.2270	0.0186	0.8394
b'CHR9:34726205:G'	b'M61SunitR2'	2	0.2135	0.0193	0.8394
b'CHR9:34726205:G'	b'M61SunitR3'	2	0.2473	0.0211	0.8394
b'CHR9:34726205:G'	b'M61SunitR4'	2	0.2147	0.0187	0.8394
b'CHR9:34726207:A'	b'M61SunitR1'	2	0.2270	0.0186	0.8394
b'CHR9:34726207:A'	b'M61SunitR2'	2	0.2135	0.0193	0.8394
b'CHR9:34726207:A'	b'M61SunitR3'	2	0.2473	0.0211	0.8394
b'CHR9:34726207:A'	b'M61SunitR4'	2	0.2147	0.0187	0.8394
b'CHR9:78328164:G'	b'M61SunitR1'	2	0.2270	0.0186	0.5495
b'CHR9:78328164:G'	b'M61SunitR2'	2	0.2135	0.0193	0.5495
b'CHR9:78328164:G'	b'M61SunitR3'	2	0.2473	0.0211	0.5495
b'CHR9:78328164:G'	b'M61SunitR4'	2	0.2147	0.0187	0.5495
b'CHR9:95881156:A'	b'M61SunitR1'	2	0.2270	0.0186	0.7712
b'CHR9:95881156:A'	b'M61SunitR2'	2	0.2135	0.0193	0.7712
b'CHR9:95881156:A'	b'M61SunitR3'	2	0.2473	0.0211	0.7712
b'CHR9:95881156:A'	b'M61SunitR4'	2	0.2147	0.0187	0.7712
b'CHR12:40481156:A'	b'M61SunitR1'	3	0.0748	0.0178	0.9996
b'CHR12:40481156:A'	b'M61SunitR2'	3	0.0697	0.0200	0.9996
b'CHR12:40481156:A'	b'M61SunitR3'	3	0.1619	0.0430	0.9996
b'CHR12:40481156:A'	b'M61SunitR4'	3	0.0866	0.0193	0.9996
b'CHR12:40481157:G'	b'M61SunitR1'	3	0.0748	0.0178	0.9995
b'CHR12:40481157:G'	b'M61SunitR2'	3	0.0697	0.0200	0.9995
b'CHR12:40481157:G'	b'M61SunitR3'	3	0.1619	0.0430	0.9995
b'CHR12:40481157:G'	b'M61SunitR4'	3	0.0866	0.0193	0.9995
b'CHR12:40482641:G'	b'M61SunitR1'	3	0.0748	0.0178	0.9915
b'CHR12:40482641:G'	b'M61SunitR2'	3	0.0697	0.0200	0.9915
b'CHR12:40482641:G'	b'M61SunitR3'	3	0.1619	0.0430	0.9915
b'CHR12:40482641:G'	b'M61SunitR4'	3	0.0866	0.0193	0.9915
b'CHR19:14765687:T'	b'M61SunitR1'	3	0.0748	0.0178	1.0000
b'CHR19:14765687:T'	b'M61SunitR2'	3	0.0697	0.0200	1.0000
b'CHR19:14765687:T'	b'M61SunitR3'	3	0.1619	0.0430	1.0000
b'CHR19:14765687:T'	b'M61SunitR4'	3	0.0866	0.0193	1.0000
b'CHR19:43081182:G'	b'M61SunitR1'	3	0.0748	0.0178	0.9378
b'CHR19:43081182:G'	b'M61SunitR2'	3	0.0697	0.0200	0.9378
b'CHR19:43081182:G'	b'M61SunitR3'	3	0.1619	0.0430	0.9378
b'CHR19:43081182:G'	b'M61SunitR4'	3	0.0866	0.0193	0.9378
b'CHR2:240682800:T'	b'M61SunitR1'	3	0.0748	0.0178	0.5156
b'CHR2:240682800:T'	b'M61SunitR2'	3	0.0697	0.0200	0.5156
b'CHR2:240682800:T'	b'M61SunitR3'	3	0.1619	0.0430	0.5156
b'CHR2:240682800:T'	b'M61SunitR4'	3	0.0866	0.0193	0.5156
b'CHR8:143871184:T'	b'M61SunitR1'	3	0.0748	0.0178	0.6027
b'CHR8:143871184:T'	b'M61SunitR2'	3	0.0697	0.0200	0.6027
b'CHR8:143871184:T'	b'M61SunitR3'	3	0.1619	0.0430	0.6027
b'CHR8:143871184:T'	b'M61SunitR4'	3	0.0866	0.0193	0.6027
